Origin,Error ID,Error Source,Time,,,,,,,,,,,,,,
Temp Controller Error,1,,2:53 PM
Temp Controller Error,1,,2:53 PM
UI Error,1149,Invoke Node in User Interface.lvlib:Main.vi->Application Launcher.vi
<APPEND>
Method Name: <b>Front Panel:Close</b>,2:53 PM
Inc Error,1,Send Notification in Inclinometer.lvlib:Shutdown Async Call.vi->Inclinometer.lvlib:Main.vi->Application Launcher.vi,2:53 PM
