Origin,Error ID,Error Source,Time,,,,,,,,,,,,,,
Winch Controller Error,-1073807343,Property Node (arg 1) in VISA Configure Serial Port (Instr).vi->Winch Controller.lvlib:Inc Port Init.vi->Winch Controller.lvlib:Main.vi->Application Launcher.vi,4:16 PM
UI Error,1149,Invoke Node in User Interface.lvlib:Main.vi->Application Launcher.vi
<APPEND>
Method Name: <b>Front Panel:Close</b>,4:16 PM
Inc Error,1,Send Notification in Inclinometer.lvlib:Shutdown Async Call.vi->Inclinometer.lvlib:Main.vi->Application Launcher.vi,4:16 PM
