Origin,Error ID,Error Source,Time,,,,,,,,,,,,,,
Winch Controller Error,5003,LabVIEW Interface for Arduino.lvlib:Digital Write Pin.viLabVIEW Interface for Arduino.lvlib:PWM Write Pin.viLabVIEW Interface for Arduino.lvlib:Set Digital Pin Mode.viLabVIEW Interface for Arduino.lvlib:Init.vi.  A timeout occurred while trying to read form the Arduino.,1:41 AM
Winch Controller Error,5003,LabVIEW Interface for Arduino.lvlib:Digital Write Pin.viLabVIEW Interface for Arduino.lvlib:PWM Write Pin.viLabVIEW Interface for Arduino.lvlib:Set Digital Pin Mode.viLabVIEW Interface for Arduino.lvlib:Init.vi.  A timeout occurred while trying to read form the Arduino.,9:57 AM
