Origin,Error ID,Error Source,,,,,,,,,,,,,,,
Shutdown,0,
Temp Controller Error,1,
Temp Controller Error,1,
Temp Controller Error,1,
Temp Controller Error,1,
Temp Controller Error,1,
Temp Controller Error,1,
Temp Controller Error,1,
Temp Controller Error,1,
Temp Controller Error,1,
Temp Controller Error,1,
Temp Controller Error,1,
Temp Controller Error,1,
Temp Controller Error,1,
Temp Controller Error,1,
Temp Controller Error,1,
Temp Controller Error,1,
Temp Controller Error,1,
Temp Controller Error,1,
Temp Controller Error,1,
Temp Controller Error,1,
Temp Controller Error,1,
Temp Controller Error,1,
Temp Controller Error,1,
Temp Controller Error,1,
Temp Controller Error,1,
Temp Controller Error,1,
Temp Controller Error,1,
