Origin,Error ID,Error Source,Time,,,,,,,,,,,,,,
CAN error,267,System Exec.vi. Command was ""C:\Program Files (x86)\Git\bin\sh.exe" --login -i",2:20 PM
CAN error,267,System Exec.vi. Command was ""C:\Program Files (x86)\Git\bin\sh.exe" --login -i",2:20 PM
