Origin,Error ID,Error Source,Time,,,,,,,,,,,,,,
Temp Controller Error,1,,9:30 AM
Temp Controller Error,1,,9:30 AM
Temp Controller Error,1,,9:30 AM
Temp Controller Error,1,,9:30 AM
Temp Controller Error,1,,9:30 AM
Temp Controller Error,1,,9:30 AM
Temp Controller Error,1,,9:30 AM
Temp Controller Error,1,,9:30 AM
Temp Controller Error,1,,9:30 AM
Temp Controller Error,1,,9:30 AM
Temp Controller Error,1,,9:30 AM
Temp Controller Error,1,,9:30 AM
Temp Controller Error,1,,9:30 AM
Temp Controller Error,1,,9:30 AM
Temp Controller Error,1,,9:30 AM
Temp Controller Error,1,,9:30 AM
Temp Controller Error,1,,9:30 AM
Temp Controller Error,1,,9:30 AM
Temp Controller Error,1,,9:30 AM
Temp Controller Error,1,,9:30 AM
Temp Controller Error,1,,9:30 AM
Temp Controller Error,1,,9:30 AM
Temp Controller Error,1,,9:30 AM
Temp Controller Error,1,,9:30 AM
Temp Controller Error,1,,9:30 AM
Temp Controller Error,1,,9:30 AM
Temp Controller Error,1,,9:30 AM
Temp Controller Error,1,,9:30 AM
Temp Controller Error,1,,9:30 AM
Temp Controller Error,1,,9:30 AM
Temp Controller Error,1,,9:30 AM
Temp Controller Error,1,,9:30 AM
Temp Controller Error,1,,9:30 AM
Temp Controller Error,1,,9:30 AM
Temp Controller Error,1,,9:30 AM
Temp Controller Error,1,,9:30 AM
Temp Controller Error,1,,9:30 AM
Temp Controller Error,1,,9:31 AM
Temp Controller Error,1,,9:31 AM
Temp Controller Error,1,,9:31 AM
Temp Controller Error,1,,9:31 AM
Temp Controller Error,1,,9:31 AM
Temp Controller Error,1,,9:31 AM
Temp Controller Error,1,,9:31 AM
Temp Controller Error,1,,9:31 AM
Temp Controller Error,1,,9:31 AM
Temp Controller Error,1,,9:31 AM
Temp Controller Error,1,,9:31 AM
Temp Controller Error,1,,9:31 AM
Temp Controller Error,1,,9:31 AM
Temp Controller Error,1,,9:31 AM
Temp Controller Error,1,,9:31 AM
Temp Controller Error,1,,9:31 AM
Temp Controller Error,1,,9:31 AM
Temp Controller Error,1,,9:31 AM
Temp Controller Error,1,,9:31 AM
Temp Controller Error,1,,9:31 AM
Temp Controller Error,1,,9:31 AM
Temp Controller Error,1,,9:31 AM
Temp Controller Error,1,,9:31 AM
Temp Controller Error,1,,9:31 AM
Temp Controller Error,1,,9:31 AM
Temp Controller Error,1,,9:31 AM
Temp Controller Error,1,,9:31 AM
Temp Controller Error,1,,9:31 AM
Temp Controller Error,1,,9:31 AM
Temp Controller Error,1,,9:31 AM
Temp Controller Error,1,,9:31 AM
Temp Controller Error,1,,9:31 AM
Temp Controller Error,1,,9:31 AM
Temp Controller Error,1,,9:31 AM
Temp Controller Error,1,,9:31 AM
Temp Controller Error,1,,9:31 AM
Temp Controller Error,1,,9:31 AM
Temp Controller Error,1,,9:31 AM
Temp Controller Error,1,,9:31 AM
Temp Controller Error,1,,9:31 AM
Temp Controller Error,1,,9:31 AM
Temp Controller Error,1,,9:31 AM
Temp Controller Error,1,,9:31 AM
Temp Controller Error,1,,9:31 AM
Temp Controller Error,1,,9:31 AM
Temp Controller Error,1,,9:31 AM
Temp Controller Error,1,,9:31 AM
Temp Controller Error,1,,9:31 AM
Temp Controller Error,1,,9:31 AM
Temp Controller Error,1,,9:31 AM
Temp Controller Error,1,,9:31 AM
Temp Controller Error,1,,9:31 AM
Temp Controller Error,1,,9:31 AM
Temp Controller Error,1,,9:31 AM
Temp Controller Error,1,,9:31 AM
Temp Controller Error,1,,9:31 AM
Temp Controller Error,1,,9:31 AM
Temp Controller Error,1,,9:31 AM
Temp Controller Error,1,,9:31 AM
Temp Controller Error,1,,9:31 AM
Temp Controller Error,1,,9:31 AM
Temp Controller Error,1,,9:31 AM
Temp Controller Error,1,,9:31 AM
Temp Controller Error,1,,9:31 AM
Temp Controller Error,1,,9:31 AM
Temp Controller Error,1,,9:31 AM
Temp Controller Error,1,,9:31 AM
Temp Controller Error,1,,9:31 AM
Temp Controller Error,1,,9:31 AM
Temp Controller Error,1,,9:31 AM
Temp Controller Error,1,,9:31 AM
Temp Controller Error,1,,9:31 AM
Temp Controller Error,1,,9:31 AM
Temp Controller Error,1,,9:31 AM
Temp Controller Error,1,,9:31 AM
Temp Controller Error,1,,9:31 AM
Temp Controller Error,1,,9:31 AM
Temp Controller Error,1,,9:32 AM
Temp Controller Error,1,,9:32 AM
Temp Controller Error,1,,9:32 AM
Temp Controller Error,1,,9:32 AM
Temp Controller Error,1,,9:32 AM
Temp Controller Error,1,,9:32 AM
Temp Controller Error,1,,9:32 AM
Temp Controller Error,1,,9:32 AM
Temp Controller Error,1,,9:32 AM
Temp Controller Error,1,,9:32 AM
Temp Controller Error,1,,9:32 AM
Temp Controller Error,1,,9:32 AM
Temp Controller Error,1,,9:32 AM
Temp Controller Error,1,,9:32 AM
Temp Controller Error,1,,9:32 AM
Temp Controller Error,1,,9:32 AM
Temp Controller Error,1,,9:32 AM
Temp Controller Error,1,,9:32 AM
Temp Controller Error,1,,9:32 AM
Temp Controller Error,1,,9:32 AM
Temp Controller Error,1,,9:32 AM
Temp Controller Error,1,,9:32 AM
Temp Controller Error,1,,9:32 AM
Temp Controller Error,1,,9:32 AM
Temp Controller Error,1,,9:32 AM
Temp Controller Error,1,,9:32 AM
Temp Controller Error,1,,9:32 AM
Temp Controller Error,1,,9:32 AM
Temp Controller Error,1,,9:32 AM
Temp Controller Error,1,,9:32 AM
Temp Controller Error,1,,9:32 AM
Temp Controller Error,1,,9:32 AM
Temp Controller Error,1,,9:32 AM
Temp Controller Error,1,,9:32 AM
Temp Controller Error,1,,9:32 AM
Temp Controller Error,1,,9:32 AM
Temp Controller Error,1,,9:32 AM
Temp Controller Error,1,,9:32 AM
Temp Controller Error,1,,9:32 AM
Temp Controller Error,1,,9:32 AM
Temp Controller Error,1,,9:32 AM
Temp Controller Error,1,,9:32 AM
Temp Controller Error,1,,9:32 AM
Temp Controller Error,1,,9:32 AM
Temp Controller Error,1,,9:32 AM
Temp Controller Error,1,,9:32 AM
Temp Controller Error,1,,9:32 AM
Temp Controller Error,1,,9:32 AM
Temp Controller Error,1,,9:32 AM
Temp Controller Error,1,,9:32 AM
Temp Controller Error,1,,9:32 AM
Temp Controller Error,1,,9:32 AM
Temp Controller Error,1,,9:32 AM
Temp Controller Error,1,,9:32 AM
Temp Controller Error,1,,9:32 AM
Temp Controller Error,1,,9:32 AM
Temp Controller Error,1,,9:32 AM
Temp Controller Error,1,,9:32 AM
Temp Controller Error,1,,9:32 AM
Temp Controller Error,1,,9:32 AM
Temp Controller Error,1,,9:32 AM
Temp Controller Error,1,,9:32 AM
Temp Controller Error,1,,9:32 AM
Temp Controller Error,1,,9:32 AM
Temp Controller Error,1,,9:32 AM
Temp Controller Error,1,,9:32 AM
Temp Controller Error,1,,9:32 AM
Temp Controller Error,1,,9:32 AM
Temp Controller Error,1,,9:32 AM
Temp Controller Error,1,,9:32 AM
Temp Controller Error,1,,9:32 AM
Temp Controller Error,1,,9:32 AM
Temp Controller Error,1,,9:32 AM
Temp Controller Error,1,,9:32 AM
Temp Controller Error,1,,9:32 AM
Temp Controller Error,1,,9:32 AM
Temp Controller Error,1,,9:32 AM
Temp Controller Error,1,,9:33 AM
Temp Controller Error,1,,9:33 AM
Temp Controller Error,1,,9:33 AM
Temp Controller Error,1,,9:33 AM
Temp Controller Error,1,,9:33 AM
Temp Controller Error,1,,9:33 AM
Temp Controller Error,1,,9:33 AM
Temp Controller Error,1,,9:33 AM
Temp Controller Error,1,,9:33 AM
Temp Controller Error,1,,9:33 AM
Temp Controller Error,1,,9:33 AM
Temp Controller Error,1,,9:33 AM
Temp Controller Error,1,,9:33 AM
Temp Controller Error,1,,9:33 AM
Temp Controller Error,1,,9:33 AM
Temp Controller Error,1,,9:33 AM
Temp Controller Error,1,,9:33 AM
Temp Controller Error,1,,9:33 AM
Temp Controller Error,1,,9:33 AM
Temp Controller Error,1,,9:33 AM
Temp Controller Error,1,,9:33 AM
Temp Controller Error,1,,9:33 AM
Temp Controller Error,1,,9:33 AM
Temp Controller Error,1,,9:33 AM
Temp Controller Error,1,,9:33 AM
Temp Controller Error,1,,9:33 AM
Temp Controller Error,1,,9:33 AM
Temp Controller Error,1,,9:33 AM
Temp Controller Error,1,,9:33 AM
Temp Controller Error,1,,9:33 AM
Temp Controller Error,1,,9:33 AM
Temp Controller Error,1,,9:33 AM
Temp Controller Error,1,,9:33 AM
Temp Controller Error,1,,9:33 AM
Temp Controller Error,1,,9:33 AM
Temp Controller Error,1,,9:33 AM
Temp Controller Error,1,,9:33 AM
Temp Controller Error,1,,9:33 AM
Temp Controller Error,1,,9:33 AM
Temp Controller Error,1,,9:33 AM
Temp Controller Error,1,,9:33 AM
Temp Controller Error,1,,9:33 AM
Temp Controller Error,1,,9:33 AM
Temp Controller Error,1,,9:33 AM
Temp Controller Error,1,,9:33 AM
Temp Controller Error,1,,9:33 AM
Temp Controller Error,1,,9:33 AM
Temp Controller Error,1,,9:33 AM
Temp Controller Error,1,,9:33 AM
Temp Controller Error,1,,9:33 AM
Temp Controller Error,1,,9:33 AM
Temp Controller Error,1,,9:33 AM
Temp Controller Error,1,,9:33 AM
Temp Controller Error,1,,9:33 AM
Temp Controller Error,1,,9:33 AM
Temp Controller Error,1,,9:33 AM
Temp Controller Error,1,,9:33 AM
Temp Controller Error,1,,9:33 AM
Temp Controller Error,1,,9:33 AM
Temp Controller Error,1,,9:33 AM
Temp Controller Error,1,,9:33 AM
Temp Controller Error,1,,9:33 AM
Temp Controller Error,1,,9:33 AM
Temp Controller Error,1,,9:33 AM
Temp Controller Error,1,,9:33 AM
Temp Controller Error,1,,9:33 AM
Temp Controller Error,1,,9:33 AM
Temp Controller Error,1,,9:33 AM
Temp Controller Error,1,,9:33 AM
Temp Controller Error,1,,9:33 AM
Temp Controller Error,1,,9:33 AM
Temp Controller Error,1,,9:33 AM
Temp Controller Error,1,,9:33 AM
Temp Controller Error,1,,9:33 AM
Temp Controller Error,1,,9:33 AM
Temp Controller Error,1,,9:33 AM
Temp Controller Error,1,,9:33 AM
Temp Controller Error,1,,9:34 AM
Temp Controller Error,1,,9:34 AM
Temp Controller Error,1,,9:34 AM
Temp Controller Error,1,,9:34 AM
Temp Controller Error,1,,9:34 AM
Temp Controller Error,1,,9:34 AM
Temp Controller Error,1,,9:34 AM
Temp Controller Error,1,,9:34 AM
Temp Controller Error,1,,9:34 AM
Temp Controller Error,1,,9:34 AM
Temp Controller Error,1,,9:34 AM
Temp Controller Error,1,,9:34 AM
Temp Controller Error,1,,9:34 AM
Temp Controller Error,1,,9:34 AM
Temp Controller Error,1,,9:34 AM
Temp Controller Error,1,,9:34 AM
Temp Controller Error,1,,9:34 AM
Temp Controller Error,1,,9:34 AM
Temp Controller Error,1,,9:34 AM
Temp Controller Error,1,,9:34 AM
Temp Controller Error,1,,9:34 AM
Temp Controller Error,1,,9:34 AM
Temp Controller Error,1,,9:34 AM
Temp Controller Error,1,,9:34 AM
Temp Controller Error,1,,9:34 AM
