Temp Iter,Index,X Accel 1,Y Accel 1,Z Accel 1,X Accel 2,Y Accel 2,Z Accel2, Temp,Theta,Phi,,,,,,,
0.000,1.000,908.167,6.505,16.332,0.000,0.000,0.000,24.359,0.615,180.000
0.000,1.000,909.210,5.939,15.602,0.000,0.000,0.000,24.359,0.615,180.000
0.000,1.000,908.286,5.722,15.837,0.000,0.000,0.000,24.391,0.615,180.000
0.000,1.000,908.385,5.422,16.094,0.000,0.000,0.000,24.391,0.615,180.000
0.000,1.000,909.439,5.907,16.548,0.000,0.000,0.000,24.391,0.615,180.000
0.000,1.000,908.696,6.387,16.479,0.000,0.000,0.000,24.391,0.615,180.000
0.000,1.000,908.689,5.346,16.694,0.000,0.000,0.000,24.391,0.615,180.000
0.000,1.000,909.747,6.042,16.563,0.000,0.000,0.000,24.391,0.615,180.000
0.000,1.000,909.962,6.059,16.849,0.000,0.000,0.000,24.391,0.615,180.000
0.000,1.000,909.711,5.573,15.978,0.000,0.000,0.000,24.391,0.615,180.000
0.000,2.000,654.324,644.645,19.452,0.000,0.000,0.000,24.422,0.615,135.000
0.000,2.000,655.191,645.300,20.064,0.000,0.000,0.000,24.422,0.615,135.000
0.000,2.000,653.985,644.849,19.718,0.000,0.000,0.000,24.422,0.615,135.000
0.000,2.000,654.787,646.131,20.828,0.000,0.000,0.000,24.422,0.615,135.000
0.000,2.000,654.310,644.756,19.214,0.000,0.000,0.000,24.422,0.615,135.000
0.000,2.000,654.801,644.463,18.875,0.000,0.000,0.000,24.453,0.615,135.000
0.000,2.000,653.919,646.059,19.500,0.000,0.000,0.000,24.453,0.615,135.000
0.000,2.000,653.820,646.159,18.650,0.000,0.000,0.000,24.453,0.615,135.000
0.000,2.000,654.261,645.432,19.790,0.000,0.000,0.000,24.453,0.615,135.000
0.000,2.000,654.616,644.590,20.085,0.000,0.000,0.000,24.453,0.615,135.000
0.000,3.000,10.306,917.377,16.120,0.000,0.000,0.000,24.484,0.615,90.000
0.000,3.000,10.773,917.971,17.631,0.000,0.000,0.000,24.484,0.615,90.000
0.000,3.000,11.037,918.475,17.748,0.000,0.000,0.000,24.484,0.615,90.000
0.000,3.000,9.789,917.812,16.409,0.000,0.000,0.000,24.516,0.615,90.000
0.000,3.000,10.239,917.848,16.639,0.000,0.000,0.000,24.484,0.615,90.000
0.000,3.000,10.135,918.473,17.156,0.000,0.000,0.000,24.484,0.615,90.000
0.000,3.000,11.058,918.773,15.172,0.000,0.000,0.000,24.516,0.615,90.000
0.000,3.000,10.898,918.000,14.985,0.000,0.000,0.000,24.484,0.615,90.000
0.000,3.000,10.231,919.232,15.995,0.000,0.000,0.000,24.516,0.615,90.000
0.000,3.000,11.697,918.730,16.261,0.000,0.000,0.000,24.516,0.615,90.000
0.000,4.000,-647.229,650.584,9.540,0.000,0.000,0.000,24.547,0.615,45.000
0.000,4.000,-647.626,651.051,10.205,0.000,0.000,0.000,24.516,0.615,45.000
0.000,4.000,-646.073,650.270,9.752,0.000,0.000,0.000,24.516,0.615,45.000
0.000,4.000,-646.787,650.500,11.303,0.000,0.000,0.000,24.547,0.615,45.000
0.000,4.000,-646.834,650.295,9.958,0.000,0.000,0.000,24.547,0.615,45.000
0.000,4.000,-647.223,650.742,10.786,0.000,0.000,0.000,24.547,0.615,45.000
0.000,4.000,-646.884,650.498,10.968,0.000,0.000,0.000,24.547,0.615,45.000
0.000,4.000,-646.990,650.410,10.704,0.000,0.000,0.000,24.547,0.615,45.000
0.000,4.000,-646.431,651.224,10.061,0.000,0.000,0.000,24.547,0.615,45.000
0.000,4.000,-646.026,650.994,11.853,0.000,0.000,0.000,24.547,0.615,45.000
0.000,5.000,-906.582,11.113,4.763,0.000,0.000,0.000,24.578,0.615,0.000
0.000,5.000,-906.725,11.686,4.441,0.000,0.000,0.000,24.578,0.615,0.000
0.000,5.000,-906.959,11.253,3.639,0.000,0.000,0.000,24.578,0.615,0.000
0.000,5.000,-906.638,12.543,5.023,0.000,0.000,0.000,24.609,0.615,0.000
0.000,5.000,-906.485,11.019,4.168,0.000,0.000,0.000,24.609,0.615,0.000
0.000,5.000,-906.627,11.703,3.538,0.000,0.000,0.000,24.578,0.615,0.000
0.000,5.000,-906.224,10.843,4.386,0.000,0.000,0.000,24.578,0.615,0.000
0.000,5.000,-905.626,11.900,2.293,0.000,0.000,0.000,24.578,0.615,0.000
0.000,5.000,-905.133,11.478,3.752,0.000,0.000,0.000,24.609,0.615,0.000
0.000,5.000,-906.494,12.050,3.585,0.000,0.000,0.000,24.609,0.615,0.000
0.000,6.000,-650.387,-628.466,0.947,0.000,0.000,0.000,24.609,0.615,-45.000
0.000,6.000,-649.683,-626.885,2.317,0.000,0.000,0.000,24.609,0.615,-45.000
0.000,6.000,-650.886,-628.532,1.396,0.000,0.000,0.000,24.640,0.615,-45.000
0.000,6.000,-650.043,-627.122,2.136,0.000,0.000,0.000,24.640,0.615,-45.000
0.000,6.000,-650.546,-627.884,1.136,0.000,0.000,0.000,24.640,0.615,-45.000
0.000,6.000,-650.425,-627.329,1.766,0.000,0.000,0.000,24.640,0.615,-45.000
0.000,6.000,-649.367,-628.125,2.554,0.000,0.000,0.000,24.640,0.615,-45.000
0.000,6.000,-650.063,-627.993,1.425,0.000,0.000,0.000,24.640,0.615,-45.000
0.000,6.000,-649.543,-627.198,0.326,0.000,0.000,0.000,24.640,0.615,-45.000
0.000,6.000,-649.741,-627.946,-0.054,0.000,0.000,0.000,24.640,0.615,-45.000
0.000,7.000,-6.578,-900.595,3.038,0.000,0.000,0.000,24.672,0.615,-90.000
0.000,7.000,-6.772,-899.794,3.441,0.000,0.000,0.000,24.672,0.615,-90.000
0.000,7.000,-7.118,-899.767,2.089,0.000,0.000,0.000,24.672,0.615,-90.000
0.000,7.000,-7.283,-899.850,1.928,0.000,0.000,0.000,24.672,0.615,-90.000
0.000,7.000,-6.655,-900.769,4.170,0.000,0.000,0.000,24.672,0.615,-90.000
0.000,7.000,-6.744,-900.190,3.551,0.000,0.000,0.000,24.703,0.615,-90.000
0.000,7.000,-6.298,-900.556,3.757,0.000,0.000,0.000,24.672,0.615,-90.000
0.000,7.000,-7.539,-900.507,2.533,0.000,0.000,0.000,24.672,0.615,-90.000
0.000,7.000,-6.133,-900.771,3.356,0.000,0.000,0.000,24.672,0.615,-90.000
0.000,7.000,-7.450,-899.339,2.646,0.000,0.000,0.000,24.672,0.615,-90.000
0.000,8.000,652.187,-632.615,7.736,0.000,0.000,0.000,24.703,0.615,-135.000
0.000,8.000,653.161,-632.454,9.167,0.000,0.000,0.000,24.703,0.615,-135.000
0.000,8.000,653.665,-632.451,8.639,0.000,0.000,0.000,24.703,0.615,-135.000
0.000,8.000,653.998,-631.747,7.974,0.000,0.000,0.000,24.703,0.615,-135.000
0.000,8.000,651.294,-632.209,8.808,0.000,0.000,0.000,24.703,0.615,-135.000
0.000,8.000,653.087,-632.100,8.823,0.000,0.000,0.000,24.734,0.615,-135.000
0.000,8.000,653.802,-631.862,8.804,0.000,0.000,0.000,24.734,0.615,-135.000
0.000,8.000,652.780,-632.707,8.622,0.000,0.000,0.000,24.734,0.615,-135.000
0.000,8.000,652.192,-632.324,9.401,0.000,0.000,0.000,24.734,0.615,-135.000
0.000,8.000,652.681,-631.491,8.437,0.000,0.000,0.000,24.703,0.615,-135.000
0.000,9.000,823.896,5.226,384.303,0.000,0.000,0.000,24.828,24.516,180.000
0.000,9.000,824.804,5.203,384.344,0.000,0.000,0.000,24.797,24.516,180.000
0.000,9.000,823.961,4.534,385.065,0.000,0.000,0.000,24.828,24.516,180.000
0.000,9.000,823.518,4.859,384.052,0.000,0.000,0.000,24.797,24.516,180.000
0.000,9.000,825.419,5.095,383.877,0.000,0.000,0.000,24.828,24.516,180.000
0.000,9.000,824.294,4.856,383.415,0.000,0.000,0.000,24.828,24.516,180.000
0.000,9.000,823.008,5.294,383.643,0.000,0.000,0.000,24.828,24.516,180.000
0.000,9.000,825.143,4.926,384.389,0.000,0.000,0.000,24.828,24.516,180.000
0.000,9.000,824.641,5.308,383.693,0.000,0.000,0.000,24.828,24.516,180.000
0.000,9.000,823.505,5.372,384.372,0.000,0.000,0.000,24.828,24.516,180.000
0.000,10.000,591.209,587.316,384.334,0.000,0.000,0.000,24.859,24.516,135.000
0.000,10.000,591.974,587.482,384.881,0.000,0.000,0.000,24.828,24.516,135.000
0.000,10.000,591.490,587.260,386.087,0.000,0.000,0.000,24.828,24.516,135.000
0.000,10.000,590.854,587.485,384.968,0.000,0.000,0.000,24.859,24.516,135.000
0.000,10.000,591.388,587.167,384.328,0.000,0.000,0.000,24.859,24.516,135.000
0.000,10.000,591.514,588.359,384.156,0.000,0.000,0.000,24.859,24.516,135.000
0.000,10.000,591.155,587.542,384.274,0.000,0.000,0.000,24.859,24.516,135.000
0.000,10.000,590.913,587.199,385.349,0.000,0.000,0.000,24.859,24.516,135.000
0.000,10.000,591.877,587.075,385.119,0.000,0.000,0.000,24.828,24.516,135.000
0.000,10.000,590.838,587.549,385.291,0.000,0.000,0.000,24.859,24.516,135.000
0.000,11.000,7.350,833.299,385.279,0.000,0.000,0.000,24.859,24.516,90.000
0.000,11.000,6.590,833.127,383.232,0.000,0.000,0.000,24.890,24.516,90.000
0.000,11.000,5.761,834.383,384.206,0.000,0.000,0.000,24.890,24.516,90.000
0.000,11.000,6.889,832.959,384.971,0.000,0.000,0.000,24.890,24.516,90.000
0.000,11.000,5.172,833.281,385.350,0.000,0.000,0.000,24.890,24.516,90.000
0.000,11.000,6.406,832.568,384.476,0.000,0.000,0.000,24.890,24.516,90.000
0.000,11.000,6.029,832.679,383.921,0.000,0.000,0.000,24.890,24.516,90.000
0.000,11.000,7.133,832.948,384.744,0.000,0.000,0.000,24.890,24.516,90.000
0.000,11.000,7.626,832.476,384.098,0.000,0.000,0.000,24.890,24.516,90.000
0.000,11.000,6.925,832.684,385.293,0.000,0.000,0.000,24.890,24.516,90.000
0.000,12.000,-587.078,591.758,373.553,0.000,0.000,0.000,24.922,24.516,45.000
0.000,12.000,-585.136,592.791,373.784,0.000,0.000,0.000,24.890,24.516,45.000
0.000,12.000,-586.177,592.568,372.709,0.000,0.000,0.000,24.890,24.516,45.000
0.000,12.000,-585.725,591.351,372.705,0.000,0.000,0.000,24.922,24.516,45.000
0.000,12.000,-587.783,592.164,373.230,0.000,0.000,0.000,24.922,24.516,45.000
0.000,12.000,-585.679,593.131,373.218,0.000,0.000,0.000,24.922,24.516,45.000
0.000,12.000,-585.429,591.905,373.788,0.000,0.000,0.000,24.922,24.516,45.000
0.000,12.000,-584.917,591.341,373.704,0.000,0.000,0.000,24.922,24.516,45.000
0.000,12.000,-586.822,591.429,373.123,0.000,0.000,0.000,24.922,24.516,45.000
0.000,12.000,-586.394,592.866,374.766,0.000,0.000,0.000,24.922,24.516,45.000
0.000,13.000,-825.786,7.006,370.887,0.000,0.000,0.000,24.922,24.516,0.000
0.000,13.000,-826.902,7.839,369.370,0.000,0.000,0.000,24.922,24.516,0.000
0.000,13.000,-824.237,7.810,371.097,0.000,0.000,0.000,24.922,24.516,0.000
0.000,13.000,-825.368,7.483,371.040,0.000,0.000,0.000,24.953,24.516,0.000
0.000,13.000,-824.400,8.057,371.165,0.000,0.000,0.000,24.953,24.516,0.000
0.000,13.000,-825.075,7.866,371.508,0.000,0.000,0.000,24.953,24.516,0.000
0.000,13.000,-823.692,7.186,370.077,0.000,0.000,0.000,24.922,24.516,0.000
0.000,13.000,-825.729,8.013,370.028,0.000,0.000,0.000,24.953,24.516,0.000
0.000,13.000,-824.689,7.787,371.008,0.000,0.000,0.000,24.953,24.516,0.000
0.000,13.000,-825.465,9.019,371.316,0.000,0.000,0.000,24.953,24.516,0.000
0.000,14.000,-590.097,-577.573,363.724,0.000,0.000,0.000,24.953,24.516,-45.000
0.000,14.000,-589.073,-577.824,363.833,0.000,0.000,0.000,24.953,24.516,-45.000
0.000,14.000,-589.373,-577.693,365.626,0.000,0.000,0.000,24.953,24.516,-45.000
0.000,14.000,-589.205,-577.778,363.662,0.000,0.000,0.000,24.984,24.516,-45.000
0.000,14.000,-589.582,-577.575,363.384,0.000,0.000,0.000,24.953,24.516,-45.000
0.000,14.000,-589.600,-577.274,364.568,0.000,0.000,0.000,24.984,24.516,-45.000
0.000,14.000,-589.342,-577.045,363.476,0.000,0.000,0.000,24.953,24.516,-45.000
0.000,14.000,-589.019,-577.893,363.625,0.000,0.000,0.000,24.953,24.516,-45.000
0.000,14.000,-588.908,-577.546,363.679,0.000,0.000,0.000,24.984,24.516,-45.000
0.000,14.000,-588.501,-577.444,364.408,0.000,0.000,0.000,24.953,24.516,-45.000
0.000,15.000,-6.906,-821.300,373.797,0.000,0.000,0.000,24.984,24.516,-90.000
0.000,15.000,-7.454,-820.685,372.106,0.000,0.000,0.000,24.984,24.516,-90.000
0.000,15.000,-6.362,-821.269,371.616,0.000,0.000,0.000,24.984,24.516,-90.000
0.000,15.000,-6.076,-820.712,371.611,0.000,0.000,0.000,24.984,24.516,-90.000
0.000,15.000,-7.390,-820.279,372.647,0.000,0.000,0.000,24.984,24.516,-90.000
0.000,15.000,-6.243,-820.814,371.003,0.000,0.000,0.000,24.984,24.516,-90.000
0.000,15.000,-4.995,-820.974,371.693,0.000,0.000,0.000,24.984,24.516,-90.000
0.000,15.000,-6.961,-821.416,372.954,0.000,0.000,0.000,24.984,24.516,-90.000
0.000,15.000,-7.365,-820.260,372.784,0.000,0.000,0.000,24.984,24.516,-90.000
0.000,15.000,-4.842,-820.728,372.740,0.000,0.000,0.000,24.984,24.516,-90.000
0.000,16.000,588.046,-578.944,374.930,0.000,0.000,0.000,25.015,24.516,-135.000
0.000,16.000,589.275,-579.609,373.665,0.000,0.000,0.000,25.015,24.516,-135.000
0.000,16.000,588.980,-578.869,373.722,0.000,0.000,0.000,25.015,24.516,-135.000
0.000,16.000,588.927,-579.802,374.370,0.000,0.000,0.000,25.015,24.516,-135.000
0.000,16.000,589.668,-578.849,374.827,0.000,0.000,0.000,25.015,24.516,-135.000
0.000,16.000,588.450,-579.905,374.503,0.000,0.000,0.000,25.015,24.516,-135.000
0.000,16.000,589.145,-579.058,374.137,0.000,0.000,0.000,25.015,24.516,-135.000
0.000,16.000,588.430,-579.434,375.765,0.000,0.000,0.000,25.015,24.516,-135.000
0.000,16.000,588.329,-579.079,373.964,0.000,0.000,0.000,25.015,24.516,-135.000
0.000,16.000,589.934,-579.858,374.268,0.000,0.000,0.000,25.015,24.516,-135.000
0.000,17.000,657.878,3.927,625.143,0.000,0.000,0.000,25.171,43.775,180.000
0.000,17.000,658.847,6.124,624.777,0.000,0.000,0.000,25.171,43.775,180.000
0.000,17.000,659.944,3.600,625.667,0.000,0.000,0.000,25.171,43.775,180.000
0.000,17.000,659.822,4.215,625.445,0.000,0.000,0.000,25.140,43.775,180.000
0.000,17.000,660.185,4.206,624.394,0.000,0.000,0.000,25.171,43.775,180.000
0.000,17.000,659.919,4.686,625.013,0.000,0.000,0.000,25.171,43.775,180.000
0.000,17.000,660.429,4.659,625.938,0.000,0.000,0.000,25.171,43.785,180.000
0.000,17.000,659.244,4.379,624.873,0.000,0.000,0.000,25.171,43.785,180.000
0.000,17.000,658.933,4.665,625.064,0.000,0.000,0.000,25.171,43.785,180.000
0.000,17.000,660.578,3.659,625.025,0.000,0.000,0.000,25.171,43.785,180.000
0.000,18.000,463.162,467.635,631.460,0.000,0.000,0.000,25.171,43.785,135.000
0.000,18.000,462.427,465.990,631.996,0.000,0.000,0.000,25.171,43.785,135.000
0.000,18.000,463.163,466.933,632.580,0.000,0.000,0.000,25.171,43.785,135.000
0.000,18.000,464.725,465.847,631.304,0.000,0.000,0.000,25.171,43.785,135.000
0.000,18.000,463.773,465.764,631.996,0.000,0.000,0.000,25.171,43.785,135.000
0.000,18.000,462.981,466.596,631.964,0.000,0.000,0.000,25.203,43.785,135.000
0.000,18.000,463.883,466.690,630.697,0.000,0.000,0.000,25.171,43.785,135.000
0.000,18.000,464.171,465.805,632.179,0.000,0.000,0.000,25.171,43.785,135.000
0.000,18.000,463.079,466.677,630.867,0.000,0.000,0.000,25.171,43.785,135.000
0.000,18.000,463.783,466.258,630.720,0.000,0.000,0.000,25.203,43.785,135.000
0.000,19.000,2.991,660.035,636.666,0.000,0.000,0.000,25.203,43.785,90.000
0.000,19.000,4.662,660.398,637.129,0.000,0.000,0.000,25.171,43.785,90.000
0.000,19.000,3.586,659.575,635.903,0.000,0.000,0.000,25.203,43.785,90.000
0.000,19.000,4.873,659.401,636.310,0.000,0.000,0.000,25.203,43.785,90.000
0.000,19.000,4.204,658.427,635.970,0.000,0.000,0.000,25.203,43.785,90.000
0.000,19.000,5.764,659.564,636.194,0.000,0.000,0.000,25.203,43.785,90.000
0.000,19.000,3.164,660.157,636.494,0.000,0.000,0.000,25.203,43.785,90.000
0.000,19.000,3.116,659.853,636.554,0.000,0.000,0.000,25.203,43.785,90.000
0.000,19.000,3.181,660.013,636.461,0.000,0.000,0.000,25.203,43.785,90.000
0.000,19.000,4.452,658.594,636.364,0.000,0.000,0.000,25.203,43.785,90.000
0.000,20.000,-464.995,467.504,625.979,0.000,0.000,0.000,25.234,43.785,45.000
0.000,20.000,-468.133,468.083,626.009,0.000,0.000,0.000,25.203,43.785,45.000
0.000,20.000,-465.323,467.394,626.727,0.000,0.000,0.000,25.234,43.785,45.000
0.000,20.000,-466.008,467.997,626.161,0.000,0.000,0.000,25.234,43.785,45.000
0.000,20.000,-466.715,469.140,626.546,0.000,0.000,0.000,25.234,43.785,45.000
0.000,20.000,-464.627,468.738,627.506,0.000,0.000,0.000,25.234,43.785,45.000
0.000,20.000,-465.432,468.036,625.992,0.000,0.000,0.000,25.234,43.785,45.000
0.000,20.000,-465.891,467.466,626.561,0.000,0.000,0.000,25.234,43.785,45.000
0.000,20.000,-464.454,467.592,627.506,0.000,0.000,0.000,25.234,43.785,45.000
0.000,20.000,-465.977,468.990,626.591,0.000,0.000,0.000,25.234,43.785,45.000
0.000,21.000,-656.178,3.723,626.131,0.000,0.000,0.000,25.234,43.785,0.000
0.000,21.000,-655.952,3.703,626.968,0.000,0.000,0.000,25.234,43.785,0.000
0.000,21.000,-654.102,2.838,624.874,0.000,0.000,0.000,25.234,43.785,0.000
0.000,21.000,-654.663,3.701,626.625,0.000,0.000,0.000,25.234,43.785,0.000
0.000,21.000,-656.167,4.555,626.347,0.000,0.000,0.000,25.234,43.785,0.000
0.000,21.000,-655.122,3.604,626.594,0.000,0.000,0.000,25.234,43.785,0.000
0.000,21.000,-655.201,3.070,624.644,0.000,0.000,0.000,25.234,43.785,0.000
0.000,21.000,-655.648,2.875,625.260,0.000,0.000,0.000,25.234,43.785,0.000
0.000,21.000,-655.589,3.646,625.213,0.000,0.000,0.000,25.234,43.785,0.000
0.000,21.000,-654.384,4.169,626.116,0.000,0.000,0.000,25.234,43.785,0.000
0.000,22.000,-469.051,-458.403,617.260,0.000,0.000,0.000,25.265,43.785,-45.000
0.000,22.000,-468.031,-458.847,616.465,0.000,0.000,0.000,25.265,43.785,-45.000
0.000,22.000,-469.733,-459.943,615.963,0.000,0.000,0.000,25.265,43.785,-45.000
0.000,22.000,-468.417,-458.744,617.888,0.000,0.000,0.000,25.265,43.785,-45.000
0.000,22.000,-469.090,-458.345,617.026,0.000,0.000,0.000,25.265,43.785,-45.000
0.000,22.000,-469.254,-457.704,616.506,0.000,0.000,0.000,25.265,43.785,-45.000
0.000,22.000,-469.749,-458.233,616.793,0.000,0.000,0.000,25.265,43.785,-45.000
0.000,22.000,-467.894,-458.767,617.957,0.000,0.000,0.000,25.265,43.785,-45.000
0.000,22.000,-469.577,-458.652,617.320,0.000,0.000,0.000,25.265,43.785,-45.000
0.000,22.000,-468.680,-458.266,616.679,0.000,0.000,0.000,25.265,43.785,-45.000
0.000,23.000,-6.659,-651.301,626.037,0.000,0.000,0.000,25.265,43.785,-90.000
0.000,23.000,-6.115,-651.926,625.702,0.000,0.000,0.000,25.265,43.785,-90.000
0.000,23.000,-6.034,-650.224,625.891,0.000,0.000,0.000,25.265,43.785,-90.000
0.000,23.000,-6.446,-650.875,627.109,0.000,0.000,0.000,25.234,43.785,-90.000
0.000,23.000,-5.269,-651.991,626.217,0.000,0.000,0.000,25.265,43.785,-90.000
0.000,23.000,-5.107,-651.373,626.650,0.000,0.000,0.000,25.265,43.785,-90.000
0.000,23.000,-5.380,-651.036,627.272,0.000,0.000,0.000,25.265,43.785,-90.000
0.000,23.000,-6.132,-650.997,626.830,0.000,0.000,0.000,25.265,43.785,-90.000
0.000,23.000,-6.440,-651.289,627.012,0.000,0.000,0.000,25.296,43.785,-90.000
0.000,23.000,-6.701,-651.925,624.768,0.000,0.000,0.000,25.265,43.785,-90.000
0.000,24.000,462.349,-459.104,627.479,0.000,0.000,0.000,25.265,43.785,-135.000
0.000,24.000,462.654,-459.485,626.500,0.000,0.000,0.000,25.296,43.785,-135.000
0.000,24.000,462.879,-458.879,628.022,0.000,0.000,0.000,25.265,43.785,-135.000
0.000,24.000,462.281,-459.684,627.129,0.000,0.000,0.000,25.265,43.785,-135.000
0.000,24.000,462.732,-459.579,626.810,0.000,0.000,0.000,25.296,43.785,-135.000
0.000,24.000,463.840,-459.373,627.302,0.000,0.000,0.000,25.265,43.785,-135.000
0.000,24.000,462.427,-459.273,627.815,0.000,0.000,0.000,25.296,43.785,-135.000
0.000,24.000,463.473,-458.799,627.605,0.000,0.000,0.000,25.296,43.785,-135.000
0.000,24.000,462.859,-459.467,626.982,0.000,0.000,0.000,25.265,43.785,-135.000
0.000,24.000,463.215,-459.396,626.729,0.000,0.000,0.000,25.296,43.785,-135.000
0.000,25.000,374.157,3.853,823.168,0.000,0.000,0.000,25.328,65.645,180.000
0.000,25.000,375.971,4.551,823.588,0.000,0.000,0.000,25.296,65.645,180.000
0.000,25.000,374.370,3.706,825.145,0.000,0.000,0.000,25.296,65.645,180.000
0.000,25.000,375.418,4.688,823.902,0.000,0.000,0.000,25.328,65.645,180.000
0.000,25.000,375.709,4.089,823.299,0.000,0.000,0.000,25.328,65.645,180.000
0.000,25.000,375.326,4.195,824.073,0.000,0.000,0.000,25.328,65.645,180.000
0.000,25.000,375.262,3.745,824.399,0.000,0.000,0.000,25.328,65.645,180.000
0.000,25.000,375.840,4.659,823.625,0.000,0.000,0.000,25.328,65.645,180.000
0.000,25.000,374.773,3.366,824.457,0.000,0.000,0.000,25.328,65.645,180.000
0.000,25.000,374.356,4.162,823.764,0.000,0.000,0.000,25.328,65.645,180.000
0.000,26.000,265.283,270.751,824.720,0.000,0.000,0.000,25.328,65.645,135.000
0.000,26.000,265.887,270.279,824.333,0.000,0.000,0.000,25.328,65.645,135.000
0.000,26.000,265.028,270.315,824.546,0.000,0.000,0.000,25.359,65.645,135.000
0.000,26.000,266.167,271.165,824.160,0.000,0.000,0.000,25.328,65.645,135.000
0.000,26.000,265.668,270.504,825.340,0.000,0.000,0.000,25.328,65.645,135.000
0.000,26.000,265.385,270.730,825.005,0.000,0.000,0.000,25.328,65.645,135.000
0.000,26.000,264.479,270.415,824.795,0.000,0.000,0.000,25.328,65.645,135.000
0.000,26.000,264.437,270.408,824.782,0.000,0.000,0.000,25.328,65.645,135.000
0.000,26.000,266.521,270.472,823.991,0.000,0.000,0.000,25.328,65.645,135.000
0.000,26.000,264.909,270.465,824.118,0.000,0.000,0.000,25.359,65.645,135.000
0.000,27.000,-1.791,382.555,823.803,0.000,0.000,0.000,25.328,65.645,90.000
0.000,27.000,-1.819,381.934,823.375,0.000,0.000,0.000,25.328,65.645,90.000
0.000,27.000,-2.388,382.295,823.081,0.000,0.000,0.000,25.359,65.645,90.000
0.000,27.000,-1.463,382.419,823.706,0.000,0.000,0.000,25.359,65.645,90.000
0.000,27.000,-1.924,383.178,824.270,0.000,0.000,0.000,25.359,65.645,90.000
0.000,27.000,0.364,383.328,822.925,0.000,0.000,0.000,25.359,65.645,90.000
0.000,27.000,-2.383,383.729,824.212,0.000,0.000,0.000,25.359,65.645,90.000
0.000,27.000,-1.409,383.370,823.453,0.000,0.000,0.000,25.359,65.645,90.000
0.000,27.000,-0.041,384.199,822.797,0.000,0.000,0.000,25.359,65.645,90.000
0.000,27.000,-0.644,382.366,824.234,0.000,0.000,0.000,25.359,65.645,90.000
0.000,28.000,-272.930,269.012,821.495,0.000,0.000,0.000,25.359,65.645,45.000
0.000,28.000,-272.602,270.088,820.623,0.000,0.000,0.000,25.359,65.645,45.000
0.000,28.000,-273.612,269.584,821.034,0.000,0.000,0.000,25.359,65.645,45.000
0.000,28.000,-272.597,270.516,820.931,0.000,0.000,0.000,25.359,65.645,45.000
0.000,28.000,-272.411,270.451,821.576,0.000,0.000,0.000,25.359,65.645,45.000
0.000,28.000,-272.815,270.065,821.179,0.000,0.000,0.000,25.359,65.645,45.000
0.000,28.000,-272.795,269.751,822.152,0.000,0.000,0.000,25.359,65.645,45.000
0.000,28.000,-272.502,269.304,822.222,0.000,0.000,0.000,25.359,65.645,45.000
0.000,28.000,-273.313,269.062,822.365,0.000,0.000,0.000,25.359,65.645,45.000
0.000,28.000,-272.324,268.166,820.866,0.000,0.000,0.000,25.359,65.645,45.000
0.000,29.000,-383.073,2.306,815.920,0.000,0.000,0.000,25.359,65.645,0.000
0.000,29.000,-382.332,1.874,816.563,0.000,0.000,0.000,25.359,65.645,0.000
0.000,29.000,-382.442,2.804,817.600,0.000,0.000,0.000,25.359,65.645,0.000
0.000,29.000,-382.711,2.631,816.935,0.000,0.000,0.000,25.390,65.645,0.000
0.000,29.000,-383.193,2.320,817.813,0.000,0.000,0.000,25.390,65.645,0.000
0.000,29.000,-383.722,2.669,816.628,0.000,0.000,0.000,25.390,65.645,0.000
0.000,29.000,-383.409,3.484,817.702,0.000,0.000,0.000,25.390,65.645,0.000
0.000,29.000,-383.774,2.007,817.167,0.000,0.000,0.000,25.390,65.645,0.000
0.000,29.000,-382.857,2.437,817.783,0.000,0.000,0.000,25.390,65.645,0.000
0.000,29.000,-382.751,2.819,817.672,0.000,0.000,0.000,25.390,65.645,0.000
0.000,30.000,-273.612,-264.938,818.769,0.000,0.000,0.000,25.390,65.645,-45.000
0.000,30.000,-274.553,-265.466,817.490,0.000,0.000,0.000,25.390,65.645,-45.000
0.000,30.000,-273.319,-263.582,817.961,0.000,0.000,0.000,25.390,65.645,-45.000
0.000,30.000,-273.264,-263.785,819.246,0.000,0.000,0.000,25.390,65.645,-45.000
0.000,30.000,-274.665,-264.813,818.017,0.000,0.000,0.000,25.390,65.645,-45.000
0.000,30.000,-273.400,-263.939,817.584,0.000,0.000,0.000,25.390,65.645,-45.000
0.000,30.000,-273.196,-266.193,817.576,0.000,0.000,0.000,25.390,65.645,-45.000
0.000,30.000,-273.758,-264.794,817.591,0.000,0.000,0.000,25.421,65.645,-45.000
0.000,30.000,-272.938,-265.623,817.093,0.000,0.000,0.000,25.390,65.645,-45.000
0.000,30.000,-274.229,-264.039,817.081,0.000,0.000,0.000,25.390,65.645,-45.000
0.000,31.000,-5.924,-377.186,817.550,0.000,0.000,0.000,25.390,65.645,-90.000
0.000,31.000,-6.350,-376.303,817.673,0.000,0.000,0.000,25.421,65.645,-90.000
0.000,31.000,-6.310,-377.113,818.766,0.000,0.000,0.000,25.421,65.645,-90.000
0.000,31.000,-5.594,-376.577,817.869,0.000,0.000,0.000,25.390,65.645,-90.000
0.000,31.000,-6.050,-376.927,817.473,0.000,0.000,0.000,25.421,65.645,-90.000
0.000,31.000,-4.899,-377.476,817.721,0.000,0.000,0.000,25.390,65.645,-90.000
0.000,31.000,-5.754,-377.349,817.303,0.000,0.000,0.000,25.421,65.645,-90.000
0.000,31.000,-6.324,-377.117,817.389,0.000,0.000,0.000,25.421,65.645,-90.000
0.000,31.000,-6.769,-377.554,818.079,0.000,0.000,0.000,25.390,65.645,-90.000
0.000,31.000,-4.859,-377.222,817.604,0.000,0.000,0.000,25.421,65.645,-90.000
0.000,32.000,265.473,-263.991,820.026,0.000,0.000,0.000,25.421,65.645,-135.000
0.000,32.000,266.360,-264.230,819.700,0.000,0.000,0.000,25.421,65.645,-135.000
0.000,32.000,264.277,-263.832,820.492,0.000,0.000,0.000,25.421,65.645,-135.000
0.000,32.000,266.078,-263.869,820.339,0.000,0.000,0.000,25.421,65.645,-135.000
0.000,32.000,263.925,-263.785,820.897,0.000,0.000,0.000,25.421,65.645,-135.000
0.000,32.000,265.018,-264.628,819.513,0.000,0.000,0.000,25.390,65.645,-135.000
0.000,32.000,264.710,-264.332,819.924,0.000,0.000,0.000,25.421,65.645,-135.000
0.000,32.000,266.284,-263.871,820.700,0.000,0.000,0.000,25.421,65.645,-135.000
0.000,32.000,265.633,-263.949,819.366,0.000,0.000,0.000,25.421,65.645,-135.000
0.000,32.000,264.836,-263.899,819.468,0.000,0.000,0.000,25.421,65.645,-135.000
0.000,33.000,47.869,3.358,902.165,0.000,0.000,0.000,25.452,86.835,180.000
0.000,33.000,47.854,2.778,900.521,0.000,0.000,0.000,25.452,86.835,180.000
0.000,33.000,49.093,2.498,902.817,0.000,0.000,0.000,25.452,86.835,180.000
0.000,33.000,47.603,2.425,900.714,0.000,0.000,0.000,25.452,86.835,180.000
0.000,33.000,47.808,3.807,901.673,0.000,0.000,0.000,25.452,86.835,180.000
0.000,33.000,47.811,2.923,901.783,0.000,0.000,0.000,25.452,86.835,180.000
0.000,33.000,48.456,3.608,900.901,0.000,0.000,0.000,25.452,86.835,180.000
0.000,33.000,48.077,2.555,901.837,0.000,0.000,0.000,25.452,86.835,180.000
0.000,33.000,47.074,2.388,900.717,0.000,0.000,0.000,25.421,86.835,180.000
0.000,33.000,48.959,2.883,901.564,0.000,0.000,0.000,25.452,86.835,180.000
0.000,34.000,30.441,39.912,902.956,0.000,0.000,0.000,25.452,86.835,135.000
0.000,34.000,31.480,39.036,903.467,0.000,0.000,0.000,25.452,86.835,135.000
0.000,34.000,31.639,38.666,903.137,0.000,0.000,0.000,25.452,86.835,135.000
0.000,34.000,31.964,38.646,903.502,0.000,0.000,0.000,25.452,86.835,135.000
0.000,34.000,31.567,38.717,902.233,0.000,0.000,0.000,25.452,86.835,135.000
0.000,34.000,30.519,39.005,901.851,0.000,0.000,0.000,25.452,86.835,135.000
0.000,34.000,31.291,38.292,902.386,0.000,0.000,0.000,25.452,86.835,135.000
0.000,34.000,30.250,39.350,901.379,0.000,0.000,0.000,25.452,86.835,135.000
0.000,34.000,30.237,38.602,902.188,0.000,0.000,0.000,25.484,86.835,135.000
0.000,34.000,30.355,38.673,902.209,0.000,0.000,0.000,25.452,86.835,135.000
0.000,35.000,-6.036,54.473,901.782,0.000,0.000,0.000,25.452,86.835,90.000
0.000,35.000,-5.582,53.591,901.916,0.000,0.000,0.000,25.452,86.835,90.000
0.000,35.000,-6.023,53.502,901.808,0.000,0.000,0.000,25.484,86.835,90.000
0.000,35.000,-5.518,53.808,903.306,0.000,0.000,0.000,25.452,86.835,90.000
0.000,35.000,-5.261,54.273,901.548,0.000,0.000,0.000,25.452,86.835,90.000
0.000,35.000,-5.645,54.026,902.141,0.000,0.000,0.000,25.484,86.835,90.000
0.000,35.000,-5.841,53.321,901.618,0.000,0.000,0.000,25.484,86.835,90.000
0.000,35.000,-6.344,54.433,901.919,0.000,0.000,0.000,25.484,86.835,90.000
0.000,35.000,-5.754,53.830,903.720,0.000,0.000,0.000,25.484,86.835,90.000
0.000,35.000,-5.419,53.418,902.323,0.000,0.000,0.000,25.484,86.835,90.000
0.000,36.000,-43.849,38.663,900.095,0.000,0.000,0.000,25.484,86.835,45.000
0.000,36.000,-43.328,38.720,900.903,0.000,0.000,0.000,25.484,86.835,45.000
0.000,36.000,-42.388,38.833,901.403,0.000,0.000,0.000,25.484,86.835,45.000
0.000,36.000,-43.708,38.076,899.639,0.000,0.000,0.000,25.484,86.835,45.000
0.000,36.000,-43.880,37.430,901.307,0.000,0.000,0.000,25.484,86.835,45.000
0.000,36.000,-43.664,38.165,900.205,0.000,0.000,0.000,25.484,86.835,45.000
0.000,36.000,-42.946,37.800,901.442,0.000,0.000,0.000,25.484,86.835,45.000
0.000,36.000,-43.669,38.114,900.832,0.000,0.000,0.000,25.484,86.835,45.000
0.000,36.000,-43.719,38.103,899.710,0.000,0.000,0.000,25.484,86.835,45.000
0.000,36.000,-43.092,37.827,900.268,0.000,0.000,0.000,25.484,86.835,45.000
0.000,37.000,-55.522,2.033,900.131,0.000,0.000,0.000,25.484,86.835,0.000
0.000,37.000,-56.186,-0.046,901.716,0.000,0.000,0.000,25.484,86.835,0.000
0.000,37.000,-56.144,1.553,900.429,0.000,0.000,0.000,25.484,86.835,0.000
0.000,37.000,-55.109,1.304,901.230,0.000,0.000,0.000,25.484,86.835,0.000
0.000,37.000,-55.798,1.297,900.969,0.000,0.000,0.000,25.484,86.835,0.000
0.000,37.000,-55.484,1.097,899.883,0.000,0.000,0.000,25.515,86.835,0.000
0.000,37.000,-56.446,0.828,901.481,0.000,0.000,0.000,25.484,86.835,0.000
0.000,37.000,-55.783,0.734,900.635,0.000,0.000,0.000,25.484,86.835,0.000
0.000,37.000,-56.491,1.172,900.254,0.000,0.000,0.000,25.484,86.835,0.000
0.000,37.000,-56.981,1.105,900.334,0.000,0.000,0.000,25.515,86.835,0.000
0.000,38.000,-40.972,-35.876,900.159,0.000,0.000,0.000,25.484,86.845,-45.000
0.000,38.000,-39.915,-35.647,901.111,0.000,0.000,0.000,25.515,86.845,-45.000
0.000,38.000,-40.962,-35.549,901.380,0.000,0.000,0.000,25.515,86.845,-45.000
0.000,38.000,-42.488,-35.787,901.980,0.000,0.000,0.000,25.515,86.845,-45.000
0.000,38.000,-38.951,-35.497,902.662,0.000,0.000,0.000,25.515,86.845,-45.000
0.000,38.000,-39.994,-36.512,902.405,0.000,0.000,0.000,25.515,86.845,-45.000
0.000,38.000,-40.102,-36.122,901.680,0.000,0.000,0.000,25.515,86.845,-45.000
0.000,38.000,-40.478,-36.474,901.071,0.000,0.000,0.000,25.484,86.845,-45.000
0.000,38.000,-39.613,-35.697,899.632,0.000,0.000,0.000,25.484,86.845,-45.000
0.000,38.000,-41.007,-36.249,900.930,0.000,0.000,0.000,25.515,86.845,-45.000
0.000,39.000,-3.032,-50.082,900.310,0.000,0.000,0.000,25.515,86.845,-90.000
0.000,39.000,-2.785,-49.381,899.970,0.000,0.000,0.000,25.515,86.845,-90.000
0.000,39.000,-2.859,-50.175,900.506,0.000,0.000,0.000,25.515,86.845,-90.000
0.000,39.000,-2.629,-49.873,899.991,0.000,0.000,0.000,25.515,86.845,-90.000
0.000,39.000,-2.531,-49.442,899.918,0.000,0.000,0.000,25.515,86.845,-90.000
0.000,39.000,-2.592,-48.874,900.848,0.000,0.000,0.000,25.515,86.845,-90.000
0.000,39.000,-2.331,-49.591,900.605,0.000,0.000,0.000,25.515,86.845,-90.000
0.000,39.000,-1.690,-50.033,902.341,0.000,0.000,0.000,25.515,86.845,-90.000
0.000,39.000,-4.143,-50.886,898.383,0.000,0.000,0.000,25.515,86.845,-90.000
0.000,39.000,-3.491,-50.819,900.758,0.000,0.000,0.000,25.515,86.835,-90.000
0.000,40.000,33.641,-33.214,900.600,0.000,0.000,0.000,25.515,86.845,-135.000
0.000,40.000,33.919,-34.039,900.822,0.000,0.000,0.000,25.546,86.845,-135.000
0.000,40.000,33.469,-33.607,902.636,0.000,0.000,0.000,25.515,86.845,-135.000
0.000,40.000,32.918,-32.984,900.619,0.000,0.000,0.000,25.515,86.845,-135.000
0.000,40.000,32.588,-33.780,900.992,0.000,0.000,0.000,25.515,86.845,-135.000
0.000,40.000,33.967,-33.851,900.824,0.000,0.000,0.000,25.546,86.845,-135.000
0.000,40.000,33.062,-33.632,901.047,0.000,0.000,0.000,25.546,86.845,-135.000
0.000,40.000,32.183,-33.182,901.097,0.000,0.000,0.000,25.515,86.845,-135.000
0.000,40.000,32.537,-34.235,901.339,0.000,0.000,0.000,25.515,86.845,-135.000
0.000,40.000,31.560,-33.722,900.748,0.000,0.000,0.000,25.546,86.845,-135.000
