Temp Iter,Index,X Accel 1,Y Accel 1,Z Accel 1,X Accel 2,Y Accel 2,Z Accel2, Temp_6g,Temp,Theta,Phi,,,,,,
0.000,1.000,906.972,7.534,5.350,0.000,0.000,0.000,29.075,0.000,-0.310,180.000
0.000,1.000,906.713,8.036,5.332,0.000,0.000,0.000,29.075,0.000,-0.310,180.000
0.000,1.000,908.147,7.187,6.647,0.000,0.000,0.000,29.075,0.000,-0.310,180.000
0.000,1.000,906.629,7.736,5.923,0.000,0.000,0.000,29.075,0.000,-0.310,180.000
0.000,1.000,907.568,7.996,7.487,0.000,0.000,0.000,29.106,0.000,-0.310,180.000
0.000,1.000,906.522,7.526,6.218,0.000,0.000,0.000,29.075,0.000,-0.310,180.000
0.000,1.000,906.721,7.922,5.631,0.000,0.000,0.000,29.075,0.000,-0.310,180.000
0.000,1.000,906.685,8.067,5.741,0.000,0.000,0.000,29.075,0.000,-0.310,180.000
0.000,1.000,907.937,8.154,6.791,0.000,0.000,0.000,29.106,0.000,-0.310,180.000
0.000,1.000,907.085,7.695,6.567,0.000,0.000,0.000,29.075,0.000,-0.310,180.000
0.000,2.000,651.582,648.626,6.155,0.000,0.000,0.000,29.075,0.000,-0.310,135.000
0.000,2.000,652.059,648.495,7.018,0.000,0.000,0.000,29.075,0.000,-0.310,135.000
0.000,2.000,651.427,649.105,6.669,0.000,0.000,0.000,29.044,0.000,-0.310,135.000
0.000,2.000,652.176,648.434,4.790,0.000,0.000,0.000,29.075,0.000,-0.310,135.000
0.000,2.000,652.011,648.210,6.579,0.000,0.000,0.000,29.075,0.000,-0.310,135.000
0.000,2.000,651.916,648.049,6.117,0.000,0.000,0.000,29.075,0.000,-0.310,135.000
0.000,2.000,651.163,648.470,5.672,0.000,0.000,0.000,29.044,0.000,-0.310,135.000
0.000,2.000,652.298,648.414,5.056,0.000,0.000,0.000,29.075,0.000,-0.310,135.000
0.000,2.000,650.869,648.528,6.289,0.000,0.000,0.000,29.044,0.000,-0.310,135.000
0.000,2.000,651.775,649.192,6.106,0.000,0.000,0.000,29.044,0.000,-0.310,135.000
0.000,3.000,8.639,921.830,3.117,0.000,0.000,0.000,29.075,0.000,-0.310,90.000
0.000,3.000,8.581,922.134,3.847,0.000,0.000,0.000,29.044,0.000,-0.310,90.000
0.000,3.000,9.687,922.966,3.076,0.000,0.000,0.000,29.044,0.000,-0.310,90.000
0.000,3.000,9.029,922.309,3.496,0.000,0.000,0.000,29.044,0.000,-0.310,90.000
0.000,3.000,9.567,922.261,3.176,0.000,0.000,0.000,29.013,0.000,-0.310,90.000
0.000,3.000,8.325,922.527,2.951,0.000,0.000,0.000,29.044,0.000,-0.310,90.000
0.000,3.000,9.231,921.921,3.730,0.000,0.000,0.000,29.044,0.000,-0.310,90.000
0.000,3.000,9.764,922.695,3.578,0.000,0.000,0.000,29.044,0.000,-0.310,90.000
0.000,3.000,8.046,922.316,1.721,0.000,0.000,0.000,29.044,0.000,-0.310,90.000
0.000,3.000,8.980,922.492,2.904,0.000,0.000,0.000,29.044,0.000,-0.310,90.000
0.000,4.000,-648.887,656.075,-3.470,0.000,0.000,0.000,29.044,0.000,-0.310,45.000
0.000,4.000,-648.650,655.961,-2.968,0.000,0.000,0.000,29.044,0.000,-0.310,45.000
0.000,4.000,-648.942,656.272,-3.250,0.000,0.000,0.000,29.044,0.000,-0.310,45.000
0.000,4.000,-649.519,655.529,-3.671,0.000,0.000,0.000,29.013,0.000,-0.310,45.000
0.000,4.000,-649.475,655.731,-4.596,0.000,0.000,0.000,29.044,0.000,-0.310,45.000
0.000,4.000,-649.021,656.379,-3.895,0.000,0.000,0.000,29.013,0.000,-0.310,45.000
0.000,4.000,-649.001,656.176,-5.149,0.000,0.000,0.000,28.981,0.000,-0.310,45.000
0.000,4.000,-649.706,655.778,-3.159,0.000,0.000,0.000,29.013,0.000,-0.310,45.000
0.000,4.000,-648.092,655.543,-3.688,0.000,0.000,0.000,29.013,0.000,-0.310,45.000
0.000,4.000,-649.230,655.822,-3.017,0.000,0.000,0.000,29.013,0.000,-0.310,45.000
0.000,5.000,-911.041,17.763,-10.094,0.000,0.000,0.000,29.013,0.000,-0.300,0.000
0.000,5.000,-909.938,17.487,-10.434,0.000,0.000,0.000,28.981,0.000,-0.310,0.000
0.000,5.000,-910.352,17.903,-9.794,0.000,0.000,0.000,28.981,0.000,-0.310,0.000
0.000,5.000,-911.708,17.317,-9.798,0.000,0.000,0.000,29.013,0.000,-0.310,0.000
0.000,5.000,-910.419,18.001,-11.407,0.000,0.000,0.000,29.013,0.000,-0.310,0.000
0.000,5.000,-911.279,18.031,-11.424,0.000,0.000,0.000,29.013,0.000,-0.310,0.000
0.000,5.000,-910.988,18.607,-11.993,0.000,0.000,0.000,29.013,0.000,-0.300,0.000
0.000,5.000,-911.244,17.259,-11.128,0.000,0.000,0.000,28.981,0.000,-0.300,0.000
0.000,5.000,-910.929,16.844,-11.563,0.000,0.000,0.000,28.981,0.000,-0.310,0.000
0.000,5.000,-911.635,17.816,-10.546,0.000,0.000,0.000,28.981,0.000,-0.310,0.000
0.000,6.000,-656.552,-622.643,-10.740,0.000,0.000,0.000,29.013,0.000,-0.300,-45.000
0.000,6.000,-655.760,-623.073,-10.364,0.000,0.000,0.000,29.013,0.000,-0.310,-45.000
0.000,6.000,-654.987,-622.461,-9.609,0.000,0.000,0.000,28.981,0.000,-0.300,-45.000
0.000,6.000,-656.628,-622.729,-10.227,0.000,0.000,0.000,28.981,0.000,-0.300,-45.000
0.000,6.000,-656.056,-623.601,-10.033,0.000,0.000,0.000,29.013,0.000,-0.310,-45.000
0.000,6.000,-656.768,-621.825,-10.732,0.000,0.000,0.000,28.981,0.000,-0.310,-45.000
0.000,6.000,-655.296,-622.509,-10.215,0.000,0.000,0.000,28.950,0.000,-0.310,-45.000
0.000,6.000,-655.770,-623.543,-11.211,0.000,0.000,0.000,28.981,0.000,-0.310,-45.000
0.000,6.000,-655.532,-623.206,-9.429,0.000,0.000,0.000,28.981,0.000,-0.310,-45.000
0.000,6.000,-655.929,-622.843,-10.900,0.000,0.000,0.000,28.981,0.000,-0.300,-45.000
0.000,7.000,-12.497,-897.423,-6.424,0.000,0.000,0.000,28.950,0.000,-0.300,-90.000
0.000,7.000,-13.437,-897.228,-7.396,0.000,0.000,0.000,28.950,0.000,-0.300,-90.000
0.000,7.000,-12.871,-897.739,-5.649,0.000,0.000,0.000,28.950,0.000,-0.310,-90.000
0.000,7.000,-12.494,-897.607,-6.147,0.000,0.000,0.000,28.950,0.000,-0.300,-90.000
0.000,7.000,-11.749,-897.645,-6.106,0.000,0.000,0.000,28.950,0.000,-0.300,-90.000
0.000,7.000,-12.099,-897.556,-6.552,0.000,0.000,0.000,28.981,0.000,-0.300,-90.000
0.000,7.000,-12.587,-897.952,-6.155,0.000,0.000,0.000,28.981,0.000,-0.300,-90.000
0.000,7.000,-12.690,-897.776,-7.332,0.000,0.000,0.000,28.981,0.000,-0.300,-90.000
0.000,7.000,-13.246,-896.809,-5.625,0.000,0.000,0.000,28.981,0.000,-0.300,-90.000
0.000,7.000,-12.872,-897.783,-6.221,0.000,0.000,0.000,28.981,0.000,-0.300,-90.000
0.000,8.000,646.412,-631.371,0.553,0.000,0.000,0.000,28.950,0.000,-0.310,-135.000
0.000,8.000,647.299,-632.537,-0.632,0.000,0.000,0.000,28.950,0.000,-0.310,-135.000
0.000,8.000,647.521,-631.601,0.314,0.000,0.000,0.000,28.950,0.000,-0.310,-135.000
0.000,8.000,648.303,-631.038,0.760,0.000,0.000,0.000,28.950,0.000,-0.300,-135.000
0.000,8.000,648.026,-631.091,-0.034,0.000,0.000,0.000,28.950,0.000,-0.300,-135.000
0.000,8.000,647.813,-630.758,0.792,0.000,0.000,0.000,28.950,0.000,-0.300,-135.000
0.000,8.000,647.043,-630.320,0.485,0.000,0.000,0.000,28.950,0.000,-0.310,-135.000
0.000,8.000,647.933,-630.486,-0.035,0.000,0.000,0.000,28.919,0.000,-0.310,-135.000
0.000,8.000,647.940,-630.901,0.274,0.000,0.000,0.000,28.950,0.000,-0.300,-135.000
0.000,8.000,648.374,-630.854,-0.221,0.000,0.000,0.000,28.950,0.000,-0.300,-135.000
0.000,9.000,878.553,6.473,229.085,0.000,0.000,0.000,28.919,0.000,13.910,180.000
0.000,9.000,878.597,6.522,229.086,0.000,0.000,0.000,28.919,0.000,13.920,180.000
0.000,9.000,878.682,7.017,229.914,0.000,0.000,0.000,28.919,0.000,13.920,180.000
0.000,9.000,878.512,5.453,229.676,0.000,0.000,0.000,28.919,0.000,13.920,180.000
0.000,9.000,878.556,6.972,230.482,0.000,0.000,0.000,28.919,0.000,13.920,180.000
0.000,9.000,879.259,5.916,230.493,0.000,0.000,0.000,28.919,0.000,13.920,180.000
0.000,9.000,878.217,6.477,229.925,0.000,0.000,0.000,28.950,0.000,13.920,180.000
0.000,9.000,878.392,5.864,229.995,0.000,0.000,0.000,28.919,0.000,13.920,180.000
0.000,9.000,878.679,6.801,230.665,0.000,0.000,0.000,28.919,0.000,13.920,180.000
0.000,9.000,879.533,6.058,229.733,0.000,0.000,0.000,28.919,0.000,13.920,180.000
0.000,10.000,631.700,628.556,230.570,0.000,0.000,0.000,28.919,0.000,13.920,135.000
0.000,10.000,632.209,628.332,230.805,0.000,0.000,0.000,28.888,0.000,13.920,135.000
0.000,10.000,631.347,628.932,232.510,0.000,0.000,0.000,28.919,0.000,13.920,135.000
0.000,10.000,632.666,628.204,229.898,0.000,0.000,0.000,28.888,0.000,13.920,135.000
0.000,10.000,631.841,628.718,231.590,0.000,0.000,0.000,28.919,0.000,13.920,135.000
0.000,10.000,630.183,627.777,231.054,0.000,0.000,0.000,28.888,0.000,13.920,135.000
0.000,10.000,631.233,628.334,230.752,0.000,0.000,0.000,28.888,0.000,13.920,135.000
0.000,10.000,630.945,628.424,231.583,0.000,0.000,0.000,28.888,0.000,13.920,135.000
0.000,10.000,630.489,627.839,231.768,0.000,0.000,0.000,28.919,0.000,13.920,135.000
0.000,10.000,632.206,627.682,230.634,0.000,0.000,0.000,28.919,0.000,13.920,135.000
0.000,11.000,5.666,894.220,227.792,0.000,0.000,0.000,28.888,0.000,13.920,90.000
0.000,11.000,5.428,894.241,227.799,0.000,0.000,0.000,28.919,0.000,13.920,90.000
0.000,11.000,5.034,893.282,226.033,0.000,0.000,0.000,28.888,0.000,13.920,90.000
0.000,11.000,5.320,894.238,226.318,0.000,0.000,0.000,28.919,0.000,13.920,90.000
0.000,11.000,5.949,894.396,225.969,0.000,0.000,0.000,28.857,0.000,13.920,90.000
0.000,11.000,6.616,894.379,226.944,0.000,0.000,0.000,28.888,0.000,13.920,90.000
0.000,11.000,5.987,894.617,227.052,0.000,0.000,0.000,28.888,0.000,13.920,90.000
0.000,11.000,5.069,893.553,226.227,0.000,0.000,0.000,28.888,0.000,13.920,90.000
0.000,11.000,5.429,893.955,226.331,0.000,0.000,0.000,28.888,0.000,13.920,90.000
0.000,11.000,5.841,894.495,226.404,0.000,0.000,0.000,28.888,0.000,13.920,90.000
0.000,12.000,-633.377,635.259,220.039,0.000,0.000,0.000,28.888,0.000,13.920,45.000
0.000,12.000,-632.738,635.593,221.701,0.000,0.000,0.000,28.888,0.000,13.920,45.000
0.000,12.000,-632.080,634.760,222.255,0.000,0.000,0.000,28.888,0.000,13.920,45.000
0.000,12.000,-632.521,634.794,222.502,0.000,0.000,0.000,28.888,0.000,13.920,45.000
0.000,12.000,-633.433,636.091,221.649,0.000,0.000,0.000,28.857,0.000,13.920,45.000
0.000,12.000,-632.923,635.206,222.557,0.000,0.000,0.000,28.888,0.000,13.920,45.000
0.000,12.000,-630.550,635.105,221.355,0.000,0.000,0.000,28.919,0.000,13.920,45.000
0.000,12.000,-631.624,635.279,222.317,0.000,0.000,0.000,28.888,0.000,13.920,45.000
0.000,12.000,-632.613,634.680,221.109,0.000,0.000,0.000,28.857,0.000,13.920,45.000
0.000,12.000,-631.014,635.630,220.606,0.000,0.000,0.000,28.857,0.000,13.920,45.000
0.000,13.000,-885.814,15.874,214.337,0.000,0.000,0.000,28.857,0.000,13.920,0.000
0.000,13.000,-884.133,15.953,213.753,0.000,0.000,0.000,28.857,0.000,13.920,0.000
0.000,13.000,-885.152,14.929,214.008,0.000,0.000,0.000,28.857,0.000,13.920,0.000
0.000,13.000,-884.548,15.195,214.109,0.000,0.000,0.000,28.888,0.000,13.920,0.000
0.000,13.000,-884.656,16.746,214.228,0.000,0.000,0.000,28.888,0.000,13.920,0.000
0.000,13.000,-885.109,14.528,214.163,0.000,0.000,0.000,28.857,0.000,13.920,0.000
0.000,13.000,-883.946,15.443,213.553,0.000,0.000,0.000,28.888,0.000,13.920,0.000
0.000,13.000,-884.301,14.958,213.235,0.000,0.000,0.000,28.857,0.000,13.920,0.000
0.000,13.000,-883.789,15.363,214.669,0.000,0.000,0.000,28.888,0.000,13.920,0.000
0.000,13.000,-883.726,16.038,214.940,0.000,0.000,0.000,28.857,0.000,13.920,0.000
0.000,14.000,-639.950,-606.593,214.419,0.000,0.000,0.000,28.857,0.000,13.920,-45.000
0.000,14.000,-638.383,-606.034,214.497,0.000,0.000,0.000,28.825,0.000,13.920,-45.000
0.000,14.000,-638.734,-605.881,212.970,0.000,0.000,0.000,28.857,0.000,13.920,-45.000
0.000,14.000,-639.126,-606.266,214.186,0.000,0.000,0.000,28.825,0.000,13.920,-45.000
0.000,14.000,-638.949,-606.633,214.888,0.000,0.000,0.000,28.857,0.000,13.920,-45.000
0.000,14.000,-639.108,-606.363,214.858,0.000,0.000,0.000,28.888,0.000,13.920,-45.000
0.000,14.000,-640.224,-606.054,212.612,0.000,0.000,0.000,28.857,0.000,13.920,-45.000
0.000,14.000,-638.518,-606.510,213.997,0.000,0.000,0.000,28.857,0.000,13.920,-45.000
0.000,14.000,-638.510,-606.410,214.263,0.000,0.000,0.000,28.857,0.000,13.920,-45.000
0.000,14.000,-639.018,-606.468,213.604,0.000,0.000,0.000,28.825,0.000,13.920,-45.000
0.000,15.000,-14.211,-871.729,217.562,0.000,0.000,0.000,28.825,0.000,13.920,-90.000
0.000,15.000,-13.969,-871.602,217.282,0.000,0.000,0.000,28.857,0.000,13.920,-90.000
0.000,15.000,-14.540,-871.551,217.082,0.000,0.000,0.000,28.825,0.000,13.920,-90.000
0.000,15.000,-13.971,-872.001,218.574,0.000,0.000,0.000,28.857,0.000,13.920,-90.000
0.000,15.000,-14.433,-871.235,217.175,0.000,0.000,0.000,28.857,0.000,13.920,-90.000
0.000,15.000,-14.687,-871.909,216.387,0.000,0.000,0.000,28.857,0.000,13.920,-90.000
0.000,15.000,-14.157,-871.064,218.017,0.000,0.000,0.000,28.825,0.000,13.920,-90.000
0.000,15.000,-15.175,-871.496,219.006,0.000,0.000,0.000,28.857,0.000,13.920,-90.000
0.000,15.000,-14.911,-871.480,217.323,0.000,0.000,0.000,28.825,0.000,13.920,-90.000
0.000,15.000,-14.021,-871.765,218.020,0.000,0.000,0.000,28.857,0.000,13.920,-90.000
0.000,16.000,621.824,-616.475,220.134,0.000,0.000,0.000,28.825,0.000,13.920,-135.000
0.000,16.000,621.533,-616.440,219.932,0.000,0.000,0.000,28.857,0.000,13.920,-135.000
0.000,16.000,622.759,-616.006,219.914,0.000,0.000,0.000,28.825,0.000,13.920,-135.000
0.000,16.000,622.387,-617.068,219.666,0.000,0.000,0.000,28.825,0.000,13.920,-135.000
0.000,16.000,623.335,-616.424,219.663,0.000,0.000,0.000,28.857,0.000,13.920,-135.000
0.000,16.000,621.987,-616.478,219.393,0.000,0.000,0.000,28.825,0.000,13.920,-135.000
0.000,16.000,623.358,-615.974,219.939,0.000,0.000,0.000,28.825,0.000,13.920,-135.000
0.000,16.000,622.662,-616.740,219.865,0.000,0.000,0.000,28.825,0.000,13.920,-135.000
0.000,16.000,621.661,-616.855,219.587,0.000,0.000,0.000,28.857,0.000,13.920,-135.000
0.000,16.000,623.145,-616.765,219.583,0.000,0.000,0.000,28.825,0.000,13.920,-135.000
0.000,17.000,811.192,8.463,412.508,0.000,0.000,0.000,28.825,0.000,26.110,180.000
0.000,17.000,812.937,7.997,412.378,0.000,0.000,0.000,28.794,0.000,26.110,180.000
0.000,17.000,811.957,7.939,411.519,0.000,0.000,0.000,28.825,0.000,26.110,180.000
0.000,17.000,811.158,7.673,412.842,0.000,0.000,0.000,28.825,0.000,26.110,180.000
0.000,17.000,811.368,7.512,411.891,0.000,0.000,0.000,28.825,0.000,26.110,180.000
0.000,17.000,812.308,7.754,412.158,0.000,0.000,0.000,28.825,0.000,26.110,180.000
0.000,17.000,811.215,8.208,411.911,0.000,0.000,0.000,28.794,0.000,26.110,180.000
0.000,17.000,811.513,7.483,412.735,0.000,0.000,0.000,28.825,0.000,26.110,180.000
0.000,17.000,811.413,7.084,412.912,0.000,0.000,0.000,28.825,0.000,26.110,180.000
0.000,17.000,811.005,7.544,412.430,0.000,0.000,0.000,28.825,0.000,26.110,180.000
0.000,18.000,576.822,584.561,410.111,0.000,0.000,0.000,28.825,0.000,26.110,135.000
0.000,18.000,576.020,585.046,408.806,0.000,0.000,0.000,28.794,0.000,26.110,135.000
0.000,18.000,576.577,584.569,408.438,0.000,0.000,0.000,28.825,0.000,26.110,135.000
0.000,18.000,577.174,584.925,409.600,0.000,0.000,0.000,28.825,0.000,26.110,135.000
0.000,18.000,576.531,584.383,409.374,0.000,0.000,0.000,28.794,0.000,26.110,135.000
0.000,18.000,577.057,584.173,408.746,0.000,0.000,0.000,28.794,0.000,26.110,135.000
0.000,18.000,576.961,584.539,408.390,0.000,0.000,0.000,28.794,0.000,26.110,135.000
0.000,18.000,576.024,583.993,409.827,0.000,0.000,0.000,28.825,0.000,26.110,135.000
0.000,18.000,577.623,584.901,409.426,0.000,0.000,0.000,28.794,0.000,26.110,135.000
0.000,18.000,576.815,584.534,408.550,0.000,0.000,0.000,28.794,0.000,26.110,135.000
0.000,19.000,3.797,825.458,409.393,0.000,0.000,0.000,28.825,0.000,26.110,90.000
0.000,19.000,3.392,825.960,408.772,0.000,0.000,0.000,28.825,0.000,26.110,90.000
0.000,19.000,3.683,826.648,408.134,0.000,0.000,0.000,28.825,0.000,26.110,90.000
0.000,19.000,3.486,825.479,408.048,0.000,0.000,0.000,28.794,0.000,26.110,90.000
0.000,19.000,4.234,826.380,408.524,0.000,0.000,0.000,28.825,0.000,26.110,90.000
0.000,19.000,3.925,826.219,409.930,0.000,0.000,0.000,28.794,0.000,26.110,90.000
0.000,19.000,5.053,827.055,408.497,0.000,0.000,0.000,28.825,0.000,26.110,90.000
0.000,19.000,4.076,825.606,409.048,0.000,0.000,0.000,28.825,0.000,26.110,90.000
0.000,19.000,4.061,825.829,407.875,0.000,0.000,0.000,28.794,0.000,26.110,90.000
0.000,19.000,2.488,826.290,408.803,0.000,0.000,0.000,28.794,0.000,26.110,90.000
0.000,20.000,-586.841,585.921,401.481,0.000,0.000,0.000,28.794,0.000,26.110,45.000
0.000,20.000,-586.018,585.869,401.027,0.000,0.000,0.000,28.825,0.000,26.110,45.000
0.000,20.000,-586.588,585.751,400.357,0.000,0.000,0.000,28.794,0.000,26.110,45.000
0.000,20.000,-586.895,586.885,401.299,0.000,0.000,0.000,28.763,0.000,26.110,45.000
0.000,20.000,-586.167,586.388,403.211,0.000,0.000,0.000,28.794,0.000,26.110,45.000
0.000,20.000,-585.715,586.431,401.365,0.000,0.000,0.000,28.794,0.000,26.110,45.000
0.000,20.000,-586.646,585.487,400.044,0.000,0.000,0.000,28.794,0.000,26.110,45.000
0.000,20.000,-586.810,585.432,400.480,0.000,0.000,0.000,28.825,0.000,26.110,45.000
0.000,20.000,-585.808,585.576,400.842,0.000,0.000,0.000,28.794,0.000,26.110,45.000
0.000,20.000,-586.305,585.314,401.643,0.000,0.000,0.000,28.825,0.000,26.110,45.000
0.000,21.000,-819.272,14.015,394.688,0.000,0.000,0.000,28.794,0.000,26.110,0.000
0.000,21.000,-820.208,13.974,395.417,0.000,0.000,0.000,28.794,0.000,26.110,0.000
0.000,21.000,-820.799,13.491,395.900,0.000,0.000,0.000,28.794,0.000,26.110,0.000
0.000,21.000,-819.413,14.245,394.479,0.000,0.000,0.000,28.763,0.000,26.110,0.000
0.000,21.000,-820.549,14.468,395.711,0.000,0.000,0.000,28.794,0.000,26.110,0.000
0.000,21.000,-820.592,13.908,396.612,0.000,0.000,0.000,28.794,0.000,26.110,0.000
0.000,21.000,-820.393,13.291,395.583,0.000,0.000,0.000,28.794,0.000,26.120,0.000
0.000,21.000,-820.114,13.292,395.644,0.000,0.000,0.000,28.794,0.000,26.120,0.000
0.000,21.000,-819.549,13.860,395.500,0.000,0.000,0.000,28.794,0.000,26.120,0.000
0.000,21.000,-819.195,13.885,395.485,0.000,0.000,0.000,28.794,0.000,26.120,0.000
0.000,22.000,-587.905,-563.768,393.057,0.000,0.000,0.000,28.794,0.000,26.120,-45.000
0.000,22.000,-587.039,-564.094,394.125,0.000,0.000,0.000,28.825,0.000,26.110,-45.000
0.000,22.000,-588.909,-563.343,393.290,0.000,0.000,0.000,28.763,0.000,26.120,-45.000
0.000,22.000,-588.044,-563.732,393.311,0.000,0.000,0.000,28.794,0.000,26.110,-45.000
0.000,22.000,-589.517,-563.755,393.705,0.000,0.000,0.000,28.794,0.000,26.110,-45.000
0.000,22.000,-587.899,-563.970,392.005,0.000,0.000,0.000,28.794,0.000,26.110,-45.000
0.000,22.000,-588.280,-564.444,393.731,0.000,0.000,0.000,28.763,0.000,26.110,-45.000
0.000,22.000,-587.832,-564.268,392.906,0.000,0.000,0.000,28.825,0.000,26.120,-45.000
0.000,22.000,-588.192,-564.699,392.651,0.000,0.000,0.000,28.794,0.000,26.120,-45.000
0.000,22.000,-588.766,-564.690,393.738,0.000,0.000,0.000,28.794,0.000,26.110,-45.000
0.000,23.000,-14.494,-806.115,399.654,0.000,0.000,0.000,28.763,0.000,26.110,-90.000
0.000,23.000,-13.354,-806.664,400.822,0.000,0.000,0.000,28.763,0.000,26.110,-90.000
0.000,23.000,-12.167,-806.458,399.108,0.000,0.000,0.000,28.794,0.000,26.110,-90.000
0.000,23.000,-12.947,-806.450,400.823,0.000,0.000,0.000,28.763,0.000,26.110,-90.000
0.000,23.000,-14.282,-806.444,400.135,0.000,0.000,0.000,28.794,0.000,26.120,-90.000
0.000,23.000,-13.958,-806.531,399.803,0.000,0.000,0.000,28.763,0.000,26.120,-90.000
0.000,23.000,-12.913,-805.409,399.381,0.000,0.000,0.000,28.794,0.000,26.110,-90.000
0.000,23.000,-14.015,-806.507,398.845,0.000,0.000,0.000,28.794,0.000,26.110,-90.000
0.000,23.000,-13.197,-806.716,401.403,0.000,0.000,0.000,28.794,0.000,26.110,-90.000
0.000,23.000,-13.267,-806.635,399.960,0.000,0.000,0.000,28.794,0.000,26.110,-90.000
0.000,24.000,574.049,-569.785,400.807,0.000,0.000,0.000,28.763,0.000,26.120,-135.000
0.000,24.000,574.192,-569.641,401.528,0.000,0.000,0.000,28.794,0.000,26.110,-135.000
0.000,24.000,574.162,-569.497,401.297,0.000,0.000,0.000,28.763,0.000,26.120,-135.000
0.000,24.000,572.802,-569.968,402.226,0.000,0.000,0.000,28.763,0.000,26.120,-135.000
0.000,24.000,573.168,-569.633,401.767,0.000,0.000,0.000,28.763,0.000,26.120,-135.000
0.000,24.000,573.531,-569.715,402.101,0.000,0.000,0.000,28.763,0.000,26.120,-135.000
0.000,24.000,574.903,-569.982,401.270,0.000,0.000,0.000,28.794,0.000,26.110,-135.000
0.000,24.000,573.006,-569.742,400.694,0.000,0.000,0.000,28.763,0.000,26.110,-135.000
0.000,24.000,573.891,-569.982,401.632,0.000,0.000,0.000,28.794,0.000,26.110,-135.000
0.000,24.000,573.461,-570.339,401.193,0.000,0.000,0.000,28.763,0.000,26.120,-135.000
0.000,25.000,705.286,6.786,577.619,0.000,0.000,0.000,28.794,0.000,38.390,180.000
0.000,25.000,705.826,7.132,576.931,0.000,0.000,0.000,28.794,0.000,38.390,180.000
0.000,25.000,707.156,6.274,576.472,0.000,0.000,0.000,28.763,0.000,38.390,180.000
0.000,25.000,707.210,6.890,576.815,0.000,0.000,0.000,28.794,0.000,38.390,180.000
0.000,25.000,707.566,7.308,575.851,0.000,0.000,0.000,28.763,0.000,38.390,180.000
0.000,25.000,706.708,6.918,577.445,0.000,0.000,0.000,28.794,0.000,38.390,180.000
0.000,25.000,707.179,6.988,577.554,0.000,0.000,0.000,28.794,0.000,38.390,180.000
0.000,25.000,705.900,6.869,576.716,0.000,0.000,0.000,28.763,0.000,38.390,180.000
0.000,25.000,705.362,7.479,577.098,0.000,0.000,0.000,28.794,0.000,38.390,180.000
0.000,25.000,705.885,7.068,576.418,0.000,0.000,0.000,28.794,0.000,38.390,180.000
0.000,26.000,501.246,510.106,574.152,0.000,0.000,0.000,28.794,0.000,38.390,135.000
0.000,26.000,501.764,509.764,573.919,0.000,0.000,0.000,28.763,0.000,38.390,135.000
0.000,26.000,502.027,509.911,574.221,0.000,0.000,0.000,28.763,0.000,38.390,135.000
0.000,26.000,500.468,510.284,572.192,0.000,0.000,0.000,28.763,0.000,38.390,135.000
0.000,26.000,501.399,510.028,575.257,0.000,0.000,0.000,28.763,0.000,38.390,135.000
0.000,26.000,501.856,509.229,574.272,0.000,0.000,0.000,28.763,0.000,38.390,135.000
0.000,26.000,501.932,509.558,573.159,0.000,0.000,0.000,28.763,0.000,38.390,135.000
0.000,26.000,502.039,509.321,574.641,0.000,0.000,0.000,28.763,0.000,38.390,135.000
0.000,26.000,501.316,510.837,574.021,0.000,0.000,0.000,28.794,0.000,38.390,135.000
0.000,26.000,501.416,510.387,574.433,0.000,0.000,0.000,28.763,0.000,38.390,135.000
0.000,27.000,1.533,721.458,571.923,0.000,0.000,0.000,28.763,0.000,38.390,90.000
0.000,27.000,1.612,722.849,573.611,0.000,0.000,0.000,28.763,0.000,38.390,90.000
0.000,27.000,0.587,722.127,572.764,0.000,0.000,0.000,28.763,0.000,38.390,90.000
0.000,27.000,1.580,721.972,573.344,0.000,0.000,0.000,28.763,0.000,38.390,90.000
0.000,27.000,1.595,721.850,572.737,0.000,0.000,0.000,28.763,0.000,38.390,90.000
0.000,27.000,1.005,721.325,572.815,0.000,0.000,0.000,28.763,0.000,38.390,90.000
0.000,27.000,1.574,722.816,571.901,0.000,0.000,0.000,28.763,0.000,38.390,90.000
0.000,27.000,0.818,722.020,574.312,0.000,0.000,0.000,28.763,0.000,38.390,90.000
0.000,27.000,1.502,721.567,573.308,0.000,0.000,0.000,28.763,0.000,38.390,90.000
0.000,27.000,1.156,721.950,573.215,0.000,0.000,0.000,28.763,0.000,38.390,90.000
0.000,28.000,-508.617,514.993,562.917,0.000,0.000,0.000,28.763,0.000,38.390,45.000
0.000,28.000,-510.560,514.407,563.525,0.000,0.000,0.000,28.763,0.000,38.390,45.000
0.000,28.000,-509.842,514.843,561.927,0.000,0.000,0.000,28.763,0.000,38.390,45.000
0.000,28.000,-510.457,514.281,563.493,0.000,0.000,0.000,28.794,0.000,38.390,45.000
0.000,28.000,-510.525,513.987,562.924,0.000,0.000,0.000,28.763,0.000,38.390,45.000
0.000,28.000,-510.604,514.222,563.083,0.000,0.000,0.000,28.794,0.000,38.390,45.000
0.000,28.000,-510.366,514.760,561.989,0.000,0.000,0.000,28.763,0.000,38.390,45.000
0.000,28.000,-509.636,514.694,561.518,0.000,0.000,0.000,28.732,0.000,38.390,45.000
0.000,28.000,-510.162,514.974,561.650,0.000,0.000,0.000,28.763,0.000,38.390,45.000
0.000,28.000,-510.804,514.851,563.786,0.000,0.000,0.000,28.763,0.000,38.390,45.000
0.000,29.000,-721.617,8.262,559.316,0.000,0.000,0.000,28.794,0.000,38.390,0.000
0.000,29.000,-720.915,8.573,560.223,0.000,0.000,0.000,28.763,0.000,38.390,0.000
0.000,29.000,-721.917,7.929,559.720,0.000,0.000,0.000,28.763,0.000,38.390,0.000
0.000,29.000,-720.573,9.461,560.136,0.000,0.000,0.000,28.763,0.000,38.390,0.000
0.000,29.000,-720.726,8.470,559.588,0.000,0.000,0.000,28.763,0.000,38.390,0.000
0.000,29.000,-720.800,7.760,558.946,0.000,0.000,0.000,28.794,0.000,38.390,0.000
0.000,29.000,-720.706,8.956,558.788,0.000,0.000,0.000,28.763,0.000,38.390,0.000
0.000,29.000,-721.025,8.970,559.391,0.000,0.000,0.000,28.763,0.000,38.390,0.000
0.000,29.000,-720.835,8.052,559.520,0.000,0.000,0.000,28.763,0.000,38.390,0.000
0.000,29.000,-720.225,7.909,560.181,0.000,0.000,0.000,28.763,0.000,38.390,0.000
0.000,30.000,-513.630,-490.632,560.645,0.000,0.000,0.000,28.763,0.000,38.390,-45.000
0.000,30.000,-514.002,-491.662,558.700,0.000,0.000,0.000,28.763,0.000,38.390,-45.000
0.000,30.000,-515.003,-491.308,559.331,0.000,0.000,0.000,28.763,0.000,38.390,-45.000
0.000,30.000,-514.139,-491.682,559.555,0.000,0.000,0.000,28.763,0.000,38.390,-45.000
0.000,30.000,-514.103,-491.374,558.444,0.000,0.000,0.000,28.763,0.000,38.390,-45.000
0.000,30.000,-515.417,-490.273,558.605,0.000,0.000,0.000,28.763,0.000,38.390,-45.000
0.000,30.000,-514.893,-491.931,559.947,0.000,0.000,0.000,28.763,0.000,38.390,-45.000
0.000,30.000,-515.483,-490.954,559.157,0.000,0.000,0.000,28.763,0.000,38.390,-45.000
0.000,30.000,-515.167,-491.511,560.271,0.000,0.000,0.000,28.732,0.000,38.390,-45.000
0.000,30.000,-514.589,-491.463,559.680,0.000,0.000,0.000,28.763,0.000,38.390,-45.000
0.000,31.000,-13.053,-703.951,565.759,0.000,0.000,0.000,28.763,0.000,38.390,-90.000
0.000,31.000,-12.198,-702.968,565.475,0.000,0.000,0.000,28.794,0.000,38.390,-90.000
0.000,31.000,-11.392,-703.144,566.564,0.000,0.000,0.000,28.763,0.000,38.390,-90.000
0.000,31.000,-13.970,-703.055,565.147,0.000,0.000,0.000,28.763,0.000,38.390,-90.000
0.000,31.000,-11.490,-702.517,565.692,0.000,0.000,0.000,28.763,0.000,38.390,-90.000
0.000,31.000,-11.387,-703.854,564.901,0.000,0.000,0.000,28.763,0.000,38.390,-90.000
0.000,31.000,-12.310,-702.733,565.924,0.000,0.000,0.000,28.763,0.000,38.390,-90.000
0.000,31.000,-12.474,-703.632,565.733,0.000,0.000,0.000,28.732,0.000,38.390,-90.000
0.000,31.000,-13.480,-703.035,565.633,0.000,0.000,0.000,28.763,0.000,38.390,-90.000
0.000,31.000,-13.790,-703.028,566.008,0.000,0.000,0.000,28.763,0.000,38.390,-90.000
0.000,32.000,500.058,-496.966,566.931,0.000,0.000,0.000,28.763,0.000,38.390,-135.000
0.000,32.000,499.961,-496.780,567.589,0.000,0.000,0.000,28.732,0.000,38.390,-135.000
0.000,32.000,499.293,-497.322,568.700,0.000,0.000,0.000,28.763,0.000,38.390,-135.000
0.000,32.000,500.132,-496.957,568.310,0.000,0.000,0.000,28.732,0.000,38.390,-135.000
0.000,32.000,499.004,-497.090,566.813,0.000,0.000,0.000,28.794,0.000,38.400,-135.000
0.000,32.000,500.188,-497.817,566.850,0.000,0.000,0.000,28.763,0.000,38.390,-135.000
0.000,32.000,499.844,-496.911,568.272,0.000,0.000,0.000,28.732,0.000,38.390,-135.000
0.000,32.000,499.878,-496.074,567.376,0.000,0.000,0.000,28.763,0.000,38.390,-135.000
0.000,32.000,500.146,-496.509,567.173,0.000,0.000,0.000,28.732,0.000,38.390,-135.000
0.000,32.000,497.966,-496.603,567.822,0.000,0.000,0.000,28.763,0.000,38.390,-135.000
0.000,33.000,575.000,3.944,707.598,0.000,0.000,0.000,28.763,0.000,50.370,180.000
0.000,33.000,575.815,4.972,708.429,0.000,0.000,0.000,28.732,0.000,50.370,180.000
0.000,33.000,575.328,4.184,707.533,0.000,0.000,0.000,28.763,0.000,50.370,180.000
0.000,33.000,574.224,4.004,707.514,0.000,0.000,0.000,28.732,0.000,50.370,180.000
0.000,33.000,576.059,4.133,707.524,0.000,0.000,0.000,28.763,0.000,50.370,180.000
0.000,33.000,575.707,4.611,708.707,0.000,0.000,0.000,28.763,0.000,50.370,180.000
0.000,33.000,576.732,4.412,707.712,0.000,0.000,0.000,28.794,0.000,50.380,180.000
0.000,33.000,576.849,4.115,706.968,0.000,0.000,0.000,28.763,0.000,50.370,180.000
0.000,33.000,575.442,3.699,707.571,0.000,0.000,0.000,28.763,0.000,50.380,180.000
0.000,33.000,574.992,4.637,707.940,0.000,0.000,0.000,28.763,0.000,50.380,180.000
0.000,34.000,405.704,416.524,707.407,0.000,0.000,0.000,28.763,0.000,50.370,135.000
0.000,34.000,405.787,416.912,707.161,0.000,0.000,0.000,28.763,0.000,50.380,135.000
0.000,34.000,405.261,415.948,707.544,0.000,0.000,0.000,28.763,0.000,50.380,135.000
0.000,34.000,405.103,416.070,708.430,0.000,0.000,0.000,28.732,0.000,50.380,135.000
0.000,34.000,403.845,417.359,706.877,0.000,0.000,0.000,28.763,0.000,50.380,135.000
0.000,34.000,404.431,416.497,707.850,0.000,0.000,0.000,28.732,0.000,50.380,135.000
0.000,34.000,404.765,417.471,708.444,0.000,0.000,0.000,28.763,0.000,50.380,135.000
0.000,34.000,404.924,416.535,707.520,0.000,0.000,0.000,28.732,0.000,50.380,135.000
0.000,34.000,405.457,417.395,708.677,0.000,0.000,0.000,28.763,0.000,50.380,135.000
0.000,34.000,404.436,416.473,707.673,0.000,0.000,0.000,28.763,0.000,50.380,135.000
0.000,35.000,-0.516,586.362,709.031,0.000,0.000,0.000,28.763,0.000,50.380,90.000
0.000,35.000,-0.417,586.024,710.792,0.000,0.000,0.000,28.763,0.000,50.380,90.000
0.000,35.000,-0.960,587.376,710.190,0.000,0.000,0.000,28.732,0.000,50.380,90.000
0.000,35.000,-1.486,586.596,709.553,0.000,0.000,0.000,28.763,0.000,50.380,90.000
0.000,35.000,-1.227,586.256,708.587,0.000,0.000,0.000,28.763,0.000,50.380,90.000
0.000,35.000,-1.509,586.068,708.166,0.000,0.000,0.000,28.763,0.000,50.380,90.000
0.000,35.000,-2.416,586.538,707.978,0.000,0.000,0.000,28.763,0.000,50.380,90.000
0.000,35.000,-0.931,586.641,709.403,0.000,0.000,0.000,28.732,0.000,50.380,90.000
0.000,35.000,-0.745,587.640,708.959,0.000,0.000,0.000,28.763,0.000,50.380,90.000
0.000,35.000,-1.142,586.701,709.988,0.000,0.000,0.000,28.763,0.000,50.380,90.000
0.000,36.000,-417.242,417.686,699.201,0.000,0.000,0.000,28.732,0.000,50.380,45.000
0.000,36.000,-416.875,418.139,699.814,0.000,0.000,0.000,28.763,0.000,50.380,45.000
0.000,36.000,-416.242,417.805,698.386,0.000,0.000,0.000,28.763,0.000,50.380,45.000
0.000,36.000,-417.078,417.658,699.662,0.000,0.000,0.000,28.732,0.000,50.380,45.000
0.000,36.000,-415.901,417.470,699.746,0.000,0.000,0.000,28.763,0.000,50.380,45.000
0.000,36.000,-417.484,416.950,700.826,0.000,0.000,0.000,28.763,0.000,50.380,45.000
0.000,36.000,-417.627,417.701,699.796,0.000,0.000,0.000,28.763,0.000,50.380,45.000
0.000,36.000,-416.888,417.201,699.332,0.000,0.000,0.000,28.763,0.000,50.380,45.000
0.000,36.000,-416.989,417.609,699.291,0.000,0.000,0.000,28.732,0.000,50.380,45.000
0.000,36.000,-416.569,416.744,698.860,0.000,0.000,0.000,28.763,0.000,50.380,45.000
0.000,37.000,-593.798,9.803,692.053,0.000,0.000,0.000,28.794,0.000,50.380,0.000
0.000,37.000,-594.161,9.567,694.163,0.000,0.000,0.000,28.763,0.000,50.380,0.000
0.000,37.000,-593.323,9.483,691.762,0.000,0.000,0.000,28.794,0.000,50.380,0.000
0.000,37.000,-593.320,9.315,693.200,0.000,0.000,0.000,28.763,0.000,50.380,0.000
0.000,37.000,-593.616,10.892,693.353,0.000,0.000,0.000,28.763,0.000,50.380,0.000
0.000,37.000,-593.122,10.216,692.524,0.000,0.000,0.000,28.763,0.000,50.380,0.000
0.000,37.000,-594.494,9.551,695.261,0.000,0.000,0.000,28.763,0.000,50.380,0.000
0.000,37.000,-593.473,9.996,692.555,0.000,0.000,0.000,28.763,0.000,50.380,0.000
0.000,37.000,-594.494,9.514,693.937,0.000,0.000,0.000,28.763,0.000,50.380,0.000
0.000,37.000,-593.015,10.300,692.473,0.000,0.000,0.000,28.732,0.000,50.380,0.000
0.000,38.000,-418.511,-400.640,695.301,0.000,0.000,0.000,28.763,0.000,50.380,-45.000
0.000,38.000,-420.073,-399.740,694.970,0.000,0.000,0.000,28.763,0.000,50.380,-45.000
0.000,38.000,-421.114,-400.559,696.345,0.000,0.000,0.000,28.763,0.000,50.380,-45.000
0.000,38.000,-420.049,-400.591,695.689,0.000,0.000,0.000,28.763,0.000,50.380,-45.000
0.000,38.000,-419.704,-399.969,695.121,0.000,0.000,0.000,28.794,0.000,50.380,-45.000
0.000,38.000,-419.147,-399.433,695.953,0.000,0.000,0.000,28.763,0.000,50.380,-45.000
0.000,38.000,-419.393,-400.346,696.295,0.000,0.000,0.000,28.763,0.000,50.380,-45.000
0.000,38.000,-420.134,-400.717,695.069,0.000,0.000,0.000,28.763,0.000,50.380,-45.000
0.000,38.000,-419.485,-400.762,696.450,0.000,0.000,0.000,28.763,0.000,50.380,-45.000
0.000,38.000,-418.899,-401.044,695.491,0.000,0.000,0.000,28.763,0.000,50.380,-45.000
0.000,39.000,-15.743,-573.884,699.670,0.000,0.000,0.000,28.763,0.000,50.380,-90.000
0.000,39.000,-16.739,-573.779,700.230,0.000,0.000,0.000,28.763,0.000,50.380,-90.000
0.000,39.000,-17.077,-573.682,699.602,0.000,0.000,0.000,28.763,0.000,50.380,-90.000
0.000,39.000,-15.904,-573.604,699.128,0.000,0.000,0.000,28.763,0.000,50.380,-90.000
0.000,39.000,-16.766,-572.737,698.518,0.000,0.000,0.000,28.763,0.000,50.380,-90.000
0.000,39.000,-16.198,-573.319,698.948,0.000,0.000,0.000,28.794,0.000,50.380,-90.000
0.000,39.000,-16.840,-573.227,699.829,0.000,0.000,0.000,28.732,0.000,50.380,-90.000
0.000,39.000,-16.932,-573.716,699.807,0.000,0.000,0.000,28.763,0.000,50.380,-90.000
0.000,39.000,-15.943,-573.677,699.391,0.000,0.000,0.000,28.732,0.000,50.380,-90.000
0.000,39.000,-16.000,-574.141,699.410,0.000,0.000,0.000,28.763,0.000,50.380,-90.000
0.000,40.000,402.039,-401.570,702.764,0.000,0.000,0.000,28.763,0.000,50.380,-135.000
0.000,40.000,402.843,-401.173,703.582,0.000,0.000,0.000,28.763,0.000,50.380,-135.000
0.000,40.000,401.613,-402.277,703.030,0.000,0.000,0.000,28.763,0.000,50.380,-135.000
0.000,40.000,402.813,-401.907,702.528,0.000,0.000,0.000,28.763,0.000,50.380,-135.000
0.000,40.000,402.917,-401.114,702.944,0.000,0.000,0.000,28.763,0.000,50.380,-135.000
0.000,40.000,401.796,-401.880,701.281,0.000,0.000,0.000,28.763,0.000,50.380,-135.000
0.000,40.000,401.633,-402.450,703.428,0.000,0.000,0.000,28.763,0.000,50.380,-135.000
0.000,40.000,402.117,-401.750,702.987,0.000,0.000,0.000,28.794,0.000,50.380,-135.000
0.000,40.000,402.447,-401.776,702.973,0.000,0.000,0.000,28.732,0.000,50.380,-135.000
0.000,40.000,402.928,-401.582,703.236,0.000,0.000,0.000,28.763,0.000,50.380,-135.000
0.000,41.000,417.632,7.015,806.246,0.000,0.000,0.000,28.763,0.000,62.500,180.000
0.000,41.000,418.201,8.095,805.971,0.000,0.000,0.000,28.763,0.000,62.500,180.000
0.000,41.000,416.802,7.968,808.139,0.000,0.000,0.000,28.763,0.000,62.500,180.000
0.000,41.000,418.671,7.539,805.943,0.000,0.000,0.000,28.763,0.000,62.500,180.000
0.000,41.000,418.271,7.874,806.865,0.000,0.000,0.000,28.794,0.000,62.500,180.000
0.000,41.000,418.036,8.168,807.337,0.000,0.000,0.000,28.794,0.000,62.500,180.000
0.000,41.000,417.461,8.504,806.871,0.000,0.000,0.000,28.763,0.000,62.500,180.000
0.000,41.000,419.174,8.074,806.274,0.000,0.000,0.000,28.763,0.000,62.500,180.000
0.000,41.000,417.696,7.623,806.715,0.000,0.000,0.000,28.794,0.000,62.500,180.000
0.000,41.000,416.700,8.252,808.320,0.000,0.000,0.000,28.763,0.000,62.500,180.000
0.000,42.000,288.934,302.609,812.501,0.000,0.000,0.000,28.763,0.000,62.500,135.000
0.000,42.000,291.241,302.824,812.889,0.000,0.000,0.000,28.794,0.000,62.500,135.000
0.000,42.000,288.636,302.995,812.184,0.000,0.000,0.000,28.763,0.000,62.510,135.000
0.000,42.000,290.329,302.261,812.256,0.000,0.000,0.000,28.763,0.000,62.510,135.000
0.000,42.000,289.780,302.978,812.842,0.000,0.000,0.000,28.794,0.000,62.500,135.000
0.000,42.000,291.323,302.741,812.906,0.000,0.000,0.000,28.794,0.000,62.500,135.000
0.000,42.000,289.793,302.447,812.912,0.000,0.000,0.000,28.763,0.000,62.510,135.000
0.000,42.000,289.667,302.904,813.148,0.000,0.000,0.000,28.763,0.000,62.500,135.000
0.000,42.000,289.368,302.063,811.826,0.000,0.000,0.000,28.763,0.000,62.500,135.000
0.000,42.000,288.596,301.813,812.586,0.000,0.000,0.000,28.763,0.000,62.510,135.000
0.000,43.000,-8.576,429.161,810.585,0.000,0.000,0.000,28.763,0.000,62.510,90.000
0.000,43.000,-6.711,429.148,810.392,0.000,0.000,0.000,28.763,0.000,62.500,90.000
0.000,43.000,-6.594,428.991,811.152,0.000,0.000,0.000,28.763,0.000,62.500,90.000
0.000,43.000,-6.346,428.609,812.044,0.000,0.000,0.000,28.763,0.000,62.510,90.000
0.000,43.000,-7.676,429.424,810.919,0.000,0.000,0.000,28.794,0.000,62.500,90.000
0.000,43.000,-7.959,429.033,811.938,0.000,0.000,0.000,28.763,0.000,62.500,90.000
0.000,43.000,-6.891,429.032,811.001,0.000,0.000,0.000,28.763,0.000,62.500,90.000
0.000,43.000,-5.817,429.238,810.632,0.000,0.000,0.000,28.794,0.000,62.510,90.000
0.000,43.000,-7.883,428.578,810.939,0.000,0.000,0.000,28.794,0.000,62.510,90.000
0.000,43.000,-6.602,428.284,809.541,0.000,0.000,0.000,28.763,0.000,62.510,90.000
0.000,44.000,-306.129,306.112,805.402,0.000,0.000,0.000,28.763,0.000,62.510,45.000
0.000,44.000,-307.189,306.311,806.235,0.000,0.000,0.000,28.794,0.000,62.510,45.000
0.000,44.000,-306.697,306.916,804.746,0.000,0.000,0.000,28.763,0.000,62.510,45.000
0.000,44.000,-304.511,306.030,805.748,0.000,0.000,0.000,28.763,0.000,62.510,45.000
0.000,44.000,-307.563,305.989,805.281,0.000,0.000,0.000,28.763,0.000,62.510,45.000
0.000,44.000,-307.384,306.392,805.109,0.000,0.000,0.000,28.732,0.000,62.510,45.000
0.000,44.000,-306.536,306.914,805.049,0.000,0.000,0.000,28.763,0.000,62.510,45.000
0.000,44.000,-306.692,307.801,805.033,0.000,0.000,0.000,28.763,0.000,62.510,45.000
0.000,44.000,-306.110,306.677,805.454,0.000,0.000,0.000,28.794,0.000,62.510,45.000
0.000,44.000,-305.474,305.416,804.742,0.000,0.000,0.000,28.763,0.000,62.510,45.000
0.000,45.000,-432.381,7.104,801.051,0.000,0.000,0.000,28.794,0.000,62.510,0.000
0.000,45.000,-431.699,7.850,800.216,0.000,0.000,0.000,28.794,0.000,62.510,0.000
0.000,45.000,-431.642,7.309,799.540,0.000,0.000,0.000,28.794,0.000,62.510,0.000
0.000,45.000,-431.651,7.508,801.032,0.000,0.000,0.000,28.794,0.000,62.510,0.000
0.000,45.000,-431.994,7.409,801.964,0.000,0.000,0.000,28.794,0.000,62.510,0.000
0.000,45.000,-431.268,8.028,800.690,0.000,0.000,0.000,28.794,0.000,62.510,0.000
0.000,45.000,-431.968,7.370,800.093,0.000,0.000,0.000,28.763,0.000,62.510,0.000
0.000,45.000,-432.825,7.234,800.753,0.000,0.000,0.000,28.763,0.000,62.510,0.000
0.000,45.000,-430.876,7.037,799.928,0.000,0.000,0.000,28.794,0.000,62.510,0.000
0.000,45.000,-430.470,8.034,799.501,0.000,0.000,0.000,28.763,0.000,62.510,0.000
0.000,46.000,-308.798,-290.533,799.944,0.000,0.000,0.000,28.763,0.000,62.510,-45.000
0.000,46.000,-310.405,-290.950,799.735,0.000,0.000,0.000,28.763,0.000,62.510,-45.000
0.000,46.000,-310.196,-290.862,800.113,0.000,0.000,0.000,28.763,0.000,62.510,-45.000
0.000,46.000,-310.604,-291.034,799.813,0.000,0.000,0.000,28.794,0.000,62.510,-45.000
0.000,46.000,-310.725,-290.105,800.209,0.000,0.000,0.000,28.763,0.000,62.510,-45.000
0.000,46.000,-310.517,-291.213,799.548,0.000,0.000,0.000,28.794,0.000,62.510,-45.000
0.000,46.000,-310.064,-290.753,798.662,0.000,0.000,0.000,28.763,0.000,62.510,-45.000
0.000,46.000,-310.345,-291.152,800.014,0.000,0.000,0.000,28.763,0.000,62.510,-45.000
0.000,46.000,-309.485,-290.535,799.786,0.000,0.000,0.000,28.763,0.000,62.510,-45.000
0.000,46.000,-310.015,-290.336,799.925,0.000,0.000,0.000,28.763,0.000,62.510,-45.000
0.000,47.000,-11.620,-415.925,801.071,0.000,0.000,0.000,28.794,0.000,62.510,-90.000
0.000,47.000,-11.744,-416.767,801.684,0.000,0.000,0.000,28.794,0.000,62.510,-90.000
0.000,47.000,-12.195,-416.749,801.868,0.000,0.000,0.000,28.794,0.000,62.510,-90.000
0.000,47.000,-12.217,-417.226,800.707,0.000,0.000,0.000,28.794,0.000,62.510,-90.000
0.000,47.000,-12.419,-415.815,800.611,0.000,0.000,0.000,28.763,0.000,62.510,-90.000
0.000,47.000,-13.014,-416.497,799.557,0.000,0.000,0.000,28.763,0.000,62.510,-90.000
0.000,47.000,-11.613,-415.967,802.055,0.000,0.000,0.000,28.794,0.000,62.510,-90.000
0.000,47.000,-12.757,-416.894,800.996,0.000,0.000,0.000,28.794,0.000,62.510,-90.000
0.000,47.000,-10.629,-416.830,800.767,0.000,0.000,0.000,28.763,0.000,62.510,-90.000
0.000,47.000,-11.940,-417.145,800.813,0.000,0.000,0.000,28.794,0.000,62.510,-90.000
0.000,48.000,293.484,-291.539,805.475,0.000,0.000,0.000,28.763,0.000,62.510,-135.000
0.000,48.000,293.719,-291.978,804.209,0.000,0.000,0.000,28.794,0.000,62.510,-135.000
0.000,48.000,292.146,-291.527,804.610,0.000,0.000,0.000,28.763,0.000,62.510,-135.000
0.000,48.000,292.209,-291.191,805.373,0.000,0.000,0.000,28.763,0.000,62.510,-135.000
0.000,48.000,291.380,-290.575,805.573,0.000,0.000,0.000,28.763,0.000,62.510,-135.000
0.000,48.000,291.689,-291.805,805.512,0.000,0.000,0.000,28.763,0.000,62.510,-135.000
0.000,48.000,292.423,-291.823,805.868,0.000,0.000,0.000,28.794,0.000,62.510,-135.000
0.000,48.000,292.832,-291.434,804.486,0.000,0.000,0.000,28.763,0.000,62.510,-135.000
0.000,48.000,292.215,-291.396,805.500,0.000,0.000,0.000,28.794,0.000,62.510,-135.000
0.000,48.000,292.242,-290.074,804.740,0.000,0.000,0.000,28.794,0.000,62.510,-135.000
0.000,49.000,238.569,7.319,874.082,0.000,0.000,0.000,28.763,0.000,74.530,180.000
0.000,49.000,238.208,7.123,873.491,0.000,0.000,0.000,28.794,0.000,74.530,180.000
0.000,49.000,237.646,6.361,874.266,0.000,0.000,0.000,28.763,0.000,74.530,180.000
0.000,49.000,238.204,6.701,873.788,0.000,0.000,0.000,28.763,0.000,74.530,180.000
0.000,49.000,239.028,7.470,874.648,0.000,0.000,0.000,28.794,0.000,74.530,180.000
0.000,49.000,237.635,7.504,874.030,0.000,0.000,0.000,28.794,0.000,74.530,180.000
0.000,49.000,237.826,7.498,873.985,0.000,0.000,0.000,28.794,0.000,74.530,180.000
0.000,49.000,237.604,7.364,874.566,0.000,0.000,0.000,28.794,0.000,74.530,180.000
0.000,49.000,238.110,8.093,875.735,0.000,0.000,0.000,28.794,0.000,74.540,180.000
0.000,49.000,237.643,6.818,874.298,0.000,0.000,0.000,28.794,0.000,74.540,180.000
0.000,50.000,165.877,180.846,874.843,0.000,0.000,0.000,28.794,0.000,74.540,135.000
0.000,50.000,165.783,180.286,874.828,0.000,0.000,0.000,28.794,0.000,74.530,135.000
0.000,50.000,166.826,180.893,875.559,0.000,0.000,0.000,28.794,0.000,74.530,135.000
0.000,50.000,165.955,180.863,876.412,0.000,0.000,0.000,28.794,0.000,74.530,135.000
0.000,50.000,165.523,181.072,875.185,0.000,0.000,0.000,28.794,0.000,74.530,135.000
0.000,50.000,166.489,180.842,876.264,0.000,0.000,0.000,28.794,0.000,74.540,135.000
0.000,50.000,166.147,180.465,875.455,0.000,0.000,0.000,28.794,0.000,74.540,135.000
0.000,50.000,165.217,180.574,876.263,0.000,0.000,0.000,28.794,0.000,74.540,135.000
0.000,50.000,166.310,180.619,875.201,0.000,0.000,0.000,28.794,0.000,74.540,135.000
0.000,50.000,167.084,180.742,875.907,0.000,0.000,0.000,28.794,0.000,74.530,135.000
0.000,51.000,-7.766,252.289,874.569,0.000,0.000,0.000,28.794,0.000,74.540,90.000
0.000,51.000,-9.006,253.528,875.491,0.000,0.000,0.000,28.794,0.000,74.540,90.000
0.000,51.000,-7.970,252.764,875.947,0.000,0.000,0.000,28.794,0.000,74.540,90.000
0.000,51.000,-6.641,253.028,875.798,0.000,0.000,0.000,28.794,0.000,74.540,90.000
0.000,51.000,-8.158,253.052,876.772,0.000,0.000,0.000,28.794,0.000,74.540,90.000
0.000,51.000,-7.673,253.785,876.419,0.000,0.000,0.000,28.763,0.000,74.540,90.000
0.000,51.000,-7.829,254.399,875.402,0.000,0.000,0.000,28.794,0.000,74.540,90.000
0.000,51.000,-6.823,252.868,875.159,0.000,0.000,0.000,28.794,0.000,74.540,90.000
0.000,51.000,-7.474,252.835,877.196,0.000,0.000,0.000,28.794,0.000,74.540,90.000
0.000,51.000,-7.161,252.918,876.276,0.000,0.000,0.000,28.794,0.000,74.530,90.000
0.000,52.000,-182.423,180.197,874.455,0.000,0.000,0.000,28.794,0.000,74.540,45.000
0.000,52.000,-183.605,180.181,875.516,0.000,0.000,0.000,28.794,0.000,74.540,45.000
0.000,52.000,-183.967,179.924,873.486,0.000,0.000,0.000,28.794,0.000,74.540,45.000
0.000,52.000,-184.413,180.324,872.893,0.000,0.000,0.000,28.794,0.000,74.540,45.000
0.000,52.000,-182.756,180.743,874.984,0.000,0.000,0.000,28.794,0.000,74.540,45.000
0.000,52.000,-184.225,181.011,873.762,0.000,0.000,0.000,28.794,0.000,74.540,45.000
0.000,52.000,-182.681,180.562,875.118,0.000,0.000,0.000,28.794,0.000,74.540,45.000
0.000,52.000,-183.447,179.506,874.595,0.000,0.000,0.000,28.794,0.000,74.540,45.000
0.000,52.000,-181.537,180.203,874.876,0.000,0.000,0.000,28.794,0.000,74.540,45.000
0.000,52.000,-182.158,180.357,874.878,0.000,0.000,0.000,28.794,0.000,74.540,45.000
0.000,53.000,-254.157,5.551,872.324,0.000,0.000,0.000,28.794,0.000,74.540,0.000
0.000,53.000,-255.095,6.009,871.671,0.000,0.000,0.000,28.794,0.000,74.540,0.000
0.000,53.000,-254.310,7.135,872.212,0.000,0.000,0.000,28.794,0.000,74.540,0.000
0.000,53.000,-256.300,5.937,872.791,0.000,0.000,0.000,28.794,0.000,74.540,0.000
0.000,53.000,-254.991,6.303,872.998,0.000,0.000,0.000,28.794,0.000,74.540,0.000
0.000,53.000,-254.307,7.030,872.623,0.000,0.000,0.000,28.794,0.000,74.540,0.000
0.000,53.000,-254.739,6.378,871.992,0.000,0.000,0.000,28.794,0.000,74.540,0.000
0.000,53.000,-255.831,6.273,873.304,0.000,0.000,0.000,28.825,0.000,74.540,0.000
0.000,53.000,-254.692,6.561,872.665,0.000,0.000,0.000,28.825,0.000,74.540,0.000
0.000,53.000,-255.174,5.984,871.883,0.000,0.000,0.000,28.794,0.000,74.540,0.000
0.000,54.000,-184.334,-166.773,872.866,0.000,0.000,0.000,28.794,0.000,74.540,-45.000
0.000,54.000,-183.402,-166.323,872.145,0.000,0.000,0.000,28.794,0.000,74.540,-45.000
0.000,54.000,-183.902,-165.964,873.421,0.000,0.000,0.000,28.794,0.000,74.540,-45.000
0.000,54.000,-182.935,-166.217,871.356,0.000,0.000,0.000,28.825,0.000,74.540,-45.000
0.000,54.000,-183.182,-165.599,871.401,0.000,0.000,0.000,28.794,0.000,74.540,-45.000
0.000,54.000,-184.367,-165.852,872.102,0.000,0.000,0.000,28.825,0.000,74.540,-45.000
0.000,54.000,-184.894,-166.965,871.865,0.000,0.000,0.000,28.825,0.000,74.540,-45.000
0.000,54.000,-184.048,-167.155,872.149,0.000,0.000,0.000,28.794,0.000,74.540,-45.000
0.000,54.000,-183.987,-165.775,872.568,0.000,0.000,0.000,28.794,0.000,74.540,-45.000
0.000,54.000,-183.546,-166.776,873.782,0.000,0.000,0.000,28.794,0.000,74.540,-45.000
0.000,55.000,-9.669,-239.198,872.706,0.000,0.000,0.000,28.825,0.000,74.540,-90.000
0.000,55.000,-10.667,-238.332,874.143,0.000,0.000,0.000,28.763,0.000,74.540,-90.000
0.000,55.000,-8.935,-239.183,873.266,0.000,0.000,0.000,28.794,0.000,74.540,-90.000
0.000,55.000,-8.991,-239.817,872.256,0.000,0.000,0.000,28.825,0.000,74.540,-90.000
0.000,55.000,-9.290,-239.285,873.241,0.000,0.000,0.000,28.794,0.000,74.540,-90.000
0.000,55.000,-9.869,-238.704,873.443,0.000,0.000,0.000,28.794,0.000,74.540,-90.000
0.000,55.000,-8.969,-238.599,873.535,0.000,0.000,0.000,28.825,0.000,74.540,-90.000
0.000,55.000,-9.566,-239.452,873.205,0.000,0.000,0.000,28.794,0.000,74.540,-90.000
0.000,55.000,-9.201,-238.158,872.401,0.000,0.000,0.000,28.825,0.000,74.540,-90.000
0.000,55.000,-9.945,-239.213,873.576,0.000,0.000,0.000,28.794,0.000,74.540,-90.000
0.000,56.000,166.538,-166.274,874.272,0.000,0.000,0.000,28.825,0.000,74.540,-135.000
0.000,56.000,166.310,-166.967,874.059,0.000,0.000,0.000,28.825,0.000,74.540,-135.000
0.000,56.000,167.229,-166.501,872.763,0.000,0.000,0.000,28.794,0.000,74.540,-135.000
0.000,56.000,167.222,-166.232,873.374,0.000,0.000,0.000,28.794,0.000,74.540,-135.000
0.000,56.000,168.008,-166.528,873.566,0.000,0.000,0.000,28.825,0.000,74.540,-135.000
0.000,56.000,167.660,-166.122,874.354,0.000,0.000,0.000,28.794,0.000,74.540,-135.000
0.000,56.000,167.800,-165.436,873.680,0.000,0.000,0.000,28.794,0.000,74.540,-135.000
0.000,56.000,167.466,-166.336,873.330,0.000,0.000,0.000,28.825,0.000,74.540,-135.000
0.000,56.000,168.219,-165.415,874.072,0.000,0.000,0.000,28.825,0.000,74.540,-135.000
0.000,56.000,167.957,-165.475,872.878,0.000,0.000,0.000,28.825,0.000,74.540,-135.000
0.000,57.000,5.077,8.884,906.820,0.000,0.000,0.000,28.794,0.000,89.210,180.000
0.000,57.000,3.335,10.081,908.031,0.000,0.000,0.000,28.825,0.000,89.210,180.000
0.000,57.000,4.269,8.609,906.743,0.000,0.000,0.000,28.825,0.000,89.210,180.000
0.000,57.000,5.191,8.854,907.296,0.000,0.000,0.000,28.794,0.000,89.210,180.000
0.000,57.000,5.930,8.635,906.866,0.000,0.000,0.000,28.794,0.000,89.210,180.000
0.000,57.000,4.642,8.752,907.323,0.000,0.000,0.000,28.794,0.000,89.210,180.000
0.000,57.000,6.673,8.498,907.903,0.000,0.000,0.000,28.825,0.000,89.210,180.000
0.000,57.000,5.786,8.736,907.165,0.000,0.000,0.000,28.825,0.000,89.210,180.000
0.000,57.000,4.589,8.374,906.425,0.000,0.000,0.000,28.825,0.000,89.210,180.000
0.000,57.000,5.480,8.055,906.836,0.000,0.000,0.000,28.825,0.000,89.210,180.000
0.000,58.000,0.762,18.179,906.690,0.000,0.000,0.000,28.825,0.000,89.210,135.000
0.000,58.000,0.131,19.679,907.721,0.000,0.000,0.000,28.825,0.000,89.210,135.000
0.000,58.000,2.203,18.157,907.504,0.000,0.000,0.000,28.825,0.000,89.210,135.000
0.000,58.000,-0.715,17.000,907.126,0.000,0.000,0.000,28.825,0.000,89.220,135.000
0.000,58.000,-0.833,18.055,908.085,0.000,0.000,0.000,28.825,0.000,89.210,135.000
0.000,58.000,1.662,17.813,907.674,0.000,0.000,0.000,28.825,0.000,89.210,135.000
0.000,58.000,0.097,17.821,906.101,0.000,0.000,0.000,28.825,0.000,89.210,135.000
0.000,58.000,0.691,20.323,908.452,0.000,0.000,0.000,28.825,0.000,89.210,135.000
0.000,58.000,-0.110,18.210,906.518,0.000,0.000,0.000,28.825,0.000,89.210,135.000
0.000,58.000,-0.332,19.011,907.268,0.000,0.000,0.000,28.825,0.000,89.210,135.000
0.000,59.000,-10.113,21.098,908.356,0.000,0.000,0.000,28.825,0.000,89.220,90.000
0.000,59.000,-10.799,20.356,907.024,0.000,0.000,0.000,28.825,0.000,89.220,90.000
0.000,59.000,-10.774,21.444,907.291,0.000,0.000,0.000,28.825,0.000,89.210,90.000
0.000,59.000,-10.251,20.809,907.317,0.000,0.000,0.000,28.825,0.000,89.220,90.000
0.000,59.000,-10.824,19.953,907.237,0.000,0.000,0.000,28.825,0.000,89.220,90.000
0.000,59.000,-9.983,20.329,907.745,0.000,0.000,0.000,28.825,0.000,89.220,90.000
0.000,59.000,-10.310,21.545,906.960,0.000,0.000,0.000,28.825,0.000,89.220,90.000
0.000,59.000,-11.708,21.125,908.349,0.000,0.000,0.000,28.825,0.000,89.220,90.000
0.000,59.000,-11.527,21.071,906.644,0.000,0.000,0.000,28.825,0.000,89.210,90.000
0.000,59.000,-10.332,21.023,907.575,0.000,0.000,0.000,28.825,0.000,89.220,90.000
0.000,60.000,-20.376,15.031,906.320,0.000,0.000,0.000,28.825,0.000,89.210,45.000
0.000,60.000,-20.290,15.855,907.491,0.000,0.000,0.000,28.825,0.000,89.220,45.000
0.000,60.000,-18.550,15.696,907.619,0.000,0.000,0.000,28.825,0.000,89.220,45.000
0.000,60.000,-19.481,14.638,906.072,0.000,0.000,0.000,28.825,0.000,89.220,45.000
0.000,60.000,-18.467,12.538,907.385,0.000,0.000,0.000,28.825,0.000,89.220,45.000
0.000,60.000,-21.086,15.569,905.763,0.000,0.000,0.000,28.825,0.000,89.220,45.000
0.000,60.000,-20.130,14.865,906.801,0.000,0.000,0.000,28.825,0.000,89.210,45.000
0.000,60.000,-21.913,15.001,907.898,0.000,0.000,0.000,28.825,0.000,89.220,45.000
0.000,60.000,-20.343,15.178,906.454,0.000,0.000,0.000,28.825,0.000,89.220,45.000
0.000,60.000,-20.979,15.434,905.981,0.000,0.000,0.000,28.794,0.000,89.220,45.000
0.000,61.000,-23.837,4.389,905.964,0.000,0.000,0.000,28.825,0.000,89.220,0.000
0.000,61.000,-21.742,4.491,906.947,0.000,0.000,0.000,28.825,0.000,89.220,0.000
0.000,61.000,-22.641,4.802,906.961,0.000,0.000,0.000,28.825,0.000,89.220,0.000
0.000,61.000,-23.237,4.536,906.891,0.000,0.000,0.000,28.825,0.000,89.220,0.000
0.000,61.000,-23.787,4.597,906.457,0.000,0.000,0.000,28.825,0.000,89.220,0.000
0.000,61.000,-23.294,4.939,905.989,0.000,0.000,0.000,28.825,0.000,89.220,0.000
0.000,61.000,-23.408,5.458,906.380,0.000,0.000,0.000,28.825,0.000,89.220,0.000
0.000,61.000,-23.832,4.566,907.668,0.000,0.000,0.000,28.825,0.000,89.220,0.000
0.000,61.000,-22.053,4.164,907.717,0.000,0.000,0.000,28.825,0.000,89.220,0.000
0.000,61.000,-22.533,5.016,905.967,0.000,0.000,0.000,28.825,0.000,89.220,0.000
0.000,62.000,-16.611,-4.087,905.083,0.000,0.000,0.000,28.825,0.000,89.220,-45.000
0.000,62.000,-18.824,-4.505,906.383,0.000,0.000,0.000,28.825,0.000,89.220,-45.000
0.000,62.000,-18.010,-3.994,906.688,0.000,0.000,0.000,28.825,0.000,89.220,-45.000
0.000,62.000,-18.476,-5.040,906.127,0.000,0.000,0.000,28.825,0.000,89.220,-45.000
0.000,62.000,-18.191,-4.629,907.499,0.000,0.000,0.000,28.825,0.000,89.220,-45.000
0.000,62.000,-18.583,-4.287,904.945,0.000,0.000,0.000,28.825,0.000,89.220,-45.000
0.000,62.000,-18.181,-4.632,906.162,0.000,0.000,0.000,28.857,0.000,89.220,-45.000
0.000,62.000,-17.315,-3.899,906.587,0.000,0.000,0.000,28.825,0.000,89.220,-45.000
0.000,62.000,-18.819,-4.116,906.418,0.000,0.000,0.000,28.825,0.000,89.220,-45.000
0.000,62.000,-17.881,-3.691,906.494,0.000,0.000,0.000,28.825,0.000,89.220,-45.000
0.000,63.000,-7.596,-7.365,907.290,0.000,0.000,0.000,28.825,0.000,89.220,-90.000
0.000,63.000,-7.295,-7.335,905.993,0.000,0.000,0.000,28.857,0.000,89.220,-90.000
0.000,63.000,-6.157,-6.910,907.105,0.000,0.000,0.000,28.825,0.000,89.220,-90.000
0.000,63.000,-6.604,-7.251,907.193,0.000,0.000,0.000,28.825,0.000,89.220,-90.000
0.000,63.000,-7.010,-8.123,906.819,0.000,0.000,0.000,28.825,0.000,89.220,-90.000
0.000,63.000,-7.890,-7.766,906.019,0.000,0.000,0.000,28.825,0.000,89.220,-90.000
0.000,63.000,-6.420,-7.725,906.064,0.000,0.000,0.000,28.857,0.000,89.220,-90.000
0.000,63.000,-7.830,-7.402,907.303,0.000,0.000,0.000,28.825,0.000,89.220,-90.000
0.000,63.000,-6.266,-6.835,907.097,0.000,0.000,0.000,28.857,0.000,89.220,-90.000
0.000,63.000,-6.893,-7.615,906.624,0.000,0.000,0.000,28.825,0.000,89.220,-90.000
0.000,64.000,2.151,-1.288,908.629,0.000,0.000,0.000,28.857,0.000,89.220,-135.000
0.000,64.000,-0.170,0.044,906.883,0.000,0.000,0.000,28.825,0.000,89.220,-135.000
0.000,64.000,3.027,-2.025,907.611,0.000,0.000,0.000,28.825,0.000,89.220,-135.000
0.000,64.000,1.732,-1.432,906.490,0.000,0.000,0.000,28.825,0.000,89.220,-135.000
0.000,64.000,3.331,-1.862,906.810,0.000,0.000,0.000,28.825,0.000,89.220,-135.000
0.000,64.000,2.741,-2.051,907.483,0.000,0.000,0.000,28.825,0.000,89.220,-135.000
0.000,64.000,2.790,-1.491,907.224,0.000,0.000,0.000,28.825,0.000,89.220,-135.000
0.000,64.000,1.350,-1.822,906.263,0.000,0.000,0.000,28.825,0.000,89.220,-135.000
0.000,64.000,2.550,-1.525,907.479,0.000,0.000,0.000,28.857,0.000,89.220,-135.000
0.000,64.000,4.465,-1.441,906.740,0.000,0.000,0.000,28.825,0.000,89.220,-135.000
