Temp Iter,Index,X Accel 1,Y Accel 1,Z Accel 1,X Accel 2,Y Accel 2,Z Accel2, Temp,Theta,Phi,,,,,,,
1.000,1.000,890.875,39.450,-7.640,899.140,73.025,-8.400,44.562,-0.795,180.000
1.000,1.000,890.840,39.500,-8.065,899.100,72.785,-8.040,44.250,-0.795,180.000
1.000,1.000,890.800,39.080,-8.465,898.640,72.955,-8.120,44.250,-0.795,180.000
1.000,1.000,891.510,39.360,-7.820,898.810,72.610,-7.940,44.250,-0.795,180.000
1.000,1.000,890.020,39.610,-7.545,899.385,72.665,-7.610,44.250,-0.795,180.000
1.000,1.000,890.870,39.605,-8.240,898.710,72.605,-7.460,44.250,-0.795,180.000
1.000,1.000,890.445,39.570,-8.170,898.760,72.905,-8.350,44.562,-0.787,180.000
1.000,1.000,890.275,39.145,-8.020,899.010,72.925,-7.880,44.562,-0.792,180.000
1.000,1.000,890.240,39.160,-8.645,899.185,72.730,-7.640,44.250,-0.792,180.000
1.000,1.000,890.110,39.560,-7.905,898.575,72.895,-8.070,44.562,-0.785,180.000
1.000,2.000,641.090,672.895,-12.280,640.325,530.050,428.585,44.562,-0.795,135.000
1.000,2.000,641.040,672.280,-12.815,640.765,529.800,428.505,44.562,-0.795,135.000
1.000,2.000,641.015,672.355,-12.335,640.975,529.790,428.150,44.562,-0.795,135.000
1.000,2.000,640.860,672.185,-11.840,640.640,529.970,428.085,44.875,-0.795,135.000
1.000,2.000,640.715,672.490,-12.530,640.680,529.730,427.825,44.562,-0.802,135.000
1.000,2.000,640.960,671.945,-12.065,640.835,529.950,428.445,44.562,-0.805,135.000
1.000,2.000,641.495,672.580,-11.995,640.945,529.890,428.050,44.562,-0.805,135.000
1.000,2.000,640.570,672.425,-12.635,640.375,530.405,428.175,44.562,-0.805,135.000
1.000,2.000,641.435,672.135,-12.505,640.410,530.210,428.350,44.562,-0.797,135.000
1.000,2.000,640.940,672.565,-12.775,641.340,529.600,427.750,44.562,-0.797,135.000
1.000,3.000,3.995,945.285,-14.205,6.400,719.710,614.880,44.562,-0.795,90.000
1.000,3.000,3.910,945.390,-14.545,6.705,719.960,615.395,44.875,-0.795,90.000
1.000,3.000,4.665,945.080,-14.305,6.760,720.190,615.815,44.562,-0.795,90.000
1.000,3.000,4.130,945.450,-14.865,6.805,720.115,615.635,44.562,-0.795,90.000
1.000,3.000,4.215,945.360,-15.275,7.315,719.895,614.935,44.875,-0.795,90.000
1.000,3.000,3.640,945.670,-15.010,7.110,720.150,615.980,44.562,-0.795,90.000
1.000,3.000,3.615,945.325,-14.650,6.690,720.015,615.775,44.875,-0.795,90.000
1.000,3.000,4.020,945.530,-14.820,6.865,719.585,615.700,44.875,-0.800,90.000
1.000,3.000,3.960,945.470,-15.135,6.520,720.140,615.860,44.562,-0.802,90.000
1.000,3.000,3.945,945.465,-14.335,7.345,719.860,616.025,44.875,-0.805,90.000
1.000,4.000,-649.375,682.680,-19.105,-638.055,529.655,425.900,44.562,-0.805,45.000
1.000,4.000,-649.025,682.450,-18.710,-638.215,529.955,425.430,44.562,-0.805,45.000
1.000,4.000,-648.700,682.465,-18.890,-638.295,529.925,425.675,44.562,-0.805,45.000
1.000,4.000,-649.165,682.530,-19.085,-638.045,529.580,425.765,44.875,-0.805,45.000
1.000,4.000,-648.700,682.675,-18.795,-638.140,529.840,425.880,44.875,-0.805,45.000
1.000,4.000,-649.105,682.600,-19.080,-637.995,529.865,425.260,44.562,-0.797,45.000
1.000,4.000,-648.775,682.225,-18.740,-638.280,529.870,426.095,45.187,-0.795,45.000
1.000,4.000,-648.985,682.445,-19.425,-638.065,529.550,425.675,44.875,-0.795,45.000
1.000,4.000,-648.845,682.080,-19.385,-638.150,529.665,425.745,44.875,-0.795,45.000
1.000,4.000,-649.315,682.460,-18.895,-637.830,529.645,425.370,44.875,-0.795,45.000
1.000,5.000,-910.440,51.740,-19.495,-897.920,72.220,-12.660,44.875,-0.795,0.000
1.000,5.000,-910.125,51.815,-18.960,-897.495,72.635,-12.805,44.875,-0.795,0.000
1.000,5.000,-910.660,52.105,-19.090,-898.175,72.700,-12.365,45.187,-0.795,0.000
1.000,5.000,-910.475,51.665,-19.730,-897.545,72.365,-13.245,44.875,-0.800,0.000
1.000,5.000,-909.945,52.120,-19.905,-897.860,72.415,-12.045,45.187,-0.802,0.000
1.000,5.000,-910.565,52.025,-19.245,-897.875,72.530,-12.395,44.875,-0.802,0.000
1.000,5.000,-910.150,51.965,-18.475,-897.555,72.530,-11.745,44.875,-0.805,0.000
1.000,5.000,-911.075,51.710,-19.065,-897.625,72.685,-12.630,45.187,-0.805,0.000
1.000,5.000,-910.810,51.450,-18.840,-897.915,72.700,-12.350,45.187,-0.805,0.000
1.000,5.000,-910.660,51.350,-18.925,-897.870,72.305,-12.840,45.187,-0.805,0.000
1.000,6.000,-653.050,-587.975,-17.220,-637.205,-383.090,-447.880,45.187,-0.800,-45.000
1.000,6.000,-652.160,-588.245,-16.600,-637.765,-383.070,-448.085,45.187,-0.810,-45.000
1.000,6.000,-652.185,-587.760,-17.335,-637.190,-382.915,-448.385,45.187,-0.800,-45.000
1.000,6.000,-651.750,-588.075,-16.865,-637.185,-383.115,-447.980,44.875,-0.800,-45.000
1.000,6.000,-652.550,-587.595,-16.605,-637.360,-382.770,-447.070,45.187,-0.800,-45.000
1.000,6.000,-652.615,-587.880,-16.790,-637.795,-383.125,-447.800,45.187,-0.795,-45.000
1.000,6.000,-653.065,-588.015,-16.475,-637.405,-382.945,-448.815,45.187,-0.795,-45.000
1.000,6.000,-652.890,-587.765,-16.650,-637.290,-383.545,-447.990,45.500,-0.795,-45.000
1.000,6.000,-652.755,-587.795,-17.170,-637.265,-383.050,-448.125,45.187,-0.795,-45.000
1.000,6.000,-652.760,-588.105,-16.460,-637.005,-383.475,-447.905,45.500,-0.795,-45.000
1.000,7.000,-15.180,-853.740,-12.875,4.105,-572.630,-636.645,45.187,-0.805,-90.000
1.000,7.000,-14.140,-854.100,-12.670,3.930,-572.385,-636.345,45.500,-0.805,-90.000
1.000,7.000,-14.315,-853.700,-12.180,3.180,-573.295,-636.385,45.500,-0.805,-90.000
1.000,7.000,-14.045,-853.850,-12.545,3.980,-572.950,-636.490,45.187,-0.805,-90.000
1.000,7.000,-14.190,-853.615,-12.540,3.660,-572.715,-636.425,45.500,-0.810,-90.000
1.000,7.000,-14.575,-853.650,-12.515,3.650,-572.900,-636.765,45.187,-0.807,-90.000
1.000,7.000,-14.840,-853.445,-12.830,3.760,-572.365,-636.275,45.187,-0.807,-90.000
1.000,7.000,-14.360,-853.880,-12.940,3.395,-572.865,-636.745,45.500,-0.807,-90.000
1.000,7.000,-14.170,-853.540,-12.280,3.320,-572.945,-636.625,45.187,-0.807,-90.000
1.000,7.000,-14.930,-853.780,-12.915,3.900,-572.740,-636.205,45.500,-0.807,-90.000
1.000,8.000,631.670,-591.350,-9.170,641.720,-384.195,-445.465,45.187,-0.802,-135.000
1.000,8.000,631.355,-591.090,-9.625,640.915,-384.075,-445.620,45.187,-0.795,-135.000
1.000,8.000,631.175,-591.120,-10.585,640.980,-384.110,-445.430,45.500,-0.795,-135.000
1.000,8.000,630.910,-591.100,-9.795,641.375,-384.045,-445.320,44.875,-0.795,-135.000
1.000,8.000,631.070,-591.015,-10.010,641.445,-383.800,-444.925,45.500,-0.795,-135.000
1.000,8.000,632.030,-591.745,-10.140,641.175,-384.090,-445.450,45.500,-0.805,-135.000
1.000,8.000,630.770,-591.150,-9.625,640.875,-383.915,-445.365,45.187,-0.805,-135.000
1.000,8.000,631.650,-591.065,-10.385,641.380,-383.760,-445.525,45.187,-0.805,-135.000
1.000,8.000,631.025,-591.040,-10.125,641.020,-384.025,-445.445,45.500,-0.800,-135.000
1.000,8.000,631.880,-590.625,-9.585,641.445,-384.045,-446.020,45.500,-0.800,-135.000
1.000,9.000,802.445,40.060,393.395,809.400,-206.890,284.325,45.500,25.715,180.000
1.000,9.000,803.005,40.070,393.215,809.915,-206.860,283.920,45.812,25.725,180.000
1.000,9.000,802.915,39.525,393.105,809.940,-207.335,284.065,45.500,25.725,180.000
1.000,9.000,802.735,39.735,393.315,810.005,-206.875,284.395,45.500,25.725,180.000
1.000,9.000,802.230,39.680,392.915,809.225,-206.835,283.655,45.500,25.725,180.000
1.000,9.000,802.680,39.630,393.090,809.295,-207.505,284.375,45.500,25.725,180.000
1.000,9.000,802.350,39.770,392.885,810.345,-206.995,284.570,45.500,25.725,180.000
1.000,9.000,803.145,39.795,392.540,809.800,-207.365,284.080,45.500,25.725,180.000
1.000,9.000,802.580,39.830,393.170,809.180,-207.045,283.795,45.812,25.725,180.000
1.000,9.000,803.290,39.505,392.605,810.060,-207.430,284.015,45.812,25.725,180.000
1.000,10.000,573.355,612.605,395.035,574.830,203.160,674.590,45.500,25.725,135.000
1.000,10.000,572.975,612.575,394.765,574.965,204.065,674.580,45.500,25.725,135.000
1.000,10.000,574.330,612.155,394.885,574.850,203.160,675.035,45.500,25.725,135.000
1.000,10.000,573.530,612.480,395.230,574.995,203.565,675.115,45.812,25.725,135.000
1.000,10.000,573.655,612.685,394.900,574.705,203.330,675.090,45.500,25.725,135.000
1.000,10.000,573.215,612.410,395.390,574.910,204.015,675.320,45.500,25.735,135.000
1.000,10.000,573.610,612.630,394.980,574.635,203.485,675.450,45.812,25.735,135.000
1.000,10.000,573.650,612.600,394.990,574.710,203.580,675.125,45.812,25.735,135.000
1.000,10.000,573.280,612.620,395.210,574.735,203.455,675.155,45.812,25.735,135.000
1.000,10.000,573.250,612.420,394.855,574.495,203.560,674.995,45.500,25.727,135.000
1.000,11.000,-0.190,856.520,391.850,5.405,380.085,838.270,45.500,25.717,90.000
1.000,11.000,0.275,856.680,391.710,4.800,380.470,838.275,45.812,25.717,90.000
1.000,11.000,-0.445,857.045,391.010,5.605,379.750,837.910,45.500,25.717,90.000
1.000,11.000,0.390,856.155,390.900,5.255,379.965,837.685,45.500,25.725,90.000
1.000,11.000,0.025,856.460,390.435,5.370,380.130,837.565,45.812,25.725,90.000
1.000,11.000,0.285,856.140,391.310,5.030,379.975,837.890,45.500,25.725,90.000
1.000,11.000,0.435,856.225,390.760,5.370,380.350,838.270,45.812,25.725,90.000
1.000,11.000,0.110,856.620,390.905,5.140,379.800,838.090,45.500,25.720,90.000
1.000,11.000,0.025,856.580,391.695,5.800,380.615,837.965,45.500,25.717,90.000
1.000,11.000,-0.155,856.295,390.780,4.835,380.230,837.785,45.812,25.717,90.000
1.000,12.000,-585.910,622.070,383.360,-580.715,205.425,670.670,45.500,25.727,45.000
1.000,12.000,-585.295,622.170,383.475,-580.565,205.360,670.430,45.812,25.727,45.000
1.000,12.000,-585.530,622.400,383.825,-580.990,205.375,670.465,45.500,25.715,45.000
1.000,12.000,-585.170,621.825,383.425,-580.525,205.505,670.520,45.500,25.715,45.000
1.000,12.000,-585.955,621.885,383.950,-581.215,205.285,670.780,45.500,25.715,45.000
1.000,12.000,-585.105,622.290,382.930,-581.400,205.685,669.975,45.812,25.715,45.000
1.000,12.000,-585.575,622.065,383.075,-580.860,205.220,670.755,45.812,25.715,45.000
1.000,12.000,-586.065,621.755,383.325,-580.555,206.155,670.405,45.812,25.715,45.000
1.000,12.000,-585.295,622.130,383.460,-580.365,205.930,670.745,46.125,25.715,45.000
1.000,12.000,-586.035,621.995,383.820,-580.735,205.940,670.265,46.125,25.715,45.000
1.000,13.000,-822.935,50.895,387.185,-813.950,-208.150,276.315,45.812,25.715,0.000
1.000,13.000,-822.725,51.410,387.480,-814.110,-207.995,276.805,45.812,25.715,0.000
1.000,13.000,-822.770,51.225,388.430,-813.680,-207.960,276.385,45.812,25.715,0.000
1.000,13.000,-822.680,50.925,386.730,-813.780,-207.850,276.960,45.812,25.715,0.000
1.000,13.000,-823.110,51.245,386.915,-814.085,-208.000,276.755,45.812,25.715,0.000
1.000,13.000,-822.035,50.945,386.905,-813.885,-207.935,276.845,45.812,25.715,0.000
1.000,13.000,-822.650,50.760,386.970,-814.030,-208.315,276.590,45.812,25.715,0.000
1.000,13.000,-822.215,50.970,387.180,-813.500,-207.880,277.240,46.125,25.715,0.000
1.000,13.000,-822.665,50.980,387.140,-813.530,-207.915,276.760,45.812,25.715,0.000
1.000,13.000,-823.060,51.380,387.140,-814.050,-207.970,276.415,45.812,25.715,0.000
1.000,14.000,-593.520,-522.820,385.900,-579.795,-616.610,-116.160,46.125,25.724,-45.000
1.000,14.000,-592.990,-522.785,385.680,-580.015,-617.120,-116.205,45.812,25.724,-45.000
1.000,14.000,-592.910,-522.175,385.420,-580.815,-617.075,-115.905,45.812,25.724,-45.000
1.000,14.000,-594.165,-522.065,385.015,-580.445,-616.870,-115.765,45.500,25.724,-45.000
1.000,14.000,-592.775,-522.605,385.240,-580.430,-616.865,-116.035,45.812,25.724,-45.000
1.000,14.000,-593.460,-522.670,384.905,-580.245,-616.885,-116.290,45.812,25.724,-45.000
1.000,14.000,-593.550,-522.675,385.025,-580.130,-616.860,-116.570,45.812,25.709,-45.000
1.000,14.000,-593.770,-522.255,385.030,-580.080,-617.000,-116.135,45.812,25.712,-45.000
1.000,14.000,-593.340,-522.485,384.500,-580.300,-616.770,-116.215,45.500,25.712,-45.000
1.000,14.000,-593.955,-522.560,385.415,-580.375,-616.815,-116.170,45.812,25.712,-45.000
1.000,15.000,-15.940,-764.295,391.490,4.245,-791.010,-282.840,45.812,25.712,-90.000
1.000,15.000,-16.525,-764.640,392.065,3.945,-790.370,-282.500,46.125,25.715,-90.000
1.000,15.000,-15.865,-764.280,391.885,4.560,-790.760,-282.755,46.125,25.715,-90.000
1.000,15.000,-16.370,-764.220,392.425,3.470,-791.140,-282.685,45.812,25.715,-90.000
1.000,15.000,-16.225,-764.260,392.450,4.510,-790.545,-283.020,45.812,25.715,-90.000
1.000,15.000,-16.600,-764.385,391.965,3.640,-790.415,-282.855,46.125,25.715,-90.000
1.000,15.000,-15.750,-764.220,392.450,4.215,-790.260,-282.635,46.125,25.715,-90.000
1.000,15.000,-16.200,-764.365,392.135,4.620,-790.965,-282.480,45.812,25.715,-90.000
1.000,15.000,-15.715,-764.535,392.570,4.045,-789.925,-283.120,45.812,25.715,-90.000
1.000,15.000,-16.025,-764.085,391.755,4.040,-790.290,-282.240,45.812,25.715,-90.000
1.000,16.000,562.365,-530.475,390.765,582.645,-615.905,-114.630,45.812,25.717,-135.000
1.000,16.000,562.695,-530.095,390.590,583.005,-615.860,-114.600,45.812,25.724,-135.000
1.000,16.000,561.755,-530.235,390.855,582.630,-615.585,-115.130,45.812,25.715,-135.000
1.000,16.000,562.115,-530.240,390.665,581.840,-615.515,-115.130,45.812,25.715,-135.000
1.000,16.000,562.100,-530.180,391.290,582.545,-615.910,-115.120,45.812,25.715,-135.000
1.000,16.000,563.245,-530.345,390.705,582.365,-615.795,-114.490,46.125,25.722,-135.000
1.000,16.000,563.040,-530.605,391.180,582.590,-615.465,-114.425,46.125,25.717,-135.000
1.000,16.000,562.630,-530.090,390.265,581.750,-615.770,-114.925,46.125,25.717,-135.000
1.000,16.000,562.760,-530.370,390.640,582.515,-615.400,-114.805,46.125,25.724,-135.000
1.000,16.000,563.375,-530.490,390.770,582.260,-615.185,-114.390,45.812,25.724,-135.000
1.000,17.000,641.655,41.925,624.520,651.520,-365.805,448.140,45.500,43.880,180.000
1.000,17.000,641.765,41.765,623.815,650.885,-365.675,447.875,45.812,43.884,180.000
1.000,17.000,641.655,42.065,624.895,651.610,-365.820,447.500,45.812,43.884,180.000
1.000,17.000,641.485,42.105,625.350,650.895,-365.540,448.305,45.812,43.884,180.000
1.000,17.000,641.585,41.670,623.485,651.075,-365.935,447.890,46.125,43.884,180.000
1.000,17.000,641.100,42.225,624.395,651.445,-365.940,447.850,45.812,43.884,180.000
1.000,17.000,641.465,42.325,624.675,651.285,-365.945,447.510,46.125,43.884,180.000
1.000,17.000,641.850,42.265,624.425,651.715,-365.630,448.060,45.812,43.884,180.000
1.000,17.000,641.460,42.015,624.765,650.730,-365.695,447.625,45.812,43.884,180.000
1.000,17.000,641.715,42.130,625.245,651.150,-365.545,447.805,45.812,43.877,180.000
1.000,18.000,453.275,503.555,625.190,463.650,-36.715,762.905,45.500,43.877,135.000
1.000,18.000,453.085,503.150,624.735,463.520,-37.315,762.985,45.812,43.877,135.000
1.000,18.000,453.010,503.290,625.235,463.215,-37.330,763.105,45.812,43.877,135.000
1.000,18.000,453.505,503.195,624.260,463.450,-37.040,762.840,45.812,43.877,135.000
1.000,18.000,453.420,503.230,625.165,463.840,-37.385,762.935,45.500,43.877,135.000
1.000,18.000,452.945,503.370,624.705,463.575,-37.285,762.745,46.125,43.875,135.000
1.000,18.000,453.285,503.155,624.795,463.510,-37.820,762.920,45.812,43.875,135.000
1.000,18.000,452.470,503.325,624.065,463.645,-37.265,762.880,45.812,43.867,135.000
1.000,18.000,453.010,503.380,624.670,463.260,-37.220,762.410,45.812,43.872,135.000
1.000,18.000,452.875,503.345,624.950,463.950,-37.380,762.955,45.500,43.872,135.000
1.000,19.000,-4.115,695.160,625.170,1.480,98.880,894.050,45.812,43.872,90.000
1.000,19.000,-4.310,694.570,625.180,1.665,99.350,894.680,46.125,43.872,90.000
1.000,19.000,-4.490,695.340,625.170,1.835,99.690,894.365,45.812,43.872,90.000
1.000,19.000,-4.675,694.620,625.075,1.345,99.195,894.600,45.812,43.872,90.000
1.000,19.000,-4.160,694.505,625.765,1.900,98.715,894.525,46.125,43.864,90.000
1.000,19.000,-4.735,695.035,625.625,2.055,99.365,894.105,45.812,43.875,90.000
1.000,19.000,-4.015,694.985,625.620,2.035,99.605,894.535,45.812,43.875,90.000
1.000,19.000,-4.775,695.345,625.270,2.510,99.065,893.855,45.812,43.875,90.000
1.000,19.000,-4.550,694.975,625.825,1.950,99.720,894.215,45.812,43.875,90.000
1.000,19.000,-4.295,695.120,625.555,2.135,99.300,893.860,46.125,43.875,90.000
1.000,20.000,-471.835,507.655,618.035,-466.980,-38.575,760.865,45.812,43.875,45.000
1.000,20.000,-471.550,507.650,618.310,-466.985,-38.555,760.700,45.812,43.875,45.000
1.000,20.000,-472.030,507.625,618.030,-465.885,-38.660,760.505,45.500,43.875,45.000
1.000,20.000,-471.350,507.525,618.505,-467.025,-38.215,760.460,46.125,43.867,45.000
1.000,20.000,-472.150,507.245,618.320,-466.405,-39.020,760.680,45.812,43.867,45.000
1.000,20.000,-471.905,507.230,618.375,-466.825,-39.060,760.030,45.812,43.864,45.000
1.000,20.000,-471.515,507.935,618.510,-466.595,-38.750,760.885,45.812,43.864,45.000
1.000,20.000,-471.630,507.070,618.255,-466.900,-38.670,760.495,46.125,43.875,45.000
1.000,20.000,-471.300,507.680,618.250,-466.115,-38.775,760.070,45.812,43.879,45.000
1.000,20.000,-472.170,507.420,618.085,-466.175,-38.790,760.395,45.812,43.882,45.000
1.000,21.000,-665.905,46.180,619.450,-651.175,-369.420,444.850,45.812,43.884,0.000
1.000,21.000,-666.060,45.970,620.190,-650.835,-369.375,444.790,45.500,43.884,0.000
1.000,21.000,-666.515,46.485,619.505,-650.575,-369.220,444.560,45.812,43.884,0.000
1.000,21.000,-666.685,46.095,619.615,-650.505,-369.375,444.745,45.812,43.884,0.000
1.000,21.000,-666.160,46.455,619.345,-650.940,-369.175,445.020,45.500,43.884,0.000
1.000,21.000,-666.365,46.470,619.175,-650.670,-369.100,444.595,45.500,43.884,0.000
1.000,21.000,-666.350,46.195,619.625,-650.045,-368.930,444.700,45.812,43.877,0.000
1.000,21.000,-666.375,46.285,619.935,-650.950,-369.305,445.170,45.812,43.877,0.000
1.000,21.000,-666.465,46.360,618.680,-651.155,-369.035,444.520,45.500,43.877,0.000
1.000,21.000,-666.360,46.055,619.540,-650.230,-368.810,444.530,45.500,43.877,0.000
1.000,22.000,-478.355,-409.580,621.720,-464.655,-697.645,130.990,45.812,43.882,-45.000
1.000,22.000,-478.655,-409.550,621.665,-464.550,-697.685,130.955,45.812,43.884,-45.000
1.000,22.000,-477.885,-409.410,621.780,-464.035,-697.305,131.205,45.500,43.877,-45.000
1.000,22.000,-478.545,-409.415,621.215,-464.355,-697.285,131.010,45.812,43.877,-45.000
1.000,22.000,-478.005,-409.535,621.000,-464.500,-697.350,130.935,45.500,43.877,-45.000
1.000,22.000,-478.130,-409.285,621.560,-464.375,-697.420,130.490,45.500,43.877,-45.000
1.000,22.000,-478.425,-409.140,621.870,-464.485,-697.530,130.775,45.812,43.877,-45.000
1.000,22.000,-478.335,-409.475,620.670,-464.530,-697.685,131.155,45.500,43.877,-45.000
1.000,22.000,-478.100,-409.170,621.590,-464.400,-697.160,131.195,45.812,43.877,-45.000
1.000,22.000,-478.795,-409.200,621.010,-464.385,-697.455,130.920,45.500,43.875,-45.000
1.000,23.000,-12.195,-605.050,623.165,5.070,-837.160,-2.110,45.500,43.877,-90.000
1.000,23.000,-11.270,-605.540,623.235,4.610,-836.835,-1.585,45.812,43.877,-90.000
1.000,23.000,-11.825,-605.495,623.415,5.515,-837.135,-2.015,45.500,43.877,-90.000
1.000,23.000,-11.700,-605.505,622.980,5.145,-837.005,-1.600,45.812,43.875,-90.000
1.000,23.000,-11.375,-605.215,623.410,5.025,-836.555,-1.375,45.500,43.875,-90.000
1.000,23.000,-11.965,-605.285,622.750,4.665,-837.025,-2.110,45.812,43.875,-90.000
1.000,23.000,-12.410,-605.270,622.685,4.655,-836.980,-1.575,45.500,43.875,-90.000
1.000,23.000,-11.920,-605.575,623.105,5.495,-836.360,-1.770,45.500,43.875,-90.000
1.000,23.000,-12.285,-605.280,623.450,4.590,-836.655,-1.750,45.812,43.875,-90.000
1.000,23.000,-12.140,-605.540,623.005,4.915,-836.520,-1.490,45.500,43.879,-90.000
1.000,24.000,446.670,-414.510,625.170,467.245,-695.405,132.365,45.500,43.882,-135.000
1.000,24.000,446.740,-414.975,624.475,467.180,-695.885,132.465,45.500,43.884,-135.000
1.000,24.000,447.245,-414.755,625.030,467.280,-696.180,132.430,45.500,43.884,-135.000
1.000,24.000,446.695,-415.040,624.455,467.405,-696.135,131.900,45.500,43.884,-135.000
1.000,24.000,447.045,-415.185,624.730,467.640,-695.875,132.290,45.500,43.877,-135.000
1.000,24.000,446.415,-415.040,624.675,467.555,-695.845,131.840,45.187,43.877,-135.000
1.000,24.000,446.810,-414.885,625.185,467.350,-695.985,133.070,45.500,43.877,-135.000
1.000,24.000,446.690,-414.445,624.440,467.190,-695.725,131.940,45.187,43.877,-135.000
1.000,24.000,446.670,-414.970,625.165,467.245,-696.120,132.135,45.500,43.875,-135.000
1.000,24.000,446.745,-414.695,625.535,467.290,-695.560,132.265,45.500,43.875,-135.000
1.000,25.000,368.265,47.005,814.595,377.635,-502.705,591.305,45.187,65.367,180.000
1.000,25.000,368.325,46.100,814.455,377.475,-502.650,590.860,45.187,65.352,180.000
1.000,25.000,368.030,46.470,814.140,377.185,-502.770,590.840,45.187,65.352,180.000
1.000,25.000,368.800,46.385,814.795,377.820,-503.230,590.515,45.187,65.365,180.000
1.000,25.000,368.615,46.270,814.045,377.670,-502.520,591.045,45.187,65.365,180.000
1.000,25.000,368.225,46.415,814.600,377.485,-502.915,591.085,45.812,65.365,180.000
1.000,25.000,368.785,46.625,814.645,377.775,-502.770,590.900,45.500,65.365,180.000
1.000,25.000,368.125,46.710,814.305,377.900,-503.090,591.195,45.500,65.357,180.000
1.000,25.000,368.715,46.425,814.445,377.705,-503.200,591.015,45.500,65.354,180.000
1.000,25.000,367.950,46.350,814.365,377.575,-503.075,590.880,44.875,65.347,180.000
1.000,26.000,258.320,315.280,813.975,264.535,-310.850,774.605,45.500,65.337,135.000
1.000,26.000,258.840,315.070,815.010,264.345,-310.905,773.780,45.187,65.342,135.000
1.000,26.000,258.770,315.145,814.745,264.560,-310.580,774.485,45.500,65.342,135.000
1.000,26.000,258.575,314.915,814.640,264.680,-311.060,774.590,44.875,65.350,135.000
1.000,26.000,258.115,314.790,814.555,264.505,-311.190,774.515,45.187,65.350,135.000
1.000,26.000,259.085,315.095,814.625,263.695,-311.480,774.665,45.187,65.350,135.000
1.000,26.000,258.240,314.900,814.565,264.460,-311.430,774.145,45.187,65.345,135.000
1.000,26.000,257.815,315.270,814.900,264.430,-311.030,773.940,45.500,65.355,135.000
1.000,26.000,258.305,315.055,814.710,264.530,-310.605,774.470,45.187,65.355,135.000
1.000,26.000,258.750,314.895,814.435,264.145,-310.700,774.540,45.187,65.355,135.000
1.000,27.000,-6.035,424.220,817.960,-0.770,-233.295,846.105,45.187,65.375,90.000
1.000,27.000,-6.590,424.430,818.590,-0.315,-233.600,846.145,44.875,65.367,90.000
1.000,27.000,-6.155,424.070,818.060,-0.265,-233.630,845.970,44.875,65.367,90.000
1.000,27.000,-5.865,424.185,818.500,-0.485,-233.765,846.370,45.187,65.354,90.000
1.000,27.000,-5.760,424.180,817.765,-0.540,-233.210,846.585,44.875,65.354,90.000
1.000,27.000,-6.015,424.490,818.345,-1.045,-234.065,846.610,45.187,65.354,90.000
1.000,27.000,-6.370,424.115,818.120,-0.585,-233.760,845.880,45.187,65.354,90.000
1.000,27.000,-6.115,423.910,817.970,-0.530,-233.395,846.425,45.500,65.354,90.000
1.000,27.000,-5.895,424.080,818.500,-0.200,-233.610,846.075,45.187,65.354,90.000
1.000,27.000,-6.245,423.800,818.455,-0.375,-233.725,846.210,45.187,65.354,90.000
1.000,28.000,-280.905,312.460,817.050,-268.080,-312.240,770.910,45.187,65.370,45.000
1.000,28.000,-281.240,312.505,816.720,-268.445,-312.355,770.285,45.187,65.367,45.000
1.000,28.000,-280.905,312.445,816.365,-268.490,-312.520,770.725,45.187,65.367,45.000
1.000,28.000,-281.155,312.755,815.575,-268.390,-312.560,770.555,45.187,65.367,45.000
1.000,28.000,-280.705,312.575,816.020,-268.485,-312.465,770.875,44.875,65.367,45.000
1.000,28.000,-280.895,312.390,815.815,-268.050,-312.525,770.785,45.187,65.367,45.000
1.000,28.000,-281.260,312.150,816.350,-268.575,-312.245,770.875,44.875,65.367,45.000
1.000,28.000,-280.400,311.870,816.120,-268.180,-312.380,770.910,45.187,65.355,45.000
1.000,28.000,-280.775,312.110,815.800,-268.470,-312.395,770.990,45.187,65.355,45.000
1.000,28.000,-281.315,312.600,816.515,-268.215,-312.885,770.590,45.187,65.355,45.000
1.000,29.000,-397.055,46.645,813.360,-378.905,-504.285,587.665,45.187,65.334,0.000
1.000,29.000,-396.625,47.115,813.390,-379.115,-504.190,587.590,45.187,65.334,0.000
1.000,29.000,-396.720,47.210,813.925,-379.555,-504.510,587.140,45.187,65.339,0.000
1.000,29.000,-396.975,47.035,813.285,-379.555,-504.185,587.235,44.875,65.339,0.000
1.000,29.000,-396.435,46.660,812.690,-379.100,-503.850,588.090,44.875,65.349,0.000
1.000,29.000,-397.055,46.990,813.335,-378.760,-504.205,587.545,45.187,65.349,0.000
1.000,29.000,-396.730,47.335,812.865,-378.910,-504.705,588.520,44.875,65.349,0.000
1.000,29.000,-397.465,47.200,813.135,-378.695,-504.510,587.575,44.875,65.349,0.000
1.000,29.000,-396.980,46.775,813.510,-378.965,-504.305,587.395,44.875,65.349,0.000
1.000,29.000,-396.660,46.925,813.025,-379.025,-504.490,587.665,45.187,65.349,0.000
1.000,30.000,-287.115,-221.060,813.455,-270.125,-695.280,404.605,44.875,65.342,-45.000
1.000,30.000,-287.555,-221.285,813.955,-269.940,-695.190,405.460,44.875,65.342,-45.000
1.000,30.000,-286.950,-220.935,813.805,-269.645,-695.480,405.275,44.562,65.342,-45.000
1.000,30.000,-287.080,-221.295,814.835,-269.970,-694.880,404.665,45.187,65.354,-45.000
1.000,30.000,-287.270,-221.090,813.580,-270.035,-695.370,404.875,45.187,65.354,-45.000
1.000,30.000,-287.125,-221.145,814.050,-269.695,-695.160,405.170,44.875,65.354,-45.000
1.000,30.000,-287.155,-220.745,814.275,-269.670,-695.455,404.590,44.875,65.354,-45.000
1.000,30.000,-287.050,-221.275,813.680,-269.700,-694.965,405.530,44.875,65.354,-45.000
1.000,30.000,-287.515,-221.510,813.320,-269.670,-694.785,405.360,44.875,65.354,-45.000
1.000,30.000,-287.485,-221.680,813.465,-269.770,-695.070,404.995,44.875,65.354,-45.000
1.000,31.000,-14.485,-334.215,814.380,1.780,-776.610,327.515,44.562,65.364,-90.000
1.000,31.000,-13.385,-333.970,814.150,2.295,-776.030,328.105,44.562,65.364,-90.000
1.000,31.000,-15.465,-334.260,814.175,2.035,-776.090,328.765,44.562,65.364,-90.000
1.000,31.000,-15.115,-334.145,813.630,1.780,-776.300,327.935,44.875,65.364,-90.000
1.000,31.000,-14.855,-334.180,813.890,1.665,-776.665,327.840,44.562,65.364,-90.000
1.000,31.000,-14.975,-334.470,814.365,1.755,-776.465,328.155,44.875,65.364,-90.000
1.000,31.000,-15.210,-334.170,814.300,1.345,-776.095,328.080,44.562,65.364,-90.000
1.000,31.000,-15.000,-334.460,814.290,1.485,-775.985,328.175,44.875,65.364,-90.000
1.000,31.000,-14.920,-333.800,814.240,1.940,-776.215,328.125,44.875,65.364,-90.000
1.000,31.000,-15.200,-334.310,813.520,1.960,-776.160,328.115,44.875,65.364,-90.000
1.000,32.000,255.295,-222.930,815.945,271.990,-694.270,408.385,45.187,65.372,-135.000
1.000,32.000,255.185,-222.420,814.690,271.925,-694.080,408.605,44.562,65.372,-135.000
1.000,32.000,254.675,-222.540,814.845,271.680,-694.215,407.760,44.562,65.372,-135.000
1.000,32.000,254.960,-222.405,814.975,271.660,-694.145,408.125,44.875,65.369,-135.000
1.000,32.000,254.645,-222.350,815.155,271.855,-693.610,408.510,44.875,65.369,-135.000
1.000,32.000,254.475,-222.530,815.445,271.525,-693.995,408.235,44.875,65.365,-135.000
1.000,32.000,254.385,-222.895,815.120,271.965,-694.095,408.220,44.562,65.365,-135.000
1.000,32.000,254.115,-223.005,814.975,271.605,-694.030,408.620,44.875,65.360,-135.000
1.000,32.000,254.475,-222.310,815.265,272.030,-693.745,408.125,44.562,65.362,-135.000
1.000,32.000,254.825,-222.720,815.470,271.540,-693.940,408.600,44.875,65.357,-135.000
1.000,33.000,36.910,48.235,896.690,49.145,-557.205,651.985,44.250,87.025,180.000
1.000,33.000,36.395,48.125,897.065,49.835,-557.270,652.105,44.250,87.004,180.000
1.000,33.000,37.510,47.825,895.985,49.900,-557.825,652.815,44.562,87.004,180.000
1.000,33.000,36.840,48.015,896.545,50.360,-557.140,653.175,44.562,87.004,180.000
1.000,33.000,36.200,48.405,896.350,50.410,-557.150,653.245,44.562,87.004,180.000
1.000,33.000,36.140,47.950,896.535,49.860,-557.100,652.370,44.250,87.004,180.000
1.000,33.000,36.690,48.240,896.695,50.040,-557.470,652.325,44.562,87.004,180.000
1.000,33.000,35.725,48.105,897.055,49.635,-557.515,653.130,44.562,87.004,180.000
1.000,33.000,36.420,48.380,896.840,49.295,-557.170,652.345,44.562,87.004,180.000
1.000,33.000,36.010,47.800,896.560,50.080,-557.210,652.230,44.250,87.004,180.000
1.000,34.000,22.320,83.820,897.810,34.420,-532.005,677.365,44.562,86.977,135.000
1.000,34.000,21.745,83.040,897.405,34.845,-531.450,677.235,44.250,86.995,135.000
1.000,34.000,21.560,83.750,897.350,34.545,-531.730,676.895,44.562,86.995,135.000
1.000,34.000,21.530,83.950,897.070,34.765,-531.655,677.270,44.562,86.995,135.000
1.000,34.000,21.700,83.385,896.890,34.685,-531.875,677.340,44.250,86.995,135.000
1.000,34.000,22.555,83.630,896.960,34.890,-531.275,677.770,44.250,86.995,135.000
1.000,34.000,21.850,83.365,897.740,34.655,-531.465,677.405,44.562,87.000,135.000
1.000,34.000,21.515,83.860,896.815,34.560,-531.500,676.855,44.250,86.995,135.000
1.000,34.000,21.465,83.390,897.320,34.670,-531.850,677.575,44.250,86.995,135.000
1.000,34.000,22.385,83.405,897.135,34.910,-531.545,677.395,44.250,87.002,135.000
1.000,35.000,-16.260,98.040,897.030,-2.120,-522.530,685.990,44.250,87.055,90.000
1.000,35.000,-16.635,98.750,896.945,-2.375,-522.455,685.400,44.562,87.004,90.000
1.000,35.000,-16.235,98.310,897.060,-2.075,-522.580,686.135,44.562,87.004,90.000
1.000,35.000,-15.465,97.880,896.210,-2.570,-522.490,686.080,44.250,87.004,90.000
1.000,35.000,-16.470,98.405,896.355,-2.155,-522.200,685.235,44.250,87.004,90.000
1.000,35.000,-16.500,98.235,897.300,-1.895,-522.485,685.885,43.937,87.004,90.000
1.000,35.000,-16.500,98.085,897.180,-2.175,-522.420,685.495,44.250,87.004,90.000
1.000,35.000,-16.240,98.100,896.940,-1.915,-522.295,685.705,43.937,87.004,90.000
1.000,35.000,-16.385,98.245,896.890,-2.230,-522.650,685.495,44.250,87.004,90.000
1.000,35.000,-16.540,97.700,897.130,-2.570,-522.630,685.660,44.250,87.004,90.000
1.000,36.000,-53.490,81.970,896.130,-39.935,-534.035,674.000,44.250,86.915,45.000
1.000,36.000,-54.400,82.310,896.190,-40.350,-534.170,674.700,43.937,86.995,45.000
1.000,36.000,-53.800,81.985,897.015,-39.460,-533.955,674.460,44.250,86.995,45.000
1.000,36.000,-53.605,82.350,896.255,-39.435,-534.035,674.315,44.250,86.995,45.000
1.000,36.000,-53.780,82.540,896.605,-40.105,-534.435,673.890,44.250,87.004,45.000
1.000,36.000,-52.785,81.995,896.650,-39.600,-534.120,674.585,44.250,87.004,45.000
1.000,36.000,-53.955,82.335,895.925,-39.780,-533.940,674.020,44.250,87.004,45.000
1.000,36.000,-53.460,82.345,896.450,-39.535,-533.865,673.860,43.937,87.004,45.000
1.000,36.000,-53.335,82.280,896.160,-39.930,-533.880,674.360,43.937,87.004,45.000
1.000,36.000,-53.500,82.290,896.500,-40.340,-533.925,674.520,43.937,87.004,45.000
1.000,37.000,-65.815,44.930,897.160,-52.265,-559.415,648.890,43.937,87.199,0.000
1.000,37.000,-65.350,44.775,896.555,-52.195,-559.370,648.870,43.937,87.014,0.000
1.000,37.000,-64.825,44.530,897.070,-51.515,-559.135,649.180,43.937,87.014,0.000
1.000,37.000,-65.260,44.740,896.840,-52.160,-559.360,649.435,43.937,87.004,0.000
1.000,37.000,-64.920,45.045,896.990,-51.830,-559.360,648.855,43.937,87.004,0.000
1.000,37.000,-65.265,44.530,896.725,-52.610,-559.205,648.375,43.937,87.004,0.000
1.000,37.000,-65.790,44.930,896.515,-51.780,-559.090,648.560,44.250,87.004,0.000
1.000,37.000,-65.695,44.790,896.935,-52.500,-559.410,649.095,43.937,87.004,0.000
1.000,37.000,-65.510,44.425,897.590,-52.070,-559.330,648.775,43.937,87.004,0.000
1.000,37.000,-64.585,44.350,896.845,-52.480,-559.265,648.415,43.937,87.004,0.000
1.000,38.000,-49.830,9.000,897.215,-35.170,-584.695,626.055,44.250,86.985,-45.000
1.000,38.000,-49.915,8.845,897.735,-34.360,-584.515,625.595,43.937,87.009,-45.000
1.000,38.000,-49.810,9.260,897.535,-35.195,-584.785,625.765,43.937,87.007,-45.000
1.000,38.000,-49.310,8.955,897.115,-34.820,-584.950,625.935,43.937,87.004,-45.000
1.000,38.000,-49.900,9.200,897.560,-35.330,-584.600,625.410,43.937,87.004,-45.000
1.000,38.000,-49.935,9.050,897.305,-35.295,-585.070,625.610,43.625,87.004,-45.000
1.000,38.000,-49.560,9.455,897.715,-34.730,-585.340,625.780,43.937,87.004,-45.000
1.000,38.000,-50.040,9.240,897.685,-34.910,-585.050,625.250,43.937,87.004,-45.000
1.000,38.000,-49.995,9.315,897.920,-34.765,-585.155,625.555,43.625,87.004,-45.000
1.000,38.000,-49.630,9.440,897.390,-35.055,-585.135,625.960,43.937,87.004,-45.000
1.000,39.000,-12.545,-4.380,898.360,1.795,-594.845,616.205,43.937,86.985,-90.000
1.000,39.000,-12.500,-4.605,897.895,1.600,-595.035,615.975,43.625,86.985,-90.000
1.000,39.000,-12.285,-4.720,898.220,2.415,-595.235,616.490,43.937,86.995,-90.000
1.000,39.000,-12.900,-4.870,898.605,2.165,-595.685,616.145,43.937,87.004,-90.000
1.000,39.000,-12.935,-4.695,898.595,2.345,-594.980,616.135,43.625,87.004,-90.000
1.000,39.000,-12.625,-4.620,898.150,1.580,-595.000,615.440,43.625,87.004,-90.000
1.000,39.000,-12.710,-4.700,898.040,2.535,-595.445,615.845,43.937,87.004,-90.000
1.000,39.000,-12.260,-4.710,897.965,2.470,-595.405,615.595,43.625,87.004,-90.000
1.000,39.000,-11.890,-4.550,898.240,1.825,-594.920,615.645,43.625,87.004,-90.000
1.000,39.000,-12.885,-5.000,898.080,2.865,-595.125,615.990,43.625,87.004,-90.000
1.000,40.000,23.465,11.880,897.335,37.635,-583.865,626.730,43.625,86.965,-135.000
1.000,40.000,23.275,11.970,897.395,37.435,-583.400,627.195,43.625,86.974,-135.000
1.000,40.000,22.870,12.360,897.615,37.095,-583.610,627.400,43.625,86.987,-135.000
1.000,40.000,22.885,12.100,897.100,37.860,-583.570,627.205,43.625,87.014,-135.000
1.000,40.000,23.180,11.775,897.000,37.760,-583.845,626.930,43.625,87.014,-135.000
1.000,40.000,23.530,12.145,896.785,37.405,-583.820,627.155,43.937,87.014,-135.000
1.000,40.000,22.600,11.455,897.155,37.445,-583.985,626.355,43.937,87.014,-135.000
1.000,40.000,23.660,12.190,897.410,37.465,-583.790,627.280,43.625,87.009,-135.000
1.000,40.000,23.175,11.905,897.140,37.880,-583.770,626.760,43.937,87.007,-135.000
1.000,40.000,23.225,11.765,896.945,37.565,-583.960,626.095,43.625,87.004,-135.000
2.000,41.000,891.120,48.275,-0.385,899.845,78.840,-2.400,64.250,-0.277,180.000
2.000,41.000,891.130,48.155,-0.025,900.375,78.860,-2.560,64.250,-0.285,180.000
2.000,41.000,890.500,48.185,0.035,900.580,78.715,-2.080,64.250,-0.285,180.000
2.000,41.000,890.760,48.005,-0.130,900.565,78.820,-2.345,63.625,-0.285,180.000
2.000,41.000,890.035,47.595,-0.255,900.395,78.825,-1.775,64.250,-0.285,180.000
2.000,41.000,890.545,47.625,-0.070,900.165,78.390,-2.195,63.937,-0.285,180.000
2.000,41.000,890.920,47.905,0.425,900.030,78.955,-1.600,63.937,-0.285,180.000
2.000,41.000,890.430,47.815,-0.100,900.290,78.965,-2.350,63.625,-0.295,180.000
2.000,41.000,891.015,48.140,0.095,899.845,78.815,-1.900,64.250,-0.295,180.000
2.000,41.000,890.545,47.665,0.045,899.795,78.685,-2.375,63.937,-0.295,180.000
2.000,42.000,640.730,681.205,-3.885,641.490,536.085,434.185,64.250,-0.295,135.000
2.000,42.000,640.695,681.780,-3.725,641.085,535.890,434.630,64.250,-0.295,135.000
2.000,42.000,640.970,681.660,-3.515,641.150,536.095,434.055,64.250,-0.295,135.000
2.000,42.000,641.145,681.855,-3.525,641.500,535.625,434.490,64.250,-0.295,135.000
2.000,42.000,640.900,681.500,-3.840,640.720,536.250,433.855,63.937,-0.295,135.000
2.000,42.000,641.200,681.940,-3.710,641.030,535.805,434.560,64.250,-0.295,135.000
2.000,42.000,641.070,681.885,-3.915,641.385,536.010,433.860,64.250,-0.295,135.000
2.000,42.000,640.910,681.405,-3.945,641.135,535.730,434.095,63.937,-0.295,135.000
2.000,42.000,639.535,681.830,-3.905,641.310,535.375,434.575,64.562,-0.295,135.000
2.000,42.000,640.975,681.910,-3.915,641.055,536.045,434.275,64.250,-0.295,135.000
2.000,43.000,3.805,954.835,-6.095,7.485,725.535,622.450,64.250,-0.295,90.000
2.000,43.000,3.490,954.555,-5.415,7.910,725.850,622.185,64.250,-0.295,90.000
2.000,43.000,3.775,954.925,-5.925,7.760,725.905,623.245,64.562,-0.295,90.000
2.000,43.000,4.220,954.635,-6.165,7.230,725.495,622.470,64.250,-0.295,90.000
2.000,43.000,4.165,954.735,-5.485,7.355,725.105,622.465,64.250,-0.295,90.000
2.000,43.000,4.045,954.360,-5.775,6.805,725.640,622.390,64.562,-0.295,90.000
2.000,43.000,3.595,954.350,-5.430,7.280,725.780,622.445,64.875,-0.295,90.000
2.000,43.000,3.985,954.905,-6.035,7.545,725.590,622.855,64.250,-0.295,90.000
2.000,43.000,3.915,954.465,-6.215,7.120,725.515,622.745,64.250,-0.295,90.000
2.000,43.000,4.085,954.605,-5.825,7.180,725.890,622.145,64.250,-0.295,90.000
2.000,44.000,-649.080,692.345,-9.380,-638.855,535.705,432.585,64.562,-0.290,45.000
2.000,44.000,-649.710,691.860,-9.460,-639.020,535.695,432.550,64.562,-0.287,45.000
2.000,44.000,-649.545,692.080,-9.440,-639.270,535.965,432.670,64.562,-0.287,45.000
2.000,44.000,-649.895,692.165,-9.445,-639.195,535.560,432.195,64.250,-0.287,45.000
2.000,44.000,-649.395,692.470,-9.545,-638.870,535.805,432.065,64.562,-0.287,45.000
2.000,44.000,-649.430,692.465,-10.320,-638.380,535.640,432.100,64.562,-0.287,45.000
2.000,44.000,-649.890,692.515,-9.790,-639.205,535.910,432.150,64.562,-0.285,45.000
2.000,44.000,-649.135,692.240,-9.080,-638.810,535.870,432.485,64.562,-0.285,45.000
2.000,44.000,-648.730,692.700,-9.030,-638.820,536.050,431.990,64.250,-0.285,45.000
2.000,44.000,-649.440,692.275,-9.480,-638.920,535.760,432.080,64.250,-0.285,45.000
2.000,45.000,-911.800,61.075,-9.880,-898.540,78.275,-5.660,64.250,-0.285,0.000
2.000,45.000,-911.975,60.990,-10.260,-898.895,77.975,-5.985,64.562,-0.285,0.000
2.000,45.000,-911.650,61.455,-9.635,-898.405,77.930,-6.095,64.562,-0.285,0.000
2.000,45.000,-911.715,61.450,-9.930,-898.545,78.290,-6.185,64.562,-0.285,0.000
2.000,45.000,-911.530,61.275,-10.105,-898.730,78.435,-5.395,64.250,-0.285,0.000
2.000,45.000,-911.135,61.010,-9.740,-898.260,78.360,-5.840,64.562,-0.285,0.000
2.000,45.000,-912.685,61.300,-8.765,-898.755,78.040,-5.770,64.562,-0.285,0.000
2.000,45.000,-912.210,61.240,-9.875,-898.800,78.130,-6.315,64.562,-0.285,0.000
2.000,45.000,-912.010,61.235,-9.800,-897.380,78.065,-5.190,64.875,-0.285,0.000
2.000,45.000,-912.525,60.805,-10.185,-898.475,78.210,-5.800,64.562,-0.285,0.000
2.000,46.000,-654.350,-579.700,-7.715,-637.945,-378.275,-441.975,64.562,-0.285,-45.000
2.000,46.000,-654.475,-579.400,-7.490,-637.910,-377.700,-441.305,64.562,-0.295,-45.000
2.000,46.000,-654.355,-580.135,-8.170,-638.090,-378.310,-441.475,64.562,-0.295,-45.000
2.000,46.000,-654.250,-579.795,-8.010,-638.160,-378.285,-441.745,64.562,-0.295,-45.000
2.000,46.000,-654.635,-580.075,-7.810,-638.415,-378.270,-441.210,64.562,-0.295,-45.000
2.000,46.000,-653.945,-579.860,-7.580,-637.610,-378.255,-441.910,64.875,-0.295,-45.000
2.000,46.000,-654.755,-579.605,-7.995,-638.250,-377.805,-441.630,64.250,-0.295,-45.000
2.000,46.000,-654.530,-579.565,-7.540,-638.310,-378.040,-441.195,64.875,-0.295,-45.000
2.000,46.000,-654.580,-579.655,-7.555,-638.015,-378.020,-441.865,64.562,-0.295,-45.000
2.000,46.000,-654.695,-579.215,-7.760,-638.145,-378.045,-441.335,64.875,-0.295,-45.000
2.000,47.000,-15.965,-845.995,-3.440,3.450,-567.620,-631.310,64.875,-0.295,-90.000
2.000,47.000,-15.610,-846.175,-4.275,3.425,-567.825,-630.645,64.875,-0.295,-90.000
2.000,47.000,-15.550,-846.165,-4.000,4.290,-567.560,-631.150,64.562,-0.295,-90.000
2.000,47.000,-16.030,-846.065,-4.050,3.805,-567.910,-630.760,64.562,-0.295,-90.000
2.000,47.000,-15.980,-846.475,-3.915,3.455,-567.445,-630.710,64.875,-0.295,-90.000
2.000,47.000,-16.155,-846.015,-4.190,3.785,-567.635,-630.690,64.562,-0.295,-90.000
2.000,47.000,-15.665,-846.550,-3.290,4.030,-567.780,-631.125,64.562,-0.295,-90.000
2.000,47.000,-16.135,-846.170,-4.520,3.540,-568.160,-630.590,64.875,-0.295,-90.000
2.000,47.000,-15.765,-845.730,-3.690,4.180,-568.290,-630.580,64.875,-0.295,-90.000
2.000,47.000,-15.860,-845.900,-4.265,3.545,-568.325,-631.585,64.875,-0.295,-90.000
2.000,48.000,630.175,-584.105,-2.185,641.355,-378.905,-440.095,64.875,-0.295,-135.000
2.000,48.000,631.495,-584.145,-2.190,640.935,-378.650,-440.595,64.562,-0.295,-135.000
2.000,48.000,631.240,-583.935,-2.755,641.345,-378.670,-439.775,64.875,-0.295,-135.000
2.000,48.000,630.550,-584.430,-1.980,641.245,-379.400,-440.810,64.250,-0.295,-135.000
2.000,48.000,630.850,-584.125,-1.835,640.825,-378.950,-440.355,64.875,-0.295,-135.000
2.000,48.000,631.105,-584.890,-2.290,641.430,-378.980,-440.815,64.562,-0.295,-135.000
2.000,48.000,630.655,-584.385,-2.360,640.695,-379.155,-440.660,64.562,-0.295,-135.000
2.000,48.000,631.060,-584.055,-2.015,641.180,-379.120,-440.705,64.875,-0.295,-135.000
2.000,48.000,630.570,-584.480,-2.380,641.195,-379.265,-440.215,64.562,-0.295,-135.000
2.000,48.000,631.050,-584.135,-2.150,641.135,-379.160,-440.440,64.562,-0.295,-135.000
2.000,49.000,800.760,47.040,397.860,808.485,-200.925,288.670,64.875,26.090,180.000
2.000,49.000,801.090,46.860,398.725,807.990,-200.765,288.230,64.875,26.114,180.000
2.000,49.000,801.060,46.880,399.210,807.495,-200.545,289.000,64.562,26.114,180.000
2.000,49.000,801.320,46.990,398.860,807.670,-200.445,287.820,64.562,26.114,180.000
2.000,49.000,801.305,47.080,398.955,807.395,-200.710,288.470,65.187,26.114,180.000
2.000,49.000,801.255,47.315,398.580,806.845,-200.865,288.065,64.875,26.114,180.000
2.000,49.000,801.405,47.495,398.835,806.785,-200.470,288.415,64.875,26.114,180.000
2.000,49.000,801.115,47.770,398.515,807.815,-200.775,288.350,64.562,26.114,180.000
2.000,49.000,801.095,47.560,398.920,807.880,-200.715,288.505,64.875,26.114,180.000
2.000,49.000,801.280,47.430,398.515,807.725,-200.500,288.275,64.875,26.114,180.000
2.000,50.000,571.715,619.010,400.480,573.495,208.920,677.915,64.562,26.114,135.000
2.000,50.000,571.310,618.515,401.290,573.055,208.885,677.770,64.562,26.114,135.000
2.000,50.000,571.825,618.810,400.445,573.080,208.705,678.040,64.562,26.114,135.000
2.000,50.000,572.620,618.445,400.595,574.225,208.820,678.670,64.562,26.114,135.000
2.000,50.000,571.795,618.790,400.915,574.095,208.835,677.610,64.875,26.114,135.000
2.000,50.000,571.965,618.655,400.245,573.245,209.000,677.840,64.562,26.114,135.000
2.000,50.000,571.855,618.720,400.380,573.210,208.800,677.780,64.562,26.107,135.000
2.000,50.000,571.650,619.050,400.700,574.185,209.080,678.010,64.875,26.114,135.000
2.000,50.000,571.330,618.975,400.595,573.470,208.925,677.515,64.875,26.107,135.000
2.000,50.000,572.420,618.655,400.440,574.190,209.025,678.235,64.875,26.107,135.000
2.000,51.000,0.050,862.640,396.790,5.960,384.870,841.130,64.562,26.114,90.000
2.000,51.000,-0.200,862.845,397.230,5.495,385.395,841.775,64.875,26.114,90.000
2.000,51.000,0.305,862.300,397.020,5.380,385.430,840.860,64.562,26.114,90.000
2.000,51.000,0.090,862.675,397.505,5.325,385.280,841.555,64.562,26.104,90.000
2.000,51.000,-0.495,862.910,397.035,6.105,385.110,841.415,64.875,26.100,90.000
2.000,51.000,-0.140,862.805,397.410,5.820,385.335,841.465,64.562,26.100,90.000
2.000,51.000,-0.805,862.365,397.520,5.295,385.180,841.310,64.250,26.102,90.000
2.000,51.000,0.055,862.915,397.495,5.670,385.675,841.205,64.562,26.102,90.000
2.000,51.000,0.200,862.380,397.210,5.735,385.340,841.530,64.875,26.102,90.000
2.000,51.000,-0.090,862.500,397.145,5.550,385.525,841.505,64.875,26.102,90.000
2.000,52.000,-584.650,629.500,390.085,-577.885,211.240,674.595,64.562,26.104,45.000
2.000,52.000,-584.590,629.090,390.415,-578.490,210.995,674.915,64.875,26.104,45.000
2.000,52.000,-584.760,629.020,390.535,-578.645,211.360,674.520,64.875,26.112,45.000
2.000,52.000,-584.420,629.015,390.025,-578.620,211.375,674.530,64.562,26.120,45.000
2.000,52.000,-584.145,628.950,390.095,-579.155,210.645,674.635,64.875,26.127,45.000
2.000,52.000,-584.565,629.210,390.135,-578.435,211.035,674.570,64.562,26.127,45.000
2.000,52.000,-583.995,628.805,391.205,-578.505,211.105,674.230,64.250,26.130,45.000
2.000,52.000,-584.255,629.335,390.075,-578.690,210.680,674.680,64.250,26.114,45.000
2.000,52.000,-584.365,629.115,390.240,-578.985,211.535,674.660,64.562,26.114,45.000
2.000,52.000,-584.210,628.960,390.260,-577.615,210.985,674.540,64.250,26.114,45.000
2.000,53.000,-821.640,60.305,394.420,-812.240,-201.525,281.975,64.562,26.112,0.000
2.000,53.000,-821.335,60.310,394.800,-812.200,-201.160,281.985,64.250,26.112,0.000
2.000,53.000,-821.700,60.215,394.890,-812.305,-201.260,282.060,64.250,26.112,0.000
2.000,53.000,-821.455,60.515,394.370,-812.005,-201.695,281.640,64.875,26.112,0.000
2.000,53.000,-820.890,60.345,395.135,-811.380,-201.600,281.865,64.562,26.112,0.000
2.000,53.000,-821.280,60.450,394.690,-812.545,-201.270,282.280,64.875,26.104,0.000
2.000,53.000,-820.895,60.705,394.585,-811.190,-201.015,281.755,64.562,26.104,0.000
2.000,53.000,-821.560,60.520,394.780,-811.655,-201.385,282.250,64.250,26.114,0.000
2.000,53.000,-821.390,60.535,395.125,-811.735,-201.445,282.155,64.562,26.114,0.000
2.000,53.000,-820.700,60.310,395.000,-811.900,-201.460,282.030,64.562,26.114,0.000
2.000,54.000,-593.720,-512.815,392.410,-578.820,-609.170,-110.970,64.562,26.122,-45.000
2.000,54.000,-593.765,-512.455,392.270,-578.410,-609.235,-110.735,64.250,26.117,-45.000
2.000,54.000,-593.730,-512.630,392.525,-578.775,-609.030,-110.625,64.562,26.114,-45.000
2.000,54.000,-593.490,-512.715,392.550,-578.270,-608.510,-111.075,64.562,26.114,-45.000
2.000,54.000,-593.050,-512.625,392.660,-578.805,-608.930,-110.670,64.562,26.114,-45.000
2.000,54.000,-593.255,-512.590,392.930,-577.915,-608.855,-111.120,64.562,26.114,-45.000
2.000,54.000,-594.020,-512.455,392.710,-578.055,-608.960,-110.940,64.562,26.114,-45.000
2.000,54.000,-593.715,-512.985,391.930,-578.540,-608.415,-110.585,64.250,26.114,-45.000
2.000,54.000,-594.130,-512.625,393.045,-578.480,-608.805,-109.755,64.562,26.122,-45.000
2.000,54.000,-594.230,-512.890,392.200,-578.520,-608.665,-110.430,64.250,26.125,-45.000
2.000,55.000,-16.940,-754.390,398.705,3.765,-781.495,-276.285,64.562,26.117,-90.000
2.000,55.000,-16.775,-754.590,399.255,3.755,-781.590,-275.830,64.250,26.105,-90.000
2.000,55.000,-17.290,-754.285,399.350,3.150,-781.120,-276.315,64.562,26.105,-90.000
2.000,55.000,-17.010,-754.675,399.010,3.530,-781.385,-276.205,64.562,26.109,-90.000
2.000,55.000,-17.035,-754.335,398.770,3.310,-781.175,-276.315,64.250,26.119,-90.000
2.000,55.000,-17.010,-754.290,399.520,3.110,-781.165,-275.895,64.250,26.125,-90.000
2.000,55.000,-17.280,-754.415,398.690,3.565,-781.250,-275.940,64.250,26.125,-90.000
2.000,55.000,-17.185,-754.255,399.175,3.360,-781.000,-276.875,64.250,26.125,-90.000
2.000,55.000,-16.880,-754.490,399.055,3.565,-780.955,-276.355,64.562,26.110,-90.000
2.000,55.000,-17.195,-753.905,399.710,3.565,-781.075,-276.310,64.250,26.104,-90.000
2.000,56.000,560.975,-520.745,395.865,581.265,-607.350,-109.555,64.250,26.109,-135.000
2.000,56.000,560.205,-520.810,396.625,581.020,-607.200,-109.980,64.562,26.112,-135.000
2.000,56.000,560.425,-520.910,396.480,580.235,-607.375,-109.665,64.562,26.112,-135.000
2.000,56.000,560.300,-520.955,396.770,581.055,-607.810,-110.170,64.250,26.114,-135.000
2.000,56.000,559.845,-521.020,396.020,581.665,-607.725,-110.645,64.250,26.114,-135.000
2.000,56.000,560.240,-521.360,396.240,580.435,-607.270,-110.065,64.250,26.114,-135.000
2.000,56.000,560.030,-520.665,396.675,581.030,-607.710,-109.925,64.250,26.114,-135.000
2.000,56.000,560.380,-520.645,396.425,581.085,-607.550,-110.270,64.250,26.107,-135.000
2.000,56.000,560.750,-520.735,396.745,581.165,-607.640,-109.765,63.625,26.104,-135.000
2.000,56.000,560.590,-520.890,396.450,580.755,-607.535,-109.335,64.250,26.104,-135.000
2.000,57.000,644.090,50.365,621.840,653.760,-352.955,446.825,64.250,43.675,180.000
2.000,57.000,644.015,50.240,622.085,653.670,-352.830,446.515,63.625,43.669,180.000
2.000,57.000,643.380,50.335,621.275,653.295,-352.780,446.550,63.937,43.669,180.000
2.000,57.000,644.065,50.495,622.525,653.070,-353.380,446.420,64.250,43.669,180.000
2.000,57.000,643.435,50.775,621.740,653.175,-352.860,447.610,63.937,43.669,180.000
2.000,57.000,644.695,50.385,622.395,653.285,-353.020,446.250,63.625,43.669,180.000
2.000,57.000,644.130,50.450,621.930,653.320,-353.170,446.635,63.625,43.662,180.000
2.000,57.000,644.335,50.335,621.950,653.225,-353.140,446.535,63.937,43.662,180.000
2.000,57.000,643.770,51.140,621.955,653.405,-352.700,446.890,63.937,43.645,180.000
2.000,57.000,643.360,50.720,622.245,653.910,-352.595,446.735,63.625,43.645,180.000
2.000,58.000,454.390,514.210,622.710,466.080,-23.125,761.690,63.625,43.654,135.000
2.000,58.000,454.315,514.595,622.680,466.030,-23.120,762.325,63.625,43.645,135.000
2.000,58.000,454.660,514.055,622.725,465.420,-23.180,762.085,63.937,43.645,135.000
2.000,58.000,455.165,514.380,623.170,465.835,-23.335,762.145,63.625,43.645,135.000
2.000,58.000,454.600,514.140,623.005,465.755,-22.770,762.070,63.625,43.645,135.000
2.000,58.000,454.660,514.750,622.755,465.920,-22.515,762.220,63.625,43.645,135.000
2.000,58.000,454.245,514.335,623.090,465.850,-22.925,762.190,63.625,43.645,135.000
2.000,58.000,454.210,514.440,623.165,465.995,-22.765,761.810,63.625,43.635,135.000
2.000,58.000,454.165,514.640,623.410,465.760,-22.690,761.955,63.625,43.635,135.000
2.000,58.000,454.650,514.290,623.310,466.030,-22.755,762.000,63.625,43.635,135.000
2.000,59.000,-4.400,707.200,623.995,1.765,114.590,894.875,63.625,43.635,90.000
2.000,59.000,-4.645,707.585,623.545,1.745,114.720,894.800,63.625,43.635,90.000
2.000,59.000,-4.565,707.205,623.505,1.940,114.460,894.370,63.625,43.635,90.000
2.000,59.000,-3.540,707.300,623.630,1.995,114.750,894.535,63.625,43.635,90.000
2.000,59.000,-4.380,707.540,624.220,2.240,114.315,894.125,63.625,43.635,90.000
2.000,59.000,-4.380,707.030,623.320,2.045,114.735,894.600,63.625,43.639,90.000
2.000,59.000,-4.770,707.330,623.185,2.320,114.255,894.680,63.625,43.642,90.000
2.000,59.000,-4.055,707.310,623.090,1.780,114.365,895.025,63.312,43.642,90.000
2.000,59.000,-4.765,707.560,623.455,1.685,114.680,894.965,63.312,43.645,90.000
2.000,59.000,-4.175,707.315,623.560,1.365,114.740,894.810,63.625,43.652,90.000
2.000,60.000,-473.610,518.795,617.530,-468.725,-24.350,761.090,63.312,43.635,45.000
2.000,60.000,-473.105,519.050,616.950,-468.370,-24.385,760.815,63.312,43.635,45.000
2.000,60.000,-473.570,519.020,617.080,-468.870,-23.655,761.490,63.000,43.635,45.000
2.000,60.000,-473.665,518.685,617.065,-468.890,-24.065,760.790,63.312,43.635,45.000
2.000,60.000,-473.550,519.035,617.185,-469.000,-24.005,761.140,63.312,43.639,45.000
2.000,60.000,-473.050,518.480,617.070,-469.280,-23.835,760.635,63.000,43.645,45.000
2.000,60.000,-473.720,518.885,617.040,-468.880,-23.760,760.900,63.312,43.645,45.000
2.000,60.000,-473.490,519.450,617.165,-468.790,-23.670,760.760,63.312,43.645,45.000
2.000,60.000,-473.545,519.015,617.305,-469.065,-24.290,760.795,63.000,43.645,45.000
2.000,60.000,-474.005,518.985,617.535,-468.365,-24.170,761.520,63.000,43.645,45.000
2.000,61.000,-669.650,55.785,618.555,-654.610,-355.890,444.065,63.312,43.645,0.000
2.000,61.000,-669.655,55.635,618.810,-654.310,-356.140,444.345,63.000,43.645,0.000
2.000,61.000,-669.360,55.470,617.875,-654.235,-356.225,444.285,63.000,43.645,0.000
2.000,61.000,-668.920,55.600,617.965,-654.185,-355.580,444.675,63.000,43.645,0.000
2.000,61.000,-669.680,55.460,618.225,-653.960,-356.270,444.155,63.000,43.645,0.000
2.000,61.000,-669.835,56.120,618.410,-653.780,-356.025,444.165,63.000,43.645,0.000
2.000,61.000,-669.610,55.710,619.105,-654.240,-356.040,444.690,63.000,43.645,0.000
2.000,61.000,-669.990,55.805,618.210,-653.985,-356.100,443.585,63.000,43.645,0.000
2.000,61.000,-669.760,55.515,618.580,-653.950,-355.975,444.055,63.000,43.645,0.000
2.000,61.000,-669.400,55.820,618.140,-653.800,-356.500,444.095,63.000,43.645,0.000
2.000,62.000,-481.645,-401.395,619.305,-467.060,-686.080,129.080,63.000,43.645,-45.000
2.000,62.000,-481.820,-401.070,620.000,-467.235,-685.760,128.800,62.687,43.635,-45.000
2.000,62.000,-481.760,-401.390,619.940,-466.130,-685.690,128.710,63.000,43.635,-45.000
2.000,62.000,-481.760,-401.695,619.290,-467.295,-685.600,128.070,63.000,43.635,-45.000
2.000,62.000,-480.985,-401.420,620.480,-466.905,-685.390,128.360,63.312,43.635,-45.000
2.000,62.000,-481.095,-401.285,619.755,-466.480,-685.545,128.465,63.000,43.635,-45.000
2.000,62.000,-480.995,-401.665,619.565,-467.150,-685.595,128.265,63.000,43.635,-45.000
2.000,62.000,-481.900,-401.520,618.615,-466.850,-685.345,128.495,63.312,43.635,-45.000
2.000,62.000,-481.625,-401.455,619.330,-466.585,-685.560,128.965,63.000,43.635,-45.000
2.000,62.000,-481.090,-400.910,619.305,-467.110,-685.640,127.990,63.000,43.635,-45.000
2.000,63.000,-12.820,-598.470,621.745,4.295,-824.960,-5.195,62.687,43.645,-90.000
2.000,63.000,-12.710,-599.090,621.980,4.225,-824.820,-4.465,63.000,43.645,-90.000
2.000,63.000,-12.000,-598.440,621.770,3.895,-824.820,-4.805,63.000,43.645,-90.000
2.000,63.000,-12.845,-598.925,621.355,3.870,-824.850,-5.540,62.375,43.645,-90.000
2.000,63.000,-12.700,-598.795,621.710,3.590,-824.475,-5.165,63.000,43.635,-90.000
2.000,63.000,-12.130,-598.650,621.585,3.380,-824.775,-5.060,63.000,43.635,-90.000
2.000,63.000,-12.425,-598.455,622.145,3.565,-824.940,-4.980,62.687,43.635,-90.000
2.000,63.000,-12.210,-598.590,621.925,3.670,-824.390,-5.400,63.000,43.635,-90.000
2.000,63.000,-13.020,-598.935,621.575,3.730,-824.630,-5.275,62.687,43.635,-90.000
2.000,63.000,-12.535,-598.340,621.765,3.895,-824.355,-4.760,62.687,43.635,-90.000
2.000,64.000,447.430,-406.990,623.565,469.290,-683.500,130.550,63.000,43.645,-135.000
2.000,64.000,447.895,-407.215,623.565,468.780,-683.485,129.970,62.687,43.645,-135.000
2.000,64.000,447.985,-407.035,622.920,468.525,-683.410,130.000,62.375,43.645,-135.000
2.000,64.000,448.135,-407.330,623.035,468.950,-683.590,129.675,62.687,43.639,-135.000
2.000,64.000,448.285,-407.085,623.180,469.040,-683.570,130.250,62.687,43.642,-135.000
2.000,64.000,448.285,-407.020,623.160,469.825,-683.430,130.325,62.687,43.625,-135.000
2.000,64.000,448.440,-406.680,623.225,468.940,-683.130,130.175,62.375,43.625,-135.000
2.000,64.000,448.035,-407.325,623.015,469.250,-683.485,130.265,62.375,43.625,-135.000
2.000,64.000,448.585,-407.410,622.730,468.920,-683.165,129.540,62.687,43.632,-135.000
2.000,64.000,448.345,-406.840,622.920,469.170,-683.340,129.515,62.375,43.632,-135.000
2.000,65.000,369.095,55.850,815.765,377.450,-491.105,591.720,63.312,65.345,180.000
2.000,65.000,369.045,55.415,815.030,378.010,-490.915,591.080,63.312,65.334,180.000
2.000,65.000,368.315,55.890,815.310,377.805,-491.055,591.550,63.312,65.327,180.000
2.000,65.000,369.045,55.910,816.310,377.945,-491.075,591.235,63.312,65.327,180.000
2.000,65.000,368.540,55.440,815.105,377.610,-491.115,591.385,63.312,65.315,180.000
2.000,65.000,368.910,56.050,815.450,378.140,-491.500,591.510,63.312,65.322,180.000
2.000,65.000,368.105,55.120,815.750,377.815,-490.855,591.175,63.312,65.324,180.000
2.000,65.000,369.170,55.520,815.895,377.850,-491.300,591.435,63.000,65.324,180.000
2.000,65.000,369.050,55.500,815.855,377.920,-491.470,592.285,63.625,65.324,180.000
2.000,65.000,369.335,55.615,815.550,377.915,-491.185,591.480,63.312,65.324,180.000
2.000,66.000,258.965,324.385,816.400,264.070,-299.510,774.915,63.312,65.345,135.000
2.000,66.000,258.435,324.195,815.620,264.685,-299.450,775.090,63.312,65.345,135.000
2.000,66.000,258.640,324.210,815.680,264.130,-299.510,774.760,63.312,65.345,135.000
2.000,66.000,259.290,324.485,816.160,264.610,-299.380,775.460,63.312,65.345,135.000
2.000,66.000,258.905,323.920,815.875,264.545,-299.725,774.735,63.312,65.345,135.000
2.000,66.000,259.095,324.465,816.050,264.540,-299.430,775.295,63.625,65.345,135.000
2.000,66.000,259.005,324.380,815.645,265.055,-299.505,774.990,63.312,65.345,135.000
2.000,66.000,259.000,324.245,816.025,265.040,-299.640,775.410,63.625,65.345,135.000
2.000,66.000,258.470,324.345,815.670,264.795,-299.910,775.220,63.625,65.345,135.000
2.000,66.000,258.615,324.040,815.600,264.735,-299.855,774.925,63.312,65.337,135.000
2.000,67.000,-5.370,433.595,817.845,-0.340,-221.955,847.165,63.625,65.334,90.000
2.000,67.000,-5.605,432.895,818.055,-0.265,-222.025,846.865,63.625,65.345,90.000
2.000,67.000,-5.490,434.005,818.690,-0.610,-222.260,846.710,63.625,65.345,90.000
2.000,67.000,-6.150,433.800,818.225,-1.025,-222.505,847.000,63.312,65.345,90.000
2.000,67.000,-5.485,433.685,818.110,-0.055,-222.050,846.955,63.312,65.345,90.000
2.000,67.000,-5.500,433.385,817.935,-0.980,-222.000,846.780,63.625,65.345,90.000
2.000,67.000,-5.120,433.350,818.340,0.420,-222.225,846.480,63.937,65.345,90.000
2.000,67.000,-5.395,433.190,818.160,-0.005,-222.205,846.860,63.625,65.345,90.000
2.000,67.000,-5.805,433.410,818.140,-1.010,-222.125,846.655,63.625,65.337,90.000
2.000,67.000,-5.720,433.375,818.070,-0.185,-222.390,846.660,63.625,65.337,90.000
2.000,68.000,-280.755,321.885,817.110,-269.005,-300.615,771.315,63.937,65.324,45.000
2.000,68.000,-281.090,322.280,817.175,-268.530,-300.830,771.505,63.625,65.324,45.000
2.000,68.000,-281.360,321.885,817.485,-268.760,-301.090,771.885,63.625,65.332,45.000
2.000,68.000,-281.025,322.370,817.140,-268.875,-301.160,772.145,63.625,65.334,45.000
2.000,68.000,-281.525,321.860,817.145,-268.235,-301.490,771.525,63.625,65.334,45.000
2.000,68.000,-281.190,322.225,817.635,-268.940,-301.165,771.830,63.625,65.334,45.000
2.000,68.000,-280.825,322.055,817.785,-269.275,-300.830,771.250,63.312,65.334,45.000
2.000,68.000,-280.375,322.125,817.510,-269.325,-301.105,772.090,63.625,65.334,45.000
2.000,68.000,-281.090,321.755,817.170,-268.675,-301.445,771.535,63.937,65.319,45.000
2.000,68.000,-281.085,322.285,817.520,-269.025,-301.270,770.865,63.625,65.319,45.000
2.000,69.000,-397.010,57.110,814.590,-378.990,-493.925,587.090,63.937,65.342,0.000
2.000,69.000,-396.785,56.865,814.015,-378.870,-493.695,586.195,63.625,65.340,0.000
2.000,69.000,-396.795,56.940,814.265,-379.960,-493.890,586.885,64.250,65.337,0.000
2.000,69.000,-396.770,56.770,814.205,-379.080,-493.680,586.630,63.937,65.337,0.000
2.000,69.000,-396.755,56.925,814.455,-378.895,-493.685,587.315,63.937,65.324,0.000
2.000,69.000,-397.695,56.250,814.255,-379.340,-493.705,586.600,63.625,65.324,0.000
2.000,69.000,-397.170,56.730,814.285,-379.255,-493.610,586.760,63.937,65.324,0.000
2.000,69.000,-397.200,56.455,814.035,-379.270,-493.510,587.235,63.937,65.324,0.000
2.000,69.000,-397.740,56.605,814.125,-379.345,-493.560,586.525,63.937,65.324,0.000
2.000,69.000,-397.130,56.420,814.190,-378.955,-494.005,587.380,63.937,65.324,0.000
2.000,70.000,-287.835,-212.610,815.325,-269.930,-684.580,405.685,63.937,65.334,-45.000
2.000,70.000,-287.775,-212.730,815.140,-269.935,-684.785,405.110,63.937,65.334,-45.000
2.000,70.000,-287.375,-212.440,815.835,-269.535,-684.990,405.270,63.937,65.334,-45.000
2.000,70.000,-287.820,-212.755,815.985,-269.965,-684.980,404.960,64.250,65.334,-45.000
2.000,70.000,-288.310,-212.665,814.715,-270.410,-685.295,405.170,64.250,65.334,-45.000
2.000,70.000,-287.890,-212.420,815.295,-269.825,-685.285,404.975,64.250,65.334,-45.000
2.000,70.000,-287.685,-212.605,815.210,-269.705,-684.945,405.530,63.937,65.334,-45.000
2.000,70.000,-287.850,-212.310,815.270,-270.045,-684.850,405.450,64.250,65.334,-45.000
2.000,70.000,-288.110,-212.615,815.460,-270.750,-684.875,404.935,63.937,65.334,-45.000
2.000,70.000,-287.470,-212.950,815.365,-270.390,-684.890,405.075,63.937,65.334,-45.000
2.000,71.000,-15.445,-325.525,816.200,2.145,-765.970,328.350,63.937,65.324,-90.000
2.000,71.000,-15.155,-326.145,816.370,2.405,-765.510,328.455,63.937,65.324,-90.000
2.000,71.000,-15.070,-325.475,816.530,1.855,-765.750,328.690,64.250,65.324,-90.000
2.000,71.000,-14.840,-325.860,815.970,2.455,-765.855,328.550,63.937,65.324,-90.000
2.000,71.000,-15.280,-325.280,816.600,2.225,-765.845,328.580,63.937,65.324,-90.000
2.000,71.000,-14.310,-325.345,816.085,2.425,-765.610,329.055,63.937,65.324,-90.000
2.000,71.000,-15.330,-325.865,816.375,2.365,-765.440,328.520,63.937,65.324,-90.000
2.000,71.000,-15.080,-325.765,815.720,2.940,-765.665,328.580,63.937,65.324,-90.000
2.000,71.000,-14.780,-325.795,816.485,1.920,-765.495,328.845,64.250,65.324,-90.000
2.000,71.000,-14.980,-326.120,816.335,2.955,-765.460,328.750,64.250,65.324,-90.000
2.000,72.000,255.410,-214.750,816.030,272.305,-683.235,408.185,63.937,65.324,-135.000
2.000,72.000,255.205,-214.365,815.175,271.805,-683.455,408.545,63.937,65.324,-135.000
2.000,72.000,255.535,-214.715,815.310,271.965,-683.295,408.910,63.937,65.324,-135.000
2.000,72.000,255.375,-214.395,815.430,272.265,-683.320,408.405,64.250,65.324,-135.000
2.000,72.000,255.470,-214.480,815.885,271.825,-683.260,409.015,64.562,65.330,-135.000
2.000,72.000,255.275,-214.380,815.545,272.005,-683.095,408.615,63.937,65.355,-135.000
2.000,72.000,255.860,-214.355,815.560,272.305,-683.635,408.550,63.937,65.355,-135.000
2.000,72.000,254.835,-214.560,815.755,271.800,-683.350,408.465,63.937,65.355,-135.000
2.000,72.000,256.050,-214.540,816.295,271.910,-683.155,408.270,63.937,65.350,-135.000
2.000,72.000,255.030,-214.515,816.075,271.795,-683.285,408.125,64.250,65.350,-135.000
2.000,73.000,43.670,56.585,898.145,56.190,-546.330,652.890,64.562,86.654,180.000
2.000,73.000,43.300,56.185,897.695,56.230,-546.600,653.070,64.562,86.604,180.000
2.000,73.000,43.515,56.395,897.780,56.695,-546.155,653.180,64.562,86.595,180.000
2.000,73.000,43.925,56.805,897.900,56.345,-546.595,653.120,64.562,86.595,180.000
2.000,73.000,43.545,56.570,897.380,56.460,-546.610,652.880,64.562,86.595,180.000
2.000,73.000,42.780,56.265,898.005,56.440,-546.595,652.820,64.562,86.595,180.000
2.000,73.000,43.415,56.600,897.685,56.190,-546.975,652.655,64.562,86.595,180.000
2.000,73.000,44.005,56.975,897.860,56.715,-546.755,652.870,64.250,86.595,180.000
2.000,73.000,43.455,56.520,898.030,56.015,-546.370,652.770,64.562,86.584,180.000
2.000,73.000,43.365,56.040,898.065,57.070,-546.660,652.665,64.250,86.584,180.000
2.000,74.000,26.645,95.995,897.815,39.685,-517.780,680.875,64.562,86.699,135.000
2.000,74.000,26.950,95.980,898.055,39.390,-518.115,680.815,64.562,86.575,135.000
2.000,74.000,27.015,95.980,898.120,39.800,-517.975,681.190,64.562,86.565,135.000
2.000,74.000,27.365,95.650,898.040,39.500,-517.395,681.420,64.875,86.574,135.000
2.000,74.000,26.710,96.125,897.875,39.485,-517.900,680.805,64.562,86.580,135.000
2.000,74.000,27.190,95.965,898.310,39.200,-518.085,680.855,63.937,86.577,135.000
2.000,74.000,26.345,96.105,897.335,39.740,-517.955,681.270,64.562,86.565,135.000
2.000,74.000,26.975,96.485,898.240,38.745,-518.370,680.820,64.562,86.565,135.000
2.000,74.000,26.500,96.420,897.955,39.900,-517.600,680.245,64.562,86.572,135.000
2.000,74.000,27.140,96.225,898.065,39.095,-517.720,681.155,64.250,86.575,135.000
2.000,75.000,-15.415,112.825,898.015,-0.905,-506.610,690.580,64.875,86.525,90.000
2.000,75.000,-15.900,113.510,898.125,-0.795,-506.500,691.210,64.875,86.537,90.000
2.000,75.000,-15.815,113.280,898.110,-0.890,-506.795,691.135,64.250,86.555,90.000
2.000,75.000,-16.390,113.500,897.865,-1.135,-506.500,691.650,64.562,86.565,90.000
2.000,75.000,-16.100,113.120,897.890,-1.135,-506.935,691.390,64.875,86.574,90.000
2.000,75.000,-16.350,113.400,898.525,-1.295,-506.630,691.160,64.562,86.574,90.000
2.000,75.000,-15.815,113.635,898.050,-1.195,-506.775,690.755,64.562,86.574,90.000
2.000,75.000,-15.980,113.105,897.760,-0.445,-506.810,690.935,64.562,86.574,90.000
2.000,75.000,-15.780,113.260,898.580,-0.880,-506.735,690.950,64.562,86.574,90.000
2.000,75.000,-16.105,113.755,897.675,-1.140,-506.655,690.815,64.562,86.574,90.000
2.000,76.000,-58.000,94.340,897.310,-43.425,-520.175,677.470,64.562,86.614,45.000
2.000,76.000,-58.125,94.555,897.440,-43.850,-520.000,677.270,64.875,86.584,45.000
2.000,76.000,-58.200,95.045,897.635,-43.260,-520.275,677.885,64.875,86.572,45.000
2.000,76.000,-58.350,94.810,897.185,-43.670,-520.235,676.900,64.562,86.572,45.000
2.000,76.000,-57.520,95.180,897.570,-43.615,-520.225,677.340,64.875,86.572,45.000
2.000,76.000,-58.455,94.960,897.230,-43.800,-520.450,676.995,64.562,86.572,45.000
2.000,76.000,-58.805,94.735,897.835,-43.235,-520.105,677.485,64.875,86.572,45.000
2.000,76.000,-58.295,95.475,897.490,-43.295,-519.675,677.550,64.562,86.572,45.000
2.000,76.000,-57.725,95.405,897.325,-43.610,-519.690,677.700,64.250,86.565,45.000
2.000,76.000,-58.500,94.715,897.580,-43.325,-519.715,677.270,64.562,86.565,45.000
2.000,77.000,-71.870,53.450,898.240,-58.405,-548.685,649.220,64.562,86.614,0.000
2.000,77.000,-72.555,53.735,897.755,-58.050,-548.830,649.375,64.562,86.584,0.000
2.000,77.000,-72.460,53.420,897.805,-58.035,-548.850,649.145,64.562,86.575,0.000
2.000,77.000,-71.990,52.705,898.090,-58.775,-549.065,648.780,64.562,86.575,0.000
2.000,77.000,-72.210,53.750,896.615,-58.155,-549.025,649.825,64.562,86.575,0.000
2.000,77.000,-72.050,53.230,897.345,-58.530,-548.815,648.845,64.875,86.575,0.000
2.000,77.000,-71.840,53.885,898.210,-58.570,-548.830,648.960,64.562,86.565,0.000
2.000,77.000,-72.175,52.820,897.420,-58.660,-548.510,649.520,64.562,86.565,0.000
2.000,77.000,-72.550,53.590,898.090,-58.185,-549.095,649.210,64.562,86.565,0.000
2.000,77.000,-72.150,53.865,897.290,-58.385,-548.720,648.910,64.562,86.574,0.000
2.000,78.000,-54.160,12.855,898.175,-39.105,-577.025,622.840,64.875,86.635,-45.000
2.000,78.000,-54.375,12.710,898.560,-39.815,-577.190,623.430,64.875,86.610,-45.000
2.000,78.000,-53.985,12.540,898.525,-39.310,-577.375,623.275,64.875,86.699,-45.000
2.000,78.000,-53.895,12.985,898.645,-39.140,-576.750,622.755,64.875,86.699,-45.000
2.000,78.000,-53.940,12.950,898.600,-38.715,-577.815,623.545,64.875,86.699,-45.000
2.000,78.000,-53.650,13.280,898.305,-38.880,-577.380,623.030,64.562,86.699,-45.000
2.000,78.000,-54.555,12.780,898.710,-38.620,-577.125,623.025,64.562,86.584,-45.000
2.000,78.000,-54.300,12.710,898.020,-39.140,-576.670,622.775,64.875,86.584,-45.000
2.000,78.000,-54.330,12.695,898.015,-38.730,-577.170,622.785,64.875,86.584,-45.000
2.000,78.000,-54.600,12.770,898.490,-38.820,-577.165,623.375,64.562,86.575,-45.000
2.000,79.000,-12.730,-2.345,899.260,2.385,-589.220,611.890,64.562,86.565,-90.000
2.000,79.000,-12.640,-3.070,899.200,2.685,-589.895,612.025,64.562,86.557,-90.000
2.000,79.000,-12.545,-2.895,899.775,2.280,-589.325,611.770,64.562,86.565,-90.000
2.000,79.000,-13.045,-2.825,898.940,1.890,-589.125,611.840,64.562,86.569,-90.000
2.000,79.000,-12.865,-3.220,898.555,2.140,-589.190,612.110,64.875,86.569,-90.000
2.000,79.000,-12.705,-2.480,898.935,2.635,-589.420,612.345,64.875,86.569,-90.000
2.000,79.000,-12.470,-2.270,899.010,2.425,-589.120,612.085,64.875,86.574,-90.000
2.000,79.000,-12.605,-2.765,899.120,1.975,-589.070,612.170,64.875,86.574,-90.000
2.000,79.000,-12.920,-2.625,899.205,2.215,-588.780,612.100,64.875,86.574,-90.000
2.000,79.000,-12.775,-2.555,899.265,2.860,-589.270,611.995,64.875,86.574,-90.000
2.000,80.000,27.480,15.895,897.665,41.725,-576.380,624.525,64.562,86.585,-135.000
2.000,80.000,27.515,15.715,898.085,42.255,-576.360,624.190,64.562,86.574,-135.000
2.000,80.000,27.480,15.480,897.975,42.320,-576.295,624.520,64.875,86.574,-135.000
2.000,80.000,27.730,15.225,898.430,41.975,-576.285,623.900,64.562,86.574,-135.000
2.000,80.000,27.510,15.685,897.930,42.025,-575.925,624.330,64.562,86.574,-135.000
2.000,80.000,27.765,15.690,897.955,41.930,-576.115,624.495,64.562,86.574,-135.000
2.000,80.000,27.905,15.960,897.820,42.615,-576.420,624.750,64.562,86.574,-135.000
2.000,80.000,27.290,16.015,898.080,42.240,-576.595,624.575,64.562,86.574,-135.000
2.000,80.000,27.070,15.965,898.525,41.975,-575.985,624.295,64.562,86.574,-135.000
2.000,80.000,27.540,15.595,898.225,42.510,-576.450,624.040,64.562,86.574,-135.000
