Index,X Accel 1,Y Accel 1,Z Accel 1,X Accel 2,Y Accel 2,Z Accel2,Temp,Theta ,Phi,,,,,,,,
1.000,887.985,113.820,2.715,896.720,116.035,54.430,40.812,-0.165,180.000
1.000,888.365,113.675,2.510,895.915,116.500,53.850,40.812,-0.165,180.000
1.000,888.095,113.310,2.345,896.585,116.110,54.755,40.500,-0.165,180.000
1.000,888.200,113.660,2.950,896.555,115.750,54.315,40.812,-0.165,180.000
1.000,888.295,113.810,2.605,896.040,115.900,54.190,40.500,-0.165,180.000
1.000,888.645,113.790,2.650,896.460,116.195,54.325,40.500,-0.165,180.000
1.000,888.355,113.760,2.650,896.995,116.120,54.660,40.187,-0.165,180.000
1.000,888.895,113.810,2.590,897.090,116.655,54.245,40.500,-0.165,180.000
1.000,888.865,113.435,2.320,896.230,116.270,54.715,40.812,-0.172,180.000
1.000,888.535,114.225,2.430,896.355,115.565,54.290,40.500,-0.175,180.000
2.000,684.600,621.800,-0.145,684.725,483.125,401.530,40.187,-0.175,135.000
2.000,685.645,621.530,0.075,684.675,483.300,402.505,40.812,-0.175,135.000
2.000,684.795,621.710,-0.700,684.240,482.930,402.135,40.187,-0.175,135.000
2.000,685.390,621.570,-0.175,684.345,483.520,402.550,40.187,-0.165,135.000
2.000,685.240,622.285,-0.765,684.970,483.755,401.880,40.500,-0.165,135.000
2.000,684.790,621.855,-0.445,684.475,483.460,402.460,40.500,-0.165,135.000
2.000,684.965,621.835,0.025,684.265,483.285,401.670,40.812,-0.165,135.000
2.000,685.385,622.050,-0.315,683.900,483.525,401.590,40.500,-0.169,135.000
2.000,685.180,621.975,-0.585,684.525,483.155,402.405,40.500,-0.172,135.000
2.000,684.670,621.960,-0.365,683.825,483.575,401.925,40.500,-0.172,135.000
3.000,72.800,938.125,-3.400,75.395,707.025,620.970,40.500,-0.175,90.000
3.000,72.545,938.575,-3.720,75.705,706.940,620.725,40.187,-0.175,90.000
3.000,73.050,938.400,-3.215,75.685,707.365,620.370,40.500,-0.175,90.000
3.000,72.900,938.500,-3.065,75.480,707.325,620.735,40.500,-0.165,90.000
3.000,72.390,938.270,-2.975,75.640,706.810,621.425,40.187,-0.165,90.000
3.000,73.225,938.080,-3.150,75.100,707.030,620.580,40.187,-0.172,90.000
3.000,73.005,938.305,-3.725,75.865,707.075,620.560,40.187,-0.175,90.000
3.000,73.110,938.760,-3.405,75.825,707.255,621.170,40.187,-0.175,90.000
3.000,72.415,938.520,-3.640,75.390,707.155,620.535,40.187,-0.175,90.000
3.000,72.775,938.550,-3.100,75.920,706.755,620.985,40.187,-0.175,90.000
4.000,-596.390,727.045,-7.600,-585.100,556.025,466.690,40.500,-0.177,45.000
4.000,-596.790,727.550,-8.325,-585.450,555.845,466.555,40.187,-0.187,45.000
4.000,-596.675,727.565,-8.190,-585.305,556.005,466.965,40.187,-0.175,45.000
4.000,-596.510,727.565,-9.260,-585.000,555.765,467.025,40.187,-0.175,45.000
4.000,-596.825,727.620,-8.325,-585.085,555.865,466.235,40.500,-0.175,45.000
4.000,-596.860,727.770,-8.455,-585.025,555.555,466.520,40.187,-0.175,45.000
4.000,-596.070,727.920,-8.330,-585.495,555.710,466.835,40.187,-0.165,45.000
4.000,-596.335,727.680,-8.005,-584.795,555.555,466.955,40.187,-0.165,45.000
4.000,-596.865,727.870,-9.305,-585.250,555.700,466.470,40.187,-0.165,45.000
4.000,-597.070,727.640,-8.670,-585.075,555.560,467.165,40.187,-0.165,45.000
5.000,-905.730,122.425,-10.725,-894.510,117.490,43.075,40.187,-0.175,0.000
5.000,-905.685,122.395,-10.680,-893.685,117.355,43.120,40.187,-0.165,0.000
5.000,-906.420,122.375,-10.675,-894.675,117.455,43.455,40.187,-0.165,0.000
5.000,-905.720,122.600,-11.065,-894.485,117.225,43.705,40.187,-0.165,0.000
5.000,-905.910,122.470,-11.060,-894.340,117.340,44.095,40.187,-0.165,0.000
5.000,-905.440,122.470,-10.725,-894.495,117.280,43.635,40.187,-0.165,0.000
5.000,-906.195,122.965,-10.475,-894.310,117.080,43.765,40.187,-0.165,0.000
5.000,-905.580,122.905,-10.150,-893.885,117.215,43.505,40.187,-0.165,0.000
5.000,-905.600,122.330,-10.660,-894.140,117.250,43.190,39.875,-0.165,0.000
5.000,-905.440,122.995,-11.025,-894.050,117.530,43.510,39.875,-0.175,0.000
6.000,-701.825,-534.050,-7.745,-687.590,-351.125,-402.865,39.875,-0.175,-45.000
6.000,-701.595,-534.535,-7.465,-688.300,-351.690,-402.675,40.500,-0.175,-45.000
6.000,-701.540,-534.575,-7.880,-688.005,-351.635,-402.715,40.187,-0.175,-45.000
6.000,-702.175,-534.130,-8.325,-687.915,-351.655,-402.615,39.875,-0.175,-45.000
6.000,-701.265,-534.590,-8.075,-688.325,-350.980,-402.775,40.187,-0.175,-45.000
6.000,-701.555,-534.230,-8.005,-688.340,-351.400,-402.225,40.187,-0.175,-45.000
6.000,-701.470,-534.400,-7.820,-688.075,-351.530,-402.300,40.187,-0.175,-45.000
6.000,-701.540,-534.475,-7.620,-688.500,-351.650,-402.460,40.187,-0.175,-45.000
6.000,-702.130,-534.715,-7.870,-687.895,-351.970,-402.585,40.187,-0.175,-45.000
6.000,-701.240,-534.440,-7.735,-687.840,-351.730,-402.815,39.875,-0.175,-45.000
7.000,-92.450,-852.245,-4.770,-72.900,-580.065,-625.895,40.187,-0.175,-90.000
7.000,-92.355,-852.240,-4.880,-72.640,-579.690,-626.480,40.187,-0.175,-90.000
7.000,-92.255,-852.400,-4.020,-72.850,-579.935,-625.675,40.187,-0.175,-90.000
7.000,-92.165,-852.335,-4.155,-72.935,-579.755,-626.110,39.875,-0.175,-90.000
7.000,-92.295,-852.430,-4.360,-72.695,-579.525,-625.975,39.875,-0.175,-90.000
7.000,-92.605,-852.365,-4.075,-72.695,-579.705,-625.570,39.875,-0.175,-90.000
7.000,-92.340,-852.280,-4.250,-72.765,-580.085,-625.780,39.875,-0.175,-90.000
7.000,-91.775,-852.420,-4.555,-72.320,-579.595,-626.115,39.875,-0.175,-90.000
7.000,-92.340,-852.370,-4.690,-73.025,-579.625,-626.425,39.875,-0.175,-90.000
7.000,-92.285,-852.380,-4.690,-73.165,-579.550,-625.705,40.187,-0.175,-90.000
8.000,578.260,-641.545,0.450,589.430,-429.840,-471.935,39.875,-0.175,-135.000
8.000,577.570,-641.770,0.570,590.560,-429.760,-471.825,39.875,-0.165,-135.000
8.000,577.135,-641.850,0.645,590.140,-429.825,-471.785,40.187,-0.169,-135.000
8.000,578.755,-641.520,0.955,589.565,-429.985,-471.890,39.875,-0.175,-135.000
8.000,577.340,-641.665,0.545,590.185,-429.660,-472.065,39.875,-0.175,-135.000
8.000,577.525,-642.345,0.870,590.025,-429.650,-472.225,39.875,-0.175,-135.000
8.000,577.250,-641.960,0.615,589.875,-429.850,-471.645,39.875,-0.184,-135.000
8.000,578.015,-641.865,0.560,590.090,-429.885,-471.435,39.875,-0.184,-135.000
8.000,578.285,-641.770,0.190,590.020,-429.605,-471.390,39.875,-0.175,-135.000
8.000,577.655,-641.560,0.410,589.870,-429.980,-472.180,39.875,-0.175,-135.000
9.000,801.085,103.350,397.025,804.615,-163.530,334.165,45.500,25.952,180.000
9.000,800.605,103.305,396.885,805.155,-163.905,334.170,45.500,25.954,180.000
9.000,800.155,103.620,397.020,804.885,-163.990,333.440,45.500,25.959,180.000
9.000,799.930,103.345,396.600,805.265,-163.490,334.455,45.812,25.965,180.000
9.000,799.770,103.425,397.075,804.820,-163.790,333.615,45.812,25.974,180.000
9.000,800.005,103.465,397.095,804.910,-163.860,333.915,45.812,25.974,180.000
9.000,800.435,103.510,396.770,805.180,-164.100,334.565,45.812,25.974,180.000
9.000,800.350,103.310,396.040,805.375,-163.905,333.910,45.500,25.974,180.000
9.000,800.435,103.380,397.060,804.540,-164.000,333.795,45.500,25.967,180.000
9.000,799.480,103.530,396.100,805.030,-163.985,333.965,45.500,25.967,180.000
10.000,608.780,571.205,399.345,610.950,170.700,651.300,45.812,25.969,135.000
10.000,609.010,571.005,399.210,611.360,170.495,650.940,45.812,25.974,135.000
10.000,608.620,571.530,399.520,611.050,170.420,651.030,45.812,25.974,135.000
10.000,608.200,571.580,398.675,611.810,171.115,651.075,46.125,25.974,135.000
10.000,608.750,570.930,399.160,611.545,170.660,651.565,45.500,25.974,135.000
10.000,608.560,571.510,399.290,611.090,170.650,651.980,45.812,25.974,135.000
10.000,608.965,570.995,399.495,610.820,170.695,651.005,45.812,25.974,135.000
10.000,609.095,571.625,398.870,611.730,170.880,651.105,45.812,25.967,135.000
10.000,608.240,571.360,399.265,611.010,170.610,651.380,45.812,25.965,135.000
10.000,608.730,571.270,399.415,611.285,170.310,651.185,45.500,25.965,135.000
11.000,55.410,851.710,394.655,59.815,374.000,837.740,45.812,25.965,90.000
11.000,55.230,851.785,394.370,60.145,373.850,837.400,45.812,25.965,90.000
11.000,55.930,851.405,394.395,60.135,374.400,837.345,46.125,25.965,90.000
11.000,54.805,851.755,394.375,60.165,373.745,837.235,46.125,25.965,90.000
11.000,55.585,852.165,393.860,60.095,374.460,837.700,45.812,25.965,90.000
11.000,55.845,852.010,394.225,59.635,373.745,838.055,46.125,25.965,90.000
11.000,55.215,851.875,394.645,60.470,374.155,837.675,45.500,25.965,90.000
11.000,55.385,852.420,393.980,59.945,374.095,837.535,45.812,25.965,90.000
11.000,54.405,851.990,394.000,60.000,373.760,837.505,45.812,25.965,90.000
11.000,55.465,852.015,394.270,60.020,373.925,837.560,46.125,25.965,90.000
12.000,-541.675,660.770,387.110,-536.665,231.420,699.870,46.125,25.965,45.000
12.000,-542.080,660.340,387.260,-535.995,231.270,700.150,46.125,25.965,45.000
12.000,-542.070,660.235,386.665,-536.445,231.345,700.565,46.437,25.965,45.000
12.000,-542.265,660.480,387.315,-536.760,231.190,700.010,46.437,25.965,45.000
12.000,-541.640,660.445,387.080,-537.130,231.235,699.860,46.437,25.965,45.000
12.000,-541.625,660.330,387.385,-536.540,231.540,700.450,46.125,25.965,45.000
12.000,-542.515,660.320,387.420,-536.325,231.590,700.490,45.812,25.965,45.000
12.000,-542.465,660.845,387.690,-536.830,231.575,700.235,46.437,25.965,45.000
12.000,-542.100,660.585,387.035,-536.680,231.385,700.335,46.437,25.965,45.000
12.000,-541.520,660.600,386.830,-536.245,231.175,699.785,46.125,25.965,45.000
13.000,-818.750,118.705,389.190,-807.575,-160.765,325.945,46.437,25.965,0.000
13.000,-818.855,118.415,388.835,-806.925,-160.795,326.175,46.125,25.965,0.000
13.000,-817.935,118.605,389.885,-807.370,-160.790,325.955,46.437,25.965,0.000
13.000,-818.350,118.690,389.265,-807.630,-160.500,325.880,46.125,25.965,0.000
13.000,-818.320,118.105,389.365,-807.250,-160.905,325.885,46.437,25.965,0.000
13.000,-818.080,118.330,389.195,-806.965,-160.955,325.835,46.125,25.965,0.000
13.000,-818.320,118.335,389.780,-806.990,-161.100,326.010,46.437,25.965,0.000
13.000,-817.990,118.385,388.840,-807.700,-160.720,326.670,46.437,25.965,0.000
13.000,-818.355,118.875,389.670,-807.825,-161.035,325.865,46.437,25.965,0.000
13.000,-818.400,118.760,389.690,-807.490,-160.700,326.495,46.125,25.965,0.000
14.000,-645.160,-464.685,388.585,-629.650,-577.835,-76.945,46.750,25.974,-45.000
14.000,-644.990,-465.240,388.700,-629.450,-578.050,-76.210,46.437,25.974,-45.000
14.000,-644.710,-465.325,388.390,-629.665,-577.835,-76.070,46.750,25.974,-45.000
14.000,-644.685,-464.970,388.515,-629.645,-577.665,-76.400,46.750,25.974,-45.000
14.000,-645.105,-464.615,388.195,-629.135,-577.685,-75.930,46.750,25.974,-45.000
14.000,-644.435,-464.585,389.035,-629.675,-577.625,-76.125,46.437,25.974,-45.000
14.000,-644.450,-464.610,388.650,-629.860,-577.960,-76.190,46.437,25.974,-45.000
14.000,-644.390,-464.855,388.340,-629.715,-577.555,-76.275,46.750,25.974,-45.000
14.000,-644.170,-465.085,388.015,-630.065,-577.870,-76.230,46.750,25.974,-45.000
14.000,-644.795,-465.130,387.880,-629.555,-577.955,-76.135,46.437,25.974,-45.000
15.000,-93.095,-758.025,394.450,-73.535,-789.415,-277.175,46.437,25.965,-90.000
15.000,-93.685,-757.840,395.120,-73.525,-789.285,-276.745,46.750,25.965,-90.000
15.000,-94.470,-758.100,395.455,-72.935,-789.740,-276.685,46.437,25.965,-90.000
15.000,-94.045,-758.085,395.500,-73.175,-789.530,-277.120,46.750,25.965,-90.000
15.000,-93.865,-757.945,395.405,-73.650,-789.200,-276.715,46.750,25.965,-90.000
15.000,-94.085,-757.725,395.195,-73.440,-789.505,-277.010,46.750,25.965,-90.000
15.000,-93.715,-757.700,395.030,-73.235,-789.705,-276.655,46.437,25.972,-90.000
15.000,-93.350,-757.720,395.540,-73.130,-789.150,-277.175,46.750,25.974,-90.000
15.000,-93.930,-757.605,395.390,-73.560,-789.235,-276.870,46.750,25.974,-90.000
15.000,-93.375,-757.440,394.965,-73.005,-789.685,-277.360,46.750,25.967,-90.000
16.000,506.490,-578.490,396.425,526.395,-653.705,-144.220,46.750,25.967,-135.000
16.000,505.940,-579.050,396.030,525.525,-653.520,-144.080,47.062,25.965,-135.000
16.000,506.515,-578.430,396.290,525.700,-653.800,-143.940,46.750,25.965,-135.000
16.000,505.980,-578.445,396.365,526.180,-653.705,-143.910,46.437,25.965,-135.000
16.000,506.110,-578.795,396.450,525.640,-653.660,-144.310,46.750,25.965,-135.000
16.000,505.795,-578.525,396.500,525.605,-653.895,-144.755,47.062,25.965,-135.000
16.000,506.130,-578.850,396.225,525.775,-653.755,-144.280,46.437,25.965,-135.000
16.000,506.045,-578.675,396.385,525.880,-653.755,-144.010,46.750,25.965,-135.000
16.000,505.940,-578.365,396.145,525.855,-653.585,-144.060,47.062,25.965,-135.000
16.000,505.620,-578.875,395.905,525.255,-653.530,-143.935,47.062,25.965,-135.000
17.000,638.710,98.010,625.980,650.830,-324.205,487.600,47.062,43.654,180.000
17.000,638.685,98.060,626.155,650.565,-324.325,487.230,47.375,43.654,180.000
17.000,638.880,97.870,625.845,650.455,-323.925,487.575,46.750,43.654,180.000
17.000,638.840,97.920,625.990,650.890,-324.070,487.235,47.062,43.654,180.000
17.000,638.345,98.265,625.670,650.475,-324.285,487.870,47.375,43.647,180.000
17.000,638.980,98.175,626.135,650.465,-324.085,487.735,47.062,43.647,180.000
17.000,639.350,97.510,625.820,650.120,-324.655,487.155,46.750,43.644,180.000
17.000,639.080,97.825,626.025,650.450,-324.255,487.410,47.062,43.644,180.000
17.000,638.785,97.595,625.795,650.390,-324.130,487.180,47.062,43.644,180.000
17.000,639.120,97.835,625.415,650.070,-324.220,487.130,47.062,43.644,180.000
18.000,481.075,474.930,624.175,489.180,-53.670,745.875,47.375,43.644,135.000
18.000,480.400,475.170,624.435,488.960,-53.580,746.590,47.062,43.644,135.000
18.000,480.695,475.355,625.005,489.115,-54.060,746.525,46.750,43.644,135.000
18.000,480.630,475.140,624.740,489.115,-53.415,746.960,47.062,43.644,135.000
18.000,481.410,474.970,625.170,489.130,-53.525,746.340,46.750,43.644,135.000
18.000,480.955,475.085,624.420,489.800,-53.335,746.145,47.062,43.644,135.000
18.000,480.885,474.935,624.470,489.170,-53.405,746.695,47.687,43.644,135.000
18.000,481.060,475.375,624.480,489.705,-53.490,746.515,47.375,43.652,135.000
18.000,481.025,475.105,624.030,488.900,-53.095,746.005,47.375,43.652,135.000
18.000,481.310,475.275,623.940,489.200,-53.465,747.195,47.062,43.654,135.000
19.000,36.675,695.475,622.470,43.275,101.680,893.460,47.062,43.635,90.000
19.000,36.755,694.960,622.430,43.265,101.590,893.215,47.062,43.635,90.000
19.000,36.810,695.235,623.060,43.765,101.660,893.495,47.375,43.635,90.000
19.000,37.445,695.060,622.850,42.860,101.690,893.105,47.375,43.639,90.000
19.000,37.765,695.755,622.505,43.055,101.450,893.140,47.375,43.639,90.000
19.000,36.975,695.540,622.940,43.370,101.930,893.555,47.375,43.642,90.000
19.000,36.605,695.200,622.540,43.120,101.495,893.090,47.687,43.654,90.000
19.000,36.245,695.335,622.775,43.320,102.000,892.595,47.062,43.654,90.000
19.000,36.220,695.050,622.940,42.750,101.450,892.680,47.375,43.654,90.000
19.000,36.755,694.985,622.880,43.215,101.410,893.490,47.375,43.654,90.000
20.000,-442.110,538.100,615.945,-438.795,-14.105,781.680,47.375,43.654,45.000
20.000,-443.245,538.210,616.650,-439.120,-13.850,780.770,47.375,43.654,45.000
20.000,-442.635,537.880,615.845,-438.885,-13.735,781.260,47.375,43.654,45.000
20.000,-442.935,537.935,615.705,-438.535,-13.455,780.935,47.375,43.654,45.000
20.000,-442.500,537.990,616.530,-439.265,-14.055,781.280,47.062,43.654,45.000
20.000,-442.465,537.785,615.405,-438.925,-14.060,781.315,47.375,43.654,45.000
20.000,-442.580,538.085,616.460,-438.110,-13.745,781.205,47.375,43.654,45.000
20.000,-442.690,538.375,615.745,-438.975,-14.345,780.975,47.375,43.654,45.000
20.000,-442.500,538.225,616.060,-438.785,-13.710,780.580,47.687,43.654,45.000
20.000,-443.330,537.970,615.515,-439.485,-14.130,781.135,47.375,43.654,45.000
21.000,-667.280,106.725,614.420,-652.040,-324.190,483.290,47.687,43.662,0.000
21.000,-667.280,107.195,613.595,-652.230,-323.730,482.740,47.687,43.657,0.000
21.000,-666.785,106.815,614.470,-652.580,-323.975,483.040,47.687,43.657,0.000
21.000,-666.655,107.275,614.720,-652.490,-323.885,483.535,47.687,43.657,0.000
21.000,-667.515,107.035,614.480,-652.265,-323.845,482.935,47.375,43.657,0.000
21.000,-666.935,107.045,613.225,-651.980,-323.965,483.770,47.375,43.657,0.000
21.000,-667.040,106.955,613.650,-652.040,-323.800,483.120,47.062,43.645,0.000
21.000,-667.335,107.335,614.275,-652.035,-324.330,483.450,47.375,43.645,0.000
21.000,-667.085,106.695,614.370,-651.990,-323.905,483.465,47.687,43.645,0.000
21.000,-666.590,106.890,613.850,-652.030,-323.990,483.030,47.375,43.645,0.000
22.000,-527.000,-360.830,616.990,-512.290,-660.400,160.860,47.687,43.645,-45.000
22.000,-526.750,-360.315,617.660,-512.015,-660.530,160.600,47.375,43.645,-45.000
22.000,-526.915,-360.165,617.685,-512.550,-660.520,160.255,47.375,43.645,-45.000
22.000,-527.055,-360.740,617.760,-512.260,-660.735,160.400,47.375,43.645,-45.000
22.000,-527.255,-360.290,618.125,-512.120,-660.305,160.175,47.375,43.645,-45.000
22.000,-526.795,-360.430,617.450,-512.525,-660.210,160.360,47.687,43.645,-45.000
22.000,-527.270,-360.405,618.035,-512.410,-660.925,160.405,47.375,43.645,-45.000
22.000,-526.980,-360.560,617.575,-512.450,-660.650,159.915,47.687,43.645,-45.000
22.000,-527.545,-360.035,617.295,-511.980,-660.515,160.845,47.375,43.635,-45.000
22.000,-526.955,-360.270,617.045,-512.330,-660.640,160.965,47.687,43.635,-45.000
23.000,0.000,0.000,0.000,0.000,0.000,0.000,0.000,43.665,-90.000
23.000,0.000,0.000,0.000,0.000,0.000,0.000,0.000,43.665,-90.000
23.000,0.000,0.000,0.000,0.000,0.000,0.000,0.000,43.655,-90.000
23.000,0.000,0.000,0.000,0.000,0.000,0.000,0.000,43.652,-90.000
23.000,0.000,0.000,0.000,0.000,0.000,0.000,0.000,43.652,-90.000
23.000,0.000,0.000,0.000,0.000,0.000,0.000,0.000,43.652,-90.000
23.000,0.000,0.000,0.000,0.000,0.000,0.000,0.000,43.652,-90.000
23.000,0.000,0.000,0.000,0.000,0.000,0.000,0.000,43.654,-90.000
23.000,0.000,0.000,0.000,0.000,0.000,0.000,0.000,43.650,-90.000
23.000,0.000,0.000,0.000,0.000,0.000,0.000,0.000,43.647,-90.000
24.000,0.000,0.000,0.000,0.000,0.000,0.000,0.000,43.645,-135.000
24.000,0.000,0.000,0.000,0.000,0.000,0.000,0.000,43.654,-135.000
24.000,0.000,0.000,0.000,0.000,0.000,0.000,0.000,43.654,-135.000
24.000,0.000,0.000,0.000,0.000,0.000,0.000,0.000,43.654,-135.000
24.000,0.000,0.000,0.000,0.000,0.000,0.000,0.000,43.654,-135.000
24.000,0.000,0.000,0.000,0.000,0.000,0.000,0.000,43.647,-135.000
24.000,0.000,0.000,0.000,0.000,0.000,0.000,0.000,43.647,-135.000
24.000,0.000,0.000,0.000,0.000,0.000,0.000,0.000,43.645,-135.000
24.000,0.000,0.000,0.000,0.000,0.000,0.000,0.000,43.645,-135.000
24.000,0.000,0.000,0.000,0.000,0.000,0.000,0.000,43.642,-135.000
