Index,X Accel 1,Y Accel 1,Z Accel 1,X Accel 2,Y Accel 2,Z Accel2,Temp,Theta ,Phi,,,,,,,,
1.000,890.025,42.375,18.020,898.610,53.480,15.400,24.875,-0.060,180.000
1.000,890.365,42.390,18.100,898.890,53.385,15.540,24.875,-0.065,180.000
1.000,889.995,42.605,17.930,898.370,53.320,15.570,25.187,-0.070,180.000
1.000,889.955,42.465,17.730,898.135,53.715,15.490,24.875,-0.070,180.000
1.000,890.175,42.640,18.035,898.625,53.715,15.825,24.875,-0.070,180.000
1.000,889.935,42.735,18.075,898.510,53.170,15.865,25.187,-0.070,180.000
1.000,889.945,42.425,17.915,898.690,53.370,15.595,24.875,-0.084,180.000
1.000,890.440,42.270,17.830,898.970,53.220,16.155,24.875,-0.084,180.000
1.000,890.515,42.605,18.105,899.495,53.580,16.195,25.187,-0.084,180.000
1.000,890.510,42.150,18.310,899.135,53.000,15.700,25.187,-0.084,180.000
2.000,645.490,660.625,12.925,644.270,500.650,442.165,25.187,-0.084,135.000
2.000,646.350,660.710,13.545,643.825,500.430,442.580,25.187,-0.084,135.000
2.000,645.895,660.515,13.205,644.370,500.490,442.485,25.187,-0.084,135.000
2.000,645.290,660.840,12.650,644.305,499.700,441.770,25.187,-0.084,135.000
2.000,646.400,660.725,13.245,644.805,500.450,441.865,24.875,-0.084,135.000
2.000,644.995,660.845,13.255,643.825,500.755,442.190,25.187,-0.084,135.000
2.000,645.675,661.200,12.955,644.525,500.755,441.990,25.187,-0.084,135.000
2.000,644.740,661.340,13.100,643.380,500.475,442.050,24.875,-0.084,135.000
2.000,643.840,662.380,12.300,643.675,501.635,442.360,25.187,-0.084,135.000
2.000,644.595,661.880,13.330,643.525,501.785,442.485,24.875,-0.084,135.000
3.000,19.045,938.145,7.425,20.965,696.500,629.445,24.875,-0.082,90.000
3.000,17.145,938.480,7.110,19.680,696.680,629.515,25.187,-0.075,90.000
3.000,18.195,938.075,7.985,20.465,695.835,630.200,24.875,-0.075,90.000
3.000,17.195,937.905,8.215,19.380,695.980,629.865,24.875,-0.084,90.000
3.000,17.175,938.060,8.340,19.110,696.005,629.715,24.875,-0.084,90.000
3.000,17.580,937.980,8.335,18.865,696.195,630.315,25.187,-0.084,90.000
3.000,17.085,938.260,7.815,19.700,696.360,630.500,25.187,-0.084,90.000
3.000,16.920,938.070,8.090,19.315,696.645,629.785,24.875,-0.084,90.000
3.000,16.010,938.275,8.445,17.465,696.080,630.130,24.875,-0.077,90.000
3.000,15.650,938.470,8.230,18.315,696.145,630.420,25.187,-0.077,90.000
4.000,-639.725,684.560,4.570,-628.945,510.920,448.200,25.187,-0.082,45.000
4.000,-638.435,685.075,4.085,-627.150,510.580,448.430,25.187,-0.084,45.000
4.000,-638.380,685.050,4.550,-628.160,511.010,447.755,25.187,-0.084,45.000
4.000,-638.075,685.270,4.525,-627.940,510.825,447.625,25.187,-0.084,45.000
4.000,-639.260,685.080,4.550,-629.190,511.130,448.160,25.187,-0.084,45.000
4.000,-639.210,684.785,4.000,-628.430,511.425,447.210,24.875,-0.084,45.000
4.000,-640.800,684.470,4.760,-630.330,510.895,447.305,25.187,-0.084,45.000
4.000,-639.015,684.220,3.535,-629.665,510.345,446.990,25.187,-0.084,45.000
4.000,-639.015,684.575,5.485,-628.920,509.940,448.000,25.187,-0.084,45.000
4.000,-639.330,684.520,4.500,-628.235,511.150,447.455,25.187,-0.084,45.000
5.000,-907.680,57.530,1.670,-897.010,58.710,9.285,25.187,-0.084,0.000
5.000,-908.270,56.815,1.455,-897.270,58.295,9.645,25.187,-0.080,0.000
5.000,-908.565,57.295,1.535,-897.455,58.295,8.915,25.187,-0.077,0.000
5.000,-907.860,57.100,1.825,-898.280,58.745,9.095,25.187,-0.075,0.000
5.000,-908.650,57.290,1.965,-897.300,58.115,8.815,25.187,-0.075,0.000
5.000,-908.165,57.230,1.410,-897.775,58.430,9.310,24.875,-0.075,0.000
5.000,-907.890,57.355,2.315,-897.610,58.710,9.335,24.875,-0.075,0.000
5.000,-907.900,57.365,1.535,-897.620,58.585,9.285,25.187,-0.075,0.000
5.000,-908.580,57.145,1.495,-897.035,58.415,9.315,24.875,-0.075,0.000
5.000,-907.635,57.205,1.790,-897.810,58.600,9.490,25.187,-0.075,0.000
6.000,-659.765,-584.335,1.360,-645.350,-396.140,-428.595,25.187,-0.075,-45.000
6.000,-659.490,-584.425,1.320,-644.910,-396.290,-429.110,25.187,-0.075,-45.000
6.000,-659.540,-584.640,0.795,-645.090,-396.570,-429.420,24.875,-0.075,-45.000
6.000,-659.750,-584.360,1.165,-644.950,-396.725,-428.905,25.500,-0.075,-45.000
6.000,-659.725,-584.320,0.625,-645.090,-396.680,-428.620,25.500,-0.075,-45.000
6.000,-660.100,-584.515,0.725,-645.200,-396.170,-428.785,25.500,-0.075,-45.000
6.000,-659.140,-584.270,0.880,-645.040,-396.255,-428.835,25.187,-0.075,-45.000
6.000,-659.905,-584.725,0.770,-645.000,-396.410,-428.695,25.187,-0.075,-45.000
6.000,-658.970,-584.675,0.935,-645.430,-396.200,-429.095,25.187,-0.084,-45.000
6.000,-659.745,-584.075,1.160,-645.165,-396.355,-429.435,25.187,-0.084,-45.000
7.000,-27.855,-858.685,3.490,-11.540,-591.295,-625.265,25.187,-0.084,-90.000
7.000,-27.690,-859.030,3.765,-11.435,-590.995,-624.630,25.187,-0.080,-90.000
7.000,-28.275,-858.875,3.210,-11.535,-591.255,-624.940,24.875,-0.082,-90.000
7.000,-28.150,-858.500,3.940,-11.430,-591.415,-624.995,25.187,-0.075,-90.000
7.000,-28.490,-858.600,3.495,-11.930,-591.240,-624.845,25.187,-0.084,-90.000
7.000,-27.930,-858.320,3.530,-11.895,-591.390,-624.840,25.187,-0.084,-90.000
7.000,-28.100,-858.690,3.160,-11.400,-590.920,-625.350,25.187,-0.084,-90.000
7.000,-27.605,-858.915,3.630,-11.180,-590.920,-625.160,25.187,-0.084,-90.000
7.000,-28.195,-858.195,3.390,-11.165,-591.085,-624.515,25.187,-0.084,-90.000
7.000,-28.435,-858.870,3.450,-11.605,-591.425,-625.155,25.187,-0.080,-90.000
8.000,624.065,-604.905,9.580,633.595,-411.360,-436.240,25.187,-0.077,-135.000
8.000,623.540,-604.560,10.640,633.610,-410.995,-436.240,25.187,-0.077,-135.000
8.000,635.500,-610.610,-8.765,645.010,-402.295,-453.420,25.187,-0.077,-135.000
8.000,622.995,-604.670,-12.075,633.330,-396.145,-452.755,25.187,-0.735,-135.000
8.000,622.565,-604.770,-11.685,632.790,-395.675,-452.430,25.187,-1.495,-135.000
8.000,622.640,-605.090,-11.795,633.060,-396.260,-452.615,25.187,-1.495,-135.000
8.000,624.055,-604.120,-12.430,633.065,-395.660,-451.925,25.187,-1.495,-135.000
8.000,622.800,-604.855,-12.300,633.240,-395.800,-452.155,25.500,-1.495,-135.000
8.000,622.975,-604.795,-11.695,633.515,-395.865,-452.535,25.187,-1.504,-135.000
8.000,623.925,-604.800,-11.690,633.160,-396.005,-451.910,25.187,-1.504,-135.000
