Temp Iter,Index,X Accel 1,Y Accel 1,Z Accel 1,X Accel 2,Y Accel 2,Z Accel2, Temp,Theta,Phi,,,,,,,
1.000,1.000,890.365,34.580,10.360,898.850,53.360,4.300,25.187,0.285,180.000
1.000,1.000,890.910,34.055,9.390,898.640,53.445,3.540,25.500,0.285,180.000
1.000,1.000,890.780,34.505,9.590,898.360,53.350,4.090,24.875,0.285,180.000
1.000,1.000,890.620,34.030,10.105,898.315,53.500,3.690,25.187,0.285,180.000
1.000,1.000,890.630,34.900,9.760,898.435,52.650,3.490,25.187,0.285,180.000
1.000,1.000,890.885,34.270,9.920,898.120,53.525,4.155,25.187,0.285,180.000
1.000,1.000,890.585,34.215,9.695,899.015,53.165,3.780,25.187,0.285,180.000
1.000,1.000,890.655,34.505,9.965,898.925,53.190,4.020,25.187,0.285,180.000
1.000,1.000,890.230,33.795,9.830,898.750,53.665,4.235,24.875,0.285,180.000
1.000,1.000,890.555,34.405,9.630,898.395,53.480,4.110,24.875,0.285,180.000
1.000,2.000,640.320,666.765,5.385,639.135,510.080,439.690,25.187,0.292,135.000
1.000,2.000,640.645,667.185,5.135,638.600,509.920,439.365,25.500,0.295,135.000
1.000,2.000,639.940,667.090,5.730,638.605,510.275,439.065,25.187,0.285,135.000
1.000,2.000,640.290,667.120,5.190,638.935,510.500,439.440,24.875,0.285,135.000
1.000,2.000,639.970,666.655,4.970,638.325,510.120,439.405,24.875,0.285,135.000
1.000,2.000,640.720,666.630,4.780,638.670,510.200,439.245,25.187,0.285,135.000
1.000,2.000,639.960,666.965,5.715,638.375,510.050,439.500,25.187,0.285,135.000
1.000,2.000,640.580,666.710,4.695,638.295,510.090,439.740,24.875,0.285,135.000
1.000,2.000,639.950,666.725,5.110,638.360,510.095,439.370,24.875,0.285,135.000
1.000,2.000,640.345,667.060,4.810,638.500,510.170,439.205,25.187,0.285,135.000
1.000,3.000,4.985,938.410,2.225,7.050,700.020,626.370,25.187,0.285,90.000
1.000,3.000,4.225,939.060,1.945,6.590,700.355,626.945,25.187,0.285,90.000
1.000,3.000,4.380,938.835,1.710,6.995,699.985,626.410,25.500,0.285,90.000
1.000,3.000,4.260,938.990,1.995,6.745,699.865,626.805,25.500,0.285,90.000
1.000,3.000,4.855,938.640,1.675,6.350,699.990,626.565,25.187,0.285,90.000
1.000,3.000,4.535,938.680,1.415,6.490,700.275,627.045,25.187,0.285,90.000
1.000,3.000,4.230,939.005,1.945,6.865,700.570,626.985,25.187,0.285,90.000
1.000,3.000,4.105,938.760,1.520,6.225,700.710,626.910,25.187,0.285,90.000
1.000,3.000,3.745,938.690,1.510,7.115,700.205,626.770,25.187,0.285,90.000
1.000,3.000,3.745,938.485,1.380,6.935,700.300,626.530,25.187,0.285,90.000
1.000,4.000,-648.300,676.295,-2.905,-637.100,509.780,437.150,25.187,0.295,45.000
1.000,4.000,-647.900,675.950,-2.845,-636.740,509.215,436.965,25.187,0.295,45.000
1.000,4.000,-648.685,676.190,-2.860,-636.335,509.730,436.820,25.187,0.295,45.000
1.000,4.000,-647.980,675.805,-2.925,-636.680,509.860,437.050,25.187,0.285,45.000
1.000,4.000,-648.115,675.675,-2.745,-636.965,509.335,436.970,25.500,0.285,45.000
1.000,4.000,-647.770,675.955,-1.880,-636.405,509.925,437.515,24.875,0.285,45.000
1.000,4.000,-648.255,675.870,-2.170,-636.200,509.300,436.770,25.187,0.285,45.000
1.000,4.000,-647.605,675.155,-2.645,-637.105,510.040,436.830,24.875,0.285,45.000
1.000,4.000,-648.650,675.305,-2.500,-637.390,509.455,436.625,25.187,0.285,45.000
1.000,4.000,-648.345,675.870,-2.555,-636.720,509.790,436.260,25.187,0.285,45.000
1.000,5.000,-909.365,45.550,-2.275,-898.280,53.010,-1.330,25.187,0.285,0.000
1.000,5.000,-909.190,45.520,-2.385,-897.855,53.350,-1.255,25.187,0.285,0.000
1.000,5.000,-908.380,45.440,-2.745,-897.875,52.960,-1.090,24.875,0.285,0.000
1.000,5.000,-908.710,45.875,-2.885,-897.555,53.205,-0.840,25.187,0.285,0.000
1.000,5.000,-909.475,45.470,-2.970,-898.245,53.155,-1.505,25.187,0.285,0.000
1.000,5.000,-909.350,45.685,-3.285,-897.365,53.425,-1.520,25.187,0.285,0.000
1.000,5.000,-908.980,45.830,-2.670,-897.450,53.275,-1.260,24.875,0.285,0.000
1.000,5.000,-908.655,45.790,-2.160,-898.085,53.100,-1.575,25.187,0.285,0.000
1.000,5.000,-908.950,45.895,-2.575,-897.810,53.335,-1.345,25.187,0.285,0.000
1.000,5.000,-909.340,45.390,-2.715,-898.225,52.730,-1.025,24.875,0.285,0.000
1.000,6.000,-651.570,-593.110,-0.540,-635.795,-401.360,-436.010,25.500,0.285,-45.000
1.000,6.000,-651.380,-593.615,-0.605,-635.365,-401.965,-435.805,25.187,0.285,-45.000
1.000,6.000,-651.625,-593.265,-0.685,-635.980,-401.445,-435.995,25.187,0.285,-45.000
1.000,6.000,-651.515,-593.905,-0.510,-635.380,-401.865,-435.465,25.187,0.285,-45.000
1.000,6.000,-651.545,-593.575,-0.370,-635.430,-401.545,-435.960,25.187,0.285,-45.000
1.000,6.000,-651.550,-593.990,-0.195,-635.850,-401.510,-435.750,24.875,0.290,-45.000
1.000,6.000,-651.425,-593.455,-1.045,-635.630,-401.185,-435.300,25.187,0.292,-45.000
1.000,6.000,-651.560,-593.280,-0.705,-635.295,-401.940,-435.810,25.187,0.295,-45.000
1.000,6.000,-651.660,-593.200,-0.990,-634.975,-401.725,-435.795,25.187,0.295,-45.000
1.000,6.000,-651.300,-593.280,-0.365,-635.420,-401.935,-435.565,25.187,0.295,-45.000
1.000,7.000,-13.740,-858.930,4.415,4.655,-591.730,-623.350,25.187,0.285,-90.000
1.000,7.000,-12.740,-859.120,5.035,4.950,-591.540,-623.595,25.500,0.285,-90.000
1.000,7.000,-13.555,-859.220,4.985,4.170,-591.655,-623.905,25.187,0.285,-90.000
1.000,7.000,-13.635,-859.115,4.975,4.275,-592.010,-622.835,25.187,0.285,-90.000
