Index,X Accel 1,Y Accel 1,Z Accel 1,X Accel 2,Y Accel 2,Z Accel2,Temp,Theta ,Phi
1,636.275,-6.99,-638.73,634.95,443.525,-459.3,23,-45.32,180
1,637.28,-6.605,-638.5,634.3,443.385,-459.25,23,-45.32,180
1,637.26,-6.43,-638.545,635.15,443.265,-459.035,22.687,-45.32,180
1,637.29,-6.65,-639.15,634.75,443.19,-459.56,22.687,-45.32,180
1,637.395,-6.31,-638.165,634.675,443.425,-459.8,23,-45.32,180
1,636.905,-6.605,-639.21,635.21,443.29,-459.41,22.687,-45.32,180
1,636.635,-6.61,-638.6,635.195,442.98,-459.055,22.687,-45.32,180
1,637.115,-6.78,-637.89,635.065,443.505,-459.18,22.687,-45.32,180
1,636.845,-6.785,-638.78,634.435,443.365,-459.485,22.687,-45.32,180
1,637.055,-6.745,-638.705,635.17,442.675,-459.26,22.687,-45.32,180
2,454.53,443.045,-639.055,455.125,762.86,-156.265,22.687,-45.32,135
2,453.94,443.505,-638.755,455.665,762.74,-156.8,22.687,-45.32,135
2,454.495,443.155,-638.605,454.86,762.125,-156.66,23,-45.32,135
2,454.185,442.82,-639.325,455.665,762.72,-156.11,23,-45.32,135
2,454.155,442.765,-639.59,455.45,762.535,-156.765,23,-45.32,135
2,453.665,443.285,-639.28,455.405,762.045,-155.745,22.687,-45.32,135
2,454.51,442.71,-639.23,454.725,762.495,-156.145,22.687,-45.32,135
2,454.14,442.92,-638.79,454.72,762.67,-156.535,23,-45.32,135
2,454.495,442.72,-639.13,455.355,762.44,-155.835,22.687,-45.32,135
2,454.045,442.77,-638.965,455.71,762.83,-156.16,23,-45.32,135
3,13.115,631.185,-648.105,9.025,898.34,-25.255,22.687,-45.32,90
3,13.34,630.83,-647.96,8.83,898.745,-25.21,23,-45.32,90
3,13.355,630.615,-648.575,8.71,898.795,-24.63,23,-45.32,90
3,13.945,630.715,-648.78,8.625,898.93,-24.725,23,-45.32,90
3,13.335,630.38,-648.51,9.375,898.915,-24.57,23,-45.32,90
3,13.72,630.935,-648.135,8.885,898.925,-25.28,22.687,-45.32,90
3,13.67,630.48,-648.845,9.08,898.565,-24.61,22.687,-45.32,90
3,13.355,630.485,-648.5,9.295,898.87,-25.06,23,-45.32,90
3,13.38,630.56,-648.845,8.285,898.78,-25.09,22.687,-45.32,90
3,13.635,630.635,-648.48,8.5,898.605,-25.07,23,-45.32,90
4,-440.305,449.715,-645.885,-448.595,764.935,-154.545,23,-45.32,45
4,-439.255,449.815,-645.465,-449.1,764.545,-154.55,23,-45.32,45
4,-439.64,449.85,-645.055,-448.46,764.375,-154.3,23,-45.32,45
4,-439.335,450.485,-644.65,-448.28,764.115,-154.28,23.312,-45.32,45
4,-439.475,450.71,-645.635,-448.465,764.125,-153.715,22.687,-45.32,45
4,-439.565,450.44,-645.005,-448.32,764.56,-154.53,23,-45.32,45
4,-439.475,450.125,-644.945,-448.505,764.43,-154.51,23,-45.32,45
4,-439.165,450.28,-645.13,-448.865,764.185,-154.445,23,-45.32,45
4,-439.61,450.49,-644.735,-448.605,764.63,-154.33,22.687,-45.32,45
4,-439.045,450.655,-644.65,-448.715,764.295,-154.84,22.687,-45.32,45
5,-629.62,4.39,-646.34,-630.45,443.15,-460.31,23,-45.32,0
5,-629.765,4.45,-646.125,-630.89,443.285,-460.615,23.312,-45.32,0
5,-629.51,4.065,-646.445,-630.355,443.62,-460.37,23,-45.32,0
5,-629.495,4.35,-646.155,-630.93,442.92,-461.02,23,-45.32,0
5,-629.8,3.875,-646.705,-631.375,443.4,-461.02,23.312,-45.32,0
5,-628.595,4.25,-646.455,-630.595,443.245,-461.19,23.312,-45.32,0
5,-629.165,3.95,-646.395,-631.015,443.445,-460.515,23,-45.32,0
5,-629.61,3.93,-646.49,-630.415,443.055,-460.26,23,-45.32,0
5,-629.59,4.46,-646.125,-630.43,443.49,-460.79,23,-45.32,0
5,-629.59,4.405,-646.73,-631.095,443.25,-460.98,23,-45.32,0
6,-449.59,-438.635,-644.965,-450.425,125.165,-764.845,22.687,-45.32,-45
6,-449.805,-438.855,-644.975,-450.44,124.925,-764.985,23,-45.32,-45
6,-449.86,-439.14,-644.475,-450.12,124.54,-764.15,23,-45.32,-45
6,-449.825,-439.105,-644.935,-449.975,124.78,-764.78,23,-45.32,-45
6,-449.915,-438.92,-644.915,-449.87,125.075,-764.96,22.687,-45.32,-45
6,-449.46,-438.84,-645.07,-450.31,125.05,-764.94,22.687,-45.32,-45
6,-449.7,-438.635,-644.91,-449.82,124.305,-764.635,23,-45.32,-45
6,-450.13,-438.875,-644.825,-450.445,124.435,-764.575,23.312,-45.32,-45
6,-449.385,-439.055,-645.005,-450.155,124.58,-764.875,23,-45.32,-45
6,-449.265,-438.745,-644.7,-450.09,124.675,-764.495,22.687,-45.32,-45
7,1.83,-631.21,-641.345,1.14,-12.625,-895.115,23,-45.32,-90
7,1.98,-631.315,-641.7,1.27,-12.97,-895.76,23,-45.32,-90
7,2.23,-631.775,-641.755,1.355,-12.94,-895.67,22.687,-45.32,-90
7,2.1,-631.63,-641.46,1.2,-13.155,-895.11,23,-45.32,-90
7,2.495,-631.52,-641.385,1.07,-12.45,-894.9,22.687,-45.32,-90
7,3.21,-631.615,-641.63,1.315,-12.52,-895.585,23,-45.32,-90
7,2.145,-631.685,-642.06,1.59,-12.9,-894.81,23,-45.32,-90
7,2.03,-631.485,-641.855,1.625,-12.495,-894.82,22.687,-45.32,-90
7,1.84,-631.8,-641.66,1.135,-12.83,-895.045,23,-45.32,-90
7,2.35,-631.905,-642.16,1.16,-12.575,-895.145,23,-45.32,-90
8,448.975,-447.29,-638.1,452.22,122.84,-765,23,-45.32,-135
8,448.2,-447.235,-638.195,452.475,122.755,-765.23,23,-45.32,-135
8,448.475,-447.68,-639.12,452.475,122.87,-765.325,23,-45.32,-135
8,448.66,-447.695,-638.175,452.11,123.025,-764.66,23,-45.32,-135
8,448.07,-447.225,-638.925,453.075,122.625,-764.7,23,-45.32,-135
8,448.765,-447.18,-638.25,452.75,123.235,-765.165,23,-45.32,-135
8,448.225,-447.285,-638.82,453.085,122.645,-764.685,23.312,-45.32,-135
8,448.59,-447.455,-638.58,452.41,122.865,-764.745,23,-45.32,-135
8,448.525,-447.61,-638.905,452.48,122.41,-765.065,23.312,-45.32,-135
8,448.23,-447.57,-639.185,452.74,122.84,-764.825,23,-45.32,-135
9,899.34,-2.47,-1.89,897.775,3.27,-5.55,23,-0.2,180
9,898.405,-2.635,-1.94,897.73,3.25,-4.605,23,-0.2,180
9,898.725,-2.625,-2.69,898.05,3.59,-4.75,23,-0.2,180
9,898.845,-2.255,-2.125,897.17,3.375,-4.74,23,-0.2,180
9,898.945,-2.605,-1.895,897.235,2.755,-4.73,23,-0.2,180
9,898.685,-2.445,-2.22,897.89,3.37,-5.06,23,-0.2,180
9,898.755,-2.375,-1.435,897.9,3.175,-4.905,23.312,-0.2,180
9,899.085,-2.315,-2.525,897.51,3.02,-4.9,22.687,-0.2,180
9,899.2,-2.185,-2.36,897.69,3.12,-4.855,23,-0.2,180
9,898.955,-2.38,-2.275,897.62,3.32,-5.19,23.312,-0.2,180
10,649.2,629.585,-6.78,638.855,460.185,431.18,23,-0.2,135
10,649.215,629.435,-6.995,639.36,460.025,432.385,23,-0.2,135
10,649.345,629.77,-6.765,639.405,459.93,431.22,22.687,-0.2,135
10,649.125,630.18,-6.7,639.325,460.675,431.725,23,-0.2,135
10,649.21,629.3,-6.475,639.14,460.1,432.06,22.687,-0.2,135
10,649.585,629.395,-6.425,639.305,460.22,431.225,23.312,-0.2,135
10,649.315,629.825,-7,639.415,459.785,431.575,22.687,-0.2,135
10,648.81,629.435,-6.545,639.685,460.115,431.47,23,-0.2,135
10,649.295,629.495,-7.21,639.185,459.66,431.565,23,-0.2,135
10,649.595,629.535,-7.19,638.9,459.99,431.21,23.312,-0.2,135
11,12.95,901.855,-9.095,7.08,650.095,618.91,23.312,-0.2,90
11,13.765,902.29,-10.08,7.395,649.825,619.475,23,-0.2,90
11,13.16,901.845,-9.61,7.505,650.185,619.475,23.312,-0.2,90
11,13.375,901.635,-9.905,7.83,650.54,619.695,22.687,-0.2,90
11,13.435,901.615,-9.79,7.115,650.8,619.23,23,-0.2,90
11,13.425,901.785,-10.65,7.41,650.055,618.93,23,-0.2,90
11,12.975,901.61,-9.89,6.695,650.555,618.89,22.687,-0.2,90
11,12.755,901.745,-10.03,7.015,650.46,618.94,23,-0.2,90
11,12.99,901.05,-10.12,7.32,650.335,619.025,23,-0.2,90
11,12.505,901.265,-10.51,6.94,650.39,618.795,23.312,-0.2,90
12,-639.175,638.76,-14.065,-636.38,460.455,429.655,23,-0.2,45
12,-639.285,638.715,-13.5,-636.365,460.32,429.48,23,-0.2,45
12,-639.42,638.655,-14.375,-636.75,460.63,429.79,23,-0.2,45
12,-640.09,639.065,-14.065,-635.855,460.21,429.89,23,-0.2,45
12,-639.365,638.62,-14.14,-636.7,460.71,429.47,23.312,-0.2,45
12,-639.685,638.49,-13.215,-636.9,460.18,429.575,23,-0.2,45
12,-639.425,638.765,-13.585,-635.94,460.58,429.835,23,-0.2,45
12,-639.37,638.885,-13.53,-636.65,460.22,429.63,23.312,-0.2,45
12,-639.36,639.015,-14.54,-636.2,460.555,429.175,23,-0.2,45
12,-639.63,638.475,-14.065,-636.07,460.605,429.475,23,-0.2,45
13,-898.625,8.73,-13.63,-896.64,4.395,-7.6,23.312,-0.2,0
13,-899.085,8.835,-13.485,-897.555,4.56,-7.48,23.312,-0.2,0
13,-899.765,9.165,-13.735,-896.865,4.195,-7.79,23.312,-0.2,0
13,-899.48,9.04,-13.945,-897.115,4.435,-7.745,23.625,-0.2,0
13,-899.22,9.17,-13.705,-896.805,4.655,-7.79,23.312,-0.2,0
13,-899.37,9.105,-13.07,-896.415,4.38,-7.875,23,-0.2,0
13,-899.425,9.2,-13.23,-896.89,4.31,-7.595,23.312,-0.2,0
13,-899.01,8.75,-14.345,-897.345,3.755,-7.76,23.312,-0.2,0
13,-898.84,9.025,-14.155,-896.605,4.535,-7.595,23,-0.2,0
13,-899.54,9.29,-13.49,-897.28,4.22,-8.085,23,-0.2,0
14,-642.41,-629.62,-11.905,-636.145,-450.03,-442.045,23.312,-0.2,-45
14,-641.715,-630.025,-11.83,-636.64,-449.885,-441.565,23.312,-0.2,-45
14,-642.195,-629.34,-11.155,-636.625,-449.96,-442.3,23.312,-0.2,-45
14,-642.08,-629.6,-11.43,-636.28,-450.025,-442.1,23,-0.2,-45
14,-641.84,-629.615,-11.555,-636.225,-449.895,-441.98,23.312,-0.2,-45
14,-642.245,-629.82,-11.45,-636.82,-450.17,-442.35,23.625,-0.2,-45
14,-642.11,-630,-11.56,-636.835,-450.235,-442.26,23,-0.2,-45
14,-642.18,-629.71,-11.735,-636.53,-450.245,-442.055,23.312,-0.2,-45
14,-641.87,-629.31,-11.365,-636.465,-450.22,-442.265,23.312,-0.2,-45
14,-642.1,-629.96,-11.545,-636.93,-450.32,-442.13,23.312,-0.2,-45
15,-4.15,-894.565,-6.39,2.92,-640.58,-630.8,23,-0.2,-90
15,-4.19,-895.16,-7.2,2.655,-640.71,-631.64,23.312,-0.2,-90
15,-4.02,-894.76,-6.195,3.205,-640.865,-631.595,23.312,-0.2,-90
15,-3.945,-894.965,-6.555,2.16,-640.605,-631.97,23,-0.2,-90
15,-5.045,-895.125,-6.895,3.125,-640.425,-631.605,23.625,-0.2,-90
15,-4.06,-894.965,-6.94,2.785,-640.655,-631.55,23.312,-0.2,-90
15,-4.08,-894.7,-6.2,2.815,-640.52,-631.6,23.312,-0.2,-90
15,-4.1,-894.565,-7.27,2.85,-640.74,-631.555,23.312,-0.2,-90
15,-3.95,-894.775,-6.42,3.57,-640.435,-630.905,23,-0.2,-90
15,-4.16,-894.385,-6.935,2.96,-640.615,-631.535,23.312,-0.2,-90
16,640.42,-632.625,-4.94,640.15,-452.72,-440.835,23.312,-0.2,-135
16,640.825,-632.36,-4.825,640.415,-452.635,-440.685,23.625,-0.2,-135
16,640.8,-632.46,-4.705,640.335,-452.32,-441.31,23,-0.2,-135
16,640.915,-632.37,-4.675,640.64,-452.71,-440.84,23.312,-0.2,-135
16,640.13,-632.385,-4.375,640.385,-452.675,-440.615,23.312,-0.2,-135
16,640.68,-633.045,-4.04,640.25,-452.7,-440.98,23.312,-0.2,-135
16,640.745,-632.81,-4.825,640.1,-452.58,-441.095,23.312,-0.2,-135
16,640.835,-632.18,-4.835,640.345,-452.59,-441.455,23.312,-0.2,-135
16,640.035,-632.545,-4.69,639.965,-452.605,-440.81,23.312,-0.2,-135
16,641.07,-632.365,-4.685,640.34,-452.385,-441,23.312,-0.2,-135
17,648.395,0.33,621.21,648.07,-429.93,445.96,23.312,44.23,180
17,649.15,0.35,620.69,648.105,-429.885,445.755,23.937,44.23,180
17,648.73,-0.105,620.315,648.045,-429.645,446.345,23.312,44.23,180
17,648.405,0.485,620.585,648.385,-429.63,445.455,23.937,44.23,180
17,649.235,0.29,620.505,648.38,-429.58,445.515,23.625,44.23,180
17,648.735,0.115,620.945,648.24,-429.53,446.075,23.937,44.23,180
17,649.44,0.345,620.39,648.415,-429.685,446.02,23.625,44.23,180
17,648.51,0.12,620.68,648.29,-430.215,445.835,23.312,44.23,180
17,648.755,0.195,621.145,647.27,-429.34,445.655,23.937,44.23,180
17,648.795,0.485,620.69,648.195,-429.99,445.97,23.625,44.23,180
18,460.64,459.51,621.975,459.945,-102.225,760.27,23.625,44.23,135
18,460.725,459.74,621.55,460.455,-102.245,760.39,23.625,44.23,135
18,460.73,459.49,621.145,460.18,-101.8,760.03,23.625,44.23,135
18,460.265,459.975,622.28,460.53,-102.205,759.995,23.625,44.23,135
18,461.16,459.97,621.45,459.86,-102,760.1,23.312,44.23,135
18,460.435,459.415,621.885,459.81,-102.135,759.76,23.625,44.23,135
18,460.29,459.1,621.65,460.665,-102.035,760.03,23.625,44.23,135
18,459.875,459.82,621.805,461.09,-101.745,760.19,23.625,44.23,135
18,460.47,459.245,622.185,460.185,-102.355,760.45,23.625,44.23,135
18,460.475,459.575,621.705,460.645,-102.035,760.045,23.625,44.23,135
19,4.29,650.04,622.075,2.365,34.555,890.005,23.625,44.23,90
19,4.02,649.785,621.81,2.87,34.395,890.17,23.625,44.23,90
19,4.89,649.655,621.81,2.335,34.605,890.255,23.625,44.23,90
19,4.635,650.025,621.535,2.63,34.505,890.325,23.937,44.23,90
19,4.625,649.895,621.68,2.505,34.38,889.875,23.312,44.23,90
19,4.15,649.305,621.34,3.25,34.46,889.85,23.625,44.23,90
19,4.405,649.54,621.69,2.34,34.94,890.57,23.625,44.23,90
19,4.685,649.79,621.65,2.62,34.265,890.405,23.625,44.23,90
19,4.48,649.305,621.735,2.445,34.465,890.045,23.625,44.23,90
19,4.19,649.225,622.015,3.165,34.18,890.17,23.625,44.23,90
20,-461.15,462.685,614.405,-464.27,-103.26,757.15,23.312,44.23,45
20,-461.005,462.42,614.58,-464.58,-102.79,756.77,23.625,44.23,45
20,-461.765,463.185,614.555,-464.37,-103.055,757.045,23.937,44.23,45
20,-461.425,462.885,614.9,-464.12,-102.98,757.485,23.937,44.23,45
20,-460.775,462.985,614.615,-464.45,-103.1,756.93,23.312,44.23,45
20,-460.775,463.735,615.14,-463.765,-102.935,757.02,23.937,44.23,45
20,-461.43,463.74,614.86,-463.99,-102.86,757,23.625,44.23,45
20,-460.05,463.035,614.92,-464.405,-103.125,757.3,23.625,44.23,45
20,-460.865,463.205,614.45,-464.885,-102.905,757.35,23.312,44.23,45
20,-460.815,462.76,614.455,-464.43,-103.095,756.83,23.937,44.23,45
21,-653.81,3.44,616.05,-648.495,-431.32,443.675,23.625,44.23,0
21,-654.06,3.685,615.91,-649.065,-431.455,443.865,23.625,44.23,0
21,-653.97,3.455,616.48,-647.885,-431.335,444.1,23.625,44.23,0
21,-653.875,3.155,615.53,-648.175,-430.925,443.93,23.625,44.23,0
21,-653.715,3.355,616.28,-647.79,-431.315,444.465,23.625,44.23,0
21,-654.385,3.38,616.215,-648.27,-431.245,444.25,23.625,44.23,0
21,-653.675,3.79,615.915,-648.155,-431.385,444.605,23.312,44.23,0
21,-654.045,3.315,616.2,-648.46,-431.185,443.9,23.625,44.23,0
21,-653.48,3.91,616.04,-648.435,-431.18,443.745,23.937,44.23,0
21,-654.29,2.85,616.245,-648.04,-431.175,444.835,23.937,44.23,0
22,-466.71,-450.045,618.135,-463.965,-758.585,131.455,23.625,44.23,-45
22,-466.65,-449.98,618.49,-464.195,-758.53,130.99,23.625,44.23,-45
22,-466.855,-450.475,617.805,-463.41,-758.465,131.805,23.625,44.23,-45
22,-466.37,-450.07,617.67,-464.25,-758.355,131.055,23.625,44.23,-45
22,-466.635,-450.025,617.54,-463.97,-758.24,131.76,23.625,44.23,-45
22,-467.18,-450.28,618.05,-463.74,-758.275,131.345,23.625,44.23,-45
22,-466.435,-449.99,618.405,-463.79,-758.585,131.415,23.625,44.23,-45
22,-466.44,-449.67,617.85,-463.955,-758.62,131.015,23.937,44.23,-45
22,-466.635,-450.205,618.66,-464.095,-758.155,130.48,23.625,44.23,-45
22,-466.595,-450.05,617.89,-464.565,-758.595,131.39,23.937,44.23,-45
23,-2.02,-644.705,619.685,3.165,-897.325,-1.395,23.937,44.23,-90
23,-2.23,-644.79,620.34,3.435,-897.505,-1.045,23.625,44.23,-90
23,-2.15,-644.95,619.29,3.065,-897.35,-1.035,23.625,44.23,-90
23,-2.22,-645.175,620.135,2.905,-897.055,-0.855,23.937,44.23,-90
23,-2.115,-644.845,619.88,3.16,-897.26,-1.23,23.625,44.23,-90
23,-1.89,-644.9,619.465,3.175,-897.17,-1.37,23.312,44.23,-90
23,-1.19,-644.91,619.925,2.97,-897.215,-0.97,23.937,44.23,-90
23,-1.52,-644.49,619.635,2.65,-897.345,-1.69,23.625,44.23,-90
23,-1.925,-644.925,620.245,2.825,-897.245,-1.375,23.625,44.23,-90
23,-2.22,-645.215,620.675,3.36,-897.175,-0.875,23.937,44.23,-90
24,453.795,-454.43,621.38,464.905,-757.5,131.885,23.937,44.23,-135
24,453.34,-454.475,621.625,464.995,-757.07,131.84,23.937,44.23,-135
24,454.355,-454.755,621.72,464.805,-757.3,131.79,23.625,44.23,-135
24,454.12,-454.81,621.705,464.97,-756.89,131.775,23.937,44.23,-135
24,454.24,-454.625,621.665,464.685,-757.06,131.495,23.937,44.23,-135
24,454.015,-455.095,621.715,464.395,-756.975,131.195,23.312,44.23,-135
24,454.515,-455.19,622.02,465.065,-757.245,132.345,23.625,44.23,-135
24,454.145,-454.66,621.11,464.26,-757.29,131.875,23.625,44.23,-135
24,454.475,-455.105,622.315,464.545,-756.98,132.505,23.625,44.23,-135
24,453.76,-454.695,621.59,464.845,-757.405,131.895,23.625,44.23,-135
25,368.12,4.26,811.895,368.055,-567.205,590.42,23.937,66.21,180
25,368.855,4.02,812.57,367.295,-566.96,590.51,23.625,66.21,180
25,367.99,3.72,812.735,368.315,-566.905,590.925,23.625,66.21,180
25,368.65,3.875,812.525,367.885,-566.865,590.74,23.625,66.21,180
25,368.395,3.96,811.665,367.115,-566.98,590.77,23.937,66.21,180
25,368.465,3.7,812.21,367.205,-566.895,590.805,23.625,66.21,180
25,368.75,3.51,812.6,367.26,-567.08,591.07,23.937,66.21,180
25,368.14,3.895,812.3,367.565,-567.315,590.615,23.625,66.21,180
25,368.385,3.93,812.03,367.2,-566.865,590.385,23.937,66.21,180
25,368.54,3.86,812.055,367.58,-567.195,590.435,23.937,66.21,180
26,261.91,266.335,812.215,255.865,-378.895,769.52,23.625,66.21,135
26,261.035,266.975,812.065,256.62,-379.085,769.295,23.625,66.21,135
26,261.91,267.015,812.14,256.5,-379.08,768.42,23.625,66.21,135
26,262.13,266.7,812.58,256.115,-378.78,769.62,23.937,66.21,135
26,262.08,266.625,812.225,256.05,-379.02,769.505,23.625,66.21,135
26,261.645,266.385,812.625,255.99,-379.175,769.445,23.937,66.21,135
26,261.285,266.78,812.16,256.55,-379.105,769.385,23.625,66.21,135
26,261.88,266.65,812.675,256.13,-379.06,769.585,23.937,66.21,135
26,261.355,266.465,812.585,256.36,-379.065,769.36,23.625,66.21,135
26,261.595,266.24,812.055,256.525,-379.035,769.125,23.937,66.21,135
27,2.705,372.545,816.33,-1.705,-303.375,840,23.937,66.21,90
27,2.815,372.595,816.845,-1.05,-303.72,840.835,23.625,66.21,90
27,2.81,372.865,816.435,-0.965,-303.655,839.915,23.937,66.21,90
27,2.85,372.655,816.705,-0.735,-303.655,840.355,23.625,66.21,90
27,3.07,372.835,816.18,-1.41,-303.53,840,23.937,66.21,90
27,3.28,373.165,816.17,-0.705,-303.555,840.265,23.937,66.21,90
27,3.15,373.145,816.195,-0.98,-303.315,840.545,23.625,66.21,90
27,2.74,372.82,816.565,-1.345,-303.38,840.035,23.937,66.21,90
27,2.875,372.08,816.725,-1.1,-303.61,840.465,23.625,66.21,90
27,2.93,372.93,816.225,-1.17,-303.675,840.295,23.625,66.21,90
28,-265.055,263.565,814.22,-261.315,-380.24,766.545,23.937,66.21,45
28,-265.525,263.775,814.275,-261.075,-380.4,766.035,23.937,66.21,45
28,-265.22,263.805,814.145,-261.035,-380.51,766.35,23.937,66.21,45
28,-265.175,263.785,813.55,-260.87,-380.365,766.345,23.937,66.21,45
28,-265.255,264.09,814.075,-261.075,-380.175,766.68,23.937,66.21,45
28,-265.335,263.755,814.15,-260.8,-380.31,766.605,23.937,66.21,45
28,-264.875,263.755,813.885,-260.595,-380.55,766.1,23.937,66.21,45
28,-266.095,263.5,813.6,-261.285,-380.075,766.625,23.312,66.21,45
28,-264.725,264.075,813.2,-261.39,-380.63,766.72,23.937,66.21,45
28,-264.915,264.245,813.66,-260.705,-380.43,766.85,23.625,66.21,45
29,-378.61,4.19,810.51,-372.495,-566.635,588.965,23.625,66.21,0
29,-378.28,4.545,810.115,-372.14,-566.46,589.915,23.625,66.21,0
29,-378.66,4.78,810.15,-371.625,-566.7,589.095,23.625,66.21,0
29,-378.86,4.315,811.2,-372.165,-566.28,588.405,23.937,66.21,0
29,-378.28,3.945,811.09,-371.73,-566.45,589.12,24.25,66.21,0
29,-378.745,4.135,810.76,-372.09,-566.71,589.115,23.625,66.21,0
29,-378.115,4.32,811.08,-371.865,-566.325,588.86,23.937,66.21,0
29,-378.755,4.24,811.21,-371.98,-566.01,589.205,23.625,66.21,0
29,-378.425,4.405,810.91,-371.67,-566.455,589.155,23.937,66.21,0
29,-378.33,4.45,810.69,-371.35,-566.375,589.045,23.625,66.21,0
30,-271.305,-257.59,812.385,-265.49,-754.445,410.245,23.937,66.21,-45
30,-271.695,-257.27,812.25,-265.55,-754.06,409.895,23.625,66.21,-45
30,-272.285,-258.03,811.76,-265.005,-754.115,409.705,24.25,66.21,-45
30,-271.865,-257.32,812.26,-265.155,-754.365,409.85,23.937,66.21,-45
30,-270.925,-257.43,812.105,-265.9,-753.815,409.49,23.937,66.21,-45
30,-271.35,-257.88,812.43,-265.31,-754.235,409.33,23.937,66.21,-45
30,-271.46,-257.485,812.205,-264.75,-754.28,409.565,23.937,66.21,-45
30,-271.82,-257.625,811.815,-265.82,-754.04,409.66,23.937,66.21,-45
30,-271.365,-257.835,812.14,-264.65,-754.26,409.805,23.937,66.21,-45
30,-271.58,-257.53,811.485,-265.37,-754.38,409.57,23.937,66.21,-45
31,-5.14,-367.755,813.185,0.48,-833.44,334.44,23.937,66.21,-90
31,-5.205,-367.46,812.85,0.185,-833.3,334.955,23.625,66.21,-90
31,-5.43,-368.165,812.855,0.62,-833.295,334.27,23.625,66.21,-90
31,-5.335,-367.31,813.07,0.655,-833.36,334.245,23.937,66.21,-90
31,-5.87,-367.57,813.265,0.885,-833.555,334.445,23.625,66.21,-90
31,-5.76,-367.74,813,0.61,-833.15,334.625,23.625,66.21,-90
31,-5.225,-367.43,812.87,0.785,-833.03,334.375,23.625,66.21,-90
31,-6.14,-367.84,812.69,0.965,-833.125,334.54,23.937,66.21,-90
31,-5.745,-367.105,812.505,0.455,-833.095,334.035,23.937,66.21,-90
31,-5.665,-367.665,812.645,0.97,-833.375,334.67,24.25,66.21,-90
32,258.48,-258.125,813.73,265.155,-753.27,413.13,23.625,66.21,-135
32,258.28,-258.555,813.455,265.595,-752.33,413.36,23.625,66.21,-135
32,258.025,-258.59,813.74,265.725,-752.96,413.435,23.625,66.21,-135
32,258.565,-258.3,813.845,265.495,-753.125,413.53,23.937,66.21,-135
32,257.965,-258.265,814.01,266.22,-753.085,412.975,23.937,66.21,-135
32,258.595,-258.245,813.845,265.405,-752.93,412.915,23.625,66.21,-135
32,257.65,-258.485,813.37,265.48,-753.13,412.645,23.937,66.21,-135
32,258.18,-257.56,813.99,265.17,-752.88,412.94,23.937,66.21,-135
32,258.525,-258.555,813.03,265.49,-752.81,413.165,23.937,66.21,-135
32,257.905,-257.975,814.135,265.9,-753.245,412.95,23.937,66.21,-135
33,47.895,6.555,891.22,51.235,-618.04,649.67,23.937,87.2,180
33,48.375,6.455,891.045,50.775,-617.8,650.03,23.625,87.2,180
33,49.235,6.455,891.57,51.04,-617.54,650,23.937,87.2,180
33,48.18,6.815,891.415,50.905,-618.05,649.885,23.625,87.2,180
33,48.235,5.885,890.78,50.935,-617.89,649.64,23.625,87.2,180
33,48.375,6.075,891.42,51.13,-618.095,649.995,23.937,87.2,180
33,48.07,6.595,891.12,50.8,-618.065,650.59,23.937,87.2,180
33,47.9,6.335,892.09,50.605,-617.74,650.015,23.625,87.2,180
33,48.14,6.245,891.325,51.1,-618.15,649.83,23.625,87.2,180
33,48.065,6.05,891.12,50.935,-618.33,649.965,23.625,87.2,180
34,33.695,43.045,891.45,35.025,-591.055,675.71,24.25,87.2,135
34,32.935,43.25,890.7,35.92,-591.22,674.785,23.937,87.2,135
34,33.58,43.685,891.37,36.35,-591.055,675.19,23.937,87.2,135
34,33.5,43.475,891.07,35.745,-591.185,675.5,23.937,87.2,135
34,33.005,43.615,891.005,35.805,-591.29,675.4,24.25,87.2,135
34,33.6,43.58,891.44,35.69,-591.125,675.93,23.937,87.2,135
34,32.985,43.545,891.245,35.88,-591.23,675.165,23.625,87.2,135
34,33.375,43.33,891.63,35.65,-591.13,675.105,23.937,87.2,135
34,32.895,43.44,891.215,35.53,-591.405,675.155,23.937,87.2,135
34,33.385,43.54,890.76,35.57,-591.085,675.48,23.625,87.2,135
35,-7.72,58.405,890.32,-2.795,-581.28,684.56,23.937,87.2,90
35,-7.1,58.21,890.405,-2.8,-581.235,684.995,24.25,87.2,90
35,-6.955,58.755,890.245,-3.285,-581.44,684.98,23.937,87.2,90
35,-6.525,58.785,890.83,-2.855,-581.36,684.88,23.937,87.2,90
35,-7.12,58.21,890.02,-2.65,-581.44,684.64,23.937,87.2,90
35,-6.915,58.61,890.785,-2.585,-581.05,684.615,23.625,87.2,90
35,-6.985,58.35,890.8,-3.29,-581.655,685.245,23.937,87.2,90
35,-6.94,58.905,890.39,-3.45,-581.085,685.635,23.625,87.2,90
35,-6.655,58.445,890.73,-3.055,-581.16,685.07,23.937,87.2,90
35,-6.575,58.89,890.4,-2.945,-581.29,684.75,24.25,87.2,90
36,-45.885,42.29,890.11,-40.555,-592.92,671.77,23.625,87.2,45
36,-46.165,42.09,890.62,-40.73,-592.945,672.935,23.937,87.2,45
36,-45.615,42.18,890.605,-40.31,-592.88,672.12,23.937,87.2,45
36,-45.485,42.315,890.345,-40.715,-593.23,672.375,23.937,87.2,45
36,-45.92,41.865,891.005,-40.29,-592.93,672.595,23.937,87.2,45
36,-45.36,42.185,890.33,-40.925,-592.85,672.365,24.25,87.2,45
36,-45.665,42.79,890.78,-40.915,-592.82,672.335,23.937,87.2,45
36,-46.35,42.555,890.445,-40.905,-592.525,672.45,23.937,87.2,45
36,-45.48,42.905,890.335,-41.245,-592.7,671.93,23.937,87.2,45
36,-45.725,41.95,890.26,-40.755,-592.875,672.63,23.937,87.2,45
37,-58.485,2.895,892.2,-54.695,-619.455,647.06,23.937,87.2,0
37,-58.095,2.59,891.4,-54.39,-619.76,646.455,23.937,87.2,0
37,-57.845,2.635,892.175,-54.56,-619.665,646.66,23.625,87.2,0
37,-57.695,2.94,891.425,-55.01,-619.2,646.49,23.937,87.2,0
37,-57.805,2.59,891.52,-55.11,-619.475,646.435,23.937,87.2,0
37,-58.13,2.67,891.925,-55.335,-619.095,646.535,23.937,87.2,0
37,-58,2.66,891.56,-54.38,-619.325,646.295,23.937,87.2,0
37,-57.405,2.385,891.54,-55.52,-619.68,646.29,23.625,87.2,0
37,-58.055,2.765,891.49,-54.715,-619.445,646.845,23.937,87.2,0
37,-57.525,3.245,891.125,-54.12,-619.965,646.555,23.937,87.2,0
38,-42.105,-33.945,891.495,-36.57,-646.35,622.645,23.937,87.2,-45
38,-41.91,-34.115,892.23,-36.735,-646.115,622.515,23.937,87.2,-45
38,-42.14,-33.57,892.19,-36.45,-645.92,622.115,23.937,87.2,-45
38,-41.895,-33.985,892.45,-36.755,-646.335,622.52,23.937,87.2,-45
38,-41.83,-33.525,891.34,-36.805,-646.335,621.985,23.937,87.2,-45
38,-42.165,-33.975,891.295,-36.615,-645.805,622.16,23.937,87.2,-45
38,-41.875,-33.4,892.035,-36.605,-646.3,622.175,23.937,87.2,-45
38,-42.325,-33.895,891.79,-35.95,-645.73,622.195,24.25,87.2,-45
38,-42.215,-34.21,891.8,-36.795,-646.14,622.21,23.625,87.2,-45
38,-41.83,-33.49,891.975,-37.325,-646.39,622.245,23.937,87.2,-45
39,-3.19,-48.135,892.315,1.755,-657.24,610.765,23.937,87.2,-90
39,-3.53,-48.21,892.04,1.795,-657.295,611.47,23.937,87.2,-90
39,-2.69,-48.49,892.63,1.735,-657.39,611.115,23.937,87.2,-90
39,-3.1,-47.64,891.965,1.69,-657.525,611.485,23.937,87.2,-90
39,-3.68,-48.395,892.265,1.905,-657.76,611.05,23.937,87.2,-90
39,-3.355,-47.855,892.315,1.85,-657.555,611.69,23.937,87.2,-90
39,-3.745,-48.265,892.32,1.945,-656.89,611.14,23.937,87.2,-90
39,-3.065,-47.85,892.7,0.985,-656.89,611.31,23.937,87.2,-90
39,-3.09,-48.375,892.385,1.445,-657.395,611.18,23.937,87.2,-90
39,-3.355,-48.015,892.155,1.23,-657.01,611.195,23.625,87.2,-90
40,34.285,-30.905,891.49,39.2,-645.02,622.685,23.937,87.2,-135
40,34.495,-31.18,891.44,39.7,-645.12,622.55,23.937,87.2,-135
40,34.22,-30.775,891.41,38.81,-645.635,622.53,24.25,87.2,-135
40,34.14,-30.93,891.445,38.605,-645.495,622.77,23.937,87.2,-135
40,34.575,-30.84,891.75,39.25,-644.91,622.805,23.937,87.2,-135
40,34.41,-30.895,891.52,39.595,-645.675,622.36,23.625,87.2,-135
40,34.34,-31.135,891.465,38.96,-645.405,622.55,23.937,87.2,-135
40,34.52,-31.185,891.41,39.085,-645.06,622.38,23.937,87.2,-135
40,34.485,-30.885,892.175,39.46,-645.105,622.875,24.25,87.2,-135
40,34.395,-30.97,891.565,38.82,-645.21,622.66,23.937,87.2,-135
