Index,X Accel 1,Y Accel 1,Z Accel 1,X Accel 2,Y Accel 2,Z Accel2,Temp,Theta ,Phi,,,,,,,,
1.000,631.170,-9.425,-644.555,628.175,444.730,-465.490,23.625,-45.767,180.000
1.000,631.120,-9.490,-644.415,628.605,445.080,-466.515,23.312,-45.784,180.000
1.000,630.885,-9.100,-644.335,629.165,445.020,-466.045,23.625,-45.764,180.000
1.000,630.740,-9.010,-645.095,628.510,445.225,-466.615,23.312,-45.764,180.000
1.000,630.725,-9.750,-644.670,628.475,445.465,-466.360,23.625,-45.764,180.000
1.000,631.050,-9.685,-644.585,627.550,445.010,-466.305,23.625,-45.764,180.000
1.000,630.360,-9.050,-644.910,628.365,445.135,-465.700,23.625,-45.764,180.000
1.000,630.235,-9.170,-645.130,628.115,445.215,-466.520,23.625,-45.764,180.000
1.000,630.865,-9.465,-644.740,628.060,445.300,-466.835,23.625,-45.772,180.000
1.000,630.980,-9.255,-644.700,628.320,445.295,-465.880,23.312,-45.782,180.000
2.000,450.415,437.680,-646.335,451.305,762.310,-164.750,23.312,-45.775,135.000
2.000,450.840,437.910,-646.140,451.090,763.015,-164.815,23.625,-45.782,135.000
2.000,450.650,437.865,-645.925,451.260,763.015,-164.235,23.312,-45.777,135.000
2.000,451.375,437.450,-646.390,450.610,762.975,-164.290,23.625,-45.777,135.000
2.000,450.485,437.910,-645.770,451.620,762.635,-164.450,23.625,-45.775,135.000
2.000,450.775,437.610,-646.165,450.940,762.880,-164.600,23.312,-45.775,135.000
2.000,450.715,437.460,-646.835,451.580,762.955,-164.550,23.312,-45.775,135.000
2.000,450.495,437.945,-646.325,450.925,762.800,-164.590,23.625,-45.775,135.000
2.000,450.210,437.725,-646.110,451.055,762.800,-164.540,23.312,-45.775,135.000
2.000,450.565,437.455,-645.945,451.290,762.715,-164.095,23.625,-45.775,135.000
3.000,11.095,623.755,-655.170,4.985,897.860,-35.435,23.625,-45.775,90.000
3.000,11.650,623.735,-655.445,5.890,897.845,-34.965,23.312,-45.775,90.000
3.000,11.350,623.645,-655.515,5.810,898.320,-35.060,23.312,-45.775,90.000
3.000,10.990,623.520,-655.885,5.850,897.850,-34.940,23.312,-45.775,90.000
3.000,11.570,623.765,-655.500,5.620,897.970,-34.710,23.312,-45.769,90.000
3.000,11.325,623.695,-655.445,4.995,897.855,-34.795,23.312,-45.764,90.000
3.000,11.660,623.155,-655.680,5.760,897.585,-35.430,23.312,-45.772,90.000
3.000,11.430,623.835,-656.130,5.735,898.210,-35.375,23.312,-45.760,90.000
3.000,11.345,623.455,-656.085,5.745,897.795,-34.165,23.625,-45.760,90.000
3.000,11.070,623.350,-655.750,5.510,898.200,-34.930,23.000,-45.762,90.000
4.000,-432.035,448.255,-651.095,-441.420,766.980,-161.155,23.312,-45.775,45.000
4.000,-432.030,448.420,-651.280,-442.065,767.340,-160.615,23.312,-45.775,45.000
4.000,-432.110,448.045,-651.405,-441.465,767.140,-160.645,23.312,-45.775,45.000
4.000,-431.445,448.005,-651.220,-442.025,767.260,-160.705,23.312,-45.775,45.000
4.000,-431.745,448.315,-651.390,-441.650,766.770,-160.210,23.312,-45.775,45.000
4.000,-432.015,448.305,-651.745,-441.375,766.980,-160.705,23.625,-45.770,45.000
4.000,-431.645,448.010,-651.240,-441.530,767.370,-160.470,23.625,-45.764,45.000
4.000,-432.020,447.845,-651.365,-441.775,767.190,-160.710,23.312,-45.764,45.000
4.000,-431.945,448.205,-651.570,-441.465,767.290,-160.330,23.312,-45.764,45.000
4.000,-431.920,447.910,-651.155,-441.545,767.055,-161.045,23.312,-45.757,45.000
5.000,-622.880,2.805,-651.890,-624.355,446.990,-466.380,23.312,-45.764,0.000
5.000,-623.095,2.905,-652.530,-624.895,446.760,-466.095,23.312,-45.764,0.000
5.000,-623.040,2.965,-652.825,-624.845,447.185,-466.920,23.312,-45.764,0.000
5.000,-623.055,2.865,-652.140,-625.235,446.820,-466.135,23.625,-45.775,0.000
5.000,-622.680,2.510,-652.410,-624.965,446.715,-466.330,23.625,-45.775,0.000
5.000,-623.345,2.860,-652.635,-624.450,446.320,-466.655,23.312,-45.775,0.000
5.000,-623.170,3.020,-652.245,-624.780,446.890,-466.295,23.312,-45.770,0.000
5.000,-622.750,2.880,-652.020,-625.130,446.605,-466.375,23.625,-45.772,0.000
5.000,-622.905,3.180,-652.945,-624.520,446.810,-466.740,23.312,-45.772,0.000
5.000,-623.170,2.975,-652.300,-624.850,446.725,-465.755,23.312,-45.772,0.000
6.000,-445.220,-434.925,-650.875,-445.600,131.810,-767.710,23.312,-45.764,-45.000
6.000,-444.710,-435.495,-651.195,-445.705,131.630,-767.340,23.312,-45.764,-45.000
6.000,-445.290,-434.960,-651.235,-445.395,132.005,-767.695,23.625,-45.764,-45.000
6.000,-445.235,-435.300,-651.145,-445.550,132.005,-767.015,23.312,-45.775,-45.000
6.000,-445.340,-435.435,-651.315,-445.415,131.570,-767.585,23.625,-45.775,-45.000
6.000,-445.060,-435.475,-651.305,-445.550,131.770,-767.645,23.625,-45.775,-45.000
6.000,-445.135,-435.290,-651.580,-445.120,131.705,-767.585,23.625,-45.775,-45.000
6.000,-444.700,-435.315,-650.610,-445.870,131.815,-767.205,23.312,-45.775,-45.000
6.000,-444.775,-434.860,-651.075,-445.705,131.525,-767.310,23.625,-45.775,-45.000
6.000,-445.315,-434.675,-650.675,-445.230,131.630,-767.700,23.312,-45.775,-45.000
7.000,0.805,-625.170,-647.365,-1.405,-3.795,-895.140,23.312,-45.767,-90.000
7.000,1.020,-625.535,-647.630,-1.125,-4.075,-895.120,23.625,-45.772,-90.000
7.000,0.895,-625.660,-647.495,-1.335,-4.315,-895.705,23.312,-45.772,-90.000
7.000,0.830,-625.750,-647.085,-1.390,-3.985,-895.765,23.312,-45.764,-90.000
7.000,1.025,-625.430,-647.130,-1.315,-3.970,-894.660,23.625,-45.764,-90.000
7.000,0.720,-625.785,-647.540,-1.955,-3.865,-895.355,23.312,-45.764,-90.000
7.000,0.865,-625.720,-647.210,-1.875,-4.100,-895.250,23.312,-45.775,-90.000
7.000,1.190,-625.655,-647.470,-1.590,-4.285,-895.025,23.625,-45.770,-90.000
7.000,1.055,-625.355,-647.425,-1.180,-3.970,-895.150,23.625,-45.764,-90.000
7.000,0.730,-625.270,-647.510,-1.695,-3.960,-895.670,23.000,-45.775,-90.000
8.000,442.155,-444.855,-645.895,446.430,128.875,-767.905,23.625,-45.775,-135.000
8.000,442.850,-444.575,-645.795,446.155,129.405,-768.310,23.625,-45.782,-135.000
8.000,441.440,-445.445,-645.775,446.555,128.765,-767.610,23.625,-45.785,-135.000
8.000,441.670,-445.105,-645.335,446.480,129.110,-767.780,23.625,-45.777,-135.000
8.000,442.495,-444.570,-645.275,446.830,128.865,-767.735,23.312,-45.775,-135.000
8.000,442.820,-444.865,-645.465,446.800,128.910,-768.305,23.312,-45.782,-135.000
8.000,441.745,-444.835,-644.965,446.415,128.725,-768.065,23.625,-45.782,-135.000
8.000,441.995,-444.835,-644.960,446.755,128.935,-767.705,23.312,-45.785,-135.000
8.000,441.855,-444.830,-645.170,446.510,129.285,-767.555,23.312,-45.785,-135.000
8.000,442.550,-444.760,-645.755,446.290,128.705,-768.225,23.312,-45.785,-135.000
9.000,898.980,-5.160,-5.440,897.430,2.830,-8.530,23.312,-0.394,180.000
9.000,898.925,-5.195,-4.850,896.955,3.135,-7.845,23.312,-0.402,180.000
9.000,899.025,-5.620,-4.940,897.635,2.910,-8.005,23.312,-0.397,180.000
9.000,899.045,-5.585,-4.595,897.150,2.790,-8.610,23.312,-0.405,180.000
9.000,898.985,-5.095,-4.965,897.205,2.865,-7.905,23.000,-0.405,180.000
9.000,899.550,-5.070,-4.915,898.050,2.875,-8.105,23.312,-0.405,180.000
9.000,898.355,-5.140,-5.240,897.285,2.790,-7.980,23.625,-0.405,180.000
9.000,899.385,-5.545,-4.615,897.120,3.060,-8.195,23.312,-0.405,180.000
9.000,899.000,-5.150,-4.810,897.420,2.860,-8.100,23.312,-0.405,180.000
9.000,899.230,-5.270,-4.930,897.155,2.870,-8.035,23.312,-0.405,180.000
10.000,648.880,629.470,-9.985,638.715,462.125,429.835,23.625,-0.385,135.000
10.000,648.610,629.260,-9.560,639.135,461.770,430.080,23.625,-0.392,135.000
10.000,649.120,629.635,-9.600,639.265,461.505,429.825,23.312,-0.385,135.000
10.000,649.210,629.635,-9.805,639.240,461.655,429.535,23.312,-0.392,135.000
10.000,649.125,629.090,-9.815,638.840,461.400,429.850,23.312,-0.392,135.000
10.000,648.780,629.815,-9.665,639.215,461.825,430.060,23.312,-0.392,135.000
10.000,648.740,629.475,-10.095,638.725,461.320,429.570,23.312,-0.392,135.000
10.000,649.780,629.830,-9.445,638.950,461.305,430.145,23.312,-0.397,135.000
10.000,648.840,629.250,-9.055,638.490,461.160,429.805,23.312,-0.397,135.000
10.000,648.860,629.520,-9.595,639.205,461.320,429.565,23.312,-0.397,135.000
11.000,9.195,901.205,-12.705,3.000,651.740,617.790,23.625,-0.402,90.000
11.000,9.395,901.210,-12.695,3.330,651.720,616.995,23.312,-0.397,90.000
11.000,9.185,901.560,-12.280,3.720,651.735,617.225,23.312,-0.385,90.000
11.000,9.270,901.225,-13.030,3.870,651.795,617.450,23.625,-0.385,90.000
11.000,9.570,900.885,-12.330,3.280,651.430,617.300,23.312,-0.385,90.000
11.000,9.270,901.385,-13.095,3.720,651.775,617.780,23.312,-0.385,90.000
11.000,9.485,901.275,-12.690,3.305,652.355,617.235,23.312,-0.395,90.000
11.000,9.510,901.340,-12.700,3.290,651.770,617.875,23.625,-0.405,90.000
11.000,9.490,901.325,-12.570,3.100,652.255,617.065,23.937,-0.400,90.000
11.000,9.290,901.560,-12.390,3.450,651.630,616.995,23.312,-0.405,90.000
12.000,-635.255,642.250,-16.655,-633.335,464.665,430.065,23.625,-0.392,45.000
12.000,-634.840,641.870,-16.455,-633.605,464.585,430.610,23.312,-0.405,45.000
12.000,-635.625,641.935,-17.170,-633.360,464.840,430.015,23.312,-0.405,45.000
12.000,-635.775,642.220,-17.055,-633.495,464.285,430.130,23.625,-0.405,45.000
12.000,-635.265,642.295,-16.230,-633.755,464.140,430.120,23.312,-0.397,45.000
12.000,-634.910,642.145,-16.845,-633.010,464.355,430.180,23.625,-0.395,45.000
12.000,-635.030,642.175,-17.165,-633.090,464.385,430.245,23.312,-0.395,45.000
12.000,-635.710,642.035,-16.520,-633.440,464.485,429.910,23.625,-0.395,45.000
12.000,-635.805,642.320,-16.470,-633.175,464.815,429.820,23.625,-0.395,45.000
12.000,-636.175,642.245,-16.345,-633.190,464.450,429.820,23.312,-0.395,45.000
13.000,-899.305,7.190,-15.960,-897.070,4.545,-11.190,23.312,-0.395,0.000
13.000,-899.465,6.940,-16.350,-897.095,4.370,-10.570,23.625,-0.387,0.000
13.000,-899.140,6.400,-16.165,-896.865,4.560,-10.565,23.625,-0.394,0.000
13.000,-899.645,6.655,-16.245,-896.670,4.520,-10.505,23.625,-0.394,0.000
13.000,-899.220,7.105,-16.805,-897.205,4.555,-11.015,23.312,-0.402,0.000
13.000,-899.980,6.845,-16.745,-897.385,4.755,-10.415,23.312,-0.405,0.000
13.000,-899.720,6.600,-16.470,-896.850,4.560,-10.795,23.312,-0.405,0.000
13.000,-899.125,6.655,-16.280,-896.910,4.720,-10.415,23.625,-0.400,0.000
13.000,-899.100,6.610,-16.755,-897.025,4.295,-10.570,23.625,-0.410,0.000
13.000,-899.375,6.990,-15.795,-896.960,4.765,-10.865,23.625,-0.394,0.000
14.000,-640.335,-631.245,-13.780,-635.565,-449.710,-444.945,23.937,-0.394,-45.000
14.000,-641.055,-631.445,-14.255,-635.510,-449.340,-444.595,23.312,-0.400,-45.000
14.000,-640.955,-630.955,-13.785,-635.855,-449.405,-444.555,23.625,-0.405,-45.000
14.000,-640.665,-631.455,-13.920,-635.540,-449.790,-444.480,23.625,-0.399,-45.000
14.000,-640.715,-631.140,-13.835,-635.660,-449.420,-444.520,23.312,-0.394,-45.000
14.000,-640.755,-630.860,-13.640,-635.705,-449.345,-444.540,23.312,-0.394,-45.000
14.000,-640.960,-631.415,-13.965,-635.765,-449.720,-444.665,23.625,-0.394,-45.000
14.000,-640.790,-631.575,-13.915,-635.850,-449.540,-444.405,23.625,-0.394,-45.000
14.000,-640.470,-631.205,-14.145,-636.105,-449.620,-444.845,23.312,-0.394,-45.000
14.000,-640.725,-631.395,-13.885,-635.770,-449.095,-444.720,23.312,-0.394,-45.000
15.000,-6.340,-895.300,-9.000,0.995,-639.580,-633.110,23.312,-0.394,-90.000
15.000,-6.690,-895.325,-9.305,0.845,-639.690,-633.340,23.625,-0.394,-90.000
15.000,-6.975,-895.280,-9.015,1.200,-638.905,-633.035,23.625,-0.394,-90.000
15.000,-6.265,-895.185,-9.660,0.320,-639.135,-633.110,23.312,-0.402,-90.000
15.000,-6.695,-895.330,-9.325,0.315,-639.185,-634.015,23.625,-0.402,-90.000
15.000,-5.730,-895.130,-9.295,0.565,-638.905,-633.970,23.000,-0.405,-90.000
15.000,-6.360,-895.160,-9.435,1.055,-639.005,-633.415,23.937,-0.394,-90.000
15.000,-6.385,-894.990,-9.295,0.850,-639.285,-633.555,23.625,-0.394,-90.000
15.000,-6.390,-895.335,-9.010,0.810,-639.255,-632.820,23.312,-0.394,-90.000
15.000,-6.600,-895.115,-9.430,1.390,-639.280,-633.590,23.625,-0.394,-90.000
16.000,638.810,-634.535,-7.525,638.225,-452.675,-443.985,23.312,-0.405,-135.000
16.000,639.330,-634.785,-6.850,638.490,-452.405,-444.170,23.312,-0.405,-135.000
16.000,639.280,-634.840,-6.960,638.560,-452.415,-443.605,23.625,-0.405,-135.000
16.000,638.905,-634.425,-6.825,638.720,-452.865,-443.725,23.312,-0.405,-135.000
16.000,638.715,-634.730,-7.515,638.275,-452.325,-443.510,23.312,-0.405,-135.000
16.000,639.285,-634.750,-7.515,638.280,-452.495,-444.030,23.625,-0.405,-135.000
16.000,638.940,-634.900,-7.470,638.430,-452.370,-444.185,23.312,-0.394,-135.000
16.000,639.050,-634.450,-7.360,638.755,-452.325,-443.760,23.312,-0.394,-135.000
16.000,638.900,-634.550,-7.395,638.435,-452.820,-443.945,23.312,-0.394,-135.000
16.000,638.900,-634.530,-6.975,638.650,-452.735,-444.125,23.625,-0.394,-135.000
17.000,647.260,-1.850,622.535,646.065,-433.310,446.895,23.937,44.225,180.000
17.000,646.885,-1.985,622.350,645.460,-433.415,446.615,23.625,44.225,180.000
17.000,647.435,-1.415,622.565,645.435,-433.485,446.265,23.625,44.215,180.000
17.000,646.960,-2.025,622.875,645.165,-433.380,446.320,23.625,44.215,180.000
17.000,646.735,-1.565,622.765,646.130,-433.670,446.885,23.625,44.215,180.000
17.000,647.460,-2.215,622.485,645.355,-433.555,446.390,23.312,44.215,180.000
17.000,647.015,-1.605,622.255,646.295,-433.555,446.135,23.625,44.207,180.000
17.000,647.190,-1.815,622.450,645.950,-433.880,446.905,23.625,44.212,180.000
17.000,647.230,-2.110,622.415,645.265,-433.525,446.175,23.312,44.205,180.000
17.000,646.835,-1.905,622.365,646.145,-433.385,446.175,23.625,44.205,180.000
18.000,458.710,457.665,624.255,458.780,-104.970,760.980,23.312,44.205,135.000
18.000,458.315,457.365,624.445,459.040,-104.730,761.730,23.625,44.212,135.000
18.000,458.550,457.175,624.350,458.460,-104.865,761.310,23.625,44.224,135.000
18.000,458.650,457.315,624.160,458.915,-104.720,761.020,23.000,44.224,135.000
18.000,458.180,457.400,624.370,458.710,-105.180,761.195,23.625,44.224,135.000
18.000,458.425,457.550,624.430,458.885,-105.175,761.120,23.625,44.224,135.000
18.000,458.630,457.215,624.130,459.135,-104.775,761.160,23.625,44.219,135.000
18.000,458.980,457.980,624.165,458.700,-104.905,760.930,23.312,44.217,135.000
18.000,458.085,457.540,624.250,458.420,-105.330,760.735,23.937,44.215,135.000
18.000,458.735,457.500,624.195,459.145,-105.200,761.190,23.312,44.205,135.000
19.000,2.455,647.095,623.445,0.305,30.895,890.425,23.625,44.215,90.000
19.000,2.590,646.905,623.630,0.350,30.575,890.690,23.312,44.215,90.000
19.000,2.510,646.775,624.425,-0.185,31.305,890.810,23.312,44.215,90.000
19.000,2.870,647.110,624.525,0.250,30.740,890.340,23.625,44.215,90.000
19.000,2.135,647.010,624.000,0.235,30.835,890.360,23.625,44.215,90.000
19.000,2.405,646.765,623.765,0.725,30.785,890.320,23.312,44.215,90.000
19.000,2.210,647.050,623.410,0.355,30.925,890.805,23.312,44.205,90.000
19.000,1.810,646.770,624.345,0.465,30.880,890.285,23.312,44.215,90.000
19.000,1.805,646.995,623.785,0.360,31.135,890.990,23.625,44.215,90.000
19.000,1.975,647.335,624.120,0.580,31.025,891.225,23.312,44.215,90.000
20.000,-455.940,464.730,617.310,-459.660,-103.945,760.670,23.312,44.205,45.000
20.000,-455.945,464.135,617.525,-459.565,-104.090,759.295,23.625,44.205,45.000
20.000,-456.140,464.445,617.095,-459.730,-103.860,760.010,23.625,44.215,45.000
20.000,-456.355,463.720,617.120,-460.295,-104.180,759.360,23.312,44.215,45.000
20.000,-456.160,464.015,616.780,-459.765,-104.055,759.865,23.625,44.215,45.000
20.000,-455.810,464.100,617.150,-459.855,-104.185,759.460,23.625,44.207,45.000
20.000,-456.160,463.910,616.770,-459.650,-103.760,760.135,23.312,44.205,45.000
20.000,-456.195,463.470,617.130,-459.640,-104.070,759.725,23.625,44.205,45.000
20.000,-456.210,464.355,617.010,-460.280,-104.170,759.555,23.625,44.205,45.000
20.000,-456.060,464.145,617.640,-459.815,-103.950,759.785,23.312,44.205,45.000
21.000,-652.235,2.365,618.880,-646.270,-434.000,445.810,23.312,44.205,0.000
21.000,-651.185,2.370,619.025,-646.180,-433.990,445.525,23.312,44.205,0.000
21.000,-651.475,2.540,618.645,-645.945,-433.585,445.995,23.937,44.202,0.000
21.000,-651.510,2.115,618.920,-646.180,-433.795,445.605,23.937,44.202,0.000
21.000,-650.905,2.260,618.870,-646.460,-433.800,445.995,23.312,44.205,0.000
21.000,-651.040,2.340,618.605,-646.535,-433.915,445.520,23.625,44.205,0.000
21.000,-651.775,1.895,619.150,-646.530,-434.120,445.630,23.625,44.215,0.000
21.000,-651.115,2.395,618.435,-645.925,-434.195,445.835,23.312,44.215,0.000
21.000,-651.195,2.120,618.670,-646.375,-434.230,445.625,23.312,44.215,0.000
21.000,-652.425,2.870,618.505,-646.135,-433.975,445.805,23.312,44.215,0.000
22.000,-464.430,-449.605,620.930,-461.995,-759.885,134.415,23.312,44.215,-45.000
22.000,-465.015,-449.365,620.390,-461.495,-759.985,134.035,23.625,44.215,-45.000
22.000,-464.465,-449.290,620.780,-461.560,-759.760,134.100,23.312,44.215,-45.000
22.000,-464.140,-448.945,620.620,-461.325,-760.110,134.540,23.625,44.215,-45.000
22.000,-464.210,-449.635,620.670,-461.555,-759.910,133.595,23.625,44.215,-45.000
22.000,-464.450,-449.445,620.370,-461.250,-759.940,134.145,23.625,44.215,-45.000
22.000,-464.345,-449.395,620.705,-461.665,-759.630,134.580,23.625,44.215,-45.000
22.000,-464.070,-449.230,620.715,-461.590,-759.870,134.085,23.312,44.207,-45.000
22.000,-464.650,-449.265,620.225,-461.975,-759.505,133.890,23.312,44.207,-45.000
22.000,-464.055,-448.930,620.340,-461.200,-759.210,134.475,23.937,44.205,-45.000
23.000,-3.935,-642.965,621.650,1.770,-897.440,2.475,23.625,44.205,-90.000
23.000,-3.995,-643.160,621.960,1.665,-897.835,2.355,23.625,44.205,-90.000
23.000,-3.955,-642.680,621.970,1.575,-897.580,2.385,23.312,44.205,-90.000
23.000,-3.330,-643.030,622.885,1.730,-897.900,2.620,23.625,44.205,-90.000
23.000,-4.265,-642.960,622.100,1.205,-897.370,2.525,23.625,44.205,-90.000
23.000,-3.515,-642.800,622.190,1.525,-897.390,2.175,23.625,44.209,-90.000
23.000,-4.645,-642.745,621.665,1.450,-898.135,2.345,23.625,44.215,-90.000
23.000,-3.590,-642.705,621.900,1.475,-897.770,2.400,23.625,44.215,-90.000
23.000,-3.330,-643.135,622.800,1.385,-897.900,2.090,23.625,44.215,-90.000
23.000,-3.705,-643.325,622.245,1.470,-897.940,2.965,23.625,44.215,-90.000
24.000,450.980,-455.180,624.415,461.220,-759.080,133.845,23.312,44.215,-135.000
24.000,451.135,-455.070,624.260,461.610,-759.185,133.875,23.625,44.215,-135.000
24.000,450.820,-455.295,624.050,461.205,-759.385,133.915,23.625,44.215,-135.000
24.000,450.505,-455.250,624.635,461.605,-759.155,133.425,23.312,44.215,-135.000
24.000,450.945,-455.365,624.050,461.280,-759.630,133.745,23.625,44.215,-135.000
24.000,450.800,-455.395,624.535,461.360,-759.360,133.835,23.312,44.215,-135.000
24.000,450.490,-454.800,624.485,460.770,-759.340,133.405,23.625,44.207,-135.000
24.000,450.990,-454.825,624.570,461.675,-759.340,133.435,23.625,44.205,-135.000
24.000,450.180,-454.730,623.555,461.835,-759.440,134.130,23.937,44.205,-135.000
24.000,451.545,-454.870,623.965,461.400,-759.355,134.030,23.625,44.205,-135.000
25.000,389.400,2.405,802.870,388.410,-562.060,582.415,23.625,64.425,180.000
25.000,389.995,1.960,802.950,388.365,-562.070,581.940,23.312,64.425,180.000
25.000,389.415,1.990,802.915,388.995,-562.135,581.860,23.312,64.415,180.000
25.000,388.915,1.925,802.710,387.875,-562.210,582.420,23.312,64.415,180.000
25.000,389.805,1.770,803.095,388.180,-562.125,582.575,23.937,64.425,180.000
25.000,389.805,2.115,802.525,388.640,-562.385,581.620,23.625,64.425,180.000
25.000,389.075,1.640,802.805,388.655,-562.255,582.160,23.625,64.415,180.000
25.000,389.890,2.085,802.965,388.780,-562.210,582.080,23.625,64.415,180.000
25.000,389.825,2.200,803.130,388.130,-562.025,581.860,23.625,64.415,180.000
25.000,389.440,2.155,803.080,387.810,-562.185,582.290,23.625,64.415,180.000
26.000,277.065,281.275,803.180,272.175,-362.555,772.890,23.625,64.404,135.000
26.000,277.120,280.925,803.015,271.420,-363.085,772.260,23.625,64.412,135.000
26.000,277.035,280.970,803.230,271.925,-362.460,772.220,23.625,64.415,135.000
26.000,277.420,280.820,802.980,271.845,-362.830,772.170,23.312,64.415,135.000
26.000,276.845,281.075,803.175,271.855,-362.680,772.585,23.625,64.425,135.000
26.000,277.335,280.760,802.440,272.610,-362.485,772.295,23.625,64.425,135.000
26.000,278.545,281.390,803.185,272.195,-362.480,772.185,23.625,64.434,135.000
26.000,277.650,281.125,803.375,271.935,-362.300,772.245,23.937,64.434,135.000
26.000,277.585,280.845,803.405,272.085,-362.315,772.160,23.625,64.434,135.000
26.000,277.185,280.900,803.080,272.110,-362.620,772.465,23.625,64.434,135.000
27.000,3.270,393.700,805.535,-1.770,-281.520,846.630,23.625,64.432,90.000
27.000,3.745,393.855,805.540,-1.595,-281.790,846.960,23.625,64.434,90.000
27.000,2.605,393.680,805.120,-1.415,-281.585,846.475,23.312,64.434,90.000
27.000,2.945,393.635,805.485,-1.510,-281.990,847.440,23.625,64.434,90.000
27.000,3.105,394.220,805.355,-1.875,-281.975,847.140,23.625,64.434,90.000
27.000,2.650,394.195,805.485,-1.360,-281.835,847.125,23.312,64.434,90.000
27.000,3.565,393.535,805.415,-1.300,-281.855,847.015,23.312,64.434,90.000
27.000,3.000,393.955,804.905,-1.195,-281.965,847.415,23.312,64.427,90.000
27.000,2.855,393.620,805.425,-1.475,-281.900,846.600,23.625,64.432,90.000
27.000,2.910,394.135,806.070,-1.925,-281.580,846.825,23.625,64.410,90.000
28.000,-278.050,281.040,804.315,-275.625,-361.330,771.080,23.937,64.415,45.000
28.000,-277.830,281.130,805.085,-275.050,-361.350,770.890,23.625,64.404,45.000
28.000,-277.850,281.340,804.290,-274.985,-360.950,770.975,23.937,64.412,45.000
28.000,-277.820,281.125,804.390,-275.545,-361.085,770.785,23.937,64.415,45.000
28.000,-277.290,280.855,804.290,-275.090,-361.655,770.835,23.625,64.410,45.000
28.000,-277.880,280.790,804.355,-275.230,-361.415,770.625,23.937,64.404,45.000
28.000,-278.080,281.015,804.495,-275.685,-361.320,771.020,23.625,64.404,45.000
28.000,-277.365,281.505,804.345,-275.135,-361.395,771.330,23.625,64.412,45.000
28.000,-278.435,281.150,804.580,-275.175,-361.465,771.300,23.937,64.412,45.000
28.000,-278.030,281.105,804.215,-275.150,-361.275,770.790,23.937,64.412,45.000
29.000,-399.730,4.230,801.990,-392.125,-561.175,579.500,23.625,64.404,0.000
29.000,-399.190,4.615,801.435,-391.725,-560.690,579.195,23.625,64.412,0.000
29.000,-398.715,4.250,801.290,-392.040,-560.940,579.350,23.625,64.412,0.000
29.000,-398.995,4.475,800.870,-391.895,-560.880,579.260,23.625,64.415,0.000
29.000,-398.855,4.420,801.065,-392.115,-560.765,579.560,23.625,64.422,0.000
29.000,-399.155,4.430,800.905,-392.570,-561.255,579.295,23.625,64.417,0.000
29.000,-399.425,4.480,800.990,-391.910,-561.290,579.140,23.625,64.425,0.000
29.000,-399.490,4.130,801.040,-392.065,-561.025,579.540,23.625,64.415,0.000
29.000,-399.330,4.155,801.445,-391.865,-561.180,579.205,23.937,64.410,0.000
29.000,-398.800,4.040,801.075,-392.020,-561.215,579.485,23.625,64.404,0.000
30.000,-286.455,-272.045,802.400,-280.270,-757.795,392.070,23.625,64.425,-45.000
30.000,-286.510,-272.345,802.305,-280.275,-758.180,392.245,23.937,64.425,-45.000
30.000,-287.075,-272.105,801.930,-280.450,-758.070,392.665,23.625,64.425,-45.000
30.000,-286.600,-272.415,801.820,-280.020,-758.045,391.975,23.625,64.417,-45.000
30.000,-286.805,-271.920,802.330,-280.020,-758.095,392.560,23.312,64.415,-45.000
30.000,-286.970,-271.905,801.880,-280.110,-757.935,392.185,23.625,64.415,-45.000
30.000,-285.995,-271.640,802.520,-280.050,-757.950,392.085,23.625,64.415,-45.000
30.000,-286.590,-272.340,802.010,-280.385,-757.645,392.410,23.937,64.415,-45.000
30.000,-286.680,-271.845,802.345,-280.195,-758.265,392.755,23.625,64.415,-45.000
30.000,-286.450,-272.060,801.810,-280.180,-758.200,391.760,23.625,64.425,-45.000
31.000,-7.255,-389.765,802.045,-1.100,-841.980,313.790,23.625,64.422,-90.000
31.000,-6.915,-389.490,801.810,-1.235,-841.670,313.160,23.937,64.430,-90.000
31.000,-6.895,-389.785,801.905,-1.015,-842.105,313.390,23.625,64.434,-90.000
31.000,-7.385,-389.615,802.070,-1.115,-841.855,313.850,23.625,64.434,-90.000
31.000,-6.950,-389.710,801.680,-0.965,-841.855,313.755,23.625,64.434,-90.000
31.000,-6.900,-389.370,801.800,-1.180,-841.880,313.905,23.625,64.434,-90.000
31.000,-7.145,-389.575,800.620,-1.250,-842.150,314.205,23.625,64.434,-90.000
31.000,-6.935,-389.470,801.735,-1.640,-842.060,313.820,23.625,64.434,-90.000
31.000,-6.255,-389.005,801.625,-1.120,-841.495,314.010,23.625,64.434,-90.000
31.000,-7.065,-390.215,801.630,-1.180,-841.550,313.200,23.625,64.434,-90.000
32.000,272.210,-275.405,804.605,278.165,-758.310,395.120,23.937,64.444,-135.000
32.000,272.255,-274.430,804.330,278.055,-758.350,395.425,23.937,64.434,-135.000
32.000,271.650,-274.965,804.635,277.935,-758.555,395.305,23.625,64.437,-135.000
32.000,272.245,-275.100,804.455,278.190,-758.640,395.295,23.625,64.437,-135.000
32.000,271.955,-275.145,804.485,278.280,-758.465,394.955,23.625,64.432,-135.000
32.000,272.405,-274.750,804.150,278.155,-758.370,395.640,23.625,64.432,-135.000
32.000,272.115,-275.135,804.675,277.855,-758.605,394.930,23.625,64.425,-135.000
32.000,271.915,-274.995,804.215,278.200,-758.720,395.240,23.625,64.415,-135.000
32.000,271.890,-274.780,804.365,277.825,-758.340,395.210,23.937,64.415,-135.000
32.000,271.890,-274.590,804.350,278.630,-758.200,395.675,23.625,64.415,-135.000
33.000,45.225,3.795,891.575,48.305,-619.940,648.770,23.312,87.004,180.000
33.000,45.890,4.310,891.320,48.315,-619.740,649.335,23.625,87.004,180.000
33.000,45.475,4.230,891.735,48.570,-619.525,649.235,23.625,87.004,180.000
33.000,45.725,3.930,890.925,48.725,-619.570,649.350,23.625,87.004,180.000
33.000,44.840,4.380,891.580,48.300,-619.505,649.220,23.625,87.004,180.000
33.000,45.095,4.095,891.085,48.550,-619.605,649.075,23.937,86.995,180.000
33.000,45.495,4.490,891.060,48.275,-619.810,650.005,23.625,86.995,180.000
33.000,45.110,3.825,891.155,48.455,-619.675,648.815,23.625,86.995,180.000
33.000,45.170,3.980,891.110,48.450,-619.655,648.710,23.625,86.995,180.000
33.000,45.370,4.295,891.300,48.005,-619.780,649.330,23.312,87.002,180.000
34.000,31.970,39.280,891.480,34.700,-593.785,673.045,23.625,86.995,135.000
34.000,31.845,39.855,891.435,34.645,-593.925,672.860,23.625,86.995,135.000
34.000,31.800,40.000,891.450,34.015,-593.620,673.335,23.625,87.004,135.000
34.000,31.930,39.645,891.480,34.375,-593.840,672.525,23.937,87.004,135.000
34.000,31.665,40.080,891.510,34.875,-593.900,673.350,23.625,87.004,135.000
34.000,31.630,39.535,891.280,34.265,-593.825,673.300,23.937,86.995,135.000
34.000,31.755,40.260,890.675,34.285,-593.760,673.925,23.625,86.995,135.000
34.000,31.665,39.955,890.690,34.505,-593.490,673.585,23.937,86.995,135.000
34.000,31.400,40.075,891.635,34.600,-593.965,673.170,23.937,86.995,135.000
34.000,31.745,39.815,891.040,34.495,-593.630,673.065,23.625,86.995,135.000
35.000,-5.430,55.195,890.420,-1.840,-583.530,683.730,23.625,86.985,90.000
35.000,-5.230,54.985,890.250,-2.105,-583.595,682.955,23.937,86.985,90.000
35.000,-5.520,55.070,890.925,-2.415,-583.830,683.035,23.312,86.985,90.000
35.000,-5.515,55.155,890.235,-2.215,-583.465,682.800,23.625,87.000,90.000
35.000,-5.610,55.500,890.820,-2.320,-583.820,682.680,23.625,87.004,90.000
35.000,-4.925,55.390,890.455,-2.030,-583.665,682.880,23.625,87.004,90.000
35.000,-5.510,55.220,890.310,-2.340,-583.625,682.505,23.625,86.997,90.000
35.000,-4.345,55.060,890.340,-2.695,-583.795,682.775,23.937,86.995,90.000
35.000,-5.395,54.745,890.220,-2.425,-583.600,682.780,23.625,86.995,90.000
35.000,-4.770,54.970,890.680,-2.120,-583.550,682.975,23.937,86.995,90.000
36.000,-42.495,40.820,889.770,-37.195,-593.940,672.240,23.625,86.985,45.000
36.000,-41.400,41.060,890.910,-37.305,-593.895,672.210,23.625,86.985,45.000
36.000,-42.305,41.320,890.615,-37.565,-593.825,671.790,23.625,86.995,45.000
36.000,-42.320,40.845,890.645,-37.155,-593.975,672.805,23.937,86.995,45.000
36.000,-42.255,41.230,891.305,-37.445,-593.810,672.305,23.937,86.995,45.000
36.000,-42.400,41.045,889.985,-37.835,-593.790,671.750,23.625,86.995,45.000
36.000,-42.310,41.215,891.490,-37.040,-593.825,672.525,23.625,86.995,45.000
36.000,-41.450,40.865,890.830,-37.490,-593.870,672.515,23.625,86.995,45.000
36.000,-42.580,41.070,890.905,-37.260,-593.635,672.465,23.625,86.995,45.000
36.000,-42.185,40.705,890.850,-37.300,-593.650,671.915,23.937,86.995,45.000
37.000,-54.915,4.130,891.655,-51.645,-618.580,648.050,23.937,87.004,0.000
37.000,-54.635,3.600,891.635,-51.955,-618.905,647.675,23.625,87.004,0.000
37.000,-54.970,3.835,891.725,-51.510,-618.635,647.875,23.625,87.004,0.000
37.000,-54.665,3.935,891.495,-51.935,-618.695,647.800,23.937,87.004,0.000
37.000,-54.780,4.155,891.525,-52.005,-619.265,647.825,23.625,87.004,0.000
37.000,-55.020,3.795,891.345,-51.715,-619.115,647.980,23.625,87.004,0.000
37.000,-54.705,3.885,891.530,-51.425,-619.100,648.140,23.625,87.004,0.000
37.000,-54.995,4.530,890.770,-51.560,-618.955,647.515,23.937,86.997,0.000
37.000,-55.035,3.850,891.855,-51.350,-618.800,648.185,23.625,86.995,0.000
37.000,-55.280,4.100,891.530,-51.100,-618.650,647.655,23.625,86.995,0.000
38.000,-41.085,-31.295,891.770,-35.315,-644.620,624.105,23.312,87.004,-45.000
38.000,-40.635,-30.760,891.775,-36.140,-644.140,624.380,23.625,86.997,-45.000
38.000,-41.180,-31.115,891.830,-36.055,-644.790,624.195,23.625,86.985,-45.000
38.000,-41.405,-31.565,891.875,-36.015,-644.285,624.190,23.937,86.985,-45.000
38.000,-40.750,-31.125,891.850,-36.580,-644.590,623.980,23.937,86.995,-45.000
38.000,-40.790,-31.305,891.810,-35.795,-644.235,624.580,23.937,86.995,-45.000
38.000,-40.905,-31.535,891.585,-35.675,-644.135,624.410,23.312,86.995,-45.000
38.000,-40.990,-31.110,891.910,-35.580,-644.450,624.170,23.625,86.985,-45.000
38.000,-40.715,-30.950,892.435,-35.320,-644.250,623.970,23.937,86.974,-45.000
38.000,-40.640,-31.120,891.445,-35.180,-644.425,624.125,23.937,86.995,-45.000
39.000,-4.985,-45.755,891.935,0.110,-655.695,613.450,23.625,86.987,-90.000
39.000,-5.430,-45.735,892.175,-0.080,-655.635,613.865,23.625,86.965,-90.000
39.000,-5.760,-45.615,892.810,0.185,-655.145,613.705,23.625,86.972,-90.000
39.000,-5.120,-46.020,892.700,-0.220,-655.355,613.350,23.312,86.972,-90.000
39.000,-4.215,-45.825,892.280,-0.110,-655.185,613.760,23.937,86.985,-90.000
39.000,-5.185,-45.915,892.355,-0.080,-655.175,613.550,23.625,86.985,-90.000
39.000,-5.330,-45.500,892.555,-0.155,-655.075,613.075,23.625,86.979,-90.000
39.000,-5.160,-45.550,893.170,-0.800,-655.350,613.740,23.312,86.990,-90.000
39.000,-5.240,-45.755,892.050,-0.515,-655.245,613.415,23.625,86.985,-90.000
39.000,-5.055,-45.595,891.995,-0.895,-655.620,613.465,23.625,86.985,-90.000
40.000,31.270,-30.535,890.945,35.650,-645.360,623.235,23.312,86.985,-135.000
40.000,31.505,-30.175,891.575,36.065,-645.160,623.485,23.937,86.974,-135.000
40.000,30.985,-30.570,891.610,35.915,-645.495,623.615,23.625,86.982,-135.000
40.000,30.320,-30.645,890.705,35.875,-645.475,622.745,23.625,86.985,-135.000
40.000,30.900,-30.380,890.895,35.265,-645.450,623.055,23.625,86.974,-135.000
40.000,30.675,-30.545,891.635,35.270,-645.140,623.970,23.312,86.979,-135.000
40.000,30.625,-30.515,890.970,35.485,-645.125,622.800,23.312,86.982,-135.000
40.000,31.350,-30.770,891.880,35.170,-644.865,623.590,23.625,86.982,-135.000
40.000,30.815,-30.655,891.555,35.845,-645.200,623.700,23.625,86.977,-135.000
40.000,31.655,-30.415,891.280,35.745,-645.230,623.935,23.625,86.974,-135.000
