Temp Iter,Index,X Accel 1,Y Accel 1,Z Accel 1,X Accel 2,Y Accel 2,Z Accel2, Temp_6g,Temp,Theta,Phi,,,,,,
0.0000000000000000,1.0000000000000000,900.7100830079999690,0.5150123238560000,0.9600100517270000,905.6400756839999520,-4.7449765205399999,-1.5199849605600000,28.9375000000000000,29.3249702453999994,-0.0500000000000000,180.0000000000000000
0.0000000000000000,1.0000000000000000,900.8402099610000270,0.4950049221520000,0.6349774599080000,905.7000732420000300,-4.7950115203900001,-2.3299825191500001,28.6250000000000000,29.3249702453999994,-0.0500000000000000,180.0000000000000000
0.0000000000000000,1.0000000000000000,900.7700805660000460,0.6800175309180000,0.8999373912810000,905.7199096680000130,-4.2100019455000002,-1.7350298166300000,29.2500000000000000,29.3249702453999994,-0.0500000000000000,180.0000000000000000
0.0000000000000000,1.0000000000000000,900.8900756839999520,0.8499976396559999,0.8300523757930000,904.4749755860000270,-4.0799574851999996,-1.3249872922899999,28.9375000000000000,29.3249702453999994,-0.0500000000000000,180.0000000000000000
0.0000000000000000,1.0000000000000000,0.0000000000000000,0.0000000000000000,0.0000000000000000,0.0000000000000000,0.0000000000000000,0.0000000000000000,0.0000000000000000,0.0000000000000000,-0.0500000000000000,180.0000000000000000
0.0000000000000000,1.0000000000000000,0.0000000000000000,0.0000000000000000,0.0000000000000000,0.0000000000000000,0.0000000000000000,0.0000000000000000,0.0000000000000000,0.0000000000000000,-0.0500000000000000,180.0000000000000000
0.0000000000000000,1.0000000000000000,0.0000000000000000,0.0000000000000000,0.0000000000000000,0.0000000000000000,0.0000000000000000,0.0000000000000000,0.0000000000000000,0.0000000000000000,-0.0500000000000000,180.0000000000000000
0.0000000000000000,1.0000000000000000,901.8599853519999660,1.3650072813000000,0.9249777793880000,905.7600097660000520,-4.5599851608300002,-1.2099674940100000,28.9375000000000000,29.3562011719000004,-0.0500000000000000,180.0000000000000000
0.0000000000000000,1.0000000000000000,900.9049072269999660,0.6500100493430000,0.6899899840350000,905.5249633790000410,-3.8499898910499999,-1.6299974918400000,29.2500000000000000,29.3562011719000004,-0.0500000000000000,180.0000000000000000
0.0000000000000000,1.0000000000000000,900.4450073240000160,0.2799925506110000,0.4249574244020000,904.9549560550000240,-4.1599764823900003,-1.5950001478200000,28.9375000000000000,29.3562011719000004,-0.0500000000000000,180.0000000000000000
0.0000000000000000,2.0000000000000000,648.3850097660000520,632.3900756839999520,6.3149743080100000,646.7299194339999520,449.2699890139999750,442.3199157710000120,28.6250000000000000,29.3249702453999994,-0.0500000000000000,135.0000000000000000
0.0000000000000000,2.0000000000000000,648.3200073240000160,632.2999877930000130,6.4150023460399996,647.0999145509999830,449.1649475099999900,443.2850341800000250,28.6250000000000000,29.3562011719000004,-0.0500000000000000,135.0000000000000000
0.0000000000000000,2.0000000000000000,649.2299804689999970,631.8450927730000320,5.9950222969100002,647.3350830079999690,449.0049438479999820,442.4399414060000020,29.2500000000000000,29.3562011719000004,-0.0500000000000000,135.0000000000000000
0.0000000000000000,2.0000000000000000,648.8900146480000320,631.6099243160000460,6.3050370216399996,647.0700073240000160,448.9350280759999800,442.6099853520000230,28.9375000000000000,29.3249702453999994,-0.0500000000000000,135.0000000000000000
0.0000000000000000,2.0000000000000000,648.6849365230000320,633.1249999999999990,6.3949756622300002,646.8451538089999520,448.9849853520000230,442.8149414060000020,28.9375000000000000,29.3562011719000004,-0.0500000000000000,135.0000000000000000
0.0000000000000000,2.0000000000000000,648.3699340819999860,631.9149169920000300,6.2100067138700004,647.0799560550000240,448.7250671389999750,442.7649841310000050,28.6250000000000000,29.3562011719000004,-0.0500000000000000,135.0000000000000000
0.0000000000000000,2.0000000000000000,647.9450073240000160,632.5849609379999940,6.0699729919400003,646.7299804689999970,449.0149536129999880,442.6999511719999980,28.9375000000000000,29.3562011719000004,-0.0500000000000000,135.0000000000000000
0.0000000000000000,2.0000000000000000,648.9200439449999740,632.5249633790000410,6.1800098419199996,646.9150390620000050,448.7499389650000120,443.0499877930000130,28.6250000000000000,29.3249702453999994,-0.0500000000000000,135.0000000000000000
0.0000000000000000,2.0000000000000000,648.5549316410000520,632.8749999999999990,5.9149498939500003,646.8400878910000520,449.0249938960000120,442.5750427250000030,28.6250000000000000,29.3562011719000004,-0.0500000000000000,135.0000000000000000
0.0000000000000000,2.0000000000000000,648.7951049800000190,632.7099609379999940,6.6950321197499996,645.5750732420000300,449.6850585939999970,441.9898986819999890,28.6250000000000000,29.3249702453999994,-0.0500000000000000,135.0000000000000000
0.0000000000000000,3.0000000000000000,0.0000000000000000,0.0000000000000000,0.0000000000000000,0.0000000000000000,0.0000000000000000,0.0000000000000000,0.0000000000000000,0.0000000000000000,-0.0500000000000000,89.9999999999999999
0.0000000000000000,3.0000000000000000,0.0000000000000000,0.0000000000000000,0.0000000000000000,0.0000000000000000,0.0000000000000000,0.0000000000000000,0.0000000000000000,0.0000000000000000,-0.0500000000000000,89.9999999999999999
0.0000000000000000,3.0000000000000000,0.0000000000000000,0.0000000000000000,0.0000000000000000,0.0000000000000000,0.0000000000000000,0.0000000000000000,0.0000000000000000,0.0000000000000000,-0.0500000000000000,89.9999999999999999
0.0000000000000000,3.0000000000000000,0.0000000000000000,0.0000000000000000,0.0000000000000000,0.0000000000000000,0.0000000000000000,0.0000000000000000,0.0000000000000000,0.0000000000000000,-0.0500000000000000,89.9999999999999999
0.0000000000000000,3.0000000000000000,0.0000000000000000,0.0000000000000000,0.0000000000000000,0.0000000000000000,0.0000000000000000,0.0000000000000000,0.0000000000000000,0.0000000000000000,-0.0500000000000000,89.9999999999999999
0.0000000000000000,3.0000000000000000,0.0000000000000000,0.0000000000000000,0.0000000000000000,0.0000000000000000,0.0000000000000000,0.0000000000000000,0.0000000000000000,0.0000000000000000,-0.0500000000000000,89.9999999999999999
0.0000000000000000,3.0000000000000000,0.0000000000000000,0.0000000000000000,0.0000000000000000,0.0000000000000000,0.0000000000000000,0.0000000000000000,0.0000000000000000,0.0000000000000000,-0.0500000000000000,89.9999999999999999
0.0000000000000000,3.0000000000000000,11.4400224686000005,902.9400024410000460,6.0750474929799996,14.4200286865000002,638.5949707029999440,632.7901000980000380,28.9375000000000000,29.3562011719000004,-0.0500000000000000,89.9999999999999999
0.0000000000000000,3.0000000000000000,11.1799945830999992,902.4649047850000430,5.9649939536999996,15.6099987030000005,637.6248779300000240,632.4299926759999830,28.6250000000000000,29.3249702453999994,-0.0500000000000000,89.9999999999999999
0.0000000000000000,3.0000000000000000,11.5000495910999998,903.0349731449999800,6.5400290489200001,14.3149900435999999,638.0899658199999740,632.0748901370000110,28.6250000000000000,29.3562011719000004,-0.0500000000000000,89.9999999999999999
0.0000000000000000,4.0000000000000000,-637.3649902339999460,638.5350341800000240,2.6199820041700002,-631.0949707029999440,452.9650268550000190,442.6099853520000230,28.9375000000000000,29.3249702453999994,-0.0500000000000000,45.0000000000000000
0.0000000000000000,4.0000000000000000,-637.7050170899999550,638.4099731449999800,1.7500449418999999,-630.5649414060000020,452.6149902340000040,442.5399780270000170,28.9375000000000000,29.3562011719000004,-0.0500000000000000,45.0000000000000000
0.0000000000000000,4.0000000000000000,-637.8500366209999580,637.6299438480000380,1.6150174140900000,-630.7600097660000520,452.6949768069999890,443.5050353999999970,28.9375000000000000,29.3249702453999994,-0.0500000000000000,45.0000000000000000
0.0000000000000000,4.0000000000000000,-638.0450439449999740,638.3500366209999580,2.1550276279400000,-630.9200439449999740,452.7399902340000040,442.7000732419999730,28.6250000000000000,29.3249702453999994,-0.0500000000000000,45.0000000000000000
0.0000000000000000,4.0000000000000000,-638.4299926759999830,636.8349609379999940,1.4899749755900000,-631.3599243160000460,452.7750244139999720,442.8950195310000020,28.9375000000000000,29.3249702453999994,-0.0500000000000000,45.0000000000000000
0.0000000000000000,4.0000000000000000,-638.0299072269999660,638.6149291990000160,2.2500021457699999,-631.2901000980000380,453.0099792479999790,442.8850402830000230,28.9375000000000000,29.3249702453999994,-0.0500000000000000,45.0000000000000000
0.0000000000000000,4.0000000000000000,-637.9899902339999460,638.1600341800000240,2.2399952411699999,-630.7900390620000050,453.1199951169999730,442.9699401859999730,28.9375000000000000,29.3249702453999994,-0.0500000000000000,45.0000000000000000
0.0000000000000000,4.0000000000000000,-638.1649169920000300,639.7049560550000240,1.8099850416200001,-630.2500610350000440,452.8250427250000030,442.9299926759999830,28.9375000000000000,29.3249702453999994,-0.0500000000000000,45.0000000000000000
0.0000000000000000,4.0000000000000000,-637.8950805660000460,638.9649658199999740,1.9549723863599999,-630.8850097660000520,453.0899047849999870,443.1449584960000150,28.6250000000000000,29.3249702453999994,-0.0500000000000000,45.0000000000000000
0.0000000000000000,4.0000000000000000,-637.9750366209999580,637.5750732420000300,1.8000223636599999,-630.6499633790000410,452.6349792479999790,442.6250000000000000,28.9375000000000000,29.3249702453999994,-0.0500000000000000,45.0000000000000000
0.0000000000000000,5.0000000000000000,-895.3948974610000270,6.2700476646399998,-6.1599674224900003,-892.2550659180000130,0.9349649548530000,0.0449725203216000,28.6250000000000000,29.3249702453999994,-0.0500000000000000,0.0000000000000000
0.0000000000000000,5.0000000000000000,-894.4899902339999460,6.3999853134200002,-6.1450028419500002,-892.3899536129999880,0.8999946117399999,0.3699950277810000,28.9375000000000000,29.3249702453999994,-0.0500000000000000,0.0000000000000000
0.0000000000000000,5.0000000000000000,-895.7297973629999880,6.6049823760999997,-6.1199998855600004,-892.4899902339999460,0.8949677348140000,0.9150124788280000,28.6250000000000000,29.3249702453999994,-0.0500000000000000,0.0000000000000000
0.0000000000000000,5.0000000000000000,-895.3299560550000240,5.4549756050099996,-6.2299976348900001,-891.9149780269999600,1.1050049066500001,-0.5000374913220000,28.6250000000000000,29.3249702453999994,-0.0500000000000000,0.0000000000000000
0.0000000000000000,5.0000000000000000,-894.8798828120000040,6.9499845504800000,-5.9100370407099998,-891.6799926759999830,0.9799773097040000,-0.1999875158070000,28.6250000000000000,29.3249702453999994,-0.0500000000000000,0.0000000000000000
0.0000000000000000,5.0000000000000000,-895.3150024410000460,7.0149798393199996,-6.5050268173200001,-890.8748779300000240,1.0549952983899999,-0.6899750232700000,28.6250000000000000,29.3249702453999994,-0.0500000000000000,0.0000000000000000
0.0000000000000000,5.0000000000000000,0.0000000000000000,0.0000000000000000,0.0000000000000000,0.0000000000000000,0.0000000000000000,0.0000000000000000,0.0000000000000000,0.0000000000000000,-0.0500000000000000,0.0000000000000000
0.0000000000000000,5.0000000000000000,0.0000000000000000,0.0000000000000000,0.0000000000000000,0.0000000000000000,0.0000000000000000,0.0000000000000000,0.0000000000000000,0.0000000000000000,-0.0500000000000000,0.0000000000000000
0.0000000000000000,5.0000000000000000,-895.3599243160000460,6.0749797820999998,-5.3649921417200002,-891.8850097660000520,0.6700098514560000,-0.6150300502780000,28.6250000000000000,29.3249702453999994,-0.0500000000000000,0.0000000000000000
0.0000000000000000,5.0000000000000000,-894.5549316410000520,6.9699850082400001,-5.4949693679799996,-891.6399536129999880,0.4649899303910000,-0.8750250339510000,28.9375000000000000,29.3249702453999994,-0.0500000000000000,0.0000000000000000
0.0000000000000000,6.0000000000000000,-642.7899169920000300,-625.4249267579999690,-12.5100145339999997,-632.7699584959999580,-451.1199646000000030,-443.8500671389999750,29.2500000000000000,29.3249702453999994,-0.0500000000000000,-45.0000000000000000
0.0000000000000000,6.0000000000000000,-642.4749145509999830,-624.4900512699999800,-12.2050142287999996,-633.0899658199999740,-451.3899841310000050,-443.8598632810000020,28.6250000000000000,29.3249702453999994,-0.0500000000000000,-45.0000000000000000
0.0000000000000000,6.0000000000000000,-642.5148925779999440,-624.1599121089999460,-11.8450241089000006,-632.9649658199999740,-451.0049438479999820,-444.8899230960000180,28.9375000000000000,29.3249702453999994,-0.0500000000000000,-45.0000000000000000
0.0000000000000000,6.0000000000000000,-642.6849975589999520,-624.1048583980000320,-12.2400312424000006,-632.7600097660000520,-451.1749572749999970,-444.1801452639999750,28.9375000000000000,29.3249702453999994,-0.0500000000000000,-45.0000000000000000
0.0000000000000000,6.0000000000000000,-642.8249511720000550,-625.0650024410000460,-13.0250053405999999,-633.1149902339999460,-450.8398742680000160,-444.8749389650000120,29.2500000000000000,29.3249702453999994,-0.0500000000000000,-45.0000000000000000
0.0000000000000000,6.0000000000000000,-642.3099365230000320,-623.8548583980000320,-12.6350059509000001,-633.5399780269999600,-451.2399902340000040,-444.1348266599999870,28.9375000000000000,29.3249702453999994,-0.0500000000000000,-45.0000000000000000
0.0000000000000000,6.0000000000000000,-641.6400146480000320,-624.5449829100000440,-12.5200233459000003,-632.8399658199999740,-451.2949523930000160,-444.7449951169999730,28.9375000000000000,29.3249702453999994,-0.0500000000000000,-45.0000000000000000
0.0000000000000000,6.0000000000000000,-642.5401000980000380,-623.9149169920000300,-12.0949687957999998,-632.6100463870000110,-451.0499572749999970,-444.9700317379999880,28.9375000000000000,29.3249702453999994,-0.0500000000000000,-45.0000000000000000
0.0000000000000000,6.0000000000000000,0.0000000000000000,0.0000000000000000,0.0000000000000000,0.0000000000000000,0.0000000000000000,0.0000000000000000,0.0000000000000000,0.0000000000000000,-0.0500000000000000,-45.0000000000000000
0.0000000000000000,6.0000000000000000,-642.3049926759999830,-624.3150634769999660,-11.7599849700999996,-632.9799194339999520,-451.0050353999999970,-444.5848388669999730,28.3125000000000000,29.3249702453999994,-0.0500000000000000,-45.0000000000000000
0.0000000000000000,7.0000000000000000,-7.0949454307600002,-894.6900024410000460,-14.1249761581000008,-0.8699998259540000,-640.5498657230000380,-634.8599243160000460,28.6250000000000000,29.3249702453999994,-0.0500000000000000,-89.9999999999999999
0.0000000000000000,7.0000000000000000,-6.3850150108300001,-894.0849609379999940,-14.3600244521999993,-0.7299624681470001,-641.3950195310000020,-634.5900268550000190,28.9375000000000000,29.3249702453999994,-0.0500000000000000,-89.9999999999999999
0.0000000000000000,7.0000000000000000,-5.7449851036100004,-893.9949951170000300,-14.3599472045999992,0.0700000375509000,-640.5849609379999940,-635.3549194339999520,28.9375000000000000,29.3249702453999994,-0.0500000000000000,-89.9999999999999999
0.0000000000000000,7.0000000000000000,-6.5549993515000002,-893.6499633790000410,-14.4400005340999993,-0.4399999380110000,-640.5749511720000550,-634.1799316410000520,28.9375000000000000,29.3249702453999994,-0.0500000000000000,-89.9999999999999999
0.0000000000000000,7.0000000000000000,-6.6650400161699999,-894.0449829100000430,-14.4149875641000005,-0.3249999880790000,-640.0599365230000320,-634.2949829100000440,28.9375000000000000,29.3249702453999994,-0.0500000000000000,-89.9999999999999999
0.0000000000000000,7.0000000000000000,-6.2199401855499996,-894.0600585939999960,-14.2299861908000000,-0.5200075507160000,-640.5750122069999860,-633.3449707029999440,28.9375000000000000,29.3249702453999994,-0.0500000000000000,-89.9999999999999999
0.0000000000000000,7.0000000000000000,-6.6299996376000001,-894.4499511720000550,-14.2899560928000007,-0.2100000381470000,-639.6849975589999520,-635.0449829100000440,28.9375000000000000,29.3249702453999994,-0.0500000000000000,-89.9999999999999999
0.0000000000000000,7.0000000000000000,-6.3199858665499997,-893.9649658199999740,-14.7100181580000004,0.4600674211980000,-640.5950317379999880,-634.1850585939999970,28.9375000000000000,29.3249702453999994,-0.0500000000000000,-89.9999999999999999
0.0000000000000000,7.0000000000000000,-5.7800030708300003,-894.4099731449999800,-14.3899974823000001,0.0250049680471000,-639.8449707029999440,-634.0150756839999520,28.9375000000000000,29.3249702453999994,-0.0500000000000000,-89.9999999999999999
0.0000000000000000,7.0000000000000000,-6.4400210380600003,-894.4450073240000160,-14.2649993895999998,-1.3199923038500001,-640.3949584959999580,-634.8699951170000300,29.2500000000000000,29.3249702453999994,-0.0500000000000000,-89.9999999999999999
0.0000000000000000,8.0000000000000000,645.0199584959999580,-628.7999267579999690,-9.7199659347500003,645.0799560550000240,-455.3050231930000100,-442.5950012210000180,28.6250000000000000,29.3249702453999994,-0.0500000000000000,-135.0000000000000000
0.0000000000000000,8.0000000000000000,644.8300781249999990,-629.6149902339999460,-9.4500102996800006,645.0700073240000160,-455.3449401859999730,-442.7299804689999970,28.9375000000000000,29.3249702453999994,-0.0500000000000000,-135.0000000000000000
0.0000000000000000,8.0000000000000000,644.7949829100000440,-629.1150512699999800,-9.2300100326500001,645.1350097660000520,-455.3749389650000120,-442.9449462889999720,28.9375000000000000,29.3249702453999994,-0.0500000000000000,-135.0000000000000000
0.0000000000000000,8.0000000000000000,644.7849731449999800,-629.1749877930000130,-9.4449920654300001,645.3399047850000440,-455.4851074219999980,-442.2351074219999980,28.6250000000000000,29.3249702453999994,-0.0500000000000000,-135.0000000000000000
0.0000000000000000,8.0000000000000000,644.4200439449999740,-629.0999755860000270,-9.2500219345100003,644.9699096680000130,-455.2199401859999730,-442.6350708009999830,28.9375000000000000,29.3249702453999994,-0.0500000000000000,-135.0000000000000000
0.0000000000000000,8.0000000000000000,644.2449340819999860,-629.7400512699999800,-9.1050014495799996,645.4100341800000240,-455.8699951169999730,-442.7450256349999900,28.9375000000000000,29.3249702453999994,-0.0500000000000000,-135.0000000000000000
0.0000000000000000,8.0000000000000000,644.1199951170000300,-629.5899658199999740,-9.7000265121500000,645.2649536129999880,-455.2149658199999740,-441.9100646969999950,28.9375000000000000,29.3249702453999994,-0.0500000000000000,-135.0000000000000000
0.0000000000000000,8.0000000000000000,644.8999023439999970,-629.6199951170000300,-9.0999622344999995,645.0399169920000300,-454.9599609379999940,-442.5049438479999820,28.6250000000000000,29.2937412262000016,-0.0500000000000000,-135.0000000000000000
0.0000000000000000,8.0000000000000000,644.8150024410000460,-630.1700439449999740,-9.0299844741800008,645.1499633790000410,-455.2550353999999970,-442.5099487300000190,28.9375000000000000,29.3249702453999994,-0.0500000000000000,-135.0000000000000000
0.0000000000000000,8.0000000000000000,644.4099731449999800,-629.5199584959999580,-9.3350191116300003,645.6150512699999800,-455.9400329590000060,-442.6749877930000130,28.6250000000000000,29.2937412262000016,-0.0500000000000000,-135.0000000000000000
0.0000000000000000,9.0000000000000000,822.6300659180000130,-1.7750049829500001,363.4499511719999980,828.8300781249999990,-258.3050231930000110,261.0299682620000110,28.6250000000000000,29.2937412262000016,23.8399999999999998,180.0000000000000000
0.0000000000000000,9.0000000000000000,823.4350585939999970,-2.4300453662899999,364.2149963379999910,828.6699829100000440,-258.6799316409999960,260.1749877930000140,28.9375000000000000,29.2937412262000016,23.8399999999999998,180.0000000000000000
0.0000000000000000,9.0000000000000000,823.7150878910000520,-1.9700028896299999,363.3400268550000190,829.5449218749999990,-259.1399841310000050,261.0650024409999900,28.6250000000000000,29.3249702453999994,23.8399999999999998,180.0000000000000000
0.0000000000000000,9.0000000000000000,823.1599121089999460,-1.6699948310899999,363.2299804689999970,829.5849609379999940,-259.1049804689999970,260.5400390620000050,28.9375000000000000,29.3249702453999994,23.8399999999999998,180.0000000000000000
0.0000000000000000,9.0000000000000000,824.0299072269999660,-1.8249627351800000,364.2599182129999910,828.7949218749999990,-258.6850585939999970,260.1250915530000040,28.9375000000000000,29.3249702453999994,23.8399999999999998,180.0000000000000000
0.0000000000000000,9.0000000000000000,823.2251586910000460,-1.8999799490000000,363.3799133300000220,828.7199707029999440,-258.8000793460000180,260.5299682620000110,28.6250000000000000,29.3249702453999994,23.8399999999999998,180.0000000000000000
0.0000000000000000,9.0000000000000000,0.0000000000000000,0.0000000000000000,0.0000000000000000,0.0000000000000000,0.0000000000000000,0.0000000000000000,0.0000000000000000,0.0000000000000000,23.8399999999999998,180.0000000000000000
0.0000000000000000,9.0000000000000000,0.0000000000000000,0.0000000000000000,0.0000000000000000,0.0000000000000000,0.0000000000000000,0.0000000000000000,0.0000000000000000,0.0000000000000000,23.8399999999999998,180.0000000000000000
0.0000000000000000,9.0000000000000000,823.1500854490000160,-2.3249919414500000,363.7500305180000160,829.5349731449999800,-259.0199890139999750,259.9599609379999940,28.9375000000000000,29.3249702453999994,23.8399999999999998,180.0000000000000000
0.0000000000000000,9.0000000000000000,823.3848876949999740,-1.8799827098799999,364.0749511719999980,828.9949951170000300,-259.3300476069999830,260.5900268550000190,28.9375000000000000,29.2937412262000016,23.8399999999999998,180.0000000000000000
0.0000000000000000,10.0000000000000000,591.3798828120000050,576.9249267579999690,370.2899780270000180,592.1600952149999550,154.9249572749999970,664.7100830079999690,28.6250000000000000,29.2937412262000016,23.8399999999999998,135.0000000000000000
0.0000000000000000,10.0000000000000000,590.3800048829999690,576.6350097660000520,369.6450195310000020,591.4899291990000160,154.9199676510000070,664.9100341800000240,29.2500000000000000,29.2937412262000016,23.8399999999999998,135.0000000000000000
0.0000000000000000,10.0000000000000000,590.9599609379999940,577.2849121089999470,369.3450012210000180,591.9000854490000160,155.1449584959999870,664.7249145509999830,28.6250000000000000,29.2937412262000016,23.8399999999999998,135.0000000000000000
0.0000000000000000,10.0000000000000000,591.0299682620000110,577.9849243160000460,368.7249450680000110,591.7199096680000130,155.1549682620000110,665.0949707029999440,28.3125000000000000,29.2937412262000016,23.8399999999999998,135.0000000000000000
0.0000000000000000,10.0000000000000000,590.8598632810000020,576.6449584959999580,369.3750000000000000,591.3648681639999720,155.2449798579999930,664.7150878910000520,28.9375000000000000,29.2625102997000006,23.8399999999999998,135.0000000000000000
0.0000000000000000,10.0000000000000000,591.1949462889999720,577.9250488279999440,369.5599975590000100,591.6099243160000460,155.1799926760000120,664.6699218749999990,28.9375000000000000,29.2937412262000016,23.8399999999999998,135.0000000000000000
0.0000000000000000,10.0000000000000000,590.7550659180000130,576.4400024410000460,369.5299377439999940,591.6149291990000160,155.0999908450000080,665.5150146480000320,28.6250000000000000,29.2937412262000016,23.8399999999999998,135.0000000000000000
0.0000000000000000,10.0000000000000000,591.0150146480000320,577.8198852540000410,370.1649169919999730,591.5098876949999740,154.9900207519999920,664.3150024410000460,28.6250000000000000,29.2937412262000016,23.8399999999999998,135.0000000000000000
0.0000000000000000,10.0000000000000000,590.8999633790000410,577.7299194339999520,369.5399780270000180,591.3898925779999440,155.3899688719999970,664.1149902339999460,29.2500000000000000,29.2937412262000016,23.8399999999999998,135.0000000000000000
0.0000000000000000,10.0000000000000000,590.9551391600000440,577.3950195310000020,369.3049926759999830,592.4151000980000380,154.9300079349999920,664.3148193360000270,28.6250000000000000,29.2937412262000016,23.8399999999999998,135.0000000000000000
0.0000000000000000,11.0000000000000000,7.8000097274800000,822.3399658199999740,369.4200439449999750,13.3200054169000008,333.3299865719999950,831.9450073240000160,28.9375000000000000,29.2937412262000016,23.8399999999999998,89.9999999999999999
0.0000000000000000,11.0000000000000000,8.4250392913799992,822.8100585939999970,369.1499938960000120,13.7500066756999999,333.6349487300000190,832.1050415040000410,28.9375000000000000,29.2937412262000016,23.8399999999999998,89.9999999999999999
0.0000000000000000,11.0000000000000000,7.7999691963200002,822.7048950199999800,369.1749572749999970,12.9449768065999997,333.4450073240000160,832.3148803709999580,28.9375000000000000,29.2937412262000016,23.8399999999999998,89.9999999999999999
0.0000000000000000,11.0000000000000000,8.7899951934799994,822.5499267579999690,369.7550353999999970,13.0750093459999999,333.2599792479999790,831.8549804689999970,28.6250000000000000,29.2937412262000016,23.8399999999999998,89.9999999999999999
0.0000000000000000,11.0000000000000000,7.3150119781500003,822.2399902339999460,369.5499877930000140,13.1900062561000002,333.2699584960000150,831.5100097660000520,28.9375000000000000,29.2937412262000016,23.8399999999999998,89.9999999999999999
0.0000000000000000,11.0000000000000000,8.1749792099000000,823.1149291990000160,369.6550292969999980,12.1150054932000000,333.5950317379999880,831.1799316410000520,28.6250000000000000,29.2937412262000016,23.8399999999999998,89.9999999999999999
0.0000000000000000,11.0000000000000000,7.3449931144700002,822.0050048829999690,369.5950012210000180,12.9150505066000001,333.4049987789999820,831.6800537110000270,28.9375000000000000,29.2937412262000016,23.8399999999999998,89.9999999999999999
0.0000000000000000,11.0000000000000000,8.2949914932300004,822.7548828120000040,370.1549377439999940,12.8349866867000006,333.6000061039999870,831.5100097660000520,28.6250000000000000,29.2937412262000016,23.8399999999999998,89.9999999999999999
0.0000000000000000,11.0000000000000000,0.0000000000000000,0.0000000000000000,0.0000000000000000,0.0000000000000000,0.0000000000000000,0.0000000000000000,0.0000000000000000,0.0000000000000000,23.8399999999999998,89.9999999999999999
0.0000000000000000,11.0000000000000000,8.1999702453599994,822.1350097660000520,369.0149230960000180,13.1350154877000005,333.7900390620000050,832.2448120120000100,28.9375000000000000,29.2937412262000016,23.8399999999999998,89.9999999999999999
0.0000000000000000,12.0000000000000000,-585.5950317379999880,579.1950073240000160,365.1399230960000180,-580.9500122069999860,161.9049530030000030,662.1400146480000320,28.9375000000000000,29.2937412262000016,23.8499999999999979,45.0000000000000000
0.0000000000000000,12.0000000000000000,-584.9450073240000160,579.4999389649999550,364.0450439449999750,-581.2150878910000520,162.0600128170000000,662.4849243160000460,28.6250000000000000,29.2937412262000016,23.8399999999999998,45.0000000000000000
0.0000000000000000,12.0000000000000000,-585.9050292970000550,579.4200439449999740,364.7850341800000250,-582.1351318360000270,161.9799957280000060,662.6848144529999440,28.6250000000000000,29.2625102997000006,23.8399999999999998,45.0000000000000000
0.0000000000000000,12.0000000000000000,0.0000000000000000,0.0000000000000000,0.0000000000000000,0.0000000000000000,0.0000000000000000,0.0000000000000000,0.0000000000000000,0.0000000000000000,23.8499999999999979,45.0000000000000000
0.0000000000000000,12.0000000000000000,0.0000000000000000,0.0000000000000000,0.0000000000000000,0.0000000000000000,0.0000000000000000,0.0000000000000000,0.0000000000000000,0.0000000000000000,23.8399999999999998,45.0000000000000000
0.0000000000000000,12.0000000000000000,-585.8698730470000550,579.7849731449999800,364.7950439449999750,-581.5549316410000520,161.8699798579999930,663.3000488279999440,28.6250000000000000,29.2937412262000016,23.8499999999999979,45.0000000000000000
0.0000000000000000,12.0000000000000000,-585.5399780269999600,579.2099609379999940,364.2949829099999870,-582.1450805660000460,162.1749572749999970,663.1100463870000110,28.3125000000000000,29.2937412262000016,23.8499999999999979,45.0000000000000000
0.0000000000000000,12.0000000000000000,-585.7799682620000110,579.1500244139999720,364.6099853520000230,-581.1999511720000550,162.3200225829999960,663.3299560550000240,28.6250000000000000,29.2625102997000006,23.8399999999999998,45.0000000000000000
0.0000000000000000,12.0000000000000000,-585.3800048829999690,579.0299682620000110,364.7000732419999730,-581.6550292970000550,161.7600097659999960,662.5449218749999990,28.9375000000000000,29.2625102997000006,23.8499999999999979,45.0000000000000000
0.0000000000000000,12.0000000000000000,-585.6049804689999970,579.7149658199999740,364.4349975590000100,-580.7499999999999990,162.0350189209999880,662.6499633790000410,28.6250000000000000,29.2625102997000006,23.8499999999999979,45.0000000000000000
0.0000000000000000,13.0000000000000000,-818.6751098629999880,1.1649850606900001,357.2699584960000150,-821.7349853519999660,-252.8849792480000070,257.6800231930000110,28.3125000000000000,29.2625102997000006,23.8499999999999979,0.0000000000000000
0.0000000000000000,13.0000000000000000,-817.9401245120000100,0.6900149583820000,357.6649780270000180,-821.3649902339999460,-252.6800384519999910,257.5899963379999910,28.9375000000000000,29.2625102997000006,23.8499999999999979,0.0000000000000000
0.0000000000000000,13.0000000000000000,-818.1799926759999830,1.6699922084800001,356.9550170900000120,-821.2749633790000410,-252.7950134280000040,258.1950073240000160,28.6250000000000000,29.2625102997000006,23.8499999999999979,0.0000000000000000
0.0000000000000000,13.0000000000000000,-818.2449951170000300,2.1750223636600001,357.4800415039999840,-821.8100585939999970,-252.6249389650000120,257.5299682620000110,28.9375000000000000,29.2625102997000006,23.8499999999999979,0.0000000000000000
0.0000000000000000,13.0000000000000000,-818.0451660160000520,1.9000250101100000,357.6549987789999810,-821.8949584959999580,-252.4799957280000060,257.6400146479999760,28.6250000000000000,29.2625102997000006,23.8499999999999979,0.0000000000000000
0.0000000000000000,13.0000000000000000,-817.9749145509999830,0.6499674916270000,357.3350219729999820,-821.8848876949999740,-252.4700164790000090,258.4800415039999850,28.6250000000000000,29.2937412262000016,23.8499999999999979,0.0000000000000000
0.0000000000000000,13.0000000000000000,-818.3200683589999460,0.4650025367740000,357.4898986819999890,-821.1948852540000410,-252.7099914549999930,258.2399902340000040,28.6250000000000000,29.2937412262000016,23.8499999999999979,0.0000000000000000
0.0000000000000000,13.0000000000000000,0.0000000000000000,0.0000000000000000,0.0000000000000000,0.0000000000000000,0.0000000000000000,0.0000000000000000,0.0000000000000000,0.0000000000000000,23.8499999999999979,0.0000000000000000
0.0000000000000000,13.0000000000000000,0.0000000000000000,0.0000000000000000,0.0000000000000000,0.0000000000000000,0.0000000000000000,0.0000000000000000,0.0000000000000000,0.0000000000000000,23.8499999999999979,0.0000000000000000
0.0000000000000000,13.0000000000000000,-817.9500732420000300,1.0449900627099999,357.2100219729999820,-821.5850830079999690,-252.8549804689999970,257.6800231930000110,28.9375000000000000,29.2625102997000006,23.8499999999999979,0.0000000000000000
0.0000000000000000,14.0000000000000000,-584.2950439449999740,-580.7348632810000020,348.3500061039999870,-583.6599731449999800,-666.1050415040000410,-149.9699249269999940,28.6250000000000000,29.2625102997000006,23.8499999999999979,-45.0000000000000000
0.0000000000000000,14.0000000000000000,-584.4050292970000550,-581.5449218749999990,348.2698669430000110,-584.6149902339999470,-666.1101684569999860,-150.7400054930000120,28.6250000000000000,29.2625102997000006,23.8499999999999979,-45.0000000000000000
0.0000000000000000,14.0000000000000000,-584.2699584959999580,-580.8499755860000270,348.3249816890000260,-584.0900268550000190,-665.7449340819999860,-150.4699707030000010,28.6250000000000000,29.2625102997000006,23.8499999999999979,-45.0000000000000000
0.0000000000000000,14.0000000000000000,-584.6249389649999550,-580.7751464839999470,348.1199951169999730,-583.7248535160000520,-665.6099853519999660,-150.2350311280000030,28.9375000000000000,29.2625102997000006,23.8499999999999979,-45.0000000000000000
0.0000000000000000,14.0000000000000000,-584.5400390620000050,-581.1848754879999880,348.8150024409999900,-583.5949096680000130,-665.8499145509999830,-150.1299896239999890,28.6250000000000000,29.2312812804999993,23.8499999999999979,-45.0000000000000000
0.0000000000000000,14.0000000000000000,-584.9850463870000110,-580.6650390620000050,348.6849670409999930,-583.9849853519999660,-665.8449707029999440,-150.2000122069999860,28.9375000000000000,29.2625102997000006,23.8499999999999979,-45.0000000000000000
0.0000000000000000,14.0000000000000000,-584.7399291990000160,-581.1448974610000270,348.8500366210000150,-583.3099975589999520,-666.4700927730000320,-151.0049896239999890,28.6250000000000000,29.2625102997000006,23.8499999999999979,-45.0000000000000000
0.0000000000000000,14.0000000000000000,-584.5849609379999940,-579.4550170899999550,348.8150329590000070,-583.9200439449999740,-666.2449951170000300,-149.7950134280000040,28.6250000000000000,29.2625102997000006,23.8499999999999979,-45.0000000000000000
0.0000000000000000,14.0000000000000000,0.0000000000000000,0.0000000000000000,0.0000000000000000,0.0000000000000000,0.0000000000000000,0.0000000000000000,0.0000000000000000,0.0000000000000000,23.8499999999999979,-45.0000000000000000
0.0000000000000000,14.0000000000000000,-584.7700195310000020,-579.5250854490000160,348.5849914550000220,-584.2000122069999860,-665.6350708009999830,-149.9299621579999950,28.6250000000000000,29.2625102997000006,23.8499999999999979,-45.0000000000000000
0.0000000000000000,15.0000000000000000,-6.7199625968900003,-823.0050659180000130,350.9999389650000120,1.3700073957400001,-841.8399658199999740,-322.0800170900000120,28.6250000000000000,29.2625102997000006,23.8499999999999979,-89.9999999999999999
0.0000000000000000,15.0000000000000000,-6.4750351905799999,-823.4998779300000240,351.2749023439999970,1.0649847984300000,-841.7949218749999990,-322.4499816890000260,28.6250000000000000,29.2625102997000006,23.8399999999999998,-89.9999999999999999
0.0000000000000000,15.0000000000000000,-6.8100171089200003,-823.3999023439999970,350.9800415039999840,1.3049976825700000,-842.0999755860000270,-322.5199279789999870,28.3125000000000000,29.2625102997000006,23.8499999999999979,-89.9999999999999999
0.0000000000000000,15.0000000000000000,-6.5200052261400003,-822.6749877930000130,351.2349548340000070,1.2800123691600001,-842.2899169920000300,-321.8150329590000070,28.6250000000000000,29.2625102997000006,23.8399999999999998,-89.9999999999999999
0.0000000000000000,15.0000000000000000,-7.1550521850599997,-822.0250854490000160,350.7599487300000190,0.8499874472620000,-842.1999511720000550,-321.3499755860000270,28.3125000000000000,29.2625102997000006,23.8499999999999979,-89.9999999999999999
0.0000000000000000,15.0000000000000000,-5.9799947738599997,-821.8699951170000300,351.0599975590000100,1.4549552202200000,-842.0499267579999690,-322.1149902340000040,28.6250000000000000,29.2312812804999993,23.8499999999999979,-89.9999999999999999
0.0000000000000000,15.0000000000000000,-6.3250274658199999,-823.5599975589999520,351.4450073240000160,1.0299701690700001,-842.1799926759999830,-322.3200073240000160,28.9375000000000000,29.2312812804999993,23.8399999999999998,-89.9999999999999999
0.0000000000000000,15.0000000000000000,-6.2999906539900001,-823.6400756839999520,351.5299987789999810,0.7750149965290000,-842.0899658199999740,-322.0750122069999860,28.6250000000000000,29.2312812804999993,23.8399999999999998,-89.9999999999999999
0.0000000000000000,15.0000000000000000,0.0000000000000000,0.0000000000000000,0.0000000000000000,0.0000000000000000,0.0000000000000000,0.0000000000000000,0.0000000000000000,0.0000000000000000,23.8499999999999979,-89.9999999999999999
0.0000000000000000,15.0000000000000000,-7.2750024795500003,-822.7501220699999740,351.1000061039999870,0.8549999594690000,-842.4400024410000460,-322.4149475099999900,28.6250000000000000,29.2312812804999993,23.8499999999999979,-89.9999999999999999
0.0000000000000000,16.0000000000000000,584.3850097660000520,-582.7149658199999740,349.7249450680000110,594.1450195310000020,-671.0199584959999580,-146.1800079349999920,28.6250000000000000,29.2312812804999993,23.8399999999999998,-135.0000000000000000
0.0000000000000000,16.0000000000000000,585.2699584959999580,-582.1450805660000460,350.4399108889999750,593.2550048829999690,-671.2399902339999460,-146.3800353999999970,28.6250000000000000,29.2312812804999993,23.8399999999999998,-135.0000000000000000
0.0000000000000000,16.0000000000000000,585.1448974610000270,-581.8599243160000460,349.7899475099999900,594.2800903319999860,-671.0349731449999800,-146.1249847409999910,28.3125000000000000,29.2312812804999993,23.8499999999999979,-135.0000000000000000
0.0000000000000000,16.0000000000000000,584.4450073240000160,-582.4999389649999550,349.0050353999999970,594.1549682620000110,-671.0899658199999740,-145.5200347900000110,28.6250000000000000,29.2312812804999993,23.8499999999999979,-135.0000000000000000
0.0000000000000000,16.0000000000000000,584.7598876949999740,-582.4500122069999860,350.1850280759999800,594.0899658199999740,-671.2349243160000460,-146.9800262450000050,28.6250000000000000,29.2312812804999993,23.8399999999999998,-135.0000000000000000
0.0000000000000000,16.0000000000000000,584.9849853519999660,-581.0100708009999830,350.1150207520000200,593.9349365230000320,-670.8248901370000110,-146.2050323489999920,28.9375000000000000,29.2312812804999993,23.8499999999999979,-135.0000000000000000
0.0000000000000000,16.0000000000000000,585.0200805660000460,-583.2500610350000440,350.5599975590000100,594.5200195310000020,-671.0900878910000520,-145.4399719239999910,28.6250000000000000,29.2625102997000006,23.8499999999999979,-135.0000000000000000
0.0000000000000000,16.0000000000000000,585.1699829100000440,-583.1149902339999470,350.2949523930000160,593.8450927730000320,-670.8949584959999580,-145.2500000000000000,28.6250000000000000,29.2312812804999993,23.8399999999999998,-135.0000000000000000
0.0000000000000000,16.0000000000000000,584.9999999999999990,-582.1750488279999440,350.1250000000000000,594.2799072269999660,-670.8348999019999600,-146.6300659180000140,28.9375000000000000,29.2312812804999993,23.8499999999999979,-135.0000000000000000
0.0000000000000000,16.0000000000000000,584.7299194339999520,-583.0249023439999970,350.1299438479999820,593.8199462889999720,-670.9400634769999660,-146.1550140379999900,28.6250000000000000,29.2312812804999993,23.8499999999999979,-135.0000000000000000
0.0000000000000000,17.0000000000000000,627.0999755860000270,-6.4949893951400002,643.6099243160000460,635.9599609379999940,-454.9099426270000200,458.9399414060000020,28.9375000000000000,29.2312812804999993,177.1119999999999950,180.0000000000000000
0.0000000000000000,17.0000000000000000,628.4951782230000380,-6.5400152206400000,642.9750366209999580,635.9498901370000110,-454.8948974610000270,459.1199951169999730,28.6250000000000000,29.2312812804999993,177.1119999999999950,180.0000000000000000
0.0000000000000000,17.0000000000000000,0.0000000000000000,0.0000000000000000,0.0000000000000000,0.0000000000000000,0.0000000000000000,0.0000000000000000,0.0000000000000000,0.0000000000000000,177.1119999999999950,180.0000000000000000
0.0000000000000000,17.0000000000000000,628.4751586910000460,-7.1149835586499996,642.9799804689999970,636.2550048829999690,-454.9700012210000180,458.7300720210000120,28.6250000000000000,29.2312812804999993,177.1119999999999950,180.0000000000000000
0.0000000000000000,17.0000000000000000,628.3549194339999520,-6.7850093841600003,643.2899780269999600,636.1449584959999580,-454.6900024409999900,459.1600341800000250,28.9375000000000000,29.2000503539999982,177.1119999999999950,180.0000000000000000
0.0000000000000000,17.0000000000000000,627.7998657230000380,-6.9599971771200000,643.1150512699999800,636.4999999999999990,-455.1300353999999970,458.9500427250000030,28.6250000000000000,29.2312812804999993,177.1119999999999950,180.0000000000000000
0.0000000000000000,17.0000000000000000,627.6149291990000160,-6.8750095367400004,643.8849487300000190,636.3449096680000130,-454.9749755860000270,458.0449829099999870,28.3125000000000000,29.2312812804999993,177.1119999999999950,180.0000000000000000
0.0000000000000000,17.0000000000000000,627.4949340819999860,-6.9849991798400000,643.5899658199999740,636.3300170899999550,-455.0750427250000030,459.0299377439999940,28.6250000000000000,29.2000503539999982,177.1119999999999950,180.0000000000000000
0.0000000000000000,17.0000000000000000,628.0250854490000160,-6.9799923896799996,642.7749633790000410,635.4299926759999830,-454.7899169919999730,459.3999938960000120,28.6250000000000000,29.2312812804999993,177.1119999999999950,180.0000000000000000
0.0000000000000000,17.0000000000000000,627.7099609379999940,-7.0449705123899999,643.6699218749999990,635.5549316410000520,-455.0749816890000260,458.7601013180000100,28.6250000000000000,29.2312812804999993,177.1119999999999950,180.0000000000000000
0.0000000000000000,18.0000000000000000,445.2900695800000220,437.9049987789999810,648.6700439449999740,455.8999938960000120,-141.1450042719999940,766.5100708009999830,28.6250000000000000,29.2000503539999982,177.1119999999999950,135.0000000000000000
0.0000000000000000,18.0000000000000000,0.0000000000000000,0.0000000000000000,0.0000000000000000,0.0000000000000000,0.0000000000000000,0.0000000000000000,0.0000000000000000,0.0000000000000000,177.1119999999999950,135.0000000000000000
0.0000000000000000,18.0000000000000000,0.0000000000000000,0.0000000000000000,0.0000000000000000,0.0000000000000000,0.0000000000000000,0.0000000000000000,0.0000000000000000,0.0000000000000000,177.1119999999999950,135.0000000000000000
0.0000000000000000,18.0000000000000000,445.6150207520000200,437.5449523930000160,649.0599975589999520,455.7599487300000190,-141.1700134280000040,766.5949096680000130,28.6250000000000000,29.2000503539999982,177.1119999999999950,135.0000000000000000
0.0000000000000000,18.0000000000000000,445.8450012210000180,437.8349914550000220,649.0148925779999440,455.1800537110000270,-140.9899902340000040,767.1950073240000160,28.3125000000000000,29.2000503539999982,177.1119999999999950,135.0000000000000000
0.0000000000000000,18.0000000000000000,445.0249633789999840,437.7799377439999940,648.5051269529999440,455.8899230960000180,-141.9299926760000120,766.6699829100000440,28.6250000000000000,29.2000503539999982,177.1119999999999950,135.0000000000000000
0.0000000000000000,18.0000000000000000,445.0550537110000270,438.6649475099999900,648.1849365230000320,455.8750000000000000,-141.8600311280000030,766.6049804689999970,28.6250000000000000,29.2000503539999982,177.1119999999999950,135.0000000000000000
0.0000000000000000,18.0000000000000000,444.9949951169999730,438.8699951169999730,648.2849731449999800,455.3348693849999900,-141.1349334720000000,766.4500732420000300,28.6250000000000000,29.2000503539999982,177.1119999999999950,135.0000000000000000
0.0000000000000000,18.0000000000000000,445.3999023439999970,436.9299621580000230,648.1100463870000110,455.6549987789999810,-141.1100311280000030,766.3948974610000270,28.6250000000000000,29.2000503539999982,177.1119999999999950,135.0000000000000000
0.0000000000000000,18.0000000000000000,444.6949462889999720,436.8149414060000020,648.2150878910000520,455.3349914550000220,-141.1400146480000040,765.8800048829999690,28.6250000000000000,29.2000503539999982,177.1119999999999950,135.0000000000000000
0.0000000000000000,19.0000000000000000,4.0550022125199998,620.2800292970000550,653.3150024410000460,10.1649913787999999,-8.0100269317600006,896.4851074220000550,28.6250000000000000,29.2000503539999982,177.1119999999999950,89.9999999999999999
0.0000000000000000,19.0000000000000000,4.9699878692599997,620.7600708009999830,652.9699707029999440,10.0200147629000007,-7.4249887466400004,897.0848999019999600,28.6250000000000000,29.2000503539999982,177.1119999999999950,89.9999999999999999
0.0000000000000000,19.0000000000000000,5.4150619506800002,620.0250244139999720,653.2799682620000110,9.4000349044800000,-8.0199775695800000,896.9200439449999740,28.6250000000000000,29.2000503539999982,177.1119999999999950,89.9999999999999999
0.0000000000000000,19.0000000000000000,4.8900275230399997,621.2600097660000520,653.5499877930000130,10.0450096129999995,-7.6399798393199996,896.6298828120000040,28.3125000000000000,29.2000503539999982,177.1119999999999950,89.9999999999999999
0.0000000000000000,19.0000000000000000,0.0000000000000000,0.0000000000000000,0.0000000000000000,0.0000000000000000,0.0000000000000000,0.0000000000000000,0.0000000000000000,0.0000000000000000,177.1119999999999950,89.9999999999999999
0.0000000000000000,19.0000000000000000,0.0000000000000000,0.0000000000000000,0.0000000000000000,0.0000000000000000,0.0000000000000000,0.0000000000000000,0.0000000000000000,0.0000000000000000,177.1119999999999950,89.9999999999999999
0.0000000000000000,19.0000000000000000,0.0000000000000000,0.0000000000000000,0.0000000000000000,0.0000000000000000,0.0000000000000000,0.0000000000000000,0.0000000000000000,0.0000000000000000,177.1119999999999950,89.9999999999999999
0.0000000000000000,19.0000000000000000,0.0000000000000000,0.0000000000000000,0.0000000000000000,0.0000000000000000,0.0000000000000000,0.0000000000000000,0.0000000000000000,0.0000000000000000,177.1119999999999950,89.9999999999999999
0.0000000000000000,19.0000000000000000,0.0000000000000000,0.0000000000000000,0.0000000000000000,0.0000000000000000,0.0000000000000000,0.0000000000000000,0.0000000000000000,0.0000000000000000,177.1119999999999950,89.9999999999999999
0.0000000000000000,19.0000000000000000,4.5749845504800000,620.8099365230000320,653.3850708009999830,10.4400243759000002,-7.9000267982499999,896.6900024410000460,28.6250000000000000,29.2000503539999982,177.1119999999999950,89.9999999999999999
0.0000000000000000,20.0000000000000000,-441.4450378419999760,437.1699218750000000,642.8649291990000160,-438.5249633789999840,-136.6949920650000080,772.4899902339999460,28.9375000000000000,29.2000503539999982,177.1220000000000140,45.0000000000000000
0.0000000000000000,20.0000000000000000,-442.3650207520000200,437.3449401859999730,643.2699584959999580,-439.8250427250000030,-136.9149627689999990,772.1348266600000440,28.6250000000000000,29.1688213348000005,177.1119999999999950,45.0000000000000000
0.0000000000000000,20.0000000000000000,-442.4501037599999900,437.7350769039999810,643.1299438480000380,-439.0799560550000250,-136.7200012209999900,771.6199951170000300,28.6250000000000000,29.2000503539999982,177.1119999999999950,45.0000000000000000
0.0000000000000000,20.0000000000000000,-442.0500183109999730,436.8199462889999720,643.0750732420000300,-438.9399414060000020,-136.9499816889999980,771.5799560550000240,28.6250000000000000,29.2000503539999982,177.1119999999999950,45.0000000000000000
0.0000000000000000,20.0000000000000000,-442.1250610349999870,437.0950317379999880,643.6600341800000240,-439.3050231930000100,-136.3450317379999890,771.5949707029999440,28.6250000000000000,29.1688213348000005,177.1119999999999950,45.0000000000000000
0.0000000000000000,20.0000000000000000,-442.1899414060000020,437.3700256349999900,642.7698974610000270,-439.6100769039999810,-136.4449768069999890,771.7099609379999940,28.6250000000000000,29.1688213348000005,177.1220000000000140,45.0000000000000000
0.0000000000000000,20.0000000000000000,-442.1000671389999750,437.4099426270000200,643.1449584959999580,-439.0950622560000050,-136.6449890140000040,771.9200439449999740,28.6250000000000000,29.2000503539999982,177.1119999999999950,45.0000000000000000
0.0000000000000000,20.0000000000000000,-442.3450012210000180,437.5449829099999870,643.7049560550000240,-438.9599609379999940,-136.5850219730000100,772.3099975589999520,28.6250000000000000,29.1688213348000005,177.1119999999999950,45.0000000000000000
0.0000000000000000,20.0000000000000000,-442.0199890139999750,436.9449462889999720,643.5199584959999580,-438.2648010249999970,-136.5749816889999980,772.1249999999999990,28.3125000000000000,29.1688213348000005,177.1119999999999950,45.0000000000000000
0.0000000000000000,20.0000000000000000,-442.5799560550000250,437.8899536129999880,643.1699829100000440,-438.6999511719999980,-136.6150360110000010,771.9949340819999850,28.3125000000000000,29.1688213348000005,177.1119999999999950,45.0000000000000000
0.0000000000000000,21.0000000000000000,-624.9400634769999660,-4.8149867057800000,638.8350830079999690,-623.4149169920000300,-453.7900390620000050,460.1499023439999970,28.6250000000000000,29.1688213348000005,177.1220000000000140,0.0000000000000000
0.0000000000000000,21.0000000000000000,-624.4600830079999690,-4.7799520492600003,639.0949707029999440,-623.2750854490000160,-453.7049560550000250,460.5849609379999940,28.6250000000000000,29.1688213348000005,177.1220000000000140,0.0000000000000000
0.0000000000000000,21.0000000000000000,-625.3949584959999580,-6.2400450706499999,638.7600097660000520,-623.0399780269999600,-453.3399963379999910,460.5899963379999910,28.6250000000000000,29.1688213348000005,177.1220000000000140,0.0000000000000000
0.0000000000000000,21.0000000000000000,-624.7199707029999440,-4.9449920654300001,638.7749023439999970,-623.2050781249999990,-453.4749755860000270,460.0848999020000170,28.6250000000000000,29.1688213348000005,177.1220000000000140,0.0000000000000000
0.0000000000000000,21.0000000000000000,-625.3649291990000160,-4.5400080680799997,638.9200439449999740,-622.7550659180000130,-453.3249511719999980,460.1350402830000230,28.9375000000000000,29.1688213348000005,177.1220000000000140,0.0000000000000000
0.0000000000000000,21.0000000000000000,-624.5199584959999580,-4.6499900817900004,639.0550537110000270,-622.6048583980000320,-453.4249572749999970,460.5799865719999950,28.9375000000000000,29.1688213348000005,177.1220000000000140,0.0000000000000000
0.0000000000000000,21.0000000000000000,-624.9250488279999440,-6.1749444007900003,638.9849853519999660,-623.0599975589999520,-452.9601440430000130,460.1649169919999730,28.9375000000000000,29.1688213348000005,177.1220000000000140,0.0000000000000000
0.0000000000000000,21.0000000000000000,-624.7299804689999970,-5.4999952316299998,638.7649536129999880,-623.3749999999999990,-452.8699951169999730,459.9750366210000150,28.3125000000000000,29.1688213348000005,177.1220000000000140,0.0000000000000000
0.0000000000000000,21.0000000000000000,-624.5799560550000240,-6.0349755287200004,639.1400146480000320,-622.7950439449999740,-453.8250732419999730,459.9899902340000040,28.6250000000000000,29.1688213348000005,177.1220000000000140,0.0000000000000000
0.0000000000000000,21.0000000000000000,-624.3099975589999520,-5.9800047874500004,638.4649658199999740,-623.5850830079999690,-453.0950012210000180,460.3550720210000120,28.6250000000000000,29.1688213348000005,177.1220000000000140,0.0000000000000000
0.0000000000000000,22.0000000000000000,-444.2799072270000230,-444.5450744629999910,636.1999511720000550,-442.2149658199999740,-768.1799926759999830,151.7699737549999950,28.6250000000000000,29.1688213348000005,177.1220000000000140,-45.0000000000000000
0.0000000000000000,22.0000000000000000,-444.3399047849999870,-443.6950683590000040,635.4050292970000550,-442.3799438479999820,-767.9899902339999460,151.9949798579999930,28.6250000000000000,29.1688213348000005,177.1220000000000140,-45.0000000000000000
0.0000000000000000,22.0000000000000000,-444.0000000000000000,-444.2150268550000190,635.8701171879999940,-443.4249572749999970,-768.4199218749999990,151.1950225829999960,28.6250000000000000,29.1688213348000005,177.1220000000000140,-45.0000000000000000
0.0000000000000000,22.0000000000000000,-444.0399475099999900,-444.6799011229999790,635.7349243160000460,-442.4649658199999740,-768.5898437499999990,151.9149932859999980,28.3125000000000000,29.1688213348000005,177.1220000000000140,-45.0000000000000000
0.0000000000000000,22.0000000000000000,-444.2549438479999820,-442.9149780270000170,635.6049194339999520,-442.7499084469999950,-768.1100463870000100,152.5000305179999880,28.6250000000000000,29.1688213348000005,177.1220000000000140,-45.0000000000000000
0.0000000000000000,22.0000000000000000,-444.0699768069999890,-444.3200378419999760,635.8850097660000520,-442.5200195310000020,-768.0600585939999970,151.4549713129999870,28.6250000000000000,29.1688213348000005,177.1220000000000140,-45.0000000000000000
0.0000000000000000,22.0000000000000000,0.0000000000000000,0.0000000000000000,0.0000000000000000,0.0000000000000000,0.0000000000000000,0.0000000000000000,0.0000000000000000,0.0000000000000000,177.1220000000000140,-45.0000000000000000
0.0000000000000000,22.0000000000000000,-444.2849121090000040,-444.2200317379999880,635.7598876949999740,-443.2850036620000080,-768.0349121089999460,151.7550201420000060,28.9375000000000000,29.1688213348000005,177.1220000000000140,-45.0000000000000000
0.0000000000000000,22.0000000000000000,-444.2850036620000080,-444.7299804689999970,635.4150390620000050,-442.3699646000000030,-768.1948852540000410,151.2350311280000030,28.9375000000000000,29.1688213348000005,177.1220000000000140,-45.0000000000000000
0.0000000000000000,22.0000000000000000,-443.9599914550000220,-444.6200256349999900,635.6700439449999740,-443.1999206539999810,-768.1699829100000440,150.3749694820000110,28.6250000000000000,29.1375904082999994,177.1220000000000140,-45.0000000000000000
0.0000000000000000,23.0000000000000000,-5.3200192451500001,-627.6649169920000300,639.4199829100000440,2.6400003433200001,-901.2000732420000300,20.1999702453999994,28.6250000000000000,29.1688213348000005,177.1220000000000140,-89.9999999999999999
0.0000000000000000,23.0000000000000000,-5.5000004768400004,-627.7249755860000270,638.5197753910000520,2.8049900531800001,-901.2849731449999800,18.8400478362999983,28.3125000000000000,29.1688213348000005,177.1220000000000140,-89.9999999999999999
0.0000000000000000,23.0000000000000000,-5.3200097083999998,-627.3699951170000300,639.3348999019999600,3.5549974441500001,-901.6948242189999960,20.1700077057000016,28.9375000000000000,29.1688213348000005,177.1220000000000140,-89.9999999999999999
0.0000000000000000,23.0000000000000000,-5.3700351715099996,-627.3999023439999970,638.8250122069999860,3.1799576282499999,-901.9149780269999600,19.5400447845000009,28.9375000000000000,29.1688213348000005,177.1220000000000140,-89.9999999999999999
0.0000000000000000,23.0000000000000000,-4.9850130081200001,-628.2749633790000410,638.9749755860000270,2.5099923610700001,-901.6699829100000430,20.3350105286000016,28.6250000000000000,29.1375904082999994,177.1220000000000140,-89.9999999999999999
0.0000000000000000,23.0000000000000000,0.0000000000000000,0.0000000000000000,0.0000000000000000,0.0000000000000000,0.0000000000000000,0.0000000000000000,0.0000000000000000,0.0000000000000000,177.1220000000000140,-89.9999999999999999
0.0000000000000000,23.0000000000000000,-6.2400174140900004,-628.0450439449999740,639.1299438480000380,2.5649826526599999,-901.6249999999999990,20.0750026703000017,28.3125000000000000,29.1688213348000005,177.1220000000000140,-89.9999999999999999
0.0000000000000000,23.0000000000000000,-5.7350411415100000,-626.8900146480000320,638.5100097660000520,3.5350248813600000,-901.6849975589999520,20.1649894713999984,28.6250000000000000,29.1688213348000005,177.1220000000000140,-89.9999999999999999
0.0000000000000000,23.0000000000000000,-5.3600072860700001,-628.0949707029999440,639.0300903319999860,2.4400074481999998,-901.9699096680000130,20.1650409697999997,28.6250000000000000,29.1375904082999994,177.1220000000000140,-89.9999999999999999
0.0000000000000000,23.0000000000000000,-5.5399570465099996,-628.2349853519999660,639.2000122069999860,1.9099595546699999,-901.4450073240000160,19.7750129699999988,28.6250000000000000,29.1375904082999994,177.1220000000000140,-89.9999999999999999
0.0000000000000000,24.0000000000000000,443.6250000000000000,-445.2050170900000120,637.8850097660000520,455.8898620609999730,-769.3449707029999440,150.9449920650000080,28.6250000000000000,29.1375904082999994,177.1119999999999950,-135.0000000000000000
0.0000000000000000,24.0000000000000000,443.5399780270000170,-444.9100341800000250,637.2998657230000380,455.7000427250000030,-769.4650878910000520,152.3349609379999950,28.6250000000000000,29.1375904082999994,177.1119999999999950,-135.0000000000000000
0.0000000000000000,24.0000000000000000,444.2400207520000200,-445.2250671389999750,637.9500122069999860,456.8499450680000100,-769.0299682620000100,151.2849578860000010,28.9375000000000000,29.1688213348000005,177.1119999999999950,-135.0000000000000000
0.0000000000000000,24.0000000000000000,444.5849914550000220,-445.5851440430000130,637.4749755860000270,455.6399536129999880,-769.1050415040000410,150.0150604250000010,28.6250000000000000,29.1375904082999994,177.1119999999999950,-135.0000000000000000
0.0000000000000000,24.0000000000000000,444.5249633789999840,-444.5799255370000080,637.8049316410000520,455.5800170900000120,-769.5050659180000130,151.3299407959999880,28.6250000000000000,29.1375904082999994,177.1119999999999950,-135.0000000000000000
0.0000000000000000,24.0000000000000000,443.9749755860000270,-445.4100341800000250,636.8348999019999600,456.5200195310000020,-769.4749755860000270,150.8600006099999860,28.6250000000000000,29.1375904082999994,177.1119999999999950,-135.0000000000000000
0.0000000000000000,24.0000000000000000,444.4650268550000190,-445.0500183109999730,637.4750976560000020,456.7599792479999790,-770.2649536129999880,149.4549407959999880,28.6250000000000000,29.1375904082999994,177.1119999999999950,-135.0000000000000000
0.0000000000000000,24.0000000000000000,444.3399658199999740,-445.1200256349999900,637.0799560550000240,455.5000000000000000,-769.0399780269999600,151.6699676510000070,28.9375000000000000,29.1375904082999994,177.1220000000000140,-135.0000000000000000
0.0000000000000000,24.0000000000000000,443.8150329590000060,-445.0000000000000000,637.4301147459999580,455.7349853520000230,-769.2850341800000240,151.5399475099999900,28.6250000000000000,29.1688213348000005,177.1220000000000140,-135.0000000000000000
0.0000000000000000,24.0000000000000000,443.8998413090000090,-445.8549804689999970,637.7650146480000320,455.3199768069999890,-769.4850463870000100,149.9050292969999990,28.6250000000000000,29.1375904082999994,177.1220000000000140,-135.0000000000000000
0.0000000000000000,25.0000000000000000,343.0549926759999830,-4.9850196838400000,825.0349121089999460,350.7049865719999950,-583.7749633790000410,598.7399291990000160,28.3125000000000000,29.1063613891999999,68.0700000000000073,180.0000000000000000
0.0000000000000000,25.0000000000000000,342.4549865719999950,-4.1450123786899997,824.8348999019999600,351.6651000979999820,-584.0599975589999520,600.6249389649999550,28.3125000000000000,29.1063613891999999,68.0700000000000073,180.0000000000000000
0.0000000000000000,25.0000000000000000,342.6549987789999820,-4.0499649047900004,825.5549926759999830,351.7099609379999940,-583.4849243160000460,599.1099853519999660,28.3125000000000000,29.1375904082999994,68.0700000000000073,180.0000000000000000
0.0000000000000000,25.0000000000000000,343.0750427250000030,-4.6049747467000000,825.2900390620000040,351.1450195310000020,-583.6050415040000410,600.6549682620000110,28.6250000000000000,29.1375904082999994,68.0700000000000073,180.0000000000000000
0.0000000000000000,25.0000000000000000,343.7749938960000120,-5.0050024986299997,825.3999633790000410,351.0500183109999740,-583.8700561519999600,599.7799682620000110,28.6250000000000000,29.1375904082999994,68.0700000000000073,180.0000000000000000
0.0000000000000000,25.0000000000000000,343.4299621580000230,-5.0800113678000001,824.8800048829999690,351.2899475099999900,-583.3200073240000160,599.5449218749999990,28.3125000000000000,29.1375904082999994,68.0700000000000073,180.0000000000000000
0.0000000000000000,25.0000000000000000,343.1900024409999900,-4.1900072097800001,825.2550048829999690,350.4750061039999870,-582.9999999999999990,600.3898925779999440,28.6250000000000000,29.1063613891999999,68.0700000000000073,180.0000000000000000
0.0000000000000000,25.0000000000000000,342.2649536129999880,-5.1599850654599999,826.4849243160000460,351.8399963379999910,-583.7450561519999600,600.5400390620000050,28.6250000000000000,29.1063613891999999,68.0700000000000073,180.0000000000000000
0.0000000000000000,25.0000000000000000,343.5149536129999880,-5.2949595451400002,825.6549072269999660,350.9649658199999750,-582.7050781249999990,599.8200683589999470,28.6250000000000000,29.1375904082999994,68.0700000000000073,180.0000000000000000
0.0000000000000000,25.0000000000000000,343.2599487300000190,-4.7599968910200001,825.6699829100000440,351.3050231930000110,-583.5199584959999580,598.6300048829999690,28.6250000000000000,29.1063613891999999,68.0700000000000073,180.0000000000000000
0.0000000000000000,26.0000000000000000,243.6349792480000070,236.7599945069999870,828.0850830079999690,247.0400695799999930,-416.1899108889999750,761.1149902339999460,28.6250000000000000,29.1375904082999994,68.0700000000000073,135.0000000000000000
0.0000000000000000,26.0000000000000000,243.0849761960000130,236.2350463870000110,828.0301513670000300,246.4349823000000010,-416.5600585939999970,761.4350585939999970,28.3125000000000000,29.1063613891999999,68.0800000000000125,135.0000000000000000
0.0000000000000000,26.0000000000000000,242.5449981689999960,236.3200073239999880,828.6549682620000100,245.4499969480000060,-417.4750366210000150,760.9400634769999660,28.6250000000000000,29.1375904082999994,68.0800000000000125,135.0000000000000000
0.0000000000000000,26.0000000000000000,242.9149780269999890,236.1749725340000050,828.4900512699999800,247.6199951170000020,-416.5949401859999740,761.2499999999999990,28.6250000000000000,29.1063613891999999,68.0800000000000125,135.0000000000000000
0.0000000000000000,26.0000000000000000,242.5599517820000130,237.2200317379999890,828.0999755860000270,247.2549896239999890,-416.5448608400000120,762.0650024410000460,28.3125000000000000,29.1063613891999999,68.0800000000000125,135.0000000000000000
0.0000000000000000,26.0000000000000000,242.6499938960000120,237.0299530030000030,828.3399658199999740,247.4200134280000040,-415.9550781250000000,761.3348999019999600,28.6250000000000000,29.1063613891999999,68.0700000000000073,135.0000000000000000
0.0000000000000000,26.0000000000000000,242.7800292969999980,235.8350524900000090,828.3349609379999940,247.7050170900000120,-416.5849914550000220,762.0999755860000270,28.3125000000000000,29.1063613891999999,68.0800000000000125,135.0000000000000000
0.0000000000000000,26.0000000000000000,243.1499786379999930,236.2149963379999920,828.6300659180000130,247.4250335689999930,-416.0100402830000230,762.3699340819999850,28.6250000000000000,29.1063613891999999,68.0800000000000125,135.0000000000000000
0.0000000000000000,26.0000000000000000,242.4499969480000060,236.6399993900000140,828.8249511720000550,245.9949493409999940,-416.2198791499999970,760.5748901370000100,28.3125000000000000,29.1063613891999999,68.0800000000000125,135.0000000000000000
0.0000000000000000,26.0000000000000000,242.7250213620000070,236.5599975590000100,828.4199829100000440,247.1299743650000090,-416.3599243159999900,762.1399536129999880,28.6250000000000000,29.1063613891999999,68.0800000000000125,135.0000000000000000
0.0000000000000000,27.0000000000000000,-0.1300249993800000,336.6849670409999930,827.9299926759999830,7.5449876785300001,-346.5499572749999970,830.2249145509999830,28.6250000000000000,29.1063613891999999,68.0800000000000125,89.9999999999999999
0.0000000000000000,27.0000000000000000,0.4100074768070000,336.7200012210000180,828.0450439449999740,7.5099840164199998,-346.8150024409999900,828.5599975589999520,28.6250000000000000,29.1063613891999999,68.0700000000000073,89.9999999999999999
0.0000000000000000,27.0000000000000000,0.2900024950500000,336.9700012210000180,827.3550415040000410,7.1749992370599998,-346.1799621580000230,830.3251953120000040,28.3125000000000000,29.1063613891999999,68.0800000000000125,89.9999999999999999
0.0000000000000000,27.0000000000000000,-0.0600074976683000,336.7699584960000150,827.6449584959999580,6.8799729347199996,-346.8549804689999970,829.6900024410000460,28.6250000000000000,29.1063613891999999,68.0800000000000125,89.9999999999999999
0.0000000000000000,27.0000000000000000,-0.1350050121550000,336.8250427250000030,827.8499755860000270,7.3549790382399998,-346.9499511719999980,828.7749633790000410,28.9375000000000000,29.1063613891999999,68.0800000000000125,89.9999999999999999
0.0000000000000000,27.0000000000000000,0.2199699282650000,337.3400268550000190,828.8900756839999520,8.5249853134200002,-347.2999572749999970,830.2150878910000520,28.6250000000000000,29.1063613891999999,68.0700000000000073,89.9999999999999999
0.0000000000000000,27.0000000000000000,-0.2400074750190000,337.6650390620000050,828.2900390620000040,7.5249986648600000,-347.0549621580000230,829.4749755860000270,28.6250000000000000,29.1063613891999999,68.0800000000000125,89.9999999999999999
0.0000000000000000,27.0000000000000000,0.0000000000000000,0.0000000000000000,0.0000000000000000,0.0000000000000000,0.0000000000000000,0.0000000000000000,0.0000000000000000,0.0000000000000000,68.0800000000000125,89.9999999999999999
0.0000000000000000,27.0000000000000000,0.0000000000000000,0.0000000000000000,0.0000000000000000,0.0000000000000000,0.0000000000000000,0.0000000000000000,0.0000000000000000,0.0000000000000000,68.0700000000000073,89.9999999999999999
0.0000000000000000,27.0000000000000000,0.0999799892306000,337.4800415039999840,828.3050537110000270,7.9299721717800002,-346.4899902340000040,829.2649536129999880,28.6250000000000000,29.1063613891999999,68.0800000000000125,89.9999999999999999
0.0000000000000000,28.0000000000000000,-244.4749908450000080,234.6349029540000120,826.8298950199999800,-233.5399932859999980,-415.9600219729999820,763.5900878910000520,28.3125000000000000,29.1063613891999999,68.0800000000000125,45.0000000000000000
0.0000000000000000,28.0000000000000000,-243.9049530030000030,235.3700561519999890,826.6900024410000460,-233.0350341799999960,-415.6099548340000070,762.1350097660000520,28.3125000000000000,29.1063613891999999,68.0800000000000125,45.0000000000000000
0.0000000000000000,28.0000000000000000,-244.2849578860000010,235.1300659180000140,826.7799072269999660,-230.7999572749999970,-416.4349975590000100,763.7749633790000410,28.6250000000000000,29.1063613891999999,68.0800000000000125,45.0000000000000000
0.0000000000000000,28.0000000000000000,-244.4399566650000110,235.4849700929999870,826.0100708009999830,-232.2499542239999920,-415.8299865719999950,763.0650634769999660,28.6250000000000000,29.1063613891999999,68.0800000000000125,45.0000000000000000
0.0000000000000000,28.0000000000000000,-244.4999237060000040,235.4900360110000010,826.0901489259999830,-233.5450134280000040,-415.4899902340000040,762.7300415040000410,28.3125000000000000,29.1063613891999999,68.0800000000000125,45.0000000000000000
0.0000000000000000,28.0000000000000000,-243.7899932859999980,235.9000396730000090,826.7098999019999600,-231.5249938960000120,-415.8800353999999970,764.4649047850000440,28.6250000000000000,29.1063613891999999,68.0800000000000125,45.0000000000000000
0.0000000000000000,28.0000000000000000,-243.8399963379999920,235.3699493409999940,826.8648071290000410,-232.2550201420000060,-415.7850646969999950,763.1000366209999580,28.6250000000000000,29.1063613891999999,68.0800000000000125,45.0000000000000000
0.0000000000000000,28.0000000000000000,-244.4049987790000100,236.2699737549999950,826.4749755860000270,-232.6549682620000110,-415.6799926759999830,763.0600585939999970,28.6250000000000000,29.0751304626000006,68.0800000000000125,45.0000000000000000
0.0000000000000000,28.0000000000000000,-244.1300353999999970,235.2150115970000000,826.6499633790000410,-232.7699890140000030,-415.8400268550000190,763.0149536129999880,28.3125000000000000,29.0751304626000006,68.0800000000000125,45.0000000000000000
0.0000000000000000,28.0000000000000000,-243.6050720210000120,234.1649627689999990,827.0399780269999600,-232.5099334720000000,-415.6850585939999970,762.4650878910000520,28.6250000000000000,29.1063613891999999,68.0800000000000125,45.0000000000000000
0.0000000000000000,29.0000000000000000,-342.3300781250000000,-6.1650023460399996,824.5650024410000460,-332.8800048830000260,-587.7699584959999580,593.6799316410000520,28.6250000000000000,29.0751304626000006,68.0800000000000125,0.0000000000000000
0.0000000000000000,29.0000000000000000,-342.1300353999999970,-5.8350076675400002,823.8650512699999800,-333.4799804689999970,-587.9200439449999740,593.7399902339999470,28.6250000000000000,29.0751304626000006,68.0800000000000125,0.0000000000000000
0.0000000000000000,29.0000000000000000,-341.8450012210000180,-7.1200194358799997,823.9548950199999800,-332.0599975590000100,-588.1399536129999880,592.8299560550000250,28.9375000000000000,29.0751304626000006,68.0800000000000125,0.0000000000000000
0.0000000000000000,29.0000000000000000,-342.2599792479999790,-6.4450078010600000,824.2499999999999990,-332.7950439449999750,-587.5250854490000160,593.3549804689999970,28.3125000000000000,29.0751304626000006,68.0800000000000125,0.0000000000000000
0.0000000000000000,29.0000000000000000,-342.3350219729999820,-6.8500127792400001,824.4699707029999440,-332.3750610349999870,-587.7450561519999600,593.1249389649999550,28.6250000000000000,29.1063613891999999,68.0800000000000125,0.0000000000000000
0.0000000000000000,29.0000000000000000,-342.4249877930000140,-6.4100527763399997,824.4299926759999830,-332.9649963379999910,-587.4600830079999690,593.3699340819999860,28.6250000000000000,29.0751304626000006,68.0800000000000125,0.0000000000000000
0.0000000000000000,29.0000000000000000,-343.3601074219999980,-7.1349930763199998,823.8999023439999970,-332.9750061039999870,-588.0700073240000160,594.3749389649999550,28.6250000000000000,29.0751304626000006,68.0800000000000125,0.0000000000000000
0.0000000000000000,29.0000000000000000,-341.8448791499999970,-6.8049731254600001,824.0249633790000410,-333.3700256349999900,-587.6349487300000190,593.6950073240000160,28.6250000000000000,29.0751304626000006,68.0800000000000125,0.0000000000000000
0.0000000000000000,29.0000000000000000,0.0000000000000000,0.0000000000000000,0.0000000000000000,0.0000000000000000,0.0000000000000000,0.0000000000000000,0.0000000000000000,0.0000000000000000,68.0800000000000125,0.0000000000000000
0.0000000000000000,29.0000000000000000,0.0000000000000000,0.0000000000000000,0.0000000000000000,0.0000000000000000,0.0000000000000000,0.0000000000000000,0.0000000000000000,0.0000000000000000,68.0800000000000125,0.0000000000000000
0.0000000000000000,30.0000000000000000,-242.9349975590000100,-249.0549774170000030,820.6599731449999800,-236.2000122069999860,-756.4101562499999990,429.6649780270000170,28.3125000000000000,29.0751304626000006,68.0800000000000125,-45.0000000000000000
0.0000000000000000,30.0000000000000000,-242.7699584959999870,-249.0099792480000070,820.6300659180000130,-235.7099151609999980,-756.1649780269999600,429.6449890139999750,28.0000000000000000,29.0751304626000006,68.0800000000000125,-45.0000000000000000
0.0000000000000000,30.0000000000000000,-242.7700195310000020,-248.3750152590000080,820.5799560550000240,-236.3949890140000030,-756.7399902339999460,429.7249450680000100,28.3125000000000000,29.0751304626000006,68.0800000000000125,-45.0000000000000000
0.0000000000000000,30.0000000000000000,-242.6049804689999970,-248.4599761960000130,821.0949707029999440,-235.9200592040000120,-756.3649291990000160,430.6400756840000100,28.3125000000000000,29.0751304626000006,68.0800000000000125,-45.0000000000000000
0.0000000000000000,30.0000000000000000,-243.0849914549999930,-247.6599731450000090,821.0750732420000300,-235.6499938960000120,-756.3848876949999740,430.3800048830000260,28.6250000000000000,29.0751304626000006,68.0800000000000125,-45.0000000000000000
0.0000000000000000,30.0000000000000000,-242.8399810790000120,-248.1499328609999960,821.2897949220000550,-236.2900543210000130,-756.1699218749999990,429.5000000000000000,28.3125000000000000,29.0751304626000006,68.0800000000000125,-45.0000000000000000
0.0000000000000000,30.0000000000000000,-242.9149780269999890,-248.0949554439999930,820.9349975589999520,-236.2200012209999900,-756.6049194339999520,429.4349060060000050,28.6250000000000000,29.0751304626000006,68.0800000000000125,-45.0000000000000000
0.0000000000000000,30.0000000000000000,-242.6699676510000070,-248.4400176999999980,820.7749633790000410,-236.1950073239999880,-756.3150024410000460,429.5901184080000230,28.6250000000000000,29.0751304626000006,68.0800000000000125,-45.0000000000000000
0.0000000000000000,30.0000000000000000,0.0000000000000000,0.0000000000000000,0.0000000000000000,0.0000000000000000,0.0000000000000000,0.0000000000000000,0.0000000000000000,0.0000000000000000,68.0800000000000125,-45.0000000000000000
0.0000000000000000,30.0000000000000000,0.0000000000000000,0.0000000000000000,0.0000000000000000,0.0000000000000000,0.0000000000000000,0.0000000000000000,0.0000000000000000,0.0000000000000000,68.0800000000000125,-45.0000000000000000
0.0000000000000000,31.0000000000000000,-2.6100246906300000,-348.6398620609999740,820.4000854490000160,6.1750016212499998,-828.4849243160000460,357.5349426270000200,28.6250000000000000,29.0439014435000011,68.0800000000000125,-89.9999999999999999
0.0000000000000000,31.0000000000000000,-2.3650276660900000,-348.4449462889999720,820.3549804689999970,5.7099828720100003,-829.3299560550000240,357.0449523930000160,28.3125000000000000,29.0439014435000011,68.0800000000000125,-89.9999999999999999
0.0000000000000000,31.0000000000000000,-2.1299972534200000,-348.6799926759999830,820.1049804689999970,6.2549676895099999,-828.3649902339999460,357.3299865719999950,28.6250000000000000,29.0751304626000006,68.0800000000000125,-89.9999999999999999
0.0000000000000000,31.0000000000000000,-2.0150198936499999,-348.6000366210000150,820.6198730470000550,5.5849795341500004,-829.0149536129999880,357.7850036620000080,28.6250000000000000,29.0439014435000011,68.0800000000000125,-89.9999999999999999
0.0000000000000000,31.0000000000000000,-2.3799748420700002,-348.8049926759999830,820.1599121089999460,5.8700094222999999,-829.3599853519999660,359.0149841310000050,28.6250000000000000,29.0439014435000011,68.0800000000000125,-89.9999999999999999
0.0000000000000000,31.0000000000000000,-2.4500520229300000,-349.3050231930000110,820.1199951170000300,6.2349834442100001,-828.7350463870000100,357.7199401859999740,28.3125000000000000,29.0439014435000011,68.0800000000000125,-89.9999999999999999
0.0000000000000000,31.0000000000000000,-2.2500050067899999,-349.1699218750000000,820.8748779300000240,6.3249826431300002,-827.9398803709999580,357.4000549319999890,28.3125000000000000,29.0751304626000006,68.0800000000000125,-89.9999999999999999
0.0000000000000000,31.0000000000000000,-1.9350049495699999,-348.7250366210000150,820.8300781249999990,5.7749567031900000,-828.3150024410000460,357.8800353999999970,28.6250000000000000,29.0751304626000006,68.0800000000000125,-89.9999999999999999
0.0000000000000000,31.0000000000000000,-1.6799954175900000,-348.7899780270000180,820.3848876949999740,6.5099735259999996,-828.8248901370000100,356.8399047849999870,28.3125000000000000,29.0751304626000006,68.0800000000000125,-89.9999999999999999
0.0000000000000000,31.0000000000000000,-1.8450099229800001,-349.1300353999999970,821.6100463870000100,5.9399785995499998,-828.1749267579999690,357.0750427250000030,28.3125000000000000,29.0751304626000006,68.0800000000000125,-89.9999999999999999
0.0000000000000000,32.0000000000000000,244.3099975590000100,-246.9300079349999920,823.5349731449999800,252.2300567629999930,-755.6799926759999830,431.3099975590000100,28.3125000000000000,29.0439014435000011,68.0800000000000125,-135.0000000000000000
0.0000000000000000,32.0000000000000000,243.4799957280000060,-246.5700531010000130,822.4949951170000300,252.7350311280000030,-755.7899169920000300,431.0299987789999810,28.6250000000000000,29.0439014435000011,68.0800000000000125,-135.0000000000000000
0.0000000000000000,32.0000000000000000,244.1149597170000050,-246.0249786379999930,822.4549560550000240,253.5149993900000140,-755.8499755860000270,432.1249389650000120,28.6250000000000000,29.0439014435000011,68.0800000000000125,-135.0000000000000000
0.0000000000000000,32.0000000000000000,243.9249420170000060,-247.1399536129999890,822.5801391600000440,253.4399719239999910,-755.7048950199999800,431.5149536129999880,28.3125000000000000,29.0439014435000011,68.0800000000000125,-135.0000000000000000
0.0000000000000000,32.0000000000000000,243.5150299070000130,-246.0000152590000080,823.1050415040000410,250.9500579829999930,-756.7600097660000520,430.6749572749999970,28.3125000000000000,29.0439014435000011,68.0800000000000125,-135.0000000000000000
0.0000000000000000,32.0000000000000000,243.5950012209999900,-247.3200378420000050,823.0500488279999440,253.0350189209999880,-755.8399047850000440,431.6749877930000130,28.3125000000000000,29.0126705170000001,68.0800000000000125,-135.0000000000000000
0.0000000000000000,32.0000000000000000,243.8099823000000010,-247.1549682620000110,822.8649902339999460,251.9549713129999870,-756.1399536129999880,430.4749145509999830,28.3125000000000000,29.0439014435000011,68.0800000000000125,-135.0000000000000000
0.0000000000000000,32.0000000000000000,244.3799285890000020,-248.2800292969999980,822.8050537110000270,252.9950561519999890,-755.8550415040000410,431.5948791499999970,28.3125000000000000,29.0439014435000011,68.0800000000000125,-135.0000000000000000
0.0000000000000000,32.0000000000000000,243.9599304200000060,-248.1899871829999990,823.1800537110000270,252.6549682620000110,-755.8399047850000440,431.9049987789999810,28.3125000000000000,29.0439014435000011,68.0800000000000125,-135.0000000000000000
0.0000000000000000,32.0000000000000000,244.2500305179999880,-246.5249938960000120,822.9850463870000100,251.3949737549999950,-756.2800903319999850,431.6049804689999970,28.6250000000000000,29.0439014435000011,68.0800000000000125,-135.0000000000000000
0.0000000000000000,33.0000000000000000,33.7300453185999984,-4.6850228309600004,892.2848510740000160,39.4150314330999975,-629.3099365230000320,647.3850097660000520,28.3125000000000000,29.0126705170000001,88.1500000000000056,180.0000000000000000
0.0000000000000000,33.0000000000000000,33.4349517822000024,-4.9100275039700003,892.2249755860000270,41.9749832153000000,-629.4450073240000160,647.5450439449999740,28.3125000000000000,29.0439014435000011,88.1500000000000056,180.0000000000000000
0.0000000000000000,33.0000000000000000,32.9499664307000017,-4.7050333023100004,891.5100097660000520,41.8050346375000003,-628.9349975589999520,647.1050415040000410,28.6250000000000000,29.0439014435000011,88.1500000000000056,180.0000000000000000
0.0000000000000000,33.0000000000000000,33.2849502563000001,-4.7600178718599997,892.2399902339999460,41.3799514771000005,-630.2200927730000320,647.2000122069999860,28.6250000000000000,29.0126705170000001,88.1400000000000005,180.0000000000000000
0.0000000000000000,33.0000000000000000,33.3700370788999976,-4.0950250625600004,891.9599609379999940,41.1300277710000017,-628.4999389649999550,647.2000732420000300,28.6250000000000000,29.0126705170000001,88.1500000000000056,180.0000000000000000
0.0000000000000000,33.0000000000000000,33.2750091552999976,-4.4249873161300002,892.4350585939999960,42.9550056458000000,-629.7299804689999970,648.1449584959999580,28.6250000000000000,29.0126705170000001,88.1500000000000056,180.0000000000000000
0.0000000000000000,33.0000000000000000,33.2649688720999990,-5.1199922561599998,892.7548828120000040,42.8650245667000007,-629.3649902339999460,647.7600097660000520,28.3125000000000000,29.0126705170000001,88.1500000000000056,180.0000000000000000
0.0000000000000000,33.0000000000000000,32.9499931335000013,-3.8349866867100002,892.3698730470000550,42.0749893188000001,-630.3999633790000410,648.9699707029999440,28.3125000000000000,29.0439014435000011,88.1500000000000056,180.0000000000000000
0.0000000000000000,33.0000000000000000,33.4499816894999995,-4.0700073242199997,892.2499999999999990,42.9250106811999998,-629.5449829100000440,647.8449096680000130,28.3125000000000000,29.0126705170000001,88.1500000000000056,180.0000000000000000
0.0000000000000000,33.0000000000000000,33.2949905396000005,-4.1050124168400002,892.3499755860000270,42.0900039672999995,-629.2000122069999860,646.8500366209999580,28.6250000000000000,29.0126705170000001,88.1500000000000056,180.0000000000000000
0.0000000000000000,34.0000000000000000,22.0300331116000016,19.4699993133999989,892.0050048829999690,29.6250267029000014,-611.9000244139999720,664.0349731449999800,28.3125000000000000,29.0126705170000001,88.1500000000000056,135.0000000000000000
0.0000000000000000,34.0000000000000000,23.0849895477000011,18.9299869536999985,891.7349853519999660,30.2000026703000017,-612.2000732420000300,664.9850463870000110,28.3125000000000000,29.0439014435000011,88.1500000000000056,135.0000000000000000
0.0000000000000000,34.0000000000000000,21.8249797821000015,18.9899902344000004,891.9300537110000270,29.6800117493000002,-612.0599975589999520,663.6600341800000240,28.3125000000000000,29.0126705170000001,88.1500000000000056,135.0000000000000000
0.0000000000000000,34.0000000000000000,23.0300216675000016,19.1250095366999986,891.8001098629999880,30.0849876404000014,-612.3050537110000270,665.4099121089999460,28.6250000000000000,29.0439014435000011,88.1500000000000056,135.0000000000000000
0.0000000000000000,34.0000000000000000,22.1449966431000007,18.5900249481000017,891.3050537110000270,30.0199546814000015,-611.7799682620000110,664.0700683589999460,28.6250000000000000,29.0126705170000001,88.1500000000000056,135.0000000000000000
0.0000000000000000,34.0000000000000000,23.0350112914999982,19.1900291442999986,891.8649291990000160,29.6200122832999994,-612.4899902339999460,664.3198852540000410,28.3125000000000000,29.0126705170000001,88.1500000000000056,135.0000000000000000
0.0000000000000000,34.0000000000000000,22.7750434874999996,19.7699794769000014,892.0200805660000460,29.8399963379000006,-612.4049682620000110,665.0300903319999860,28.6250000000000000,29.0439014435000011,88.1500000000000056,135.0000000000000000
0.0000000000000000,34.0000000000000000,22.2449970245000017,19.3250198363999992,891.8748779300000240,28.9599990845000015,-613.1599731449999800,664.9099731449999800,28.3125000000000000,29.0126705170000001,88.1500000000000056,135.0000000000000000
0.0000000000000000,34.0000000000000000,22.9550018310999988,19.2150077820000007,892.3249511720000550,30.0699768065999997,-611.8299560550000240,665.8099365230000320,28.3125000000000000,29.0126705170000001,88.1500000000000056,135.0000000000000000
0.0000000000000000,34.0000000000000000,22.7399806976000001,18.6200027466000009,891.8499145509999830,30.3299751282000009,-611.9200439449999740,663.9049682620000110,28.6250000000000000,29.0126705170000001,88.1500000000000056,135.0000000000000000
0.0000000000000000,35.0000000000000000,-2.5550298690800002,27.8500061035000001,892.1549682620000100,4.8949770927399996,-606.7849731449999800,669.2698974610000270,28.3125000000000000,29.0126705170000001,88.1500000000000056,89.9999999999999999
0.0000000000000000,35.0000000000000000,-3.0149769783000000,27.0899925231999994,892.4699707029999440,4.4999423027000001,-606.6300048829999690,670.9500122069999850,28.3125000000000000,29.0126705170000001,88.1500000000000056,89.9999999999999999
0.0000000000000000,35.0000000000000000,-2.6650025844599998,27.8399925231999994,891.3999633790000410,5.0500097274800000,-605.2149047850000440,669.8049316410000520,28.6250000000000000,29.0126705170000001,88.1500000000000056,89.9999999999999999
0.0000000000000000,35.0000000000000000,-3.1050250530199999,28.9050064087000002,892.0449218749999990,6.2800364494299998,-606.7249145509999830,669.3099975589999520,28.6250000000000000,29.0126705170000001,88.1500000000000056,89.9999999999999999
0.0000000000000000,35.0000000000000000,0.0000000000000000,0.0000000000000000,0.0000000000000000,0.0000000000000000,0.0000000000000000,0.0000000000000000,0.0000000000000000,0.0000000000000000,88.1500000000000056,89.9999999999999999
0.0000000000000000,35.0000000000000000,0.0000000000000000,0.0000000000000000,0.0000000000000000,0.0000000000000000,0.0000000000000000,0.0000000000000000,0.0000000000000000,0.0000000000000000,88.1500000000000056,89.9999999999999999
0.0000000000000000,35.0000000000000000,0.0000000000000000,0.0000000000000000,0.0000000000000000,0.0000000000000000,0.0000000000000000,0.0000000000000000,0.0000000000000000,0.0000000000000000,88.1500000000000056,89.9999999999999999
0.0000000000000000,35.0000000000000000,0.0000000000000000,0.0000000000000000,0.0000000000000000,0.0000000000000000,0.0000000000000000,0.0000000000000000,0.0000000000000000,0.0000000000000000,88.1500000000000056,89.9999999999999999
0.0000000000000000,35.0000000000000000,0.0000000000000000,0.0000000000000000,0.0000000000000000,0.0000000000000000,0.0000000000000000,0.0000000000000000,0.0000000000000000,0.0000000000000000,88.1500000000000056,89.9999999999999999
0.0000000000000000,35.0000000000000000,0.0000000000000000,0.0000000000000000,0.0000000000000000,0.0000000000000000,0.0000000000000000,0.0000000000000000,0.0000000000000000,0.0000000000000000,88.1500000000000056,89.9999999999999999
0.0000000000000000,36.0000000000000000,-27.3200016022000014,16.1599979400999984,892.4799194339999520,-17.9549903869999987,-614.8050537110000270,661.7899780269999600,28.3125000000000000,29.0126705170000001,88.1500000000000056,45.0000000000000000
0.0000000000000000,36.0000000000000000,-27.6649856567000007,16.0299777984999991,892.1100463870000100,-17.7249946594000001,-614.8949584959999580,661.9849243160000460,28.6250000000000000,28.9814414977999988,88.1500000000000056,45.0000000000000000
0.0000000000000000,36.0000000000000000,-26.8199462890999989,15.5049676895000008,891.7749023439999960,-17.8949565887000013,-614.7750244139999720,661.0548095699999740,28.3125000000000000,29.0126705170000001,88.1500000000000056,45.0000000000000000
0.0000000000000000,36.0000000000000000,-27.5299892425999992,15.9600000381000004,892.0898437499999990,-18.2049922942999984,-614.7650146480000320,661.7050781249999990,28.3125000000000000,28.9814414977999988,88.1500000000000056,45.0000000000000000
0.0000000000000000,36.0000000000000000,-27.4099960327000005,16.4450016022000014,892.0250854490000160,-18.3699626922999997,-614.2850952149999550,661.8599243160000460,28.3125000000000000,28.9814414977999988,88.1500000000000056,45.0000000000000000
0.0000000000000000,36.0000000000000000,-26.9049701691000003,16.3349933623999988,892.1399536129999880,-19.4300403595000013,-614.3499755860000270,662.4448852540000410,28.6250000000000000,28.9814414977999988,88.1500000000000056,45.0000000000000000
0.0000000000000000,36.0000000000000000,-26.4950351714999996,16.1950054168999991,891.6050415040000410,-18.6000232696999994,-614.4299926759999830,661.7450561519999600,28.0000000000000000,28.9814414977999988,88.1500000000000056,45.0000000000000000
0.0000000000000000,36.0000000000000000,-26.4549942016999999,15.7349967957000008,891.8599853519999660,-18.5849914550999990,-614.4351196290000410,661.4599609379999940,28.6250000000000000,28.9814414977999988,88.1500000000000056,45.0000000000000000
0.0000000000000000,36.0000000000000000,-27.0350036620999994,15.5899972915999996,892.0599975589999520,-18.0249824523999997,-614.3300170899999550,662.1149291990000160,28.3125000000000000,28.9814414977999988,88.1500000000000056,45.0000000000000000
0.0000000000000000,36.0000000000000000,-27.1900482178000011,16.2100067139000004,892.2550048829999690,-17.7800102234000015,-614.5849609379999940,661.5949707029999440,28.6250000000000000,28.9814414977999988,88.1500000000000056,45.0000000000000000
0.0000000000000000,37.0000000000000000,-35.1450614928999982,-9.2500257492099998,892.3850097660000520,-25.5850391387999991,-632.5299682620000110,645.3248901370000110,28.6250000000000000,28.9814414977999988,88.1600000000000107,0.0000000000000000
0.0000000000000000,37.0000000000000000,-33.8000068664999986,-9.2299871444699999,891.9348754879999880,-26.7650451660000001,-632.0198974610000270,644.3550415040000410,28.0000000000000000,28.9814414977999988,88.1600000000000107,0.0000000000000000
0.0000000000000000,37.0000000000000000,-34.4349670410000001,-9.7349672317499998,891.7949829100000430,-25.5299816132000004,-632.5399780269999600,644.9799804689999970,28.6250000000000000,29.0126705170000001,88.1600000000000107,0.0000000000000000
0.0000000000000000,37.0000000000000000,-35.0500221252000017,-8.0599403381299997,891.4450073240000160,-26.1350040435999986,-631.9749755860000270,644.4900512699999800,28.6250000000000000,28.9502105713000013,88.1500000000000056,0.0000000000000000
0.0000000000000000,37.0000000000000000,-34.8550415038999972,-9.9250078201300003,891.3399047850000430,-24.6899356842000017,-632.0650024410000460,644.7399902339999460,28.3125000000000000,28.9814414977999988,88.1600000000000107,0.0000000000000000
0.0000000000000000,37.0000000000000000,-35.0850028991999991,-8.1499385833700000,891.7401123050000240,-25.1800270081000015,-632.1499633790000410,645.0750732420000300,28.3125000000000000,28.9814414977999988,88.1600000000000107,0.0000000000000000
0.0000000000000000,37.0000000000000000,-35.1550216675000015,-9.9250221252399999,891.2699584959999580,-25.6650218963999990,-631.6948852540000410,645.0100097660000520,28.6250000000000000,28.9814414977999988,88.1600000000000107,0.0000000000000000
0.0000000000000000,37.0000000000000000,-35.1499786377000021,-8.6100215911899998,891.0349731449999800,-25.9400043487999987,-631.5349731449999800,645.5348510740000160,28.3125000000000000,28.9814414977999988,88.1600000000000107,0.0000000000000000
0.0000000000000000,37.0000000000000000,0.0000000000000000,0.0000000000000000,0.0000000000000000,0.0000000000000000,0.0000000000000000,0.0000000000000000,0.0000000000000000,0.0000000000000000,88.1600000000000107,0.0000000000000000
0.0000000000000000,37.0000000000000000,-34.5900077820000007,-8.9750213622999997,891.9450073240000160,-26.5399913787999999,-631.6849975589999520,644.4199218749999990,28.6250000000000000,28.9814414977999988,88.1600000000000107,0.0000000000000000
0.0000000000000000,38.0000000000000000,-23.5950069426999995,-32.1850242614999970,891.9699707029999440,-15.3349676131999999,-648.6100463870000110,628.2199707029999440,28.3125000000000000,28.9814414977999988,88.1600000000000107,-45.0000000000000000
0.0000000000000000,38.0000000000000000,-23.3400039672999995,-31.7650051116999989,891.6049194339999520,-14.6650047301999997,-648.0850219730000380,628.3351440430000130,28.3125000000000000,28.9814414977999988,88.1600000000000107,-45.0000000000000000
0.0000000000000000,38.0000000000000000,-23.2399749755999991,-32.0049972533999991,892.3749999999999990,-14.0249834061000005,-648.8349609379999940,628.5899658199999740,28.3125000000000000,28.9814414977999988,88.1600000000000107,-45.0000000000000000
0.0000000000000000,38.0000000000000000,-23.5800247192000007,-32.3349876404000014,892.0499267579999690,-14.9349985123000000,-647.9800415040000410,627.2249755860000270,28.3125000000000000,28.9814414977999988,88.1600000000000107,-45.0000000000000000
0.0000000000000000,38.0000000000000000,0.0000000000000000,0.0000000000000000,0.0000000000000000,0.0000000000000000,0.0000000000000000,0.0000000000000000,0.0000000000000000,0.0000000000000000,88.1600000000000107,-45.0000000000000000
0.0000000000000000,38.0000000000000000,0.0000000000000000,0.0000000000000000,0.0000000000000000,0.0000000000000000,0.0000000000000000,0.0000000000000000,0.0000000000000000,0.0000000000000000,88.1600000000000107,-45.0000000000000000
0.0000000000000000,38.0000000000000000,0.0000000000000000,0.0000000000000000,0.0000000000000000,0.0000000000000000,0.0000000000000000,0.0000000000000000,0.0000000000000000,0.0000000000000000,88.1500000000000056,-45.0000000000000000
0.0000000000000000,38.0000000000000000,0.0000000000000000,0.0000000000000000,0.0000000000000000,0.0000000000000000,0.0000000000000000,0.0000000000000000,0.0000000000000000,0.0000000000000000,88.1600000000000107,-45.0000000000000000
0.0000000000000000,38.0000000000000000,-23.4049549102999990,-32.5449714661000016,891.5848999019999600,-14.8149471283000000,-648.3049926759999830,628.0849609379999940,28.3125000000000000,28.9502105713000013,88.1600000000000107,-45.0000000000000000
0.0000000000000000,38.0000000000000000,-23.4899845123000013,-31.0749912262000016,891.9949951170000300,-14.5949897766000003,-647.8599853519999660,627.9049682620000110,28.0000000000000000,28.9502105713000013,88.1600000000000107,-45.0000000000000000
0.0000000000000000,39.0000000000000000,0.6349899768830000,-41.5999832153000000,890.5700073240000160,9.6599884033199999,-656.1549682620000110,621.2350463870000110,28.6250000000000000,28.9502105713000013,88.1500000000000056,-89.9999999999999999
0.0000000000000000,39.0000000000000000,0.6549873948100000,-41.7100334166999999,890.9000854490000160,9.6549930572499996,-654.6449584959999580,620.0650024410000460,28.6250000000000000,28.9814414977999988,88.1600000000000107,-89.9999999999999999
0.0000000000000000,39.0000000000000000,1.1150275468799999,-41.7600173949999984,890.0549926759999830,9.9199790954600004,-655.1099853519999660,620.6298828120000050,28.3125000000000000,28.9502105713000013,88.1600000000000107,-89.9999999999999999
0.0000000000000000,39.0000000000000000,0.2850399911400000,-42.0199890136999983,890.6700439449999740,8.9199523925800008,-655.6749877930000130,620.7000122069999860,28.0000000000000000,28.9502105713000013,88.1600000000000107,-89.9999999999999999
0.0000000000000000,39.0000000000000000,0.4299824833870000,-42.0450248718000026,891.3299560550000240,11.2100419997999996,-656.0100097660000520,619.8499755860000270,28.6250000000000000,28.9502105713000013,88.1600000000000107,-89.9999999999999999
0.0000000000000000,39.0000000000000000,0.6250250935550000,-40.5499839782999984,891.0799560550000240,9.0799846649199996,-655.8299560550000240,620.5999755860000270,28.3125000000000000,28.9502105713000013,88.1500000000000056,-89.9999999999999999
0.0000000000000000,39.0000000000000000,1.5200048685100001,-41.2150039672999995,891.2349853519999660,9.5199861526500005,-655.1849975589999520,620.5300903319999860,28.3125000000000000,28.9502105713000013,88.1500000000000056,-89.9999999999999999
0.0000000000000000,39.0000000000000000,0.6099699139600000,-42.3699836731000019,890.7050781249999990,9.7500047683699993,-655.6499633790000410,621.0349121089999460,28.6250000000000000,28.9502105713000013,88.1500000000000056,-89.9999999999999999
0.0000000000000000,39.0000000000000000,0.6350274086000000,-40.7100028991999991,891.0598754879999880,9.7949914932300004,-654.6298828120000050,620.2098999019999600,28.6250000000000000,28.9502105713000013,88.1500000000000056,-89.9999999999999999
0.0000000000000000,39.0000000000000000,0.4549900591370000,-41.1900482177999976,890.9949951170000300,9.0499877929700005,-656.0600585939999970,620.6849975589999520,28.3125000000000000,28.9502105713000013,88.1600000000000107,-89.9999999999999999
0.0000000000000000,40.0000000000000000,24.1550331116000016,-30.2449913025000008,890.3649902339999460,31.4099941254000008,-647.5550537110000270,628.1449584959999580,28.3125000000000000,28.9502105713000013,88.1500000000000056,-135.0000000000000000
0.0000000000000000,40.0000000000000000,24.4650058745999992,-30.7399768828999988,891.1149902339999460,35.2499809265000010,-647.6998901370000110,629.0050048829999690,28.3125000000000000,28.9189815521000000,88.1500000000000056,-135.0000000000000000
0.0000000000000000,40.0000000000000000,24.1400222778000000,-29.6499843596999994,890.4249877930000130,32.4200096129999977,-648.3450927730000320,629.5449829100000440,28.3125000000000000,28.9502105713000013,88.1500000000000056,-135.0000000000000000
0.0000000000000000,40.0000000000000000,24.2549991608000006,-29.4899959564000014,890.8048095699999740,32.4600296021000005,-647.6549682620000110,630.4901123050000240,28.6250000000000000,28.9814414977999988,88.1500000000000056,-135.0000000000000000
0.0000000000000000,40.0000000000000000,24.3349723816000001,-31.2399940491000016,891.0449829100000430,31.3749961852999988,-647.2650146480000320,628.9700927730000320,28.3125000000000000,28.9502105713000013,88.1500000000000056,-135.0000000000000000
0.0000000000000000,40.0000000000000000,24.2700843810999984,-30.4649887085000017,891.0150756839999520,32.7449951171999984,-647.7950439449999740,630.4249877930000130,28.6250000000000000,28.9502105713000013,88.1500000000000056,-135.0000000000000000
0.0000000000000000,40.0000000000000000,24.4800205230999985,-29.9649486542000005,891.2250366209999580,33.4049682616999988,-647.8449707029999440,627.6950073240000160,28.6250000000000000,28.9502105713000013,88.1600000000000107,-135.0000000000000000
0.0000000000000000,40.0000000000000000,24.1999988556000005,-30.4099845886000004,890.7551269529999440,32.4099998474000017,-647.4699096680000130,628.5499877930000130,28.3125000000000000,28.9502105713000013,88.1600000000000107,-135.0000000000000000
0.0000000000000000,40.0000000000000000,24.2799320220999988,-29.2350330352999990,891.3049926759999830,32.1800231933999967,-647.8349609379999940,631.0651245120000110,28.3125000000000000,28.9502105713000013,88.1500000000000056,-135.0000000000000000
0.0000000000000000,40.0000000000000000,24.3750190734999990,-30.8499679564999987,891.3951416019999660,33.1750183105000005,-646.8150024410000460,629.1199951170000300,28.3125000000000000,28.9502105713000013,88.1500000000000056,-135.0000000000000000
