Temp Iter,Index,X Accel 1,Y Accel 1,Z Accel 1,X Accel 2,Y Accel 2,Z Accel2, Temp_6g,Temp,Theta,Phi,,,,,,
0.0000000000000000,1.0000000000000000,900.4249877930000130,1.7599897384600001,-14.7749853134000002,905.0550537110000270,6.4649729728700001,-12.0850791931000003,27.0625000000000000,27.9820804595999988,-1.0100000000000000,180.0000000000000000
0.0000000000000000,1.0000000000000000,899.9451293949999800,1.5899876356100000,-14.9300251007000000,905.1451416019999660,6.7349829673799997,-13.0550012589000008,26.7500000000000000,27.9820804595999988,-1.0100000000000000,180.0000000000000000
0.0000000000000000,1.0000000000000000,899.9849853519999660,1.1400026083000001,-14.7950706481999994,905.4749755860000270,6.9750094413800001,-11.9449586867999997,27.0625000000000000,27.9508514404000010,-1.0100000000000000,180.0000000000000000
0.0000000000000000,1.0000000000000000,900.4498901370000100,1.0099773406999999,-14.4300098419000005,905.1449584959999580,6.7949819564800000,-11.9949970244999999,27.3750000000000000,27.9508514404000010,-1.0100000000000000,180.0000000000000000
0.0000000000000000,1.0000000000000000,900.3150024410000460,1.4500448703800000,-14.2999677657999999,904.9999999999999990,6.9950046539299997,-12.6450166702000004,26.7500000000000000,27.9820804595999988,-1.0100000000000000,180.0000000000000000
0.0000000000000000,1.0000000000000000,899.9199829100000430,1.0500075817100001,-15.1649932860999996,905.1649780269999600,6.8250079154999996,-12.1850318908999995,27.0625000000000000,27.9820804595999988,-1.0100000000000000,180.0000000000000000
0.0000000000000000,1.0000000000000000,899.8550415040000410,1.0250426530800001,-14.9299802780000004,904.8349609379999940,6.9649887085000000,-13.0450239182000001,27.0625000000000000,27.9508514404000010,-1.0100000000000000,180.0000000000000000
0.0000000000000000,1.0000000000000000,900.2450561519999600,0.8750074505810000,-14.7200336455999992,905.1348876949999740,6.6649923324599998,-11.9250020981000002,27.3750000000000000,27.9820804595999988,-1.0100000000000000,180.0000000000000000
0.0000000000000000,1.0000000000000000,900.4200439449999740,1.3950175046900000,-14.4999895096000006,905.3649291990000160,6.8749833107000002,-12.4000339507999993,27.3750000000000000,27.9820804595999988,-1.0100000000000000,180.0000000000000000
0.0000000000000000,1.0000000000000000,900.5149536129999880,1.3350476026500000,-14.6550168990999996,904.9998779300000240,6.7449874877899996,-12.2899875641000005,27.0625000000000000,27.9820804595999988,-1.0100000000000000,180.0000000000000000
0.0000000000000000,2.0000000000000000,648.2650146480000320,632.7950439449999740,-8.3699836731000001,646.4599609379999940,458.9249877930000130,431.5750427250000030,27.3750000000000000,27.9820804595999988,-1.0200000000000000,135.0000000000000000
0.0000000000000000,2.0000000000000000,648.1050415040000410,632.4951171879999940,-9.3249893188499993,645.6399536129999880,458.8499450680000100,431.0101928710000150,27.3750000000000000,27.9820804595999988,-1.0200000000000000,135.0000000000000000
0.0000000000000000,2.0000000000000000,648.1749267579999690,632.6298828120000050,-9.5549974441500005,646.2748413089999520,459.1199951169999730,432.5000305180000160,27.3750000000000000,27.9820804595999988,-1.0200000000000000,135.0000000000000000
0.0000000000000000,2.0000000000000000,648.4549560550000240,631.8549194339999520,-9.0849676132199999,646.7750244139999720,459.0399169919999730,431.7299194340000100,27.0625000000000000,27.9508514404000010,-1.0200000000000000,135.0000000000000000
0.0000000000000000,2.0000000000000000,648.3899536129999880,632.8249511720000550,-9.2200279235800000,646.0699462889999720,459.0249633789999840,431.5899963379999910,27.3750000000000000,27.9508514404000010,-1.0200000000000000,135.0000000000000000
0.0000000000000000,2.0000000000000000,648.7049560550000240,632.8599243160000460,-8.8499631881699994,646.1799926759999830,459.2500305180000160,431.0950317379999880,27.3750000000000000,27.9820804595999988,-1.0200000000000000,135.0000000000000000
0.0000000000000000,2.0000000000000000,647.8149414060000020,632.4000244139999720,-9.2050161361700002,646.5100708009999830,459.6049194340000090,431.0199890139999750,27.3750000000000000,27.9820804595999988,-1.0200000000000000,135.0000000000000000
0.0000000000000000,2.0000000000000000,0.0000000000000000,0.0000000000000000,0.0000000000000000,0.0000000000000000,0.0000000000000000,0.0000000000000000,0.0000000000000000,0.0000000000000000,-1.0200000000000000,135.0000000000000000
0.0000000000000000,2.0000000000000000,0.0000000000000000,0.0000000000000000,0.0000000000000000,0.0000000000000000,0.0000000000000000,0.0000000000000000,0.0000000000000000,0.0000000000000000,-1.0200000000000000,135.0000000000000000
0.0000000000000000,2.0000000000000000,647.6399536129999880,632.2600097660000520,-9.1549568176299996,646.9949951170000300,458.5998229979999790,431.5450439449999740,27.0625000000000000,27.9508514404000010,-1.0200000000000000,135.0000000000000000
0.0000000000000000,3.0000000000000000,11.0250225066999992,902.4749755860000270,-9.8049335479700002,14.6000719070000002,648.1948852540000410,621.2498779300000240,27.3750000000000000,27.9508514404000010,-1.0200000000000000,89.9999999999999999
0.0000000000000000,3.0000000000000000,11.9599838257000002,902.6099853519999660,-9.0699682235699992,14.5899896622000007,647.8049926759999830,621.3799438480000380,27.3750000000000000,27.9820804595999988,-1.0200000000000000,89.9999999999999999
0.0000000000000000,3.0000000000000000,0.0000000000000000,0.0000000000000000,0.0000000000000000,0.0000000000000000,0.0000000000000000,0.0000000000000000,0.0000000000000000,0.0000000000000000,-1.0200000000000000,89.9999999999999999
0.0000000000000000,3.0000000000000000,11.7299690247000008,902.3200073240000160,-9.6649694442699996,14.4550275802999994,648.2000122069999860,621.6748657230000380,27.3750000000000000,27.9820804595999988,-1.0200000000000000,89.9999999999999999
0.0000000000000000,3.0000000000000000,11.6249961853000006,902.2048950199999800,-9.4500637054399998,14.7700395584000006,648.5449829100000440,621.4299926759999830,26.7500000000000000,27.9508514404000010,-1.0200000000000000,89.9999999999999999
0.0000000000000000,3.0000000000000000,11.5300130844000002,902.5799560550000240,-9.5350408554099992,15.3500280379999996,648.2498779300000240,621.6099243160000460,27.0625000000000000,27.9508514404000010,-1.0200000000000000,89.9999999999999999
0.0000000000000000,3.0000000000000000,11.8500146865999998,902.6749877930000130,-9.6900005340599993,14.7549724578999992,648.2949218749999990,621.2700195310000020,27.3750000000000000,27.9820804595999988,-1.0200000000000000,89.9999999999999999
0.0000000000000000,3.0000000000000000,0.0000000000000000,0.0000000000000000,0.0000000000000000,0.0000000000000000,0.0000000000000000,0.0000000000000000,0.0000000000000000,0.0000000000000000,-1.0200000000000000,89.9999999999999999
0.0000000000000000,3.0000000000000000,0.0000000000000000,0.0000000000000000,0.0000000000000000,0.0000000000000000,0.0000000000000000,0.0000000000000000,0.0000000000000000,0.0000000000000000,-1.0200000000000000,89.9999999999999999
0.0000000000000000,3.0000000000000000,0.0000000000000000,0.0000000000000000,0.0000000000000000,0.0000000000000000,0.0000000000000000,0.0000000000000000,0.0000000000000000,0.0000000000000000,-1.0200000000000000,89.9999999999999999
0.0000000000000000,4.0000000000000000,-637.0100097660000520,638.5549926759999830,-13.8449754714999997,-630.9398803709999580,463.4649047849999870,432.2149963379999910,27.3750000000000000,27.9508514404000010,-1.0200000000000000,45.0000000000000000
0.0000000000000000,4.0000000000000000,-636.9749755860000270,637.5350341800000240,-14.5800094603999994,-630.4849853519999660,463.1349792479999790,432.2599487300000190,27.3750000000000000,27.9508514404000010,-1.0200000000000000,45.0000000000000000
0.0000000000000000,4.0000000000000000,-637.4949340819999860,638.3649291990000160,-13.2250289917000003,-630.2449951170000300,462.9599914550000220,431.4449768069999890,26.7500000000000000,27.9508514404000010,-1.0200000000000000,45.0000000000000000
0.0000000000000000,4.0000000000000000,0.0000000000000000,0.0000000000000000,0.0000000000000000,0.0000000000000000,0.0000000000000000,0.0000000000000000,0.0000000000000000,0.0000000000000000,-1.0200000000000000,45.0000000000000000
0.0000000000000000,4.0000000000000000,0.0000000000000000,0.0000000000000000,0.0000000000000000,0.0000000000000000,0.0000000000000000,0.0000000000000000,0.0000000000000000,0.0000000000000000,-1.0200000000000000,45.0000000000000000
0.0000000000000000,4.0000000000000000,-637.1099243160000460,638.0798339839999460,-13.9949817657000004,-630.3800659180000130,463.0099792479999790,432.1499938960000120,27.0625000000000000,27.9820804595999988,-1.0200000000000000,45.0000000000000000
0.0000000000000000,4.0000000000000000,-637.0700073240000160,638.5051269529999440,-13.2949666976999996,-630.9300537110000270,463.2899169919999730,432.4400329590000070,27.0625000000000000,27.9820804595999988,-1.0200000000000000,45.0000000000000000
0.0000000000000000,4.0000000000000000,-637.2799682620000110,637.8899536129999880,-13.7550010681000003,-629.9899291990000160,463.3449401859999730,432.3450317379999880,27.3750000000000000,27.9820804595999988,-1.0200000000000000,45.0000000000000000
0.0000000000000000,4.0000000000000000,-637.3749389649999550,638.0350341800000240,-12.9599628447999997,-630.1100463870000110,463.1749267580000260,432.3249511719999980,27.0625000000000000,27.9820804595999988,-1.0200000000000000,45.0000000000000000
0.0000000000000000,4.0000000000000000,-637.1499633790000410,637.9650878910000520,-13.9250316620000003,-630.4249877930000130,463.2849426270000200,431.9650573729999790,27.0625000000000000,27.9820804595999988,-1.0200000000000000,45.0000000000000000
0.0000000000000000,5.0000000000000000,-894.5800781249999990,7.7149682044999999,-22.0400352477999988,-892.2999267579999690,11.9600172042999997,-11.0200176238999994,27.0625000000000000,27.9820804595999988,-1.0200000000000000,0.0000000000000000
0.0000000000000000,5.0000000000000000,-894.3699951170000300,6.7049746513399997,-21.5449962616000015,-891.3798217769999600,11.9699935912999997,-11.4000120162999998,27.3750000000000000,27.9820804595999988,-1.0200000000000000,0.0000000000000000
0.0000000000000000,5.0000000000000000,-894.7999877930000130,6.3550262451200004,-21.7349853515999989,-892.0399169920000300,11.8549985886000009,-11.3199825287000006,27.0625000000000000,27.9820804595999988,-1.0200000000000000,0.0000000000000000
0.0000000000000000,5.0000000000000000,-894.2550048829999690,6.4050126075699998,-21.6899833678999982,-892.4948730470000550,11.3300085068000005,-10.4449386597000000,27.0625000000000000,27.9508514404000010,-1.0200000000000000,0.0000000000000000
0.0000000000000000,5.0000000000000000,-894.3500366209999580,6.2250123023999997,-21.6500110626000008,-891.8950805660000460,11.7650079726999994,-10.9800386429000003,27.3750000000000000,27.9820804595999988,-1.0200000000000000,0.0000000000000000
0.0000000000000000,5.0000000000000000,0.0000000000000000,0.0000000000000000,0.0000000000000000,0.0000000000000000,0.0000000000000000,0.0000000000000000,0.0000000000000000,0.0000000000000000,-1.0200000000000000,0.0000000000000000
0.0000000000000000,5.0000000000000000,0.0000000000000000,0.0000000000000000,0.0000000000000000,0.0000000000000000,0.0000000000000000,0.0000000000000000,0.0000000000000000,0.0000000000000000,-1.0200000000000000,0.0000000000000000
0.0000000000000000,5.0000000000000000,0.0000000000000000,0.0000000000000000,0.0000000000000000,0.0000000000000000,0.0000000000000000,0.0000000000000000,0.0000000000000000,0.0000000000000000,-1.0200000000000000,0.0000000000000000
0.0000000000000000,5.0000000000000000,0.0000000000000000,0.0000000000000000,0.0000000000000000,0.0000000000000000,0.0000000000000000,0.0000000000000000,0.0000000000000000,0.0000000000000000,-1.0200000000000000,0.0000000000000000
0.0000000000000000,5.0000000000000000,0.0000000000000000,0.0000000000000000,0.0000000000000000,0.0000000000000000,0.0000000000000000,0.0000000000000000,0.0000000000000000,0.0000000000000000,-1.0200000000000000,0.0000000000000000
0.0000000000000000,6.0000000000000000,-642.2399902339999460,-623.9000854490000160,-27.9599647522000012,-633.4600830079999690,-440.2300415039999840,-455.1750793460000180,27.3750000000000000,27.9508514404000010,-1.0200000000000000,-45.0000000000000000
0.0000000000000000,6.0000000000000000,-642.1350097660000520,-624.3399658199999740,-28.0500335692999982,-632.5700683589999460,-440.5350036620000080,-454.9349975590000090,27.0625000000000000,27.9508514404000010,-1.0200000000000000,-45.0000000000000000
0.0000000000000000,6.0000000000000000,-641.0549316410000520,-623.9248046879999940,-27.7099838257000002,-633.1099243160000460,-440.5200805659999900,-455.6449890139999750,27.3750000000000000,27.9508514404000010,-1.0200000000000000,-45.0000000000000000
0.0000000000000000,6.0000000000000000,-641.6849365230000320,-624.3250122069999860,-27.8199977875000002,-632.4199218749999990,-440.2448730469999980,-454.8899536129999880,27.3750000000000000,27.9820804595999988,-1.0200000000000000,-45.0000000000000000
0.0000000000000000,6.0000000000000000,-641.0899658199999740,-623.6950073240000160,-28.2199840546000011,-632.1799316410000520,-440.5000000000000000,-455.1650390620000050,27.0625000000000000,27.9820804595999988,-1.0200000000000000,-45.0000000000000000
0.0000000000000000,6.0000000000000000,-642.5449218749999990,-623.4049682620000110,-28.2449798584000007,-632.8801269529999440,-439.8049926759999830,-454.6749572749999970,27.3750000000000000,27.9820804595999988,-1.0200000000000000,-45.0000000000000000
0.0000000000000000,6.0000000000000000,-641.7151489259999830,-623.7800292970000550,-27.6849746703999990,-632.5101318360000270,-440.4849853520000230,-455.7449951169999730,27.0625000000000000,27.9820804595999988,-1.0200000000000000,-45.0000000000000000
0.0000000000000000,6.0000000000000000,-641.5049438480000380,-624.1700439449999740,-28.1749877929999996,-632.9748535160000520,-440.2850036620000080,-455.7200012210000180,27.3750000000000000,27.9820804595999988,-1.0200000000000000,-45.0000000000000000
0.0000000000000000,6.0000000000000000,-641.4450073240000160,-623.6449584959999580,-27.9350280761999983,-633.3849487300000190,-439.9799804689999970,-455.1999816890000260,27.3750000000000000,27.9820804595999988,-1.0200000000000000,-45.0000000000000000
0.0000000000000000,6.0000000000000000,-641.9800415040000410,-624.3099365230000320,-28.5750122070000003,-632.4099731449999800,-440.8349609379999940,-454.4350280759999800,26.7500000000000000,27.9820804595999988,-1.0200000000000000,-45.0000000000000000
0.0000000000000000,7.0000000000000000,-6.1900167465199996,-894.1199951170000300,-29.6150131226000006,-0.6749374866490000,-629.1400146480000320,-645.9199218749999990,27.3750000000000000,27.9820804595999988,-1.0200000000000000,-89.9999999999999999
0.0000000000000000,7.0000000000000000,-6.4049992561300000,-894.1199951170000300,-29.5850219727000016,-0.6599975228310000,-629.3549194339999520,-645.6250610350000440,27.3750000000000000,27.9820804595999988,-1.0200000000000000,-89.9999999999999999
0.0000000000000000,7.0000000000000000,-6.1749820709199996,-893.4949951170000300,-29.4149646758999985,-0.8000551462170000,-629.4450073240000160,-646.5648803709999580,27.0625000000000000,27.9820804595999988,-1.0200000000000000,-89.9999999999999999
0.0000000000000000,7.0000000000000000,-6.4900250434900002,-893.5199584959999580,-29.7200279236000000,-1.3950074911100001,-629.2500610350000440,-646.4900512699999800,27.0625000000000000,27.9820804595999988,-1.0200000000000000,-89.9999999999999999
0.0000000000000000,7.0000000000000000,-6.1200022697399996,-893.4800415040000410,-29.3550071716000005,-0.9649499058720000,-628.9349975589999520,-646.6249999999999990,27.0625000000000000,27.9820804595999988,-1.0200000000000000,-89.9999999999999999
0.0000000000000000,7.0000000000000000,-5.8699898719799997,-892.9799194339999520,-30.3400306702000009,-0.8100124001500000,-629.6348876949999740,-646.7199707029999440,27.3750000000000000,27.9508514404000010,-1.0200000000000000,-89.9999999999999999
0.0000000000000000,7.0000000000000000,-6.8100104332000004,-894.2300415040000410,-29.0549831390000008,-0.6750074625020001,-629.4799804689999970,-646.3949584959999580,27.3750000000000000,27.9820804595999988,-1.0200000000000000,-89.9999999999999999
0.0000000000000000,7.0000000000000000,-6.2200036048899996,-893.7100830079999690,-29.6300239563000005,-0.7699574828150000,-628.9100341800000240,-645.8649291990000160,27.3750000000000000,27.9820804595999988,-1.0200000000000000,-89.9999999999999999
0.0000000000000000,7.0000000000000000,-5.8950090408299998,-894.0399780269999600,-29.8549938202000007,-1.0500299930600001,-629.2250366209999580,-646.0450439449999740,27.0625000000000000,27.9508514404000010,-1.0200000000000000,-89.9999999999999999
0.0000000000000000,7.0000000000000000,-6.5850777626000001,-893.7500610350000430,-30.0000057220000009,-1.0200647115699999,-628.9599609379999940,-645.8950805660000460,27.0625000000000000,27.9508514404000010,-1.0200000000000000,-89.9999999999999999
0.0000000000000000,8.0000000000000000,644.5198974610000270,-629.1550292970000550,-24.3000335692999982,645.5800781249999990,-444.2150573729999790,-453.3350219729999820,27.3750000000000000,27.9508514404000010,-1.0200000000000000,-135.0000000000000000
0.0000000000000000,8.0000000000000000,0.0000000000000000,0.0000000000000000,0.0000000000000000,0.0000000000000000,0.0000000000000000,0.0000000000000000,0.0000000000000000,0.0000000000000000,-1.0300000000000000,-135.0000000000000000
0.0000000000000000,8.0000000000000000,0.0000000000000000,0.0000000000000000,0.0000000000000000,0.0000000000000000,0.0000000000000000,0.0000000000000000,0.0000000000000000,0.0000000000000000,-1.0300000000000000,-135.0000000000000000
0.0000000000000000,8.0000000000000000,644.4949340819999860,-629.5249023439999970,-24.5850181580000004,645.5999755860000270,-444.0050048830000260,-453.3150634770000230,27.3750000000000000,27.9508514404000010,-1.0200000000000000,-135.0000000000000000
0.0000000000000000,8.0000000000000000,644.6350708009999830,-629.2699584959999580,-23.9549903869999987,645.8050537110000270,-444.3000183109999730,-453.2250976560000020,27.0625000000000000,27.9508514404000010,-1.0300000000000000,-135.0000000000000000
0.0000000000000000,8.0000000000000000,0.0000000000000000,0.0000000000000000,0.0000000000000000,0.0000000000000000,0.0000000000000000,0.0000000000000000,0.0000000000000000,0.0000000000000000,-1.0200000000000000,-135.0000000000000000
0.0000000000000000,8.0000000000000000,0.0000000000000000,0.0000000000000000,0.0000000000000000,0.0000000000000000,0.0000000000000000,0.0000000000000000,0.0000000000000000,0.0000000000000000,-1.0200000000000000,-135.0000000000000000
0.0000000000000000,8.0000000000000000,0.0000000000000000,0.0000000000000000,0.0000000000000000,0.0000000000000000,0.0000000000000000,0.0000000000000000,0.0000000000000000,0.0000000000000000,-1.0200000000000000,-135.0000000000000000
0.0000000000000000,8.0000000000000000,644.3650512699999800,-629.2199707029999440,-24.6099853515999989,645.5949707029999440,-444.1350402830000230,-453.0050048830000260,27.0625000000000000,27.9508514404000010,-1.0200000000000000,-135.0000000000000000
0.0000000000000000,8.0000000000000000,644.7249755860000270,-629.3050537110000270,-24.5149917602999991,645.9200439449999740,-444.4149780270000170,-453.4449768069999890,27.3750000000000000,27.9820804595999988,-1.0200000000000000,-135.0000000000000000
0.0000000000000000,9.0000000000000000,821.4950561519999600,-2.3600022792800002,368.6250000000000000,826.1149902339999460,-262.1000061039999880,264.1699218750000000,27.3750000000000000,27.9508514404000010,24.1909999999999989,180.0000000000000000
0.0000000000000000,9.0000000000000000,821.4550781249999990,-2.1800150871300001,368.4499511719999980,826.8349609379999940,-262.5549621580000230,263.6299438479999820,27.0625000000000000,27.9820804595999988,24.1909999999999989,180.0000000000000000
0.0000000000000000,9.0000000000000000,821.5749511720000550,-2.1900351047500002,368.5600280759999800,826.2299804689999970,-262.3800048830000260,263.8200073240000160,27.3750000000000000,27.9820804595999988,24.1909999999999989,180.0000000000000000
0.0000000000000000,9.0000000000000000,821.5600585939999970,-2.2950148582500001,368.5249633789999840,826.2999877930000130,-263.0000000000000000,263.3999633789999850,27.3750000000000000,27.9508514404000010,24.1909999999999989,180.0000000000000000
0.0000000000000000,9.0000000000000000,821.1400756839999520,-2.3300099372899998,368.6950683590000040,826.0149536129999880,-262.3550415039999850,263.9699401859999740,27.0625000000000000,27.9820804595999988,24.1909999999999989,180.0000000000000000
0.0000000000000000,9.0000000000000000,821.4599609379999940,-2.2599823474899998,368.6499633789999840,826.7600097660000520,-261.8299560550000250,264.5050048830000260,27.0625000000000000,27.9508514404000010,24.1909999999999989,180.0000000000000000
0.0000000000000000,9.0000000000000000,821.3100585939999970,-2.5450174808499999,368.8100280759999800,826.6848754879999880,-262.8199768069999890,264.2299499509999800,27.3750000000000000,27.9820804595999988,24.1909999999999989,180.0000000000000000
0.0000000000000000,9.0000000000000000,821.6249999999999990,-1.8750272989300001,368.4700012210000180,825.9699707029999440,-262.4899597169999760,263.9150085449999780,27.0625000000000000,27.9508514404000010,24.1909999999999989,180.0000000000000000
0.0000000000000000,9.0000000000000000,821.1398925779999440,-2.1000225544000002,368.6300353999999970,825.9998779300000240,-262.5899658199999750,264.3800659180000140,27.0625000000000000,27.9820804595999988,24.1999999999999993,180.0000000000000000
0.0000000000000000,9.0000000000000000,821.6200561519999600,-2.2700252533000000,368.5900573729999790,826.4099731449999800,-262.6100158689999940,263.4750671389999750,27.0625000000000000,27.9820804595999988,24.1909999999999989,180.0000000000000000
0.0000000000000000,10.0000000000000000,589.3549804689999970,575.1450805660000460,374.3800353999999970,590.1599731449999800,149.9199829099999870,667.5048828120000050,27.3750000000000000,27.9508514404000010,24.1999999999999993,135.0000000000000000
0.0000000000000000,10.0000000000000000,589.1499633790000410,575.1549072269999660,373.7400817870000080,590.6400756839999520,150.5699920650000080,667.1499633790000410,27.3750000000000000,27.9508514404000010,24.1999999999999993,135.0000000000000000
0.0000000000000000,10.0000000000000000,589.3899536129999880,575.6149902339999470,374.3050231930000110,589.9550781249999990,150.7499694820000110,667.0949707029999440,27.3750000000000000,27.9508514404000010,24.1999999999999993,135.0000000000000000
0.0000000000000000,10.0000000000000000,588.8450317379999880,575.2949218749999990,373.6599426270000200,590.5299682620000110,149.7950134280000040,666.9049682620000110,27.3750000000000000,27.9508514404000010,24.1999999999999993,135.0000000000000000
0.0000000000000000,10.0000000000000000,589.7249755860000270,575.5698852540000410,374.3949890139999750,590.4550170899999550,150.0499877930000140,667.7450561519999600,27.3750000000000000,27.9508514404000010,24.1999999999999993,135.0000000000000000
0.0000000000000000,10.0000000000000000,589.0050048829999690,574.9349975589999520,373.5549926759999830,590.2850341800000250,150.2000122069999860,666.9748535160000520,27.3750000000000000,27.9508514404000010,24.1999999999999993,135.0000000000000000
0.0000000000000000,10.0000000000000000,589.0400390620000050,575.4599609379999940,374.0950317379999880,590.0800781249999990,150.5949859620000100,667.4100341800000240,27.3750000000000000,27.9508514404000010,24.1999999999999993,135.0000000000000000
0.0000000000000000,10.0000000000000000,589.3699340819999860,575.0200805660000460,373.6349487300000190,590.7799682620000110,150.7300109859999960,667.1398925779999440,27.0625000000000000,27.9508514404000010,24.1999999999999993,135.0000000000000000
0.0000000000000000,10.0000000000000000,589.3599243160000460,575.9149169920000300,373.7149047849999870,590.9099121089999470,150.1399993900000140,667.0399169920000300,27.0625000000000000,27.9820804595999988,24.1999999999999993,135.0000000000000000
0.0000000000000000,10.0000000000000000,589.0999145509999830,575.6199340819999860,373.3500366210000150,590.3550415040000410,150.7249908450000080,667.4450073240000160,27.3750000000000000,27.9508514404000010,24.1999999999999993,135.0000000000000000
0.0000000000000000,11.0000000000000000,8.8550071716299996,820.3348999019999600,374.5650329590000070,13.2250022888000007,328.1499633789999840,833.7299804689999970,27.3750000000000000,27.9820804595999988,24.1999999999999993,89.9999999999999999
0.0000000000000000,11.0000000000000000,0.0000000000000000,0.0000000000000000,0.0000000000000000,0.0000000000000000,0.0000000000000000,0.0000000000000000,0.0000000000000000,0.0000000000000000,24.1999999999999993,89.9999999999999999
0.0000000000000000,11.0000000000000000,0.0000000000000000,0.0000000000000000,0.0000000000000000,0.0000000000000000,0.0000000000000000,0.0000000000000000,0.0000000000000000,0.0000000000000000,24.1999999999999993,89.9999999999999999
0.0000000000000000,11.0000000000000000,0.0000000000000000,0.0000000000000000,0.0000000000000000,0.0000000000000000,0.0000000000000000,0.0000000000000000,0.0000000000000000,0.0000000000000000,24.1999999999999993,89.9999999999999999
0.0000000000000000,11.0000000000000000,9.0549869537400003,820.1700439449999740,375.0299377439999940,13.2649488448999992,328.4299011229999790,833.1799926759999830,27.3750000000000000,27.9820804595999988,24.1999999999999993,89.9999999999999999
0.0000000000000000,11.0000000000000000,8.8600387573199999,819.7399291990000160,374.6149597169999760,13.3350219726999999,328.2049865719999950,834.1650390620000040,27.3750000000000000,27.9820804595999988,24.1999999999999993,89.9999999999999999
0.0000000000000000,11.0000000000000000,9.1349878311200001,820.3999633790000410,374.2200622560000050,13.6749925612999998,327.9049072270000230,833.8450317379999880,27.0625000000000000,27.9508514404000010,24.1999999999999993,89.9999999999999999
0.0000000000000000,11.0000000000000000,0.0000000000000000,0.0000000000000000,0.0000000000000000,0.0000000000000000,0.0000000000000000,0.0000000000000000,0.0000000000000000,0.0000000000000000,24.1999999999999993,89.9999999999999999
0.0000000000000000,11.0000000000000000,0.0000000000000000,0.0000000000000000,0.0000000000000000,0.0000000000000000,0.0000000000000000,0.0000000000000000,0.0000000000000000,0.0000000000000000,24.1999999999999993,89.9999999999999999
0.0000000000000000,11.0000000000000000,8.4949884414699994,820.3999633790000410,374.1900329590000070,13.5749797820999998,327.8200378419999760,833.5299682620000100,27.3750000000000000,27.9508514404000010,24.1999999999999993,89.9999999999999999
0.0000000000000000,12.0000000000000000,-583.3948974610000270,576.9149780269999600,368.4949646000000030,-580.1949462889999720,157.2599334720000000,666.2650146480000320,27.0625000000000000,27.9508514404000010,24.1999999999999993,45.0000000000000000
0.0000000000000000,12.0000000000000000,-583.4749145509999830,578.0450439449999740,369.6199951169999730,-580.0349731449999800,157.5050353999999970,665.7500610350000440,27.3750000000000000,27.9508514404000010,24.1999999999999993,45.0000000000000000
0.0000000000000000,12.0000000000000000,-583.3198852540000410,577.5750122069999860,369.1799926759999830,-579.4800415040000410,157.8849945069999870,665.3599853519999660,27.3750000000000000,27.9820804595999988,24.1999999999999993,45.0000000000000000
0.0000000000000000,12.0000000000000000,-583.9448852540000410,577.1500854490000160,369.9999389650000120,-579.2099609379999940,157.2399749760000130,665.2850341800000240,27.0625000000000000,27.9508514404000010,24.1999999999999993,45.0000000000000000
0.0000000000000000,12.0000000000000000,-583.8250122069999860,577.7949829100000440,370.0401000979999820,-579.6099243160000460,157.1000213620000070,665.7748413089999520,27.3750000000000000,27.9508514404000010,24.1999999999999993,45.0000000000000000
0.0000000000000000,12.0000000000000000,-583.5100097660000520,577.5700073240000160,370.1649780270000180,-579.1550903319999860,156.8549804689999970,665.3499755860000270,27.0625000000000000,27.9508514404000010,24.1999999999999993,45.0000000000000000
0.0000000000000000,12.0000000000000000,-583.2950439449999740,577.2100219730000380,370.0850219729999820,-579.6149291990000160,156.9550018310000040,665.6549072269999660,27.3750000000000000,27.9508514404000010,24.1999999999999993,45.0000000000000000
0.0000000000000000,12.0000000000000000,0.0000000000000000,0.0000000000000000,0.0000000000000000,0.0000000000000000,0.0000000000000000,0.0000000000000000,0.0000000000000000,0.0000000000000000,24.1999999999999993,45.0000000000000000
0.0000000000000000,12.0000000000000000,0.0000000000000000,0.0000000000000000,0.0000000000000000,0.0000000000000000,0.0000000000000000,0.0000000000000000,0.0000000000000000,0.0000000000000000,24.1999999999999993,45.0000000000000000
0.0000000000000000,12.0000000000000000,0.0000000000000000,0.0000000000000000,0.0000000000000000,0.0000000000000000,0.0000000000000000,0.0000000000000000,0.0000000000000000,0.0000000000000000,24.1999999999999993,45.0000000000000000
0.0000000000000000,13.0000000000000000,-815.5899658199999740,0.9700074791910001,362.1049804689999970,-819.1848754879999880,-255.9850463870000110,261.8549804689999970,27.3750000000000000,27.9508514404000010,24.1999999999999993,0.0000000000000000
0.0000000000000000,13.0000000000000000,-815.8299560550000240,1.1849873065900001,362.9950256349999900,-819.5100097660000520,-255.7349548340000070,261.3549804689999970,27.0625000000000000,27.9508514404000010,24.1999999999999993,0.0000000000000000
0.0000000000000000,13.0000000000000000,-815.4999999999999990,0.4250050187110000,362.8099670409999930,-820.0799560550000240,-256.1250305180000170,260.8199462889999720,27.3750000000000000,27.9508514404000010,24.1999999999999993,0.0000000000000000
0.0000000000000000,13.0000000000000000,-815.8999023439999970,0.7100149989130000,362.0249938960000120,-819.8049926759999830,-255.7500305179999880,261.6449890139999750,27.3750000000000000,27.9508514404000010,24.1999999999999993,0.0000000000000000
0.0000000000000000,13.0000000000000000,-815.5199584959999580,1.0049749612800001,362.3150024409999900,-819.3749999999999990,-255.8499755859999990,260.7250061039999880,27.3750000000000000,27.9508514404000010,24.1999999999999993,0.0000000000000000
0.0000000000000000,13.0000000000000000,0.0000000000000000,0.0000000000000000,0.0000000000000000,0.0000000000000000,0.0000000000000000,0.0000000000000000,0.0000000000000000,0.0000000000000000,24.1999999999999993,0.0000000000000000
0.0000000000000000,13.0000000000000000,0.0000000000000000,0.0000000000000000,0.0000000000000000,0.0000000000000000,0.0000000000000000,0.0000000000000000,0.0000000000000000,0.0000000000000000,24.1999999999999993,0.0000000000000000
0.0000000000000000,13.0000000000000000,-815.5399780269999600,0.8099900484090000,362.7749023439999970,-819.9050292970000550,-255.6300201420000060,261.5449829099999870,27.3750000000000000,27.9508514404000010,24.1999999999999993,0.0000000000000000
0.0000000000000000,13.0000000000000000,-815.9049682620000100,1.2999449968300001,362.4750061039999870,-818.4849243160000460,-255.4099731450000090,261.7698974610000280,27.3750000000000000,27.9508514404000010,24.1999999999999993,0.0000000000000000
0.0000000000000000,13.0000000000000000,-816.0750732420000300,1.5400072336199999,362.6149597169999760,-819.1149291990000160,-256.0400695800000220,261.7200317379999890,26.7500000000000000,27.9508514404000010,24.1999999999999993,0.0000000000000000
0.0000000000000000,14.0000000000000000,-583.3600463870000110,-579.7249755860000270,353.1750183109999740,-582.4350585939999970,-667.8549804689999970,-145.6100006099999860,27.0625000000000000,27.9508514404000010,24.1999999999999993,-45.0000000000000000
0.0000000000000000,14.0000000000000000,-583.4349975589999520,-579.7149658199999740,353.6549987789999810,-582.4500122069999860,-668.7249755860000270,-144.7300415040000130,27.0625000000000000,27.9508514404000010,24.1999999999999993,-45.0000000000000000
0.0000000000000000,14.0000000000000000,-583.5399169920000300,-579.7350463870000110,353.7749633789999840,-582.2250366209999580,-668.2498779300000240,-145.3849639889999990,27.3750000000000000,27.9508514404000010,24.1999999999999993,-45.0000000000000000
0.0000000000000000,14.0000000000000000,-583.0050659180000130,-579.0500488279999440,353.6899414060000020,-582.1300659180000130,-668.2299804689999970,-145.1649932859999980,27.0625000000000000,27.9508514404000010,24.1999999999999993,-45.0000000000000000
0.0000000000000000,14.0000000000000000,-583.0949707029999440,-579.4450073240000160,353.6798706050000190,-582.0399169920000300,-668.2199707029999440,-145.2049713129999870,27.3750000000000000,27.9508514404000010,24.1999999999999993,-45.0000000000000000
0.0000000000000000,14.0000000000000000,-582.6998901370000110,-579.9000854490000160,353.2500000000000000,-581.9000854490000160,-668.2899780269999600,-145.4049682620000110,27.0625000000000000,27.9508514404000010,24.1999999999999993,-45.0000000000000000
0.0000000000000000,14.0000000000000000,-582.7850341800000250,-578.9049682620000110,353.7999877930000140,-582.2648925779999440,-668.6449584959999580,-145.3550262450000050,27.0625000000000000,27.9508514404000010,24.1999999999999993,-45.0000000000000000
0.0000000000000000,14.0000000000000000,-583.4149780269999600,-579.7949829100000440,353.4649658199999750,-582.2050781249999990,-668.1199951170000300,-144.4800109859999960,27.0625000000000000,27.9508514404000010,24.1999999999999993,-45.0000000000000000
0.0000000000000000,14.0000000000000000,-583.4750366209999580,-579.7699584959999580,354.2250061039999870,-582.3300781249999990,-667.9749755860000270,-145.1800079349999920,27.0625000000000000,27.9508514404000010,24.1999999999999993,-45.0000000000000000
0.0000000000000000,14.0000000000000000,-582.8599243160000460,-579.9299316410000520,353.7699584960000150,-582.6950073240000160,-667.8049926759999830,-145.3499908450000080,27.0625000000000000,27.9508514404000010,24.1999999999999993,-45.0000000000000000
0.0000000000000000,15.0000000000000000,-6.7249565124500004,-820.9599609379999940,356.8199768069999890,0.8800152540210000,-843.9049682620000100,-316.5350036620000080,27.3750000000000000,27.9820804595999988,24.1999999999999993,-89.9999999999999999
0.0000000000000000,15.0000000000000000,-6.6600089073199999,-820.9799194339999520,356.8149414060000020,0.9850175380710000,-843.6398925779999440,-316.6500549319999890,27.3750000000000000,27.9508514404000010,24.1999999999999993,-89.9999999999999999
0.0000000000000000,15.0000000000000000,-6.3450412750199998,-820.4799194339999520,355.8000183109999740,0.6099900007250000,-844.2349853519999660,-316.9799499509999800,27.0625000000000000,27.9508514404000010,24.1999999999999993,-89.9999999999999999
0.0000000000000000,15.0000000000000000,-6.7549395561200001,-820.7850341800000240,356.3349914550000220,1.2050125598899999,-843.6600341800000240,-317.1900024409999900,27.0625000000000000,27.9508514404000010,24.1999999999999993,-89.9999999999999999
0.0000000000000000,15.0000000000000000,0.0000000000000000,0.0000000000000000,0.0000000000000000,0.0000000000000000,0.0000000000000000,0.0000000000000000,0.0000000000000000,0.0000000000000000,24.1999999999999993,-89.9999999999999999
0.0000000000000000,15.0000000000000000,-6.0450329780600001,-820.3649902339999460,355.9199829099999870,1.6500124931300000,-843.7199707029999440,-316.9199829099999870,27.0625000000000000,27.9508514404000010,24.1999999999999993,-89.9999999999999999
0.0000000000000000,15.0000000000000000,-7.1100053787200004,-820.9799804689999970,356.9050292969999980,1.2850174903900000,-843.8549194339999520,-316.9100341800000250,27.3750000000000000,27.9820804595999988,24.1999999999999993,-89.9999999999999999
0.0000000000000000,15.0000000000000000,-5.7899050712599998,-820.7201538089999520,356.6600341800000250,1.7300001382800001,-843.6549682620000100,-316.6600646969999950,27.0625000000000000,27.9820804595999988,24.1999999999999993,-89.9999999999999999
0.0000000000000000,15.0000000000000000,-6.4049730300899998,-820.7349853519999660,355.8699646000000030,1.4950125217400001,-843.9450073240000160,-317.4249877930000140,27.0625000000000000,27.9508514404000010,24.1999999999999993,-89.9999999999999999
0.0000000000000000,15.0000000000000000,-7.0549993515000002,-820.4999999999999990,356.3000793460000180,0.7849924564360000,-843.9049682620000100,-317.7650146479999760,27.6875000000000000,27.9820804595999988,24.1999999999999993,-89.9999999999999999
0.0000000000000000,16.0000000000000000,582.9600219730000380,-580.7949218749999990,354.7099609379999940,593.7399902339999470,-673.2199707029999440,-142.0399627689999990,27.3750000000000000,27.9508514404000010,24.1999999999999993,-135.0000000000000000
0.0000000000000000,16.0000000000000000,583.0150146480000320,-581.1950073240000160,355.9900207520000200,593.9900512699999800,-672.9699707029999440,-141.8200225829999960,27.3750000000000000,27.9508514404000010,24.1999999999999993,-135.0000000000000000
0.0000000000000000,16.0000000000000000,583.1699218749999990,-580.6799926759999830,355.9899902340000040,593.4500732420000300,-673.2950439449999740,-141.4900207519999920,27.0625000000000000,27.9508514404000010,24.1999999999999993,-135.0000000000000000
0.0000000000000000,16.0000000000000000,582.7499389649999550,-581.0349121089999470,355.6249389650000120,593.2700805660000460,-672.4099731449999800,-141.9149932859999980,27.3750000000000000,27.9508514404000010,24.1999999999999993,-135.0000000000000000
0.0000000000000000,16.0000000000000000,583.0101318360000270,-581.2399902339999470,354.7199401859999740,593.1400146480000320,-672.6449584959999580,-142.2749633790000130,27.0625000000000000,27.9508514404000010,24.1999999999999993,-135.0000000000000000
0.0000000000000000,16.0000000000000000,583.3298950199999800,-580.7099609379999940,355.7599487300000190,593.5199584959999580,-672.9849853519999660,-142.6299743650000090,27.0625000000000000,27.9508514404000010,24.1999999999999993,-135.0000000000000000
0.0000000000000000,16.0000000000000000,582.9500122069999860,-580.6398925779999440,354.8600463870000110,593.9199829100000440,-672.5300903319999850,-141.8149871829999990,27.0625000000000000,27.9508514404000010,24.1999999999999993,-135.0000000000000000
0.0000000000000000,16.0000000000000000,583.4949951170000300,-580.9949951170000300,354.9199829099999870,593.3949584959999580,-672.6149902339999460,-141.9950103760000100,27.0625000000000000,27.9508514404000010,24.1999999999999993,-135.0000000000000000
0.0000000000000000,16.0000000000000000,582.7350463870000110,-581.3248901370000110,355.4949646000000030,593.2098999019999600,-673.1350097660000520,-141.6849975590000100,27.0625000000000000,27.9508514404000010,24.1999999999999993,-135.0000000000000000
0.0000000000000000,16.0000000000000000,583.8400878910000520,-580.9799194339999520,355.3049621580000230,593.8649902339999470,-672.4700927730000320,-141.9599914549999940,27.3750000000000000,27.9508514404000010,24.1999999999999993,-135.0000000000000000
0.0000000000000000,17.0000000000000000,628.9949951170000300,-6.9749894142200004,643.1100463870000110,637.2299194339999520,-454.2100219729999820,458.9899902340000040,27.0625000000000000,27.9508514404000010,45.9699999999999988,180.0000000000000000
0.0000000000000000,17.0000000000000000,628.5148925779999440,-7.5949654579199999,641.9848632810000020,636.2650756839999520,-454.1549072270000230,458.1949157710000120,27.0625000000000000,27.9508514404000010,45.9699999999999988,180.0000000000000000
0.0000000000000000,17.0000000000000000,629.0300903319999860,-7.1649723053000001,642.5598144529999440,637.0499877930000130,-454.5000000000000000,458.4850158689999940,27.3750000000000000,27.9508514404000010,45.9699999999999988,180.0000000000000000
0.0000000000000000,17.0000000000000000,628.6099853519999660,-6.7950100898699999,642.6099853519999660,636.7750854490000160,-454.8049621580000230,458.2849426270000200,27.3750000000000000,27.9508514404000010,45.9799999999999968,180.0000000000000000
0.0000000000000000,17.0000000000000000,628.9551391600000440,-7.0999917983999996,642.6498413089999520,637.3750610350000440,-455.0200195310000020,458.6300659180000130,27.0625000000000000,27.9508514404000010,45.9799999999999968,180.0000000000000000
0.0000000000000000,17.0000000000000000,628.7600097660000520,-6.9250049591099998,642.7399902339999460,636.7199707029999440,-454.7700195310000020,458.9498596189999940,27.0625000000000000,27.9508514404000010,45.9799999999999968,180.0000000000000000
0.0000000000000000,17.0000000000000000,628.7399902339999460,-7.0049982070899999,642.7200317379999880,636.2349853519999660,-454.9100341800000250,459.0149536129999880,27.3750000000000000,27.9508514404000010,45.9799999999999968,180.0000000000000000
0.0000000000000000,17.0000000000000000,628.6749267579999690,-7.0400176048300000,642.6749267579999690,636.8400878910000520,-454.3648986819999890,458.6699523930000160,27.3750000000000000,27.9508514404000010,45.9799999999999968,180.0000000000000000
0.0000000000000000,17.0000000000000000,628.4249877930000130,-7.1949954032900001,642.9350585939999970,637.1350708009999830,-454.8850402830000230,458.9050292969999980,27.0625000000000000,27.9508514404000010,45.9799999999999968,180.0000000000000000
0.0000000000000000,17.0000000000000000,628.6049804689999970,-7.6300034523000004,642.5399169920000300,636.6549072269999660,-454.0250244139999720,458.6250305180000160,27.6875000000000000,27.9508514404000010,45.9799999999999968,180.0000000000000000
0.0000000000000000,18.0000000000000000,446.1099853520000230,438.0350036620000080,647.6449584959999580,456.0999145509999830,-140.4599914549999940,767.0449829100000440,27.0625000000000000,27.9508514404000010,45.9799999999999968,135.0000000000000000
0.0000000000000000,18.0000000000000000,446.3999633789999840,437.7400817870000080,648.0349121089999460,456.6199951169999730,-140.7299804689999970,766.4400024410000460,27.0625000000000000,27.9508514404000010,45.9799999999999968,135.0000000000000000
0.0000000000000000,18.0000000000000000,446.1600036620000080,438.0300598140000260,647.9199829100000440,455.1499633789999840,-140.3750152590000080,766.4548950199999800,27.3750000000000000,27.9508514404000010,45.9799999999999968,135.0000000000000000
0.0000000000000000,18.0000000000000000,445.8550415039999840,437.8249511719999980,648.1599731449999800,455.2899780270000170,-140.2499542239999920,766.0550537110000270,27.0625000000000000,27.9508514404000010,45.9799999999999968,135.0000000000000000
0.0000000000000000,18.0000000000000000,446.0250549319999890,437.9800415039999840,647.8200683589999460,456.6749267580000260,-140.5600128170000000,766.9500122069999850,27.3750000000000000,27.9508514404000010,45.9799999999999968,135.0000000000000000
0.0000000000000000,18.0000000000000000,445.0999450680000100,437.5349426270000200,647.9049072269999660,455.8750610349999870,-140.7150421139999990,766.7349853519999660,27.3750000000000000,27.9508514404000010,45.9799999999999968,135.0000000000000000
0.0000000000000000,18.0000000000000000,0.0000000000000000,0.0000000000000000,0.0000000000000000,0.0000000000000000,0.0000000000000000,0.0000000000000000,0.0000000000000000,0.0000000000000000,45.9799999999999968,135.0000000000000000
0.0000000000000000,18.0000000000000000,0.0000000000000000,0.0000000000000000,0.0000000000000000,0.0000000000000000,0.0000000000000000,0.0000000000000000,0.0000000000000000,0.0000000000000000,45.9799999999999968,135.0000000000000000
0.0000000000000000,18.0000000000000000,0.0000000000000000,0.0000000000000000,0.0000000000000000,0.0000000000000000,0.0000000000000000,0.0000000000000000,0.0000000000000000,0.0000000000000000,45.9799999999999968,135.0000000000000000
0.0000000000000000,18.0000000000000000,445.7200012210000180,438.0050659180000130,648.1650390620000050,456.1300048830000260,-141.1649322510000100,767.7099609379999940,26.7500000000000000,27.9508514404000010,45.9799999999999968,135.0000000000000000
0.0000000000000000,19.0000000000000000,4.3050251007100000,620.9898681639999720,652.9450683589999460,10.6499862670999992,-6.1700525283800003,896.1049194339999520,27.0625000000000000,27.9508514404000010,45.9799999999999968,89.9999999999999999
0.0000000000000000,19.0000000000000000,4.6400046348600004,621.1099243160000460,652.0000610350000440,10.0299816132000004,-6.6549992561300000,896.4948730470000550,27.0625000000000000,27.9508514404000010,45.9799999999999968,89.9999999999999999
0.0000000000000000,19.0000000000000000,4.6799979209900000,621.1799316410000520,652.3549804689999970,9.9950504302999992,-6.4950537681600000,896.3248901370000100,27.0625000000000000,27.9508514404000010,45.9799999999999968,89.9999999999999999
0.0000000000000000,19.0000000000000000,0.0000000000000000,0.0000000000000000,0.0000000000000000,0.0000000000000000,0.0000000000000000,0.0000000000000000,0.0000000000000000,0.0000000000000000,45.9799999999999968,89.9999999999999999
0.0000000000000000,19.0000000000000000,4.8449697494499997,621.5300903319999860,652.6950073240000160,10.7650079726999994,-6.8100104332000004,895.7949218749999990,27.3750000000000000,27.9508514404000010,45.9799999999999968,89.9999999999999999
0.0000000000000000,19.0000000000000000,4.5150218009899996,620.9998779300000240,652.1599731449999800,10.0649452209000003,-6.5999655723600004,896.5050048829999690,27.0625000000000000,27.9508514404000010,45.9799999999999968,89.9999999999999999
0.0000000000000000,19.0000000000000000,4.6450119018600002,621.1600341800000240,652.7600097660000520,11.3800001143999996,-6.3900070190399996,896.8100585939999960,27.3750000000000000,27.9508514404000010,45.9799999999999968,89.9999999999999999
0.0000000000000000,19.0000000000000000,4.6649928093000002,621.4149169920000300,652.5499877930000130,10.0600271224999993,-6.5750236511200004,897.0450439449999740,27.3750000000000000,27.9508514404000010,45.9799999999999968,89.9999999999999999
0.0000000000000000,19.0000000000000000,5.2949676513700004,621.5148925779999440,652.8649902339999460,10.0250349045000000,-6.8699955940199997,896.2498168949999800,27.0625000000000000,27.9508514404000010,45.9799999999999968,89.9999999999999999
0.0000000000000000,19.0000000000000000,0.0000000000000000,0.0000000000000000,0.0000000000000000,0.0000000000000000,0.0000000000000000,0.0000000000000000,0.0000000000000000,0.0000000000000000,45.9799999999999968,89.9999999999999999
0.0000000000000000,20.0000000000000000,-442.4949646000000030,438.0350341800000250,641.9799804689999970,-439.5848999020000170,-135.4950408939999990,771.5499267579999690,27.0625000000000000,27.9508514404000010,45.9799999999999968,45.0000000000000000
0.0000000000000000,20.0000000000000000,-442.3599548340000060,437.8899841310000050,642.3450927730000320,-439.5999755860000270,-136.2100219730000100,771.9049682620000100,27.3750000000000000,27.9508514404000010,45.9799999999999968,45.0000000000000000
0.0000000000000000,20.0000000000000000,-442.5699462889999720,437.7849121090000040,643.0349121089999460,-439.2249145509999830,-135.7149810790000120,771.6499023439999970,27.3750000000000000,27.9508514404000010,45.9799999999999968,45.0000000000000000
0.0000000000000000,20.0000000000000000,-442.0849609379999940,437.6899414060000020,642.6298828120000050,-439.2499389650000120,-135.2650146480000040,772.0150756839999520,27.3750000000000000,27.9508514404000010,45.9799999999999968,45.0000000000000000
0.0000000000000000,20.0000000000000000,-443.1099548340000060,438.2850036620000080,642.4349975589999520,-439.3450012210000180,-135.5650176999999980,772.0199584959999580,27.0625000000000000,27.9508514404000010,45.9799999999999968,45.0000000000000000
0.0000000000000000,20.0000000000000000,-442.2300720210000120,437.8750000000000000,642.9049072269999660,-440.1399536129999880,-135.6599578860000010,771.7849121089999460,27.0625000000000000,27.9508514404000010,45.9799999999999968,45.0000000000000000
0.0000000000000000,20.0000000000000000,-442.2550048830000260,438.2500000000000000,642.5749511720000550,-439.8499145509999830,-135.9600219730000100,771.5148925779999440,27.0625000000000000,27.9508514404000010,45.9799999999999968,45.0000000000000000
0.0000000000000000,20.0000000000000000,-442.3050231930000100,437.8750305180000160,642.9800415040000410,-439.5499572749999970,-135.0899658200000030,772.1950073240000160,27.0625000000000000,27.9196205139000000,45.9799999999999968,45.0000000000000000
0.0000000000000000,20.0000000000000000,-442.6600036620000080,437.7600402830000230,642.4000854490000160,-438.9050292969999980,-135.7449646000000030,771.9699707029999440,27.0625000000000000,27.9508514404000010,45.9799999999999968,45.0000000000000000
0.0000000000000000,20.0000000000000000,-442.5449523930000160,437.6450805659999900,642.7550659180000130,-440.0449523930000160,-135.0099945069999870,771.4450073240000160,27.3750000000000000,27.9508514404000010,45.9799999999999968,45.0000000000000000
0.0000000000000000,21.0000000000000000,-625.4399414060000020,-5.5349993705699996,637.7550048829999690,-624.3199462889999720,-452.5899658199999740,459.5500183109999730,27.0625000000000000,27.9508514404000010,45.9799999999999968,0.0000000000000000
0.0000000000000000,21.0000000000000000,-625.1499633790000410,-5.7300324439999999,638.8148803709999580,-624.4449462889999720,-452.7149963379999910,459.6300048830000260,27.0625000000000000,27.9508514404000010,45.9799999999999968,0.0000000000000000
0.0000000000000000,21.0000000000000000,-625.9100341800000240,-5.6100096702600002,638.1748657230000380,-623.0500488279999440,-453.4350280759999800,459.4599609379999940,27.0625000000000000,27.9508514404000010,45.9799999999999968,0.0000000000000000
0.0000000000000000,21.0000000000000000,-625.3250122069999860,-5.5050144195600001,638.3299560550000240,-624.3349609379999940,-452.9649963379999910,459.8899536129999880,27.0625000000000000,27.9508514404000010,45.9799999999999968,0.0000000000000000
0.0000000000000000,21.0000000000000000,-624.8749999999999990,-5.3299841880800001,637.7449340819999860,-623.4249267579999690,-452.7448730469999980,459.0248718259999800,27.3750000000000000,27.9508514404000010,45.9799999999999968,0.0000000000000000
0.0000000000000000,21.0000000000000000,-625.9999999999999990,-5.3099999427800002,637.9400024410000460,-623.7849731449999800,-452.3849792479999790,459.2349548340000060,27.0625000000000000,27.9508514404000010,45.9799999999999968,0.0000000000000000
0.0000000000000000,21.0000000000000000,0.0000000000000000,0.0000000000000000,0.0000000000000000,0.0000000000000000,0.0000000000000000,0.0000000000000000,0.0000000000000000,0.0000000000000000,45.9799999999999968,0.0000000000000000
0.0000000000000000,21.0000000000000000,0.0000000000000000,0.0000000000000000,0.0000000000000000,0.0000000000000000,0.0000000000000000,0.0000000000000000,0.0000000000000000,0.0000000000000000,45.9799999999999968,0.0000000000000000
0.0000000000000000,21.0000000000000000,0.0000000000000000,0.0000000000000000,0.0000000000000000,0.0000000000000000,0.0000000000000000,0.0000000000000000,0.0000000000000000,0.0000000000000000,45.9799999999999968,0.0000000000000000
0.0000000000000000,21.0000000000000000,0.0000000000000000,0.0000000000000000,0.0000000000000000,0.0000000000000000,0.0000000000000000,0.0000000000000000,0.0000000000000000,0.0000000000000000,45.9799999999999968,0.0000000000000000
0.0000000000000000,22.0000000000000000,-444.1499633789999840,-445.1599426270000200,634.4150390620000050,-442.6199951169999730,-767.9749755860000270,150.5849914549999940,27.0625000000000000,27.9508514404000010,45.9799999999999968,-45.0000000000000000
0.0000000000000000,22.0000000000000000,-444.7399902340000040,-445.4499206539999810,634.5900268550000190,-443.3850402830000230,-767.7548828120000050,150.8899230959999900,27.0625000000000000,27.9508514404000010,45.9799999999999968,-45.0000000000000000
0.0000000000000000,22.0000000000000000,-444.2800292969999980,-445.1250000000000000,634.9199218749999990,-443.1749572749999970,-768.1600341800000240,151.1000213620000070,27.0625000000000000,27.9508514404000010,45.9799999999999968,-45.0000000000000000
0.0000000000000000,22.0000000000000000,-444.8400268550000190,-445.0750427250000030,634.1049804689999970,-443.0899658199999740,-768.0899658199999740,151.3850555420000030,27.3750000000000000,27.9508514404000010,45.9799999999999968,-45.0000000000000000
0.0000000000000000,22.0000000000000000,-444.3099975590000090,-444.8400268550000190,634.7700195310000020,-443.2399597169999760,-767.5700073240000160,150.8150176999999980,27.3750000000000000,27.9508514404000010,45.9799999999999968,-45.0000000000000000
0.0000000000000000,22.0000000000000000,-444.4849243159999900,-445.2700195310000020,634.5500488279999440,-442.6499633789999840,-768.1749877930000130,150.7300415040000130,27.0625000000000000,27.9508514404000010,45.9799999999999968,-45.0000000000000000
0.0000000000000000,22.0000000000000000,-444.8449401859999730,-445.5150146479999760,634.8798217769999600,-442.8200683590000040,-768.1099853519999660,150.3449859620000100,27.0625000000000000,27.9508514404000010,45.9799999999999968,-45.0000000000000000
0.0000000000000000,22.0000000000000000,-444.0949096680000130,-445.3399963379999910,635.2149658199999740,-442.5799560550000250,-767.9050903319999850,150.3349304200000060,27.0625000000000000,27.9508514404000010,45.9799999999999968,-45.0000000000000000
0.0000000000000000,22.0000000000000000,-444.2949829099999870,-444.9798583979999760,634.9749755860000270,-442.2000427250000030,-768.0900878910000520,150.8749542239999920,27.0625000000000000,27.9508514404000010,45.9799999999999968,-45.0000000000000000
0.0000000000000000,22.0000000000000000,-444.4500732419999730,-444.9499511719999980,635.8350219730000380,-442.5999755860000270,-767.4199829100000440,151.0350036620000080,27.0625000000000000,27.9820804595999988,45.9799999999999968,-45.0000000000000000
0.0000000000000000,23.0000000000000000,-5.2350125312799998,-629.1799316410000520,637.5899658199999740,2.4800124168400002,-901.4299926759999830,18.7750282288000001,27.3750000000000000,27.9508514404000010,45.9799999999999968,-89.9999999999999999
0.0000000000000000,23.0000000000000000,-5.3800268173200001,-628.8299560550000240,638.8498535160000520,3.0849924087499998,-901.1199951170000300,18.4700317383000012,27.0625000000000000,27.9508514404000010,45.9799999999999968,-89.9999999999999999
0.0000000000000000,23.0000000000000000,-5.6100420951799999,-628.5898437499999990,638.5150146480000320,2.7249495983099998,-901.3449707029999440,19.5350303650000008,27.3750000000000000,27.9820804595999988,45.9799999999999968,-89.9999999999999999
0.0000000000000000,23.0000000000000000,-5.5750184059099999,-628.9900512699999800,638.1300659180000130,3.0200145244600001,-901.2099609379999940,18.7300148009999994,27.0625000000000000,27.9508514404000010,45.9799999999999968,-89.9999999999999999
0.0000000000000000,23.0000000000000000,-5.5400505065900001,-628.8749999999999990,638.0850219730000380,3.0849974155400002,-900.9849853519999660,19.3350086212000001,27.0625000000000000,27.9508514404000010,45.9799999999999968,-89.9999999999999999
0.0000000000000000,23.0000000000000000,-5.5150194168100004,-628.6849365230000320,638.0899658199999740,2.6249825954400001,-901.2399902339999460,18.9799842834000003,27.0625000000000000,27.9508514404000010,45.9799999999999968,-89.9999999999999999
0.0000000000000000,23.0000000000000000,-5.2200274467499996,-628.9350585939999970,637.7999877930000130,2.8799748420700002,-901.3049926759999830,18.6450099945000005,27.3750000000000000,27.9508514404000010,45.9799999999999968,-89.9999999999999999
0.0000000000000000,23.0000000000000000,-5.3849773406999999,-628.4749145509999830,638.0499877930000130,2.3399798870100001,-901.4900512699999800,18.9349555969000001,27.3750000000000000,27.9508514404000010,45.9799999999999968,-89.9999999999999999
0.0000000000000000,23.0000000000000000,-5.6950082778900004,-629.1600341800000240,638.1248779300000240,2.8149547576899998,-901.1499633790000410,18.4200134276999989,27.0625000000000000,27.9508514404000010,45.9799999999999968,-89.9999999999999999
0.0000000000000000,23.0000000000000000,-5.6550755500800003,-628.4050903319999860,638.1900024410000460,2.8549478054000001,-901.0799560550000240,18.7299785613999994,27.3750000000000000,27.9820804595999988,45.9799999999999968,-89.9999999999999999
0.0000000000000000,24.0000000000000000,444.6699829099999870,-445.4998779300000250,636.8200073240000160,456.5900573729999790,-768.8449096680000130,151.2749633790000130,27.0625000000000000,27.9508514404000010,45.9799999999999968,-135.0000000000000000
0.0000000000000000,24.0000000000000000,444.0899963379999910,-445.5848999020000170,637.1949462889999720,456.1949462889999720,-768.6549682620000100,150.4550476070000110,27.0625000000000000,27.9508514404000010,45.9799999999999968,-135.0000000000000000
0.0000000000000000,24.0000000000000000,444.6300048830000260,-445.8699951169999730,637.4199829100000440,456.7199401859999730,-768.8300781249999990,150.4249877930000140,27.3750000000000000,27.9508514404000010,45.9799999999999968,-135.0000000000000000
0.0000000000000000,24.0000000000000000,444.5298767090000060,-445.5799255370000080,636.4400634769999660,456.9700622560000050,-768.9699707029999440,150.5149841310000050,27.0625000000000000,27.9508514404000010,45.9799999999999968,-135.0000000000000000
0.0000000000000000,24.0000000000000000,445.1348876949999740,-445.5399780270000170,636.9650268550000190,456.5549926759999830,-768.6099853519999660,150.9299926760000120,27.0625000000000000,27.9508514404000010,45.9799999999999968,-135.0000000000000000
0.0000000000000000,24.0000000000000000,444.8699035640000260,-445.7949829099999870,637.0549316410000520,456.5799865719999950,-769.5248413089999520,150.4649963379999920,27.0625000000000000,27.9508514404000010,45.9799999999999968,-135.0000000000000000
0.0000000000000000,24.0000000000000000,445.0849914550000220,-445.6750183109999730,637.0800170899999550,457.0950012210000180,-769.0700073240000160,151.0299987790000100,27.0625000000000000,27.9508514404000010,45.9799999999999968,-135.0000000000000000
0.0000000000000000,24.0000000000000000,443.8250427250000030,-445.7850036620000080,636.3449707029999440,456.1900024409999900,-768.6699218749999990,150.9699707030000010,27.3750000000000000,27.9508514404000010,45.9799999999999968,-135.0000000000000000
0.0000000000000000,24.0000000000000000,444.3849182129999910,-445.2350158689999940,636.6649780269999600,456.6150817870000080,-768.8549804689999970,151.2250366209999870,27.3750000000000000,27.9508514404000010,45.9799999999999968,-135.0000000000000000
0.0000000000000000,24.0000000000000000,444.7249145509999830,-445.9100646969999950,636.6148681639999720,456.2750549319999890,-769.3250122069999850,150.3350219730000100,27.3750000000000000,27.9508514404000010,45.9799999999999968,-135.0000000000000000
0.0000000000000000,25.0000000000000000,338.3199157710000120,-5.2550139427199998,827.8299560550000240,346.5950317379999880,-584.2399291990000160,601.7348632810000020,27.0625000000000000,27.9508514404000010,68.3800000000000096,180.0000000000000000
0.0000000000000000,25.0000000000000000,339.1349792479999790,-4.7800154686000003,827.4999999999999990,346.4349060060000050,-584.6300048829999690,601.6200561519999600,27.3750000000000000,27.9508514404000010,68.3800000000000096,180.0000000000000000
0.0000000000000000,25.0000000000000000,338.2200317379999880,-5.1549825668300002,827.3399658199999740,347.0200195310000020,-584.5899658199999740,601.5449829100000440,27.0625000000000000,27.9820804595999988,68.3800000000000096,180.0000000000000000
0.0000000000000000,25.0000000000000000,338.7699890139999750,-4.9300055503799998,827.6198730470000550,346.8299560550000250,-584.3250122069999860,601.2999267579999690,27.0625000000000000,27.9508514404000010,68.3800000000000096,180.0000000000000000
0.0000000000000000,25.0000000000000000,339.1250305180000170,-5.2800254821800001,827.6950073240000160,347.1899108889999750,-584.0700683589999470,600.9299926759999830,27.0625000000000000,27.9820804595999988,68.3800000000000096,180.0000000000000000
0.0000000000000000,25.0000000000000000,338.5050048830000260,-4.7549777030899998,827.9899902339999460,346.5250244139999720,-584.1849365230000320,601.6948242189999970,26.7500000000000000,27.9508514404000010,68.3800000000000096,180.0000000000000000
0.0000000000000000,25.0000000000000000,338.4150390620000050,-5.5949931144700002,827.7600097660000520,346.2899780270000180,-584.3399658199999740,600.9199829100000440,27.3750000000000000,27.9508514404000010,68.3800000000000096,180.0000000000000000
0.0000000000000000,25.0000000000000000,337.9949951169999730,-5.1049795150800001,827.4499511720000550,346.8849182129999910,-583.8500366209999580,601.5998535160000520,27.3750000000000000,27.9508514404000010,68.3800000000000096,180.0000000000000000
0.0000000000000000,25.0000000000000000,339.0299072270000230,-5.0549840927099998,827.0598754879999880,347.0950317379999880,-583.9199829100000440,601.2698974610000270,27.3750000000000000,27.9508514404000010,68.3800000000000096,180.0000000000000000
0.0000000000000000,25.0000000000000000,338.6600036620000080,-5.5749902725200000,827.3549804689999970,346.8249511719999980,-585.1199340819999860,600.5001220699999740,27.0625000000000000,27.9508514404000010,68.3800000000000096,180.0000000000000000
0.0000000000000000,26.0000000000000000,239.1149597170000050,232.9949798579999930,830.1799316410000520,244.1750335689999930,-419.4749755860000270,761.1398925779999440,27.3750000000000000,27.9508514404000010,68.3800000000000096,135.0000000000000000
0.0000000000000000,26.0000000000000000,239.0800170900000120,232.7699584959999870,830.1801147459999580,243.8549804689999970,-419.7299804689999970,761.5198974610000270,27.0625000000000000,27.9508514404000010,68.3800000000000096,135.0000000000000000
0.0000000000000000,26.0000000000000000,238.9050292969999980,233.2250518799999950,830.0149536129999880,242.6899871829999990,-419.6500244139999720,760.9849853519999660,27.0625000000000000,27.9508514404000010,68.3800000000000096,135.0000000000000000
0.0000000000000000,26.0000000000000000,239.4650115970000000,233.2950592040000120,830.2600097660000520,243.3950195310000020,-419.5200195310000020,760.5399169920000300,27.0625000000000000,27.9508514404000010,68.3800000000000096,135.0000000000000000
0.0000000000000000,26.0000000000000000,239.8950195310000020,233.0649871829999990,829.9898071290000410,243.4949493409999940,-419.7600708009999830,761.3099975589999520,27.0625000000000000,27.9508514404000010,68.3800000000000096,135.0000000000000000
0.0000000000000000,26.0000000000000000,0.0000000000000000,0.0000000000000000,0.0000000000000000,0.0000000000000000,0.0000000000000000,0.0000000000000000,0.0000000000000000,0.0000000000000000,68.3800000000000096,135.0000000000000000
0.0000000000000000,26.0000000000000000,0.0000000000000000,0.0000000000000000,0.0000000000000000,0.0000000000000000,0.0000000000000000,0.0000000000000000,0.0000000000000000,0.0000000000000000,68.3800000000000096,135.0000000000000000
0.0000000000000000,26.0000000000000000,0.0000000000000000,0.0000000000000000,0.0000000000000000,0.0000000000000000,0.0000000000000000,0.0000000000000000,0.0000000000000000,0.0000000000000000,68.3900000000000005,135.0000000000000000
0.0000000000000000,26.0000000000000000,239.4649963379999920,232.8399963379999920,830.4950561519999600,243.7550201420000060,-419.7848815919999760,761.3698120120000100,27.6875000000000000,27.9508514404000010,68.3900000000000005,135.0000000000000000
0.0000000000000000,26.0000000000000000,239.0199890140000030,232.6550598139999970,829.9349975589999520,243.6150360110000010,-419.2998657229999820,760.6348876949999740,27.3750000000000000,27.9508514404000010,68.3900000000000005,135.0000000000000000
0.0000000000000000,27.0000000000000000,0.7750698924060000,332.3999633789999840,828.8449096680000130,8.3549375534100001,-350.7499389650000120,827.3701171879999940,27.3750000000000000,27.9820804595999988,68.3900000000000005,89.9999999999999999
0.0000000000000000,27.0000000000000000,0.0850049480796000,332.0100402830000230,829.4450683589999460,7.6350016593900003,-351.4050292969999980,827.6449584959999580,27.0625000000000000,27.9508514404000010,68.3900000000000005,89.9999999999999999
0.0000000000000000,27.0000000000000000,0.2200124710800000,332.0849609379999940,829.5999145509999830,7.0699448585500004,-350.6950073240000160,827.5847167970000550,27.3750000000000000,27.9508514404000010,68.3900000000000005,89.9999999999999999
0.0000000000000000,27.0000000000000000,0.8250000476840000,332.5700073240000160,829.6850585939999970,7.5049800872799999,-351.1250610349999870,827.3248901370000100,27.0625000000000000,27.9508514404000010,68.3800000000000096,89.9999999999999999
0.0000000000000000,27.0000000000000000,0.1099649965760000,331.6400451659999930,828.9600830079999690,6.8599829673799997,-350.6049804689999970,827.7899780269999600,27.0625000000000000,27.9508514404000010,68.3900000000000005,89.9999999999999999
0.0000000000000000,27.0000000000000000,0.0000000000000000,0.0000000000000000,0.0000000000000000,0.0000000000000000,0.0000000000000000,0.0000000000000000,0.0000000000000000,0.0000000000000000,68.3900000000000005,89.9999999999999999
0.0000000000000000,27.0000000000000000,0.0000000000000000,0.0000000000000000,0.0000000000000000,0.0000000000000000,0.0000000000000000,0.0000000000000000,0.0000000000000000,0.0000000000000000,68.3800000000000096,89.9999999999999999
0.0000000000000000,27.0000000000000000,0.0000000000000000,0.0000000000000000,0.0000000000000000,0.0000000000000000,0.0000000000000000,0.0000000000000000,0.0000000000000000,0.0000000000000000,68.3900000000000005,89.9999999999999999
0.0000000000000000,27.0000000000000000,0.8900700211520000,331.9950561520000180,829.8099975589999520,7.6199941635100004,-350.8450317379999880,827.7698974610000270,27.0625000000000000,27.9508514404000010,68.3800000000000096,89.9999999999999999
0.0000000000000000,27.0000000000000000,-0.1449600607160000,332.3399658199999750,828.8999633790000410,8.0599794387799992,-350.6749877930000140,827.2648925779999440,27.0625000000000000,27.9508514404000010,68.3800000000000096,89.9999999999999999
0.0000000000000000,28.0000000000000000,-239.7000122069999860,232.0900268549999910,828.5650024410000460,-229.1549377439999940,-419.1448974610000270,761.9149780269999600,27.3750000000000000,27.9508514404000010,68.3900000000000005,45.0000000000000000
0.0000000000000000,28.0000000000000000,-240.0300292969999980,231.8500213620000070,828.9149780269999600,-229.5599517820000130,-419.1399841310000050,762.7500610350000440,27.0625000000000000,27.9508514404000010,68.3900000000000005,45.0000000000000000
0.0000000000000000,28.0000000000000000,-240.8849945069999870,231.6699981689999960,828.8049316410000520,-228.6650085450000060,-419.3950195310000020,762.2548828120000050,27.0625000000000000,27.9508514404000010,68.3900000000000005,45.0000000000000000
0.0000000000000000,28.0000000000000000,-241.0499572749999970,231.6399688719999970,828.7799072269999660,-229.5899353030000040,-419.4899597169999760,762.1249999999999990,27.0625000000000000,27.9508514404000010,68.3900000000000005,45.0000000000000000
0.0000000000000000,28.0000000000000000,-240.1599578860000010,231.5499877930000140,828.6449584959999580,-229.9200134280000040,-418.9099121090000040,762.2449951170000300,27.0625000000000000,27.9508514404000010,68.3900000000000005,45.0000000000000000
0.0000000000000000,28.0000000000000000,-240.6600189209999880,231.5549621579999950,828.6650390620000040,-229.9499969480000060,-419.0499572749999970,761.7798461910000460,27.0625000000000000,27.9508514404000010,68.3900000000000005,45.0000000000000000
0.0000000000000000,28.0000000000000000,-240.8199615480000090,231.5750274659999940,828.4050292970000550,-228.7349548340000070,-419.5300292969999980,762.2399902339999460,27.0625000000000000,27.9508514404000010,68.3900000000000005,45.0000000000000000
0.0000000000000000,28.0000000000000000,-241.0800170900000120,232.0900268549999910,828.6350097660000520,-229.5199432370000070,-418.9951171879999940,762.0599975589999520,27.3750000000000000,27.9508514404000010,68.3900000000000005,45.0000000000000000
0.0000000000000000,28.0000000000000000,-240.4849548340000070,232.1650390620000050,828.3748779300000240,-229.7750091549999920,-419.3699951169999730,761.6149902339999460,27.0625000000000000,27.9508514404000010,68.3900000000000005,45.0000000000000000
0.0000000000000000,28.0000000000000000,-240.3800353999999970,231.7349395749999980,829.0200805660000460,-230.1600494379999870,-419.0949401859999730,762.0199584959999580,27.3750000000000000,27.9508514404000010,68.3900000000000005,45.0000000000000000
0.0000000000000000,29.0000000000000000,-337.3000793460000180,-6.1200151443499999,826.5198974610000270,-328.1199035640000260,-588.7199707029999440,595.3898925779999440,27.0625000000000000,27.9508514404000010,68.3900000000000005,0.0000000000000000
0.0000000000000000,29.0000000000000000,-337.0799865719999950,-6.3999795913700002,826.4900512699999800,-328.4450073240000160,-588.8649291990000160,594.7149658199999740,27.0625000000000000,27.9508514404000010,68.3900000000000005,0.0000000000000000
0.0000000000000000,29.0000000000000000,-337.7200012210000180,-6.0800094604500003,826.3150634769999660,-328.6000061039999870,-589.3499145509999830,595.1799316410000520,27.3750000000000000,27.9508514404000010,68.3900000000000005,0.0000000000000000
0.0000000000000000,29.0000000000000000,-337.7100219729999820,-6.4250292778000002,826.2498779300000240,-327.8400268550000190,-588.6599731449999800,594.6650390620000050,27.0625000000000000,27.9508514404000010,68.3900000000000005,0.0000000000000000
0.0000000000000000,29.0000000000000000,-337.4149475099999900,-5.9150199890100001,826.9699096680000130,-328.4599609379999940,-589.2199096680000130,594.7450561519999600,26.7500000000000000,27.9196205139000000,68.3900000000000005,0.0000000000000000
0.0000000000000000,29.0000000000000000,-337.7500305180000170,-7.0600180625900002,826.8348999019999600,-328.4199829099999870,-588.9050903319999860,594.5900268550000190,27.0625000000000000,27.9508514404000010,68.3900000000000005,0.0000000000000000
0.0000000000000000,29.0000000000000000,-337.6600036620000080,-6.9500126838699998,826.4649658199999740,-328.5549926759999830,-588.8799438480000380,594.6098632810000020,27.0625000000000000,27.9508514404000010,68.3900000000000005,0.0000000000000000
0.0000000000000000,29.0000000000000000,-337.8049011229999790,-6.7750296592700003,826.3800048829999690,-327.8400268550000190,-589.2449340819999860,595.2600097660000520,27.0625000000000000,27.9508514404000010,68.3900000000000005,0.0000000000000000
0.0000000000000000,29.0000000000000000,-337.9649963379999910,-6.6450028419500002,826.0849609379999940,-328.7249450680000110,-588.9949340819999860,594.4849243160000460,27.3750000000000000,27.9508514404000010,68.3900000000000005,0.0000000000000000
0.0000000000000000,29.0000000000000000,-337.7500305180000170,-7.1000285148600000,826.4649658199999740,-328.2100219729999820,-588.9199829100000440,594.6400146480000320,27.3750000000000000,27.9508514404000010,68.3900000000000005,0.0000000000000000
0.0000000000000000,30.0000000000000000,-238.8499908450000080,-244.6400146480000040,823.2698974610000270,-232.5349884030000000,-754.5848999019999600,433.9700012210000180,27.0625000000000000,27.9508514404000010,68.3900000000000005,-45.0000000000000000
0.0000000000000000,30.0000000000000000,-239.9949798579999930,-244.7249908450000080,823.3350830079999690,-232.1000366209999870,-754.8100585939999970,433.0949401859999730,27.3750000000000000,27.9508514404000010,68.3900000000000005,-45.0000000000000000
0.0000000000000000,30.0000000000000000,-239.2399902340000040,-245.2800292969999980,823.0400390620000040,-232.5300292969999980,-755.0199584959999580,433.6549987789999810,27.3750000000000000,27.9508514404000010,68.3900000000000005,-45.0000000000000000
0.0000000000000000,30.0000000000000000,-239.8999328609999960,-244.9599761960000130,822.8300781249999990,-232.1649322510000100,-755.2349243160000460,433.3800353999999970,27.0625000000000000,27.9508514404000010,68.3900000000000005,-45.0000000000000000
0.0000000000000000,30.0000000000000000,-239.3550109859999960,-245.1050567629999930,823.3749999999999990,-232.6249237060000040,-755.0299682620000100,433.3001098629999880,27.3750000000000000,27.9508514404000010,68.3900000000000005,-45.0000000000000000
0.0000000000000000,30.0000000000000000,-239.2200164790000090,-245.1250152590000080,822.5499877930000130,-232.8000183110000020,-755.6300048829999690,433.1099853520000230,27.3750000000000000,27.9508514404000010,68.3900000000000005,-45.0000000000000000
0.0000000000000000,30.0000000000000000,-239.7848968510000130,-245.4550323489999920,823.5549316410000520,-232.6249694820000110,-754.8198242189999970,433.0999450680000100,27.0625000000000000,27.9508514404000010,68.3900000000000005,-45.0000000000000000
0.0000000000000000,30.0000000000000000,-239.9000396730000090,-245.8500366209999870,822.9049682620000100,-232.6399993900000140,-755.2799682620000100,433.1948852539999840,27.0625000000000000,27.9508514404000010,68.3900000000000005,-45.0000000000000000
0.0000000000000000,30.0000000000000000,-239.1399993900000140,-244.5800018310000040,822.8699951170000300,-231.7900695799999940,-755.5599975589999520,433.5548706050000190,27.0625000000000000,27.9508514404000010,68.3900000000000005,-45.0000000000000000
0.0000000000000000,30.0000000000000000,-238.8599395749999980,-245.2299957280000060,823.1248779300000240,-232.4300079349999920,-754.8749999999999990,433.2150573729999790,27.0625000000000000,27.9508514404000010,68.3900000000000005,-45.0000000000000000
0.0000000000000000,31.0000000000000000,-2.0250124931300002,-344.5099792479999790,823.0249023439999970,5.6799960136400003,-826.3400878910000520,362.0699157710000120,27.3750000000000000,27.9508514404000010,68.3900000000000005,-89.9999999999999999
0.0000000000000000,31.0000000000000000,-2.3400151729599998,-344.7700805659999900,822.9499511720000550,6.1699919700599999,-826.3401489259999830,362.2799377439999940,27.0625000000000000,27.9508514404000010,68.3900000000000005,-89.9999999999999999
0.0000000000000000,31.0000000000000000,-1.8900073766700001,-344.6199646000000030,823.4250488279999440,6.4550094604500003,-826.6250610350000440,363.0100402830000230,27.0625000000000000,27.9508514404000010,68.3900000000000005,-89.9999999999999999
0.0000000000000000,31.0000000000000000,-1.6700150966600000,-345.0599975590000100,822.8848876949999740,5.6599645614599998,-826.4799804689999970,362.0000305180000160,27.0625000000000000,27.9508514404000010,68.3900000000000005,-89.9999999999999999
0.0000000000000000,31.0000000000000000,-2.4700272083299999,-344.5399780270000180,822.8298950199999800,5.7700071334800000,-826.2550048829999690,362.3500366210000150,27.3750000000000000,27.9508514404000010,68.3900000000000005,-89.9999999999999999
0.0000000000000000,31.0000000000000000,-2.3549597263300002,-344.2351074219999980,822.4799194339999520,6.2599840164199998,-826.7199707029999440,361.8949584960000150,27.3750000000000000,27.9508514404000010,68.3900000000000005,-89.9999999999999999
0.0000000000000000,31.0000000000000000,-2.5149977207199998,-344.4049987789999820,822.4700317379999880,6.2050189971899998,-826.3649291990000160,361.7899475099999900,27.3750000000000000,27.9508514404000010,68.3900000000000005,-89.9999999999999999
0.0000000000000000,31.0000000000000000,-2.0449953079199998,-344.9599914550000220,822.5849609379999940,6.2149648666399999,-826.1699829100000440,361.8999938960000120,27.3750000000000000,27.9508514404000010,68.3900000000000005,-89.9999999999999999
0.0000000000000000,31.0000000000000000,-2.2850143909499998,-344.6900329590000070,821.9749145509999830,5.7900128364599999,-826.7149047850000440,361.1399536129999880,27.0625000000000000,27.9508514404000010,68.3900000000000005,-89.9999999999999999
0.0000000000000000,31.0000000000000000,-2.2399902343800000,-344.3949584960000150,822.3349609379999940,6.0650110244800004,-825.7649536129999880,362.1101379390000260,27.0625000000000000,27.9508514404000010,68.3900000000000005,-89.9999999999999999
0.0000000000000000,32.0000000000000000,241.2599792480000070,-243.9249572749999970,824.8950805660000460,249.4800567629999930,-754.3250122069999850,434.6549987789999810,27.0625000000000000,27.9508514404000010,68.3900000000000005,-135.0000000000000000
0.0000000000000000,32.0000000000000000,241.2850189209999880,-244.5199890140000030,825.0149536129999880,249.6950073239999880,-755.0350341800000240,435.3649902340000040,27.0625000000000000,27.9820804595999988,68.3900000000000005,-135.0000000000000000
0.0000000000000000,32.0000000000000000,240.7449798579999930,-243.3649902340000040,825.1201171879999940,249.0600585939999970,-754.9400634769999660,434.7850036620000080,27.0625000000000000,27.9508514404000010,68.3900000000000005,-135.0000000000000000
0.0000000000000000,32.0000000000000000,240.4399871829999990,-244.6550140379999900,825.1599731449999800,248.9700012209999900,-754.8699951170000300,434.3548583979999760,27.0625000000000000,27.9508514404000010,68.3900000000000005,-135.0000000000000000
0.0000000000000000,32.0000000000000000,0.0000000000000000,0.0000000000000000,0.0000000000000000,0.0000000000000000,0.0000000000000000,0.0000000000000000,0.0000000000000000,0.0000000000000000,68.3900000000000005,-135.0000000000000000
0.0000000000000000,32.0000000000000000,0.0000000000000000,0.0000000000000000,0.0000000000000000,0.0000000000000000,0.0000000000000000,0.0000000000000000,0.0000000000000000,0.0000000000000000,68.3900000000000005,-135.0000000000000000
0.0000000000000000,32.0000000000000000,240.8149719239999910,-243.2800292969999980,825.1099243160000460,249.4499969480000060,-754.8150024410000460,435.0699462889999720,27.0625000000000000,27.9508514404000010,68.3900000000000005,-135.0000000000000000
0.0000000000000000,32.0000000000000000,240.6249542239999920,-243.7549591060000010,824.7849731449999800,249.3999481200000050,-755.0100097660000520,434.3498840330000230,27.3750000000000000,27.9508514404000010,68.3900000000000005,-135.0000000000000000
0.0000000000000000,32.0000000000000000,241.2299957280000060,-244.6949310299999920,825.1300048829999690,249.6649932859999980,-755.2049560550000240,434.6600341800000250,27.0625000000000000,27.9508514404000010,68.3900000000000005,-135.0000000000000000
0.0000000000000000,32.0000000000000000,241.3300170900000120,-244.0650482179999870,824.3299560550000240,249.1898956299999950,-754.5299682620000100,434.5999755860000270,27.0625000000000000,27.9508514404000010,68.3900000000000005,-135.0000000000000000
0.0000000000000000,33.0000000000000000,32.4300079345999990,-4.7750043869000001,892.1350097660000520,40.9250030517999974,-628.6950073240000160,647.1300048829999690,27.0625000000000000,27.9508514404000010,88.2100000000000079,180.0000000000000000
0.0000000000000000,33.0000000000000000,32.4499588012999993,-5.0499944686899996,892.4498901370000100,40.4349975586000027,-629.2149658199999740,648.0850830079999690,27.3750000000000000,27.9508514404000010,88.2100000000000079,180.0000000000000000
0.0000000000000000,33.0000000000000000,32.8950004578000019,-4.2700052261400003,892.4400024410000460,40.9099807739000027,-629.3349609379999940,647.3950195310000020,27.0625000000000000,27.9196205139000000,88.2100000000000079,180.0000000000000000
0.0000000000000000,33.0000000000000000,31.7749938964999998,-4.7750377654999996,891.8000488279999440,40.8449668884000019,-629.5000610350000440,646.9899902339999460,27.0625000000000000,27.9508514404000010,88.2100000000000079,180.0000000000000000
0.0000000000000000,33.0000000000000000,32.3699607849000017,-4.4750075340300004,892.3899536129999880,40.1999664307000017,-629.3850708009999830,647.7499999999999990,27.3750000000000000,27.9508514404000010,88.2100000000000079,180.0000000000000000
0.0000000000000000,33.0000000000000000,32.0999450683999967,-4.4599866867099998,892.0449218749999990,40.6550445557000017,-628.8050537110000270,647.4649658199999740,27.0625000000000000,27.9508514404000010,88.2100000000000079,180.0000000000000000
0.0000000000000000,33.0000000000000000,31.6699218750000000,-4.2850294113200000,892.2049560550000240,40.6899185181000007,-628.6350097660000520,647.2399902339999460,27.3750000000000000,27.9508514404000010,88.2100000000000079,180.0000000000000000
0.0000000000000000,33.0000000000000000,0.0000000000000000,0.0000000000000000,0.0000000000000000,0.0000000000000000,0.0000000000000000,0.0000000000000000,0.0000000000000000,0.0000000000000000,88.2100000000000079,180.0000000000000000
0.0000000000000000,33.0000000000000000,31.8599720001000008,-5.2600426673899996,892.1200561519999600,40.1549606323000034,-629.1599731449999800,647.1798706050000190,27.0625000000000000,27.9508514404000010,88.2100000000000079,180.0000000000000000
0.0000000000000000,33.0000000000000000,32.7549591064000012,-4.7499976158099999,892.5599975589999520,41.0850143433000028,-629.1898803709999580,647.7949218749999990,27.0625000000000000,27.9508514404000010,88.2100000000000079,180.0000000000000000
0.0000000000000000,34.0000000000000000,22.2800121307000012,17.6450099945000005,892.4150390620000040,29.3650360106999990,-612.8499755860000270,663.7300415040000410,27.3750000000000000,27.9508514404000010,88.2100000000000079,135.0000000000000000
0.0000000000000000,34.0000000000000000,22.2199916840000000,18.6149806976000001,892.4350585939999960,29.9099941254000008,-613.1799316410000520,663.6699218749999990,27.3750000000000000,27.9508514404000010,88.2100000000000079,135.0000000000000000
0.0000000000000000,34.0000000000000000,21.7999629974000015,17.6699962616000015,892.6149291990000160,29.7449913025000008,-613.1849365230000320,663.6248779300000240,27.3750000000000000,27.9508514404000010,88.2100000000000079,135.0000000000000000
0.0000000000000000,34.0000000000000000,22.1699752807999992,17.6250038147000012,891.8800048829999690,29.5999279022000010,-612.6449584959999580,663.7699584959999580,27.3750000000000000,27.9508514404000010,88.2100000000000079,135.0000000000000000
0.0000000000000000,34.0000000000000000,21.8750038147000012,17.6650161742999998,891.8600463870000100,29.8799800873000016,-612.4849853519999660,663.6901245120000110,27.3750000000000000,27.9508514404000010,88.2199999999999988,135.0000000000000000
0.0000000000000000,34.0000000000000000,22.7349948883000010,17.7950134276999989,891.2500610350000430,29.4249897002999994,-612.8349609379999940,664.4099731449999800,27.3750000000000000,27.9508514404000010,88.2100000000000079,135.0000000000000000
0.0000000000000000,34.0000000000000000,22.1250209807999987,17.9999809265000010,892.2699584959999580,29.4700241088999988,-613.1400756839999520,662.9249267579999690,27.0625000000000000,27.9508514404000010,88.2100000000000079,135.0000000000000000
0.0000000000000000,34.0000000000000000,21.8099975585999992,18.4000244140999989,891.4400024410000460,29.5549983977999986,-612.5748901370000110,664.1599121089999460,27.3750000000000000,27.9508514404000010,88.2199999999999988,135.0000000000000000
0.0000000000000000,34.0000000000000000,22.0500144957999993,19.5850086212000001,891.6699218749999990,29.9300231934000003,-612.7350463870000110,663.8200073240000160,27.0625000000000000,27.9508514404000010,88.2199999999999988,135.0000000000000000
0.0000000000000000,34.0000000000000000,22.2600536345999984,18.3250026703000017,891.2449951170000300,29.5549888611000000,-612.7499999999999990,663.5849609379999940,27.0625000000000000,27.9508514404000010,88.2199999999999988,135.0000000000000000
0.0000000000000000,35.0000000000000000,-3.1050448417699998,26.9549903869999987,892.0198974610000270,5.4699726104700002,-607.0100097660000520,669.0848999019999600,27.3750000000000000,27.9508514404000010,88.2100000000000079,89.9999999999999999
0.0000000000000000,35.0000000000000000,0.0000000000000000,0.0000000000000000,0.0000000000000000,0.0000000000000000,0.0000000000000000,0.0000000000000000,0.0000000000000000,0.0000000000000000,88.2100000000000079,89.9999999999999999
0.0000000000000000,35.0000000000000000,0.0000000000000000,0.0000000000000000,0.0000000000000000,0.0000000000000000,0.0000000000000000,0.0000000000000000,0.0000000000000000,0.0000000000000000,88.2199999999999988,89.9999999999999999
0.0000000000000000,35.0000000000000000,0.0000000000000000,0.0000000000000000,0.0000000000000000,0.0000000000000000,0.0000000000000000,0.0000000000000000,0.0000000000000000,0.0000000000000000,88.2199999999999988,89.9999999999999999
0.0000000000000000,35.0000000000000000,-2.4249899387400000,26.5600051880000016,892.4099121089999460,5.5999999046299997,-607.2300415040000410,669.3050537110000270,27.3750000000000000,27.9508514404000010,88.2199999999999988,89.9999999999999999
0.0000000000000000,35.0000000000000000,-2.2849926948500001,26.5399913787999999,892.5598754879999880,5.3099594116200004,-606.7349853519999660,668.6499633790000410,27.0625000000000000,27.9508514404000010,88.2199999999999988,89.9999999999999999
0.0000000000000000,35.0000000000000000,-3.1250100135799999,26.8900260925000012,892.1898803709999580,5.6099796295199997,-607.2300415040000410,669.4500732420000300,27.0625000000000000,27.9508514404000010,88.2199999999999988,89.9999999999999999
0.0000000000000000,35.0000000000000000,-2.3950119018599998,26.0600070953000014,891.7947998050000240,5.2950110435499997,-606.9000854490000160,669.9299926759999830,27.0625000000000000,27.9508514404000010,88.2199999999999988,89.9999999999999999
0.0000000000000000,35.0000000000000000,-2.9050073623700001,26.9499874115000004,892.2349853519999660,4.9700121879600001,-607.2349243160000460,668.8200073240000160,27.0625000000000000,27.9508514404000010,88.2199999999999988,89.9999999999999999
0.0000000000000000,35.0000000000000000,0.0000000000000000,0.0000000000000000,0.0000000000000000,0.0000000000000000,0.0000000000000000,0.0000000000000000,0.0000000000000000,0.0000000000000000,88.2199999999999988,89.9999999999999999
0.0000000000000000,36.0000000000000000,-26.3799743651999989,15.2850351333999992,892.6199951170000300,-17.2199592589999995,-615.2148437499999990,661.6199951170000300,27.3750000000000000,27.9508514404000010,88.2199999999999988,45.0000000000000000
0.0000000000000000,36.0000000000000000,-26.1849880219000006,15.8200073242000005,892.2550659180000130,-17.3349838257000002,-615.0650024410000460,661.1599731449999800,27.3750000000000000,27.9508514404000010,88.2199999999999988,45.0000000000000000
0.0000000000000000,36.0000000000000000,-25.9200286865000002,14.4999799728000003,892.2450561519999600,-17.4700145720999984,-615.0150146480000320,660.7299804689999970,27.0625000000000000,27.9508514404000010,88.2199999999999988,45.0000000000000000
0.0000000000000000,36.0000000000000000,-26.5149497986000000,14.7999639511000005,892.1050415040000410,-17.8850555419999999,-615.0701293949999800,662.0849609379999940,27.0625000000000000,27.9820804595999988,88.2199999999999988,45.0000000000000000
0.0000000000000000,36.0000000000000000,0.0000000000000000,0.0000000000000000,0.0000000000000000,0.0000000000000000,0.0000000000000000,0.0000000000000000,0.0000000000000000,0.0000000000000000,88.2199999999999988,45.0000000000000000
0.0000000000000000,36.0000000000000000,0.0000000000000000,0.0000000000000000,0.0000000000000000,0.0000000000000000,0.0000000000000000,0.0000000000000000,0.0000000000000000,0.0000000000000000,88.2199999999999988,45.0000000000000000
0.0000000000000000,36.0000000000000000,0.0000000000000000,0.0000000000000000,0.0000000000000000,0.0000000000000000,0.0000000000000000,0.0000000000000000,0.0000000000000000,0.0000000000000000,88.2199999999999988,45.0000000000000000
0.0000000000000000,36.0000000000000000,0.0000000000000000,0.0000000000000000,0.0000000000000000,0.0000000000000000,0.0000000000000000,0.0000000000000000,0.0000000000000000,0.0000000000000000,88.2199999999999988,45.0000000000000000
0.0000000000000000,36.0000000000000000,-26.2550449370999992,14.8999643325999997,891.8850097660000520,-17.7100124359000013,-615.8600463870000110,661.2349243160000460,27.0625000000000000,27.9508514404000010,88.2199999999999988,45.0000000000000000
0.0000000000000000,36.0000000000000000,-25.8499832153000000,15.4050045013000005,892.1702270509999830,-17.7100257873999993,-615.2750244139999720,661.3948974610000270,27.3750000000000000,27.9508514404000010,88.2199999999999988,45.0000000000000000
0.0000000000000000,37.0000000000000000,-33.2849617003999967,-9.1599817276000000,891.4049682620000100,-24.7399978637999993,-632.3300170899999550,645.0098876949999740,27.0625000000000000,27.9508514404000010,88.2199999999999988,0.0000000000000000
0.0000000000000000,37.0000000000000000,-32.8750152587999977,-9.0999908447299997,891.9350585939999960,-25.4999961852999988,-632.2249145509999830,644.6499633790000410,27.0625000000000000,27.9508514404000010,88.2199999999999988,0.0000000000000000
0.0000000000000000,37.0000000000000000,-33.9550247191999972,-9.5849828720100003,891.6948242189999960,-25.0549793242999996,-631.5550537110000270,644.9498901370000110,27.3750000000000000,27.9508514404000010,88.2199999999999988,0.0000000000000000
0.0000000000000000,37.0000000000000000,-32.5899581908999991,-8.9149818420399995,891.9699707029999440,-25.2549915314000017,-631.8798828120000050,644.9649658199999740,27.0625000000000000,27.9508514404000010,88.2199999999999988,0.0000000000000000
0.0000000000000000,37.0000000000000000,-33.1249809265000010,-10.2900371552000003,891.9699707029999440,-24.7249603270999998,-632.0851440430000130,644.6149291990000160,27.3750000000000000,27.9508514404000010,88.2199999999999988,0.0000000000000000
0.0000000000000000,37.0000000000000000,-33.7900199890000010,-8.9549970626800004,891.5999145509999830,-24.9949245453000017,-631.9249267579999690,644.7349243160000460,27.0625000000000000,27.9508514404000010,88.2199999999999988,0.0000000000000000
0.0000000000000000,37.0000000000000000,-34.0150222778000000,-9.0799570083599992,891.8500366209999580,-25.1550369262999993,-631.7849731449999800,644.5349731449999800,27.0625000000000000,27.9508514404000010,88.2199999999999988,0.0000000000000000
0.0000000000000000,37.0000000000000000,-33.6400032043000010,-9.0050020217900002,891.9100341800000240,-24.3849945067999982,-631.8799438480000380,645.4850463870000110,27.0625000000000000,27.9508514404000010,88.2199999999999988,0.0000000000000000
0.0000000000000000,37.0000000000000000,-33.8899497986000000,-9.4350318908700004,891.2498779300000240,-24.7299041748000015,-632.4300537110000270,644.7099609379999940,27.3750000000000000,27.9508514404000010,88.2199999999999988,0.0000000000000000
0.0000000000000000,37.0000000000000000,-33.0549812316999976,-8.8600330352800007,891.5148925779999440,-24.9250164032000008,-632.0549926759999830,645.3750610350000440,27.0625000000000000,27.9508514404000010,88.2199999999999988,0.0000000000000000
0.0000000000000000,38.0000000000000000,-22.1950092316000003,-31.3849945067999982,891.5301513670000300,-13.1899862289000005,-647.6900024410000460,628.9048461910000460,27.3750000000000000,27.9508514404000010,88.2199999999999988,-45.0000000000000000
0.0000000000000000,38.0000000000000000,-22.9450168609999991,-32.0099716186999998,892.0199584959999580,-13.1150264740000004,-648.1199340819999860,628.9899902339999460,27.0625000000000000,27.9508514404000010,88.2199999999999988,-45.0000000000000000
0.0000000000000000,38.0000000000000000,-22.6350460051999995,-32.5450592040999993,892.0499267579999690,-13.4199790955000004,-648.0050048829999690,628.9949951170000300,27.3750000000000000,27.9508514404000010,88.2199999999999988,-45.0000000000000000
0.0000000000000000,38.0000000000000000,-22.4550075530999997,-32.1199760436999995,892.5949707029999440,-13.5899925231999994,-647.6550292970000550,628.7750854490000160,27.3750000000000000,27.9508514404000010,88.2199999999999988,-45.0000000000000000
0.0000000000000000,38.0000000000000000,-22.9400424956999984,-32.3600120544000020,891.9450073240000160,-13.6550359726000003,-647.9498901370000110,628.8250122069999860,27.0625000000000000,27.9508514404000010,88.2199999999999988,-45.0000000000000000
0.0000000000000000,38.0000000000000000,-22.6099643706999984,-32.0099983214999994,891.4249877930000130,-13.8149528502999992,-648.4100341800000240,629.2199707029999440,27.0625000000000000,27.9508514404000010,88.2199999999999988,-45.0000000000000000
0.0000000000000000,38.0000000000000000,-23.5200042724999996,-32.1150245667000007,891.4799804689999960,-13.3999767303000006,-647.6900024410000460,628.8699951170000300,27.0625000000000000,27.9508514404000010,88.2199999999999988,-45.0000000000000000
0.0000000000000000,38.0000000000000000,-22.3499679564999987,-32.1699790954999969,892.3299560550000240,-13.7050533295000001,-648.1101074220000550,628.8949584959999580,27.0625000000000000,27.9508514404000010,88.2199999999999988,-45.0000000000000000
0.0000000000000000,38.0000000000000000,-22.6849536896000003,-32.2899856566999972,891.9149780269999600,-13.6000194550000000,-647.6499633790000410,628.3950805660000460,27.0625000000000000,27.9508514404000010,88.2199999999999988,-45.0000000000000000
0.0000000000000000,38.0000000000000000,-22.1749897002999994,-31.6900157928000006,891.8649902339999460,-14.1249933243000001,-648.0050048829999690,629.2349853519999660,27.0625000000000000,27.9508514404000010,88.2199999999999988,-45.0000000000000000
0.0000000000000000,39.0000000000000000,1.4400024414099999,-40.9150238037000022,891.1499633790000410,8.7650156021099992,-654.8150024410000460,622.4199218749999990,27.3750000000000000,27.9196205139000000,88.2199999999999988,-89.9999999999999999
0.0000000000000000,39.0000000000000000,0.7650025486950000,-40.7750129699999988,891.1749877930000130,9.5250177383400008,-654.4650878910000520,621.7350463870000110,27.0625000000000000,27.9508514404000010,88.2199999999999988,-89.9999999999999999
0.0000000000000000,39.0000000000000000,0.6000074744220000,-40.6999588012999993,890.6998901370000100,8.6699991226200002,-654.4649658199999740,621.7699584959999580,27.0625000000000000,27.9508514404000010,88.2199999999999988,-89.9999999999999999
0.0000000000000000,39.0000000000000000,1.0000076293900000,-40.3300552367999998,891.1800537110000270,8.7749671936000002,-654.5050048829999690,621.8599853519999660,27.0625000000000000,27.9508514404000010,88.2199999999999988,-89.9999999999999999
0.0000000000000000,39.0000000000000000,0.9099650979040000,-40.5350112914999982,890.6649780269999600,9.1499776840199996,-654.5450439449999740,622.0999755860000270,27.0625000000000000,27.9508514404000010,88.2199999999999988,-89.9999999999999999
0.0000000000000000,39.0000000000000000,0.7699773907660000,-40.3900375365999977,890.4550781249999990,8.9800214767500002,-654.9849853519999660,621.6550292970000550,27.3750000000000000,27.9508514404000010,88.2199999999999988,-89.9999999999999999
0.0000000000000000,39.0000000000000000,0.9549975991250000,-40.7500381469999979,891.0848388670000300,9.3150196075400000,-654.2600097660000520,622.1848754879999880,27.0625000000000000,27.9508514404000010,88.2199999999999988,-89.9999999999999999
0.0000000000000000,39.0000000000000000,1.0650299787499999,-40.5350189209000007,890.3651123050000240,9.6650228500399997,-654.6749267579999690,621.4200439449999740,27.3750000000000000,27.9508514404000010,88.2199999999999988,-89.9999999999999999
0.0000000000000000,39.0000000000000000,0.9299925565720000,-40.4599990844999979,890.8999633790000410,9.1799678802500004,-654.3600463870000110,621.5349731449999800,27.3750000000000000,27.9508514404000010,88.2199999999999988,-89.9999999999999999
0.0000000000000000,39.0000000000000000,0.5950149297710000,-41.1199951171999984,891.2850341800000240,8.9950408935499997,-654.5599975589999520,622.3049316410000520,27.0625000000000000,27.9508514404000010,88.2199999999999988,-89.9999999999999999
0.0000000000000000,40.0000000000000000,23.2750015258999987,-29.9099636078000017,891.3700561519999600,32.4450492858999979,-646.7149658199999740,630.3450317379999880,27.0625000000000000,27.9508514404000010,88.2199999999999988,-135.0000000000000000
0.0000000000000000,40.0000000000000000,23.0400257111000002,-30.3099918365000000,891.2649536129999880,31.8449554442999982,-646.8049926759999830,629.8450927730000320,27.0625000000000000,27.9508514404000010,88.2199999999999988,-135.0000000000000000
0.0000000000000000,40.0000000000000000,23.4249649047999995,-30.3250293731999996,891.1149902339999460,31.8000011443999995,-647.5299682620000110,630.3298339839999460,27.3750000000000000,27.9508514404000010,88.2199999999999988,-135.0000000000000000
0.0000000000000000,40.0000000000000000,0.0000000000000000,0.0000000000000000,0.0000000000000000,0.0000000000000000,0.0000000000000000,0.0000000000000000,0.0000000000000000,0.0000000000000000,88.2199999999999988,-135.0000000000000000
0.0000000000000000,40.0000000000000000,22.9799880981000015,-29.2950000762999991,891.3351440430000130,32.6299972533999991,-646.9250488279999440,630.0999145509999830,27.3750000000000000,27.9508514404000010,88.2199999999999988,-135.0000000000000000
0.0000000000000000,40.0000000000000000,24.1199741363999997,-29.6250057220000009,891.2749633790000410,32.5200538635000029,-646.6549682620000110,629.7250976560000020,27.0625000000000000,27.9508514404000010,88.2199999999999988,-135.0000000000000000
0.0000000000000000,40.0000000000000000,24.2100162505999989,-29.8899841309000003,891.3249511720000550,31.9499988556000005,-646.5300903319999860,629.3598022459999580,27.6875000000000000,27.9508514404000010,88.2199999999999988,-135.0000000000000000
0.0000000000000000,40.0000000000000000,0.0000000000000000,0.0000000000000000,0.0000000000000000,0.0000000000000000,0.0000000000000000,0.0000000000000000,0.0000000000000000,0.0000000000000000,88.2199999999999988,-135.0000000000000000
0.0000000000000000,40.0000000000000000,0.0000000000000000,0.0000000000000000,0.0000000000000000,0.0000000000000000,0.0000000000000000,0.0000000000000000,0.0000000000000000,0.0000000000000000,88.2199999999999988,-135.0000000000000000
0.0000000000000000,40.0000000000000000,23.2449626922999997,-30.3149795532000006,891.5399780269999600,32.3799819946000014,-646.8999633790000410,630.8749999999999990,27.0625000000000000,27.9508514404000010,88.2199999999999988,-135.0000000000000000
