X Accel 1,Y Accel 1,Z Accel 1,X Accel 2,Y Accel 2,Z Accel2,Temp,Theta ,Phi,,,,,,,,
-834.689,-354.978,19.720,-829.291,-273.269,-242.791,25.812
-834.024,-354.865,18.555,-830.391,-273.602,-243.029,25.812
-834.765,-354.043,20.422,-830.357,-272.321,-242.434,25.812
-833.482,-354.982,19.708,-829.637,-273.165,-242.219,25.812
-834.626,-354.848,19.817,-829.752,-273.615,-241.805,25.812
-834.128,-354.127,20.437,-829.945,-272.765,-242.183,25.500
-832.965,-353.711,18.943,-829.806,-272.929,-241.648,25.500
-833.564,-354.134,20.025,-829.031,-272.146,-243.621,25.812
