X Accel 1,Y Accel 1,Z Accel 1,X Accel 2,Y Accel 2,Z Accel2,Temp,Theta ,Phi,,,,,,,,
-796.943,-439.813,24.185,-785.066,-336.136,-304.532,25.187
-796.472,-439.595,24.843,-784.595,-335.825,-305.992,25.812
-796.620,-440.268,26.249,-785.681,-335.604,-304.983,25.187
-796.256,-439.026,24.768,-784.344,-334.846,-305.197,25.500
-796.574,-439.357,24.521,-785.571,-334.859,-306.159,25.500
-797.769,-439.810,24.776,-782.898,-335.620,-305.247,25.187
-797.252,-438.214,25.224,-784.679,-335.332,-304.941,25.500
-795.798,-439.083,25.098,-784.707,-335.947,-305.438,25.500
-797.106,-437.522,25.977,-786.434,-334.894,-303.093,25.500
