X Accel 1,Y Accel 1,Z Accel 1,X Accel 2,Y Accel 2,Z Accel2,Temp,Theta ,Phi,,,,,,,,
-876.631,-231.297,21.897,-873.118,-186.180,-156.654,23.312
-877.191,-232.244,20.039,-872.766,-186.544,-158.424,23.625
-876.915,-232.728,20.529,-873.049,-186.714,-158.609,23.625
-876.502,-233.366,20.919,-871.721,-186.882,-158.370,23.625
-873.966,-244.243,21.092,-869.940,-194.788,-166.427,23.625
-874.341,-244.849,20.560,-869.247,-194.553,-165.170,23.625
-874.407,-244.056,20.850,-868.225,-194.298,-166.148,23.625
-874.089,-244.914,21.023,-870.854,-195.254,-166.493,23.625
-874.047,-244.298,21.864,-870.650,-194.967,-165.385,23.312
