X Accel 1,Y Accel 1,Z Accel 1,X Accel 2,Y Accel 2,Z Accel2,Temp,Theta ,Phi,,,,,,,,
-881.224,-213.883,18.498,-878.368,-173.790,-143.212,27.375
-881.126,-213.036,18.317,-876.857,-172.660,-143.508,27.062
-881.942,-213.099,20.114,-876.425,-173.073,-144.095,26.750
-880.577,-213.661,19.427,-877.059,-172.595,-143.641,27.062
-881.458,-213.230,18.872,-877.247,-173.431,-143.700,26.750
-881.813,-212.879,19.216,-878.629,-173.749,-143.682,27.062
-881.342,-213.638,20.142,-876.465,-173.162,-142.432,27.062
-882.373,-213.459,19.050,-877.792,-173.772,-144.061,27.062
-881.877,-213.011,19.652,-877.446,-172.444,-144.775,27.062
