Index,X Accel 1,Y Accel 1,Z Accel 1,X Accel 2,Y Accel 2,Z Accel2,Temp,Theta ,Phi,,,,,,,,
1.000,-902.192,-92.472,20.290,-898.994,-88.201,-57.939,21.750
1.000,-902.392,-92.754,20.660,-898.742,-88.789,-60.144,21.750
1.000,-902.554,-92.493,20.352,-898.816,-89.848,-58.982,22.062
2.000,-903.860,-92.804,20.139,-898.115,-89.548,-58.319,21.750
2.000,-902.916,-92.570,21.279,-898.508,-88.112,-59.818,22.062
2.000,-902.734,-92.590,21.458,-898.602,-88.010,-58.735,21.750
3.000,-902.706,-92.275,21.004,-898.364,-88.537,-58.408,21.437
3.000,0.000,0.000,0.000,0.000,0.000,0.000,0.000
3.000,-902.874,-92.313,20.790,-898.209,-89.280,-58.332,21.750
4.000,-903.802,-91.933,19.686,-897.269,-88.634,-59.218,21.750
4.000,-903.298,-92.836,20.917,-899.823,-89.723,-58.177,22.062
4.000,-903.962,-91.731,21.178,-898.248,-88.454,-59.926,21.437
5.000,-902.931,-92.057,20.784,-897.378,-88.572,-58.515,22.062
5.000,-904.180,-92.477,21.309,-899.543,-88.764,-60.042,21.750
5.000,-903.426,-92.348,19.937,-898.677,-89.350,-59.731,22.062
6.000,-902.835,-91.464,20.741,-898.435,-88.920,-58.388,22.062
6.000,-904.376,-92.522,19.562,-897.726,-88.380,-58.269,21.750
6.000,-903.287,-92.792,20.569,-898.522,-88.843,-59.442,21.750
7.000,-902.433,-92.054,20.969,-897.653,-88.521,-59.362,21.750
7.000,-903.410,-91.568,20.841,-898.629,-88.032,-58.026,22.062
7.000,-902.266,-91.858,20.469,-898.406,-88.709,-58.178,22.062
8.000,-901.651,-92.189,21.800,-897.421,-88.270,-59.658,22.062
8.000,0.000,0.000,0.000,0.000,0.000,0.000,0.000
8.000,-903.386,-93.232,21.086,-898.533,-88.358,-57.970,22.062
