Temp Iter,Index,X Accel 1,Y Accel 1,Z Accel 1,X Accel 2,Y Accel 2,Z Accel2, Temp_6g,Temp,Theta,Phi,,,,,,
0.0000000000000000,1.0000000000000000,913.4999999999999990,65.3125000000000000,-1.7062500715300000,-0.0000000000000000,-0.0000000000000000,0.0000000000000000,26.1250000000000000,26.8578014373999991,0.2900000000000000,180.0000000000000000
0.0000000000000000,1.0000000000000000,913.4999999999999990,65.3937530518000045,-2.1124999523199999,-0.0000000000000000,-0.0000000000000000,0.0000000000000000,25.8125000000000000,26.8578014373999991,0.2900000000000000,180.0000000000000000
0.0000000000000000,1.0000000000000000,913.4999999999999990,65.3937530518000045,0.0000000000000000,-0.0000000000000000,-0.0000000000000000,0.0000000000000000,25.8125000000000000,26.8578014373999991,0.2900000000000000,180.0000000000000000
0.0000000000000000,1.0000000000000000,913.4999999999999990,65.1375045775999979,-1.5312500000000000,-0.0000000000000000,-0.0000000000000000,0.0000000000000000,25.8125000000000000,26.8578014373999991,0.2900000000000000,180.0000000000000000
0.0000000000000000,1.0000000000000000,913.4999999999999990,65.1187515258999951,-1.0375000238400001,-0.0000000000000000,-0.0000000000000000,0.0000000000000000,25.8125000000000000,26.8578014373999991,0.2900000000000000,180.0000000000000000
0.0000000000000000,1.0000000000000000,913.4999999999999990,64.9062500000000000,-1.1750000715300000,-0.0000000000000000,-0.0000000000000000,0.0000000000000000,25.8125000000000000,26.8578014373999991,0.2900000000000000,180.0000000000000000
0.0000000000000000,1.0000000000000000,913.4999999999999990,64.9062500000000000,-2.7500000000000000,-0.0000000000000000,-0.0000000000000000,0.0000000000000000,26.1250000000000000,26.8578014373999991,0.2900000000000000,180.0000000000000000
0.0000000000000000,1.0000000000000000,913.4999999999999990,64.6312484741000048,-2.5312500000000000,-0.0000000000000000,-0.0000000000000000,0.0000000000000000,26.1250000000000000,26.8578014373999991,0.2900000000000000,180.0000000000000000
0.0000000000000000,1.0000000000000000,913.4999999999999990,64.7125015258999951,-3.9750001430499999,-0.0000000000000000,-0.0000000000000000,0.0000000000000000,25.8125000000000000,26.8578014373999991,0.2900000000000000,180.0000000000000000
0.0000000000000000,1.0000000000000000,913.5875244139999710,64.8875045775999979,-2.0875000953699998,-0.0000000000000000,-0.0000000000000000,0.0000000000000000,25.5000000000000000,26.8578014373999991,0.2900000000000000,180.0000000000000000
0.0000000000000000,2.0000000000000000,660.1249999999999990,695.6249999999999990,-10.5687503814999992,-0.0000000000000000,-0.0000000000000000,0.0000000000000000,26.1250000000000000,26.8265705109000016,0.2900000000000000,135.0000000000000000
0.0000000000000000,2.0000000000000000,660.1249999999999990,695.6249999999999990,-10.3562498092999995,-0.0000000000000000,-0.0000000000000000,0.0000000000000000,26.1250000000000000,26.8265705109000016,0.2900000000000000,135.0000000000000000
0.0000000000000000,2.0000000000000000,660.1249999999999990,695.6249999999999990,-10.0562505721999997,-0.0000000000000000,-0.0000000000000000,0.0000000000000000,26.1250000000000000,26.8578014373999991,0.2900000000000000,135.0000000000000000
0.0000000000000000,2.0000000000000000,660.1249999999999990,695.6249999999999990,-9.6875000000000000,-0.0000000000000000,-0.0000000000000000,0.0000000000000000,26.1250000000000000,26.8578014373999991,0.2900000000000000,135.0000000000000000
0.0000000000000000,2.0000000000000000,660.1249999999999990,695.6249999999999990,-11.1250000000000000,-0.0000000000000000,-0.0000000000000000,0.0000000000000000,25.8125000000000000,26.8578014373999991,0.2900000000000000,135.0000000000000000
0.0000000000000000,2.0000000000000000,660.1249999999999990,695.6249999999999990,-9.6875000000000000,-0.0000000000000000,-0.0000000000000000,0.0000000000000000,25.8125000000000000,26.8578014373999991,0.2900000000000000,135.0000000000000000
0.0000000000000000,2.0000000000000000,660.1249999999999990,695.6249999999999990,-10.3249998092999995,-0.0000000000000000,-0.0000000000000000,0.0000000000000000,26.1250000000000000,26.8578014373999991,0.2900000000000000,135.0000000000000000
0.0000000000000000,2.0000000000000000,660.1249999999999990,695.6249999999999990,-10.5937500000000000,-0.0000000000000000,-0.0000000000000000,0.0000000000000000,26.1250000000000000,26.8578014373999991,0.2900000000000000,135.0000000000000000
0.0000000000000000,2.0000000000000000,660.3437499999999990,695.6249999999999990,-10.3562498092999995,-0.0000000000000000,-0.0000000000000000,0.0000000000000000,26.1250000000000000,26.8578014373999991,0.2900000000000000,135.0000000000000000
0.0000000000000000,2.0000000000000000,660.3437499999999990,695.6249999999999990,-11.9187498092999995,-0.0000000000000000,-0.0000000000000000,0.0000000000000000,26.1250000000000000,26.8578014373999991,0.2900000000000000,135.0000000000000000
0.0000000000000000,3.0000000000000000,20.7187500000000000,963.4687499999999990,-14.4750003814999992,-0.0000000000000000,-0.0000000000000000,0.0000000000000000,25.8125000000000000,26.8265705109000016,0.2900000000000000,89.9999999999999999
0.0000000000000000,3.0000000000000000,20.7187500000000000,962.9500122069999850,-15.9687500000000000,-0.0000000000000000,-0.0000000000000000,0.0000000000000000,26.1250000000000000,26.8265705109000016,0.2900000000000000,89.9999999999999999
0.0000000000000000,3.0000000000000000,20.7187500000000000,963.4687499999999990,-15.9687500000000000,-0.0000000000000000,-0.0000000000000000,0.0000000000000000,26.1250000000000000,26.8265705109000016,0.2900000000000000,89.9999999999999999
0.0000000000000000,3.0000000000000000,20.7187500000000000,964.8749999999999990,-15.4687500000000000,-0.0000000000000000,-0.0000000000000000,0.0000000000000000,25.8125000000000000,26.8265705109000016,0.2900000000000000,89.9999999999999999
0.0000000000000000,3.0000000000000000,20.7187500000000000,963.3562622069999850,-16.3687496185000008,-0.0000000000000000,-0.0000000000000000,0.0000000000000000,25.8125000000000000,26.8265705109000016,0.2900000000000000,89.9999999999999999
0.0000000000000000,3.0000000000000000,20.7187500000000000,962.9562377930000130,-16.4875011443999995,-0.0000000000000000,-0.0000000000000000,0.0000000000000000,25.8125000000000000,26.8265705109000016,0.2900000000000000,89.9999999999999999
0.0000000000000000,3.0000000000000000,20.7187500000000000,965.3937377930000130,-15.6374998092999995,-0.0000000000000000,-0.0000000000000000,0.0000000000000000,25.8125000000000000,26.8265705109000016,0.2900000000000000,89.9999999999999999
0.0000000000000000,3.0000000000000000,20.6750011443999995,963.2499999999999990,-17.1750011443999995,-0.0000000000000000,-0.0000000000000000,0.0000000000000000,25.5000000000000000,26.8265705109000016,0.2900000000000000,89.9999999999999999
0.0000000000000000,3.0000000000000000,20.7187500000000000,963.2437744139999710,-16.3250007629000002,-0.0000000000000000,-0.0000000000000000,0.0000000000000000,25.8125000000000000,26.8265705109000016,0.2900000000000000,89.9999999999999999
0.0000000000000000,3.0000000000000000,21.2937507629000002,963.6124877930000130,-15.1374998092999995,-0.0000000000000000,-0.0000000000000000,0.0000000000000000,25.8125000000000000,26.8265705109000016,0.2900000000000000,89.9999999999999999
0.0000000000000000,4.0000000000000000,-628.2812499999999990,701.3500366209999580,-15.1500005721999997,-0.0000000000000000,-0.0000000000000000,0.0000000000000000,25.8125000000000000,26.8265705109000016,0.2900000000000000,45.0000000000000000
0.0000000000000000,4.0000000000000000,-628.2812499999999990,700.2499999999999990,-14.3750000000000000,-0.0000000000000000,-0.0000000000000000,0.0000000000000000,25.8125000000000000,26.8265705109000016,0.2900000000000000,45.0000000000000000
0.0000000000000000,4.0000000000000000,-628.2812499999999990,700.8375244139999720,-16.9437503814999992,-0.0000000000000000,-0.0000000000000000,0.0000000000000000,25.8125000000000000,26.8265705109000016,0.2900000000000000,45.0000000000000000
0.0000000000000000,4.0000000000000000,-628.2812499999999990,700.2499999999999990,-14.9499998092999995,-0.0000000000000000,-0.0000000000000000,0.0000000000000000,25.8125000000000000,26.8265705109000016,0.2900000000000000,45.0000000000000000
0.0000000000000000,4.0000000000000000,-628.2812499999999990,700.3500366209999580,-15.2875003814999992,-0.0000000000000000,-0.0000000000000000,0.0000000000000000,26.1250000000000000,26.8265705109000016,0.2900000000000000,45.0000000000000000
0.0000000000000000,4.0000000000000000,-628.2812499999999990,699.2125244139999720,-15.2562503814999992,-0.0000000000000000,-0.0000000000000000,0.0000000000000000,25.8125000000000000,26.8265705109000016,0.2900000000000000,45.0000000000000000
0.0000000000000000,4.0000000000000000,-628.2812499999999990,700.2499999999999990,-11.7500000000000000,-0.0000000000000000,-0.0000000000000000,0.0000000000000000,25.8125000000000000,26.8265705109000016,0.2900000000000000,45.0000000000000000
0.0000000000000000,4.0000000000000000,-628.2812499999999990,700.5750122069999850,-14.7812500000000000,-0.0000000000000000,-0.0000000000000000,0.0000000000000000,25.8125000000000000,26.8265705109000016,0.2900000000000000,45.0000000000000000
0.0000000000000000,4.0000000000000000,-628.2812499999999990,701.1500244139999720,-15.8750000000000000,-0.0000000000000000,-0.0000000000000000,0.0000000000000000,25.8125000000000000,26.8265705109000016,0.2900000000000000,45.0000000000000000
0.0000000000000000,4.0000000000000000,-628.2812499999999990,699.4812622069999850,-15.1187505721999997,-0.0000000000000000,-0.0000000000000000,0.0000000000000000,25.8125000000000000,26.8265705109000016,0.2900000000000000,45.0000000000000000
0.0000000000000000,5.0000000000000000,-883.6500244139999710,65.3375015258999951,-11.3437500000000000,-0.0000000000000000,-0.0000000000000000,0.0000000000000000,25.8125000000000000,26.8265705109000016,0.2900000000000000,0.0000000000000000
0.0000000000000000,5.0000000000000000,-882.9062499999999990,67.7874984741000048,-10.1125001907000005,-0.0000000000000000,-0.0000000000000000,0.0000000000000000,26.1250000000000000,26.8265705109000016,0.2900000000000000,0.0000000000000000
0.0000000000000000,5.0000000000000000,-882.9062499999999990,67.3312530518000045,-10.7187500000000000,-0.0000000000000000,-0.0000000000000000,0.0000000000000000,25.8125000000000000,26.8265705109000016,0.2900000000000000,0.0000000000000000
0.0000000000000000,5.0000000000000000,-882.9062499999999990,70.6250000000000000,-10.4750003814999992,-0.0000000000000000,-0.0000000000000000,0.0000000000000000,25.8125000000000000,26.8265705109000016,0.2900000000000000,0.0000000000000000
0.0000000000000000,5.0000000000000000,-882.9062499999999990,67.8937530518000045,-11.8687505721999997,-0.0000000000000000,-0.0000000000000000,0.0000000000000000,25.8125000000000000,26.8265705109000016,0.2900000000000000,0.0000000000000000
0.0000000000000000,5.0000000000000000,-882.9062499999999990,69.2062530518000045,-11.3437500000000000,-0.0000000000000000,-0.0000000000000000,0.0000000000000000,25.8125000000000000,26.8265705109000016,0.2900000000000000,0.0000000000000000
0.0000000000000000,5.0000000000000000,-882.9062499999999990,68.4937515258999951,-10.6999998092999995,-0.0000000000000000,-0.0000000000000000,0.0000000000000000,26.4375000000000000,26.8265705109000016,0.2900000000000000,0.0000000000000000
0.0000000000000000,5.0000000000000000,-881.9125366209999580,69.6187515258999951,-11.7687501907000005,-0.0000000000000000,-0.0000000000000000,0.0000000000000000,26.1250000000000000,26.8265705109000016,0.2900000000000000,0.0000000000000000
0.0000000000000000,5.0000000000000000,-883.4750366209999580,70.6250000000000000,-10.9750003814999992,-0.0000000000000000,-0.0000000000000000,0.0000000000000000,25.8125000000000000,26.8265705109000016,0.2900000000000000,0.0000000000000000
0.0000000000000000,5.0000000000000000,-883.4750366209999580,64.4437484741000048,-10.9875001907000005,-0.0000000000000000,-0.0000000000000000,0.0000000000000000,25.8125000000000000,26.8265705109000016,0.2900000000000000,0.0000000000000000
0.0000000000000000,6.0000000000000000,-628.6187744139999720,-562.2812499999999990,-5.0937500000000000,-0.0000000000000000,-0.0000000000000000,0.0000000000000000,25.8125000000000000,26.7953414917000003,0.3000000000000000,-45.0000000000000000
0.0000000000000000,6.0000000000000000,-628.5375366209999580,-562.2812499999999990,-5.0937500000000000,-0.0000000000000000,-0.0000000000000000,0.0000000000000000,26.1250000000000000,26.7953414917000003,0.3000000000000000,-45.0000000000000000
0.0000000000000000,6.0000000000000000,-628.4187622069999860,-563.0624999999999990,-5.0937500000000000,-0.0000000000000000,-0.0000000000000000,0.0000000000000000,25.5000000000000000,26.8265705109000016,0.2900000000000000,-45.0000000000000000
0.0000000000000000,6.0000000000000000,-628.5375366209999580,-562.2812499999999990,-5.0937500000000000,-0.0000000000000000,-0.0000000000000000,0.0000000000000000,26.1250000000000000,26.8265705109000016,0.2900000000000000,-45.0000000000000000
0.0000000000000000,6.0000000000000000,-628.7937622069999860,-562.8187866209999580,-5.0937500000000000,-0.0000000000000000,-0.0000000000000000,0.0000000000000000,26.1250000000000000,26.8265705109000016,0.2900000000000000,-45.0000000000000000
0.0000000000000000,6.0000000000000000,-628.8124999999999990,-562.7937622069999860,-5.0937500000000000,-0.0000000000000000,-0.0000000000000000,0.0000000000000000,25.8125000000000000,26.8265705109000016,0.3000000000000000,-45.0000000000000000
0.0000000000000000,6.0000000000000000,-628.6187744139999720,-562.2687377930000130,-5.0937500000000000,-0.0000000000000000,-0.0000000000000000,0.0000000000000000,26.1250000000000000,26.8265705109000016,0.3000000000000000,-45.0000000000000000
0.0000000000000000,6.0000000000000000,-629.2187499999999990,-562.2812499999999990,-5.0937500000000000,-0.0000000000000000,-0.0000000000000000,0.0000000000000000,25.8125000000000000,26.8265705109000016,0.3000000000000000,-45.0000000000000000
0.0000000000000000,6.0000000000000000,-629.0437622069999860,-562.2812499999999990,-6.6562500000000000,-0.0000000000000000,-0.0000000000000000,0.0000000000000000,26.1250000000000000,26.8265705109000016,0.3000000000000000,-45.0000000000000000
0.0000000000000000,6.0000000000000000,-629.0250244139999720,-560.1437377930000130,-4.8437500000000000,-0.0000000000000000,-0.0000000000000000,0.0000000000000000,25.8125000000000000,26.7953414917000003,0.3000000000000000,-45.0000000000000000
0.0000000000000000,7.0000000000000000,4.6687502860999999,-833.4062499999999990,0.6750000119210000,-0.0000000000000000,-0.0000000000000000,0.0000000000000000,26.1250000000000000,26.8265705109000016,0.2900000000000000,-89.9999999999999999
0.0000000000000000,7.0000000000000000,5.3187499046299997,-831.5312499999999990,-0.2500000000000000,-0.0000000000000000,-0.0000000000000000,0.0000000000000000,25.8125000000000000,26.8265705109000016,0.2900000000000000,-89.9999999999999999
0.0000000000000000,7.0000000000000000,4.3499999046299997,-831.5312499999999990,-0.1375000029800000,-0.0000000000000000,-0.0000000000000000,0.0000000000000000,25.8125000000000000,26.7953414917000003,0.2900000000000000,-89.9999999999999999
0.0000000000000000,7.0000000000000000,4.6687502860999999,-833.4062499999999990,0.2750000059600000,-0.0000000000000000,-0.0000000000000000,0.0000000000000000,25.8125000000000000,26.7953414917000003,0.2900000000000000,-89.9999999999999999
0.0000000000000000,7.0000000000000000,5.2062501907299996,-833.4062499999999990,-0.7250000238420000,-0.0000000000000000,-0.0000000000000000,0.0000000000000000,25.8125000000000000,26.7953414917000003,0.3000000000000000,-89.9999999999999999
0.0000000000000000,7.0000000000000000,4.8437500000000000,-833.1562499999999990,-0.0062500000931300,-0.0000000000000000,-0.0000000000000000,0.0000000000000000,26.1250000000000000,26.7953414917000003,0.3000000000000000,-89.9999999999999999
0.0000000000000000,7.0000000000000000,6.4437499046299997,-831.8187866209999580,0.4562500119210000,-0.0000000000000000,-0.0000000000000000,0.0000000000000000,26.1250000000000000,26.7953414917000003,0.2900000000000000,-89.9999999999999999
0.0000000000000000,7.0000000000000000,4.8437500000000000,-833.4062499999999990,-0.9250000119210000,-0.0000000000000000,-0.0000000000000000,0.0000000000000000,26.1250000000000000,26.7953414917000003,0.2900000000000000,-89.9999999999999999
0.0000000000000000,7.0000000000000000,4.8437500000000000,-833.0187377930000130,-0.7312499880790000,-0.0000000000000000,-0.0000000000000000,0.0000000000000000,25.8125000000000000,26.7953414917000003,0.3000000000000000,-89.9999999999999999
0.0000000000000000,7.0000000000000000,4.8437500000000000,-826.6687622069999850,-0.4812500178810000,-0.0000000000000000,-0.0000000000000000,0.0000000000000000,26.1250000000000000,26.7953414917000003,0.3000000000000000,-89.9999999999999999
