Temp Iter,Index,X Accel 1,Y Accel 1,Z Accel 1,X Accel 2,Y Accel 2,Z Accel2, Temp_6g,Temp,Theta,Phi,,,,,,
0.0000000000000000,1.0000000000000000,923.9999999999999990,80.6354217529000010,-32.3750000000000000,-0.0000000000000000,-0.0000000000000000,0.0000000000000000,25.1875000000000000,25.9209003447999997,-0.3800000000000000,180.0000000000000000
0.0000000000000000,1.0000000000000000,923.9999999999999990,81.8020858765000014,-32.3750000000000000,-0.0000000000000000,-0.0000000000000000,0.0000000000000000,25.1875000000000000,25.9209003447999997,-0.3800000000000000,180.0000000000000000
0.0000000000000000,1.0000000000000000,923.9999999999999990,83.4895858765000014,-32.3750000000000000,-0.0000000000000000,-0.0000000000000000,0.0000000000000000,25.1875000000000000,25.9209003447999997,-0.3800000000000000,180.0000000000000000
0.0000000000000000,1.0000000000000000,923.9999999999999990,82.7187499999999999,-32.3750000000000000,-0.0000000000000000,-0.0000000000000000,0.0000000000000000,24.8750000000000000,25.9209003447999997,-0.3800000000000000,180.0000000000000000
0.0000000000000000,1.0000000000000000,923.9999999999999990,80.9166717529000010,-32.3750000000000000,-0.0000000000000000,-0.0000000000000000,0.0000000000000000,25.1875000000000000,25.9209003447999997,-0.3800000000000000,180.0000000000000000
0.0000000000000000,1.0000000000000000,923.9999999999999990,81.0520858765000014,-32.3750000000000000,-0.0000000000000000,-0.0000000000000000,0.0000000000000000,25.1875000000000000,25.9209003447999997,-0.3800000000000000,180.0000000000000000
0.0000000000000000,1.0000000000000000,923.9999999999999990,83.1562499999999999,-32.3750000000000000,-0.0000000000000000,-0.0000000000000000,0.0000000000000000,24.8750000000000000,25.9209003447999997,-0.3800000000000000,180.0000000000000000
0.0000000000000000,1.0000000000000000,923.9999999999999990,83.1562499999999999,-32.3750000000000000,-0.0000000000000000,-0.0000000000000000,0.0000000000000000,25.1875000000000000,25.9209003447999997,-0.3800000000000000,180.0000000000000000
0.0000000000000000,1.0000000000000000,923.9999999999999990,81.3437499999999999,-32.3750000000000000,-0.0000000000000000,-0.0000000000000000,0.0000000000000000,25.1875000000000000,25.9209003447999997,-0.3800000000000000,180.0000000000000000
0.0000000000000000,1.0000000000000000,923.9999999999999990,82.2499999999999999,-32.3750000000000000,-0.0000000000000000,-0.0000000000000000,0.0000000000000000,25.1875000000000000,25.9209003447999997,-0.3800000000000000,180.0000000000000000
0.0000000000000000,2.0000000000000000,671.2187499999999990,707.2187499999999990,-34.7500000000000000,-0.0000000000000000,-0.0000000000000000,0.0000000000000000,25.1875000000000000,25.9521312713999990,-0.3800000000000000,135.0000000000000000
0.0000000000000000,2.0000000000000000,671.2187499999999990,707.2187499999999990,-35.4791679381999998,-0.0000000000000000,-0.0000000000000000,0.0000000000000000,25.1875000000000000,25.9209003447999997,-0.3800000000000000,135.0000000000000000
0.0000000000000000,2.0000000000000000,671.2187499999999990,707.2187499999999990,-33.3125000000000000,-0.0000000000000000,-0.0000000000000000,0.0000000000000000,25.5000000000000000,25.9209003447999997,-0.3800000000000000,135.0000000000000000
0.0000000000000000,2.0000000000000000,671.2187499999999990,707.2187499999999990,-35.6145858765000014,-0.0000000000000000,-0.0000000000000000,0.0000000000000000,24.8750000000000000,25.9209003447999997,-0.3800000000000000,135.0000000000000000
0.0000000000000000,2.0000000000000000,671.2187499999999990,707.2187499999999990,-34.5937500000000000,-0.0000000000000000,-0.0000000000000000,0.0000000000000000,25.1875000000000000,25.9209003447999997,-0.3800000000000000,135.0000000000000000
0.0000000000000000,2.0000000000000000,671.2187499999999990,707.2187499999999990,-33.8333358765000014,-0.0000000000000000,-0.0000000000000000,0.0000000000000000,25.1875000000000000,25.9521312713999990,-0.3800000000000000,135.0000000000000000
0.0000000000000000,2.0000000000000000,671.2187499999999990,707.2187499999999990,-35.8229179381999998,-0.0000000000000000,-0.0000000000000000,0.0000000000000000,25.1875000000000000,25.9521312713999990,-0.3800000000000000,135.0000000000000000
0.0000000000000000,2.0000000000000000,671.2187499999999990,707.2187499999999990,-33.3958358765000014,-0.0000000000000000,-0.0000000000000000,0.0000000000000000,24.8750000000000000,25.9521312713999990,-0.3800000000000000,135.0000000000000000
0.0000000000000000,2.0000000000000000,671.2187499999999990,707.2187499999999990,-35.6145858765000014,-0.0000000000000000,-0.0000000000000000,0.0000000000000000,25.1875000000000000,25.9521312713999990,-0.3800000000000000,135.0000000000000000
0.0000000000000000,2.0000000000000000,671.2187499999999990,707.2187499999999990,-34.5937500000000000,-0.0000000000000000,-0.0000000000000000,0.0000000000000000,25.5000000000000000,25.9521312713999990,-0.3800000000000000,135.0000000000000000
0.0000000000000000,3.0000000000000000,35.1979179381999998,981.2291870120000100,-48.4166679381999998,-0.0000000000000000,-0.0000000000000000,0.0000000000000000,25.1875000000000000,25.9521312713999990,-0.3800000000000000,89.9999999999999999
0.0000000000000000,3.0000000000000000,33.6979179381999998,983.3124999999999990,-32.5833358765000014,-0.0000000000000000,-0.0000000000000000,0.0000000000000000,25.1875000000000000,25.9521312713999990,-0.3800000000000000,89.9999999999999999
0.0000000000000000,3.0000000000000000,35.9687500000000000,984.1146240230000320,-32.1250000000000000,-0.0000000000000000,-0.0000000000000000,0.0000000000000000,24.5625000000000000,25.9521312713999990,-0.3800000000000000,89.9999999999999999
0.0000000000000000,3.0000000000000000,33.6979179381999998,982.3958740230000320,-46.7395858765000014,-0.0000000000000000,-0.0000000000000000,0.0000000000000000,25.5000000000000000,25.9521312713999990,-0.3800000000000000,89.9999999999999999
0.0000000000000000,3.0000000000000000,34.7500000000000000,981.1562499999999990,-44.2291679381999998,-0.0000000000000000,-0.0000000000000000,0.0000000000000000,25.1875000000000000,25.9521312713999990,-0.3800000000000000,89.9999999999999999
0.0000000000000000,3.0000000000000000,35.4791679381999998,982.5416870120000100,-39.1041679381999998,-0.0000000000000000,-0.0000000000000000,0.0000000000000000,24.8750000000000000,25.9209003447999997,-0.3800000000000000,89.9999999999999999
0.0000000000000000,3.0000000000000000,33.3125000000000000,984.1979370120000100,-32.1250000000000000,-0.0000000000000000,-0.0000000000000000,0.0000000000000000,24.8750000000000000,25.9209003447999997,-0.3800000000000000,89.9999999999999999
0.0000000000000000,3.0000000000000000,35.9687500000000000,982.5416870120000100,-32.1250000000000000,-0.0000000000000000,-0.0000000000000000,0.0000000000000000,24.8750000000000000,25.9209003447999997,-0.3800000000000000,89.9999999999999999
0.0000000000000000,3.0000000000000000,33.6979179381999998,981.1562499999999990,-32.1250000000000000,-0.0000000000000000,-0.0000000000000000,0.0000000000000000,25.1875000000000000,25.9521312713999990,-0.3800000000000000,89.9999999999999999
0.0000000000000000,3.0000000000000000,35.4791679381999998,983.3124999999999990,-33.8020858765000014,-0.0000000000000000,-0.0000000000000000,0.0000000000000000,25.1875000000000000,25.9521312713999990,-0.3800000000000000,89.9999999999999999
0.0000000000000000,4.0000000000000000,-610.7812499999999990,718.8854370120000110,-35.6145858765000014,-0.0000000000000000,-0.0000000000000000,0.0000000000000000,25.1875000000000000,25.9209003447999997,-0.3800000000000000,45.0000000000000000
0.0000000000000000,4.0000000000000000,-610.7812499999999990,718.0937499999999990,-33.3125000000000000,-0.0000000000000000,-0.0000000000000000,0.0000000000000000,24.8750000000000000,25.9521312713999990,-0.3800000000000000,45.0000000000000000
0.0000000000000000,4.0000000000000000,-610.7812499999999990,716.1041870120000110,-35.8229179381999998,-0.0000000000000000,-0.0000000000000000,0.0000000000000000,25.1875000000000000,25.9521312713999990,-0.3800000000000000,45.0000000000000000
0.0000000000000000,4.0000000000000000,-610.7812499999999990,716.8749999999999990,-34.1250000000000000,-0.0000000000000000,-0.0000000000000000,0.0000000000000000,24.8750000000000000,25.9521312713999990,-0.3800000000000000,45.0000000000000000
0.0000000000000000,4.0000000000000000,-610.7812499999999990,718.6771240230000320,-34.2812500000000000,-0.0000000000000000,-0.0000000000000000,0.0000000000000000,25.1875000000000000,25.9521312713999990,-0.3800000000000000,45.0000000000000000
0.0000000000000000,4.0000000000000000,-610.7812499999999990,718.2499999999999990,-35.6145858765000014,-0.0000000000000000,-0.0000000000000000,0.0000000000000000,25.1875000000000000,25.9521312713999990,-0.3800000000000000,45.0000000000000000
0.0000000000000000,4.0000000000000000,-610.7812499999999990,716.4374999999999990,-33.3125000000000000,-0.0000000000000000,-0.0000000000000000,0.0000000000000000,25.5000000000000000,25.9521312713999990,-0.3800000000000000,45.0000000000000000
0.0000000000000000,4.0000000000000000,-610.7812499999999990,716.4374999999999990,-35.6145858765000014,-0.0000000000000000,-0.0000000000000000,0.0000000000000000,25.1875000000000000,25.9521312713999990,-0.3800000000000000,45.0000000000000000
0.0000000000000000,4.0000000000000000,-610.7812499999999990,718.2499999999999990,-34.5937500000000000,-0.0000000000000000,-0.0000000000000000,0.0000000000000000,25.1875000000000000,25.9521312713999990,-0.3800000000000000,45.0000000000000000
0.0000000000000000,4.0000000000000000,-610.7812499999999990,718.6771240230000320,-34.1250000000000000,-0.0000000000000000,-0.0000000000000000,0.0000000000000000,25.1875000000000000,25.9521312713999990,-0.3800000000000000,45.0000000000000000
0.0000000000000000,5.0000000000000000,-871.8749999999999990,82.8749999999999999,-35.0520858765000014,-0.0000000000000000,-0.0000000000000000,0.0000000000000000,25.1875000000000000,25.9521312713999990,-0.3700000000000000,0.0000000000000000
0.0000000000000000,5.0000000000000000,-871.8749999999999990,80.6354217529000010,-34.5937500000000000,-0.0000000000000000,-0.0000000000000000,0.0000000000000000,25.1875000000000000,25.9521312713999990,-0.3700000000000000,0.0000000000000000
0.0000000000000000,5.0000000000000000,-871.8749999999999990,81.4999999999999999,-33.8333358765000014,-0.0000000000000000,-0.0000000000000000,0.0000000000000000,25.1875000000000000,25.9521312713999990,-0.3800000000000000,0.0000000000000000
0.0000000000000000,5.0000000000000000,-871.8749999999999990,83.2812499999999999,-35.9687500000000000,-0.0000000000000000,-0.0000000000000000,0.0000000000000000,25.1875000000000000,25.9521312713999990,-0.3800000000000000,0.0000000000000000
0.0000000000000000,5.0000000000000000,-871.8749999999999990,82.8749999999999999,-33.4791679381999998,-0.0000000000000000,-0.0000000000000000,0.0000000000000000,24.8750000000000000,25.9521312713999990,-0.3800000000000000,0.0000000000000000
0.0000000000000000,5.0000000000000000,-871.8749999999999990,81.0520858765000014,-35.0520858765000014,-0.0000000000000000,-0.0000000000000000,0.0000000000000000,25.1875000000000000,25.9521312713999990,-0.3800000000000000,0.0000000000000000
0.0000000000000000,5.0000000000000000,-871.8749999999999990,80.9166717529000010,-35.1979179381999998,-0.0000000000000000,-0.0000000000000000,0.0000000000000000,24.8750000000000000,25.9521312713999990,-0.3700000000000000,0.0000000000000000
0.0000000000000000,5.0000000000000000,-871.8749999999999990,82.7187499999999999,-33.3958358765000014,-0.0000000000000000,-0.0000000000000000,0.0000000000000000,25.1875000000000000,25.9521312713999990,-0.3700000000000000,0.0000000000000000
0.0000000000000000,5.0000000000000000,-871.8749999999999990,83.4895858765000014,-35.8958358765000014,-0.0000000000000000,-0.0000000000000000,0.0000000000000000,25.1875000000000000,25.9521312713999990,-0.3800000000000000,0.0000000000000000
0.0000000000000000,5.0000000000000000,-871.8749999999999990,81.8020858765000014,-34.1250000000000000,-0.0000000000000000,-0.0000000000000000,0.0000000000000000,24.8750000000000000,25.9521312713999990,-0.3800000000000000,0.0000000000000000
0.0000000000000000,6.0000000000000000,-606.4999999999999990,-542.4999999999999990,-29.5208339690999999,-0.0000000000000000,-0.0000000000000000,0.0000000000000000,25.1875000000000000,25.9833602904999985,-0.3700000000000000,-45.0000000000000000
0.0000000000000000,6.0000000000000000,-606.4999999999999990,-542.4999999999999990,-31.9895839690999999,-0.0000000000000000,-0.0000000000000000,0.0000000000000000,25.1875000000000000,25.9521312713999990,-0.3700000000000000,-45.0000000000000000
0.0000000000000000,6.0000000000000000,-606.4999999999999990,-542.4999999999999990,-30.2187500000000000,-0.0000000000000000,-0.0000000000000000,0.0000000000000000,25.1875000000000000,25.9521312713999990,-0.3800000000000000,-45.0000000000000000
0.0000000000000000,6.0000000000000000,-606.4999999999999990,-542.4999999999999990,-30.3750000000000000,-0.0000000000000000,-0.0000000000000000,0.0000000000000000,25.1875000000000000,25.9521312713999990,-0.3700000000000000,-45.0000000000000000
0.0000000000000000,6.0000000000000000,-606.4999999999999990,-542.4999999999999990,-31.7083339690999999,-0.0000000000000000,-0.0000000000000000,0.0000000000000000,24.8750000000000000,25.9521312713999990,-0.3700000000000000,-45.0000000000000000
0.0000000000000000,6.0000000000000000,-606.4999999999999990,-542.4999999999999990,-29.4375000000000000,-0.0000000000000000,-0.0000000000000000,0.0000000000000000,25.1875000000000000,25.9521312713999990,-0.3700000000000000,-45.0000000000000000
0.0000000000000000,6.0000000000000000,-606.4999999999999990,-542.4999999999999990,-31.5729179381999998,-0.0000000000000000,-0.0000000000000000,0.0000000000000000,24.8750000000000000,25.9521312713999990,-0.3700000000000000,-45.0000000000000000
0.0000000000000000,6.0000000000000000,-606.4999999999999990,-542.4999999999999990,-30.6875000000000000,-0.0000000000000000,-0.0000000000000000,0.0000000000000000,25.1875000000000000,25.9521312713999990,-0.3700000000000000,-45.0000000000000000
0.0000000000000000,6.0000000000000000,-606.4999999999999990,-542.4999999999999990,-29.9375000000000000,-0.0000000000000000,-0.0000000000000000,0.0000000000000000,25.1875000000000000,25.9521312713999990,-0.3700000000000000,-45.0000000000000000
0.0000000000000000,6.0000000000000000,-606.4999999999999990,-542.4999999999999990,-32.0625000000000000,-0.0000000000000000,-0.0000000000000000,0.0000000000000000,25.1875000000000000,25.9521312713999990,-0.3700000000000000,-45.0000000000000000
0.0000000000000000,7.0000000000000000,18.6979179381999998,-807.2499999999999990,-19.8750000000000000,-0.0000000000000000,-0.0000000000000000,0.0000000000000000,25.1875000000000000,25.9521312713999990,-0.3700000000000000,-89.9999999999999999
0.0000000000000000,7.0000000000000000,18.5416679381999998,-807.2499999999999990,-19.9375000000000000,-0.0000000000000000,-0.0000000000000000,0.0000000000000000,25.1875000000000000,25.9521312713999990,-0.3700000000000000,-89.9999999999999999
0.0000000000000000,7.0000000000000000,18.4583339690999999,-807.2499999999999990,-19.9375000000000000,-0.0000000000000000,-0.0000000000000000,0.0000000000000000,25.5000000000000000,25.9833602904999985,-0.3700000000000000,-89.9999999999999999
0.0000000000000000,7.0000000000000000,18.3020839690999999,-807.2499999999999990,-19.8750000000000000,-0.0000000000000000,-0.0000000000000000,0.0000000000000000,25.1875000000000000,25.9833602904999985,-0.3700000000000000,-89.9999999999999999
0.0000000000000000,7.0000000000000000,18.3020839690999999,-807.2499999999999990,-19.8750000000000000,-0.0000000000000000,-0.0000000000000000,0.0000000000000000,25.1875000000000000,25.9833602904999985,-0.3700000000000000,-89.9999999999999999
0.0000000000000000,7.0000000000000000,18.0833339690999999,-807.2499999999999990,-19.6770839690999999,-0.0000000000000000,-0.0000000000000000,0.0000000000000000,24.8750000000000000,25.9521312713999990,-0.3700000000000000,-89.9999999999999999
0.0000000000000000,7.0000000000000000,18.0104179381999998,-807.2499999999999990,-19.6041679381999998,-0.0000000000000000,-0.0000000000000000,0.0000000000000000,25.1875000000000000,25.9521312713999990,-0.3700000000000000,-89.9999999999999999
0.0000000000000000,7.0000000000000000,18.0104179381999998,-807.2499999999999990,-19.6041679381999998,-0.0000000000000000,-0.0000000000000000,0.0000000000000000,24.8750000000000000,25.9521312713999990,-0.3700000000000000,-89.9999999999999999
0.0000000000000000,7.0000000000000000,17.8854179381999998,-807.2499999999999990,-19.4583339690999999,-0.0000000000000000,-0.0000000000000000,0.0000000000000000,24.8750000000000000,25.9833602904999985,-0.3700000000000000,-89.9999999999999999
0.0000000000000000,7.0000000000000000,17.8333339690999999,-807.2499999999999990,-19.3854179381999998,-0.0000000000000000,-0.0000000000000000,0.0000000000000000,24.8750000000000000,25.9833602904999985,-0.3700000000000000,-89.9999999999999999
0.0000000000000000,8.0000000000000000,669.5104370120000110,-543.8646240230000330,-18.9270839690999999,-0.0000000000000000,-0.0000000000000000,0.0000000000000000,25.1875000000000000,25.9833602904999985,-0.3800000000000000,-135.0000000000000000
0.0000000000000000,8.0000000000000000,669.1979370120000110,-555.5521240230000320,-18.7708339690999999,-0.0000000000000000,-0.0000000000000000,0.0000000000000000,24.8750000000000000,25.9833602904999985,-0.3800000000000000,-135.0000000000000000
0.0000000000000000,8.0000000000000000,668.9374999999999990,-561.4896240230000320,-18.7708339690999999,-0.0000000000000000,-0.0000000000000000,0.0000000000000000,24.8750000000000000,25.9521312713999990,-0.3800000000000000,-135.0000000000000000
0.0000000000000000,8.0000000000000000,669.2708740230000320,-560.8437499999999990,-18.7708339690999999,-0.0000000000000000,-0.0000000000000000,0.0000000000000000,25.5000000000000000,25.9521312713999990,-0.3800000000000000,-135.0000000000000000
0.0000000000000000,8.0000000000000000,669.7396240230000320,-558.5104370120000110,-18.7708339690999999,-0.0000000000000000,-0.0000000000000000,0.0000000000000000,24.5625000000000000,25.9521312713999990,-0.3800000000000000,-135.0000000000000000
0.0000000000000000,8.0000000000000000,670.1041870120000110,-558.5312499999999990,-18.6979179381999998,-0.0000000000000000,-0.0000000000000000,0.0000000000000000,25.1875000000000000,25.9833602904999985,-0.3800000000000000,-135.0000000000000000
0.0000000000000000,8.0000000000000000,670.7812499999999990,-558.5312499999999990,-18.9270839690999999,-0.0000000000000000,-0.0000000000000000,0.0000000000000000,25.1875000000000000,25.9833602904999985,-0.3800000000000000,-135.0000000000000000
0.0000000000000000,8.0000000000000000,670.8437499999999990,-534.2187499999999990,-18.9270839690999999,-0.0000000000000000,-0.0000000000000000,0.0000000000000000,25.1875000000000000,25.9833602904999985,-0.3800000000000000,-135.0000000000000000
0.0000000000000000,8.0000000000000000,670.4166870120000110,-562.0833740230000320,-18.9270839690999999,-0.0000000000000000,-0.0000000000000000,0.0000000000000000,25.5000000000000000,25.9833602904999985,-0.3800000000000000,-135.0000000000000000
0.0000000000000000,8.0000000000000000,669.7396240230000320,-550.9166870120000110,-19.1666679381999998,-0.0000000000000000,-0.0000000000000000,0.0000000000000000,25.1875000000000000,25.9833602904999985,-0.3800000000000000,-135.0000000000000000
