Temp Iter,Index,X Accel 1,Y Accel 1,Z Accel 1,X Accel 2,Y Accel 2,Z Accel2, Temp_6g,Temp,Theta,Phi,,,,,,
0.0000000000000000,1.0000000000000000,900.6799926759999830,-7.3399615287800000,-9.5199909210199998,904.7799682620000100,17.2400112151999991,-5.0800600051900000,28.0000000000000000,28.3256111144999991,-0.3600000000000000,180.0000000000000000
0.0000000000000000,1.0000000000000000,899.5198974610000270,-7.0999908447299997,-9.4200191497799999,905.1999511720000550,17.1799793242999996,-5.0199594497700000,27.6875000000000000,28.3256111144999991,-0.3600000000000000,180.0000000000000000
0.0000000000000000,1.0000000000000000,899.7600708009999830,-7.0599894523600000,-10.1200571060000008,904.7199707029999440,17.4000492095999988,-4.4799299240100003,27.6875000000000000,28.3256111144999991,-0.3600000000000000,180.0000000000000000
0.0000000000000000,1.0000000000000000,900.3600463870000100,-7.2200012207000004,-9.2800006866500002,905.0600585939999960,16.9999580383000008,-4.2398190498400004,28.0000000000000000,28.3256111144999991,-0.3600000000000000,180.0000000000000000
0.0000000000000000,1.0000000000000000,899.2799072269999660,-7.3799996376000001,-9.1000509262100007,905.4598999019999600,16.7000389099000017,-4.8199796676600002,28.0000000000000000,28.3256111144999991,-0.3600000000000000,180.0000000000000000
0.0000000000000000,1.0000000000000000,899.0199584959999580,-7.2400493621799997,-9.7200403213500000,905.5599975589999520,17.2800197601000001,-4.0401291847199996,28.0000000000000000,28.3256111144999991,-0.3600000000000000,180.0000000000000000
0.0000000000000000,1.0000000000000000,899.8401489259999830,-7.5200099945099996,-9.6799697875999993,905.1199951170000300,17.4800586699999982,-4.4799299240100003,27.6875000000000000,28.3256111144999991,-0.3600000000000000,180.0000000000000000
0.0000000000000000,1.0000000000000000,899.8001098629999880,-7.3200201988200000,-9.9600276947000008,905.2399902339999460,17.2200298308999997,-4.1400995254500001,27.6875000000000000,28.3256111144999991,-0.3600000000000000,180.0000000000000000
0.0000000000000000,1.0000000000000000,900.0800781249999990,-7.1000204086299998,-10.1599712372000006,905.1401367189999960,17.3399829865000008,-3.6799700260199999,27.6875000000000000,28.3256111144999991,-0.3600000000000000,180.0000000000000000
0.0000000000000000,1.0000000000000000,899.6602172850000430,-7.0200395584099997,-10.7200098038000000,904.5998535160000520,17.0799694060999982,-4.4999399185200000,28.0000000000000000,28.3568401337000004,-0.3600000000000000,180.0000000000000000
0.0000000000000000,2.0000000000000000,655.1999511720000550,628.5599975589999520,-8.1800079345699999,641.1199951170000300,466.3399353030000040,437.6000366210000150,28.0000000000000000,28.3568401337000004,-0.3600000000000000,135.0000000000000000
0.0000000000000000,2.0000000000000000,654.8000488279999440,628.7000122069999860,-8.2599792480499996,641.0600585939999970,466.8001098629999880,437.9400024409999900,28.0000000000000000,28.3568401337000004,-0.3600000000000000,135.0000000000000000
0.0000000000000000,2.0000000000000000,654.9199218749999990,628.7799682620000110,-8.7200307846099996,640.8400268550000190,466.8599853520000230,437.6199951169999730,27.6875000000000000,28.3568401337000004,-0.3600000000000000,135.0000000000000000
0.0000000000000000,2.0000000000000000,654.7799682620000110,628.8999023439999970,-8.5400094985999999,641.0198974610000270,466.6998596189999940,438.2797851560000020,27.6875000000000000,28.3568401337000004,-0.3600000000000000,135.0000000000000000
0.0000000000000000,2.0000000000000000,655.2800903319999860,629.2600097660000520,-7.6799907684299997,640.9798583980000320,466.2199401859999730,438.2399597169999760,28.0000000000000000,28.3568401337000004,-0.3600000000000000,135.0000000000000000
0.0000000000000000,2.0000000000000000,655.4000854490000160,628.6000366209999580,-7.9200100898699999,640.9199829100000440,466.7000732419999730,437.9400329590000060,28.0000000000000000,28.3568401337000004,-0.3600000000000000,135.0000000000000000
0.0000000000000000,2.0000000000000000,655.3200073240000160,629.0999755860000270,-7.6799817085299997,641.2799682620000110,466.3800353999999970,437.7200012210000180,27.3750000000000000,28.3568401337000004,-0.3600000000000000,135.0000000000000000
0.0000000000000000,2.0000000000000000,655.7598876949999740,628.9400024410000460,-7.5199999809299998,641.0799560550000240,466.5399780270000170,437.7198486330000260,27.6875000000000000,28.3568401337000004,-0.3600000000000000,135.0000000000000000
0.0000000000000000,2.0000000000000000,654.9200439449999740,628.9799804689999970,-8.6000185012799992,641.4599609379999940,467.1399536129999880,438.5600280759999800,28.0000000000000000,28.3568401337000004,-0.3600000000000000,135.0000000000000000
0.0000000000000000,2.0000000000000000,654.5997924800000180,628.4799804689999970,-8.9000282287600001,641.4799804689999970,466.7998657229999820,437.6799926759999830,28.0000000000000000,28.3568401337000004,-0.3600000000000000,135.0000000000000000
0.0000000000000000,3.0000000000000000,21.3799877167000005,906.0999145509999830,-5.2199892997699999,8.3800106048600007,653.1400756839999520,626.7999877930000130,28.3125000000000000,28.3568401337000004,-0.3600000000000000,89.9999999999999999
0.0000000000000000,3.0000000000000000,21.6399898529000012,906.0399780269999600,-5.3399991989100002,8.8600091934199998,653.1398925779999440,626.7598876949999740,28.0000000000000000,28.3568401337000004,-0.3600000000000000,89.9999999999999999
0.0000000000000000,3.0000000000000000,21.6200141907000010,905.5799560550000240,-5.4799990654000004,8.2999200820900008,653.2199096680000130,626.6199951170000300,27.6875000000000000,28.3568401337000004,-0.3600000000000000,89.9999999999999999
0.0000000000000000,3.0000000000000000,20.8999671935999984,905.8999633790000410,-4.9400000572199998,9.2399702072099998,652.9199218749999990,626.4800415040000410,28.0000000000000000,28.3880710602000015,-0.3600000000000000,89.9999999999999999
0.0000000000000000,3.0000000000000000,21.6800308227999991,905.9799804689999960,-4.3200101852400001,8.9200582504299994,653.1798095699999740,626.8798217769999600,28.0000000000000000,28.3880710602000015,-0.3600000000000000,89.9999999999999999
0.0000000000000000,3.0000000000000000,22.0799903869999987,905.2799682620000100,-4.9000296592700003,9.1400299072299997,652.8800048829999690,626.5400390620000050,28.0000000000000000,28.3880710602000015,-0.3600000000000000,89.9999999999999999
0.0000000000000000,3.0000000000000000,21.5199966431000007,905.7399291990000160,-4.8800396919300004,9.1600379943799997,653.3799438480000380,626.6199340819999860,27.6875000000000000,28.3880710602000015,-0.3600000000000000,89.9999999999999999
0.0000000000000000,3.0000000000000000,21.5400390625000000,906.0799560550000240,-5.1999907493600004,9.5399885177599994,653.3800048829999690,626.2199096680000130,28.0000000000000000,28.3568401337000004,-0.3600000000000000,89.9999999999999999
0.0000000000000000,3.0000000000000000,21.7799797057999989,905.8399658199999740,-5.0800399780300003,8.7200279235800000,653.5800781249999990,627.5002441410000520,28.0000000000000000,28.3568401337000004,-0.3600000000000000,89.9999999999999999
0.0000000000000000,3.0000000000000000,21.6800098418999987,905.7000732420000300,-5.5400395393400004,8.6399698257399997,652.9998779300000240,626.5798950199999800,28.0000000000000000,28.3568401337000004,-0.3600000000000000,89.9999999999999999
0.0000000000000000,4.0000000000000000,-629.7399291990000160,648.7000122069999860,-1.9400302171699999,-633.2797851560000020,462.8199462889999720,436.2199401859999730,28.0000000000000000,28.3568401337000004,-0.3600000000000000,45.0000000000000000
0.0000000000000000,4.0000000000000000,-630.7000122069999860,649.3999633790000410,-2.1800203323399998,-633.7199096680000130,463.1799621580000230,434.9399414060000020,28.0000000000000000,28.3880710602000015,-0.3600000000000000,45.0000000000000000
0.0000000000000000,4.0000000000000000,-630.5600585939999970,649.7600097660000520,-2.0800197124499999,-633.5200805660000460,463.2400817870000080,435.6000366210000150,28.0000000000000000,28.3880710602000015,-0.3600000000000000,45.0000000000000000
0.0000000000000000,4.0000000000000000,-630.7999267579999690,649.2600097660000520,-2.1000099182100000,-634.0998535160000520,463.2399597169999760,435.6399841310000050,27.6875000000000000,28.3880710602000015,-0.3600000000000000,45.0000000000000000
0.0000000000000000,4.0000000000000000,-630.2000122069999860,648.4999999999999990,-2.1799798011800000,-633.8400878910000520,463.1599121090000040,436.1600341800000250,28.0000000000000000,28.3880710602000015,-0.3600000000000000,45.0000000000000000
0.0000000000000000,4.0000000000000000,-630.3600463870000110,648.8999633790000410,-1.7999897003200001,-632.9400634769999660,463.0598754879999880,436.5198974610000270,28.0000000000000000,28.3880710602000015,-0.3600000000000000,45.0000000000000000
0.0000000000000000,4.0000000000000000,-630.9798583980000320,648.7200927730000320,-1.9200000762900000,-634.0800781249999990,463.3601074219999980,435.4597473140000260,28.0000000000000000,28.3568401337000004,-0.3600000000000000,45.0000000000000000
0.0000000000000000,4.0000000000000000,-630.5600585939999970,648.7600097660000520,-2.2200098037700000,-633.8200073240000160,463.1399230960000180,436.1199035640000260,27.6875000000000000,28.3568401337000004,-0.3600000000000000,45.0000000000000000
0.0000000000000000,4.0000000000000000,-630.3800659180000130,648.6199951170000300,-1.9800597429300000,-634.0799560550000240,462.9400329590000060,435.3401184080000230,27.6875000000000000,28.3568401337000004,-0.3600000000000000,45.0000000000000000
0.0000000000000000,4.0000000000000000,-631.0800170899999550,649.3800048829999690,-2.7999699115799999,-633.8999633790000410,462.9999389650000120,435.4200439449999740,27.6875000000000000,28.3568401337000004,-0.3600000000000000,45.0000000000000000
0.0000000000000000,5.0000000000000000,-895.1799316410000520,19.4200115203999992,-4.3999590873700001,-891.1999511720000550,11.9400396346999997,-8.6000690460199998,27.6875000000000000,28.3568401337000004,-0.3600000000000000,0.0000000000000000
0.0000000000000000,5.0000000000000000,-895.4199829100000430,19.2399902344000004,-3.1799798011800000,-891.3000488279999440,12.2600021362000007,-8.8199987411500000,27.6875000000000000,28.3568401337000004,-0.3600000000000000,0.0000000000000000
0.0000000000000000,5.0000000000000000,-894.7999877930000130,19.4200000762999991,-3.8000190258000002,-890.3599853519999660,12.1600704193000002,-8.3998794555699998,28.0000000000000000,28.3568401337000004,-0.3600000000000000,0.0000000000000000
0.0000000000000000,5.0000000000000000,-894.8798828120000040,19.3199996947999999,-3.7999792099000000,-890.8203735350000430,11.7600107193000003,-8.5000295639000001,27.6875000000000000,28.3568401337000004,-0.3600000000000000,0.0000000000000000
0.0000000000000000,5.0000000000000000,-895.0999755860000270,19.5799903869999987,-3.8399505615199998,-891.4999999999999990,11.6000194550000000,-8.5399188995399999,28.0000000000000000,28.3568401337000004,-0.3600000000000000,0.0000000000000000
0.0000000000000000,5.0000000000000000,-895.3000488279999440,19.2600173949999984,-3.5199999809300002,-891.4999999999999990,11.7999792099000000,-8.8400506973299997,28.0000000000000000,28.3568401337000004,-0.3600000000000000,0.0000000000000000
0.0000000000000000,5.0000000000000000,-895.5199584959999580,19.0200195311999991,-3.4799897670700002,-890.7399291990000160,12.2000074387000001,-8.9399604797399998,27.6875000000000000,28.3568401337000004,-0.3600000000000000,0.0000000000000000
0.0000000000000000,5.0000000000000000,-895.4599609379999940,19.2200279236000000,-3.5199899673499999,-890.8599243160000460,11.9599885941000004,-8.8800086975100001,27.6875000000000000,28.3568401337000004,-0.3600000000000000,0.0000000000000000
0.0000000000000000,5.0000000000000000,-894.4400634769999660,18.9599781036000010,-3.9800000190699998,-890.2198486329999690,11.6800317763999999,-7.8400397300700000,27.6875000000000000,28.3568401337000004,-0.3600000000000000,0.0000000000000000
0.0000000000000000,5.0000000000000000,-894.6000366209999580,19.3799991608000006,-4.0400004386899999,-891.2200317379999880,12.7399997711000008,-8.4199714660599998,28.3125000000000000,28.3568401337000004,-0.3600000000000000,0.0000000000000000
0.0000000000000000,6.0000000000000000,-650.1400756839999520,-614.5599975589999520,-4.3800091743499996,-629.5599365230000320,-436.5400390620000050,-452.9401550289999810,27.6875000000000000,28.3568401337000004,-0.3600000000000000,-45.0000000000000000
0.0000000000000000,6.0000000000000000,-649.7600097660000520,-614.4600219730000380,-4.1799898147599999,-628.5198364259999830,-436.2800598140000260,-453.7399597169999760,28.0000000000000000,28.3880710602000015,-0.3600000000000000,-45.0000000000000000
0.0000000000000000,6.0000000000000000,-650.4999999999999990,-613.7400512699999800,-4.6599898338300001,-628.7600097660000520,-437.0400695800000220,-453.8400268550000190,27.6875000000000000,28.3880710602000015,-0.3600000000000000,-45.0000000000000000
0.0000000000000000,6.0000000000000000,-650.1600341800000240,-614.3399658199999740,-4.2599997520399997,-628.5798339839999460,-436.8601379390000260,-453.5800170900000120,27.6875000000000000,28.3880710602000015,-0.3600000000000000,-45.0000000000000000
0.0000000000000000,6.0000000000000000,-650.3198852540000410,-614.0999755860000270,-4.5600404739400000,-628.9799194339999520,-436.7600402830000230,-453.5798339840000040,28.0000000000000000,28.3880710602000015,-0.3600000000000000,-45.0000000000000000
0.0000000000000000,6.0000000000000000,-649.7000122069999860,-614.1799926759999830,-4.0400204658499996,-628.5598144529999440,-436.5599975590000100,-453.6400146479999760,27.6875000000000000,28.3880710602000015,-0.3600000000000000,-45.0000000000000000
0.0000000000000000,6.0000000000000000,-649.7199707029999440,-614.2600097660000520,-4.8199491500900002,-628.5198974610000270,-436.7200317379999880,-453.6399841310000050,27.6875000000000000,28.3568401337000004,-0.3600000000000000,-45.0000000000000000
0.0000000000000000,6.0000000000000000,-649.9600219730000380,-614.2600097660000520,-4.4399795532199997,-628.3798828120000050,-436.6600036620000080,-453.6799621580000230,27.6875000000000000,28.3568401337000004,-0.3600000000000000,-45.0000000000000000
0.0000000000000000,6.0000000000000000,-649.4201049800000190,-614.3999633790000410,-4.7200303077700001,-628.8599243160000460,-435.4999389650000120,-453.1599426270000200,28.0000000000000000,28.3880710602000015,-0.3600000000000000,-45.0000000000000000
0.0000000000000000,6.0000000000000000,-650.3200073240000160,-614.1799926759999830,-4.1799798011800000,-629.3999633790000410,-436.5199890139999750,-453.0000610349999870,28.0000000000000000,28.3880710602000015,-0.3600000000000000,-45.0000000000000000
0.0000000000000000,7.0000000000000000,-16.9599914550999990,-890.5798950199999800,-6.7199988365200003,1.6800097227099999,-622.7199707029999440,-640.2399291990000160,28.0000000000000000,28.3880710602000015,-0.3500000000000000,-89.9999999999999999
0.0000000000000000,7.0000000000000000,-16.6599769592000015,-891.3399658199999740,-7.6400084495499998,1.4599999189399999,-622.7999267579999690,-640.8800659180000130,28.0000000000000000,28.3880710602000015,-0.3600000000000000,-89.9999999999999999
0.0000000000000000,7.0000000000000000,-17.5999526977999991,-890.9799804689999960,-7.2600302696199996,2.5400300025900000,-622.7799682620000110,-641.0798950199999800,28.0000000000000000,28.3568401337000004,-0.3600000000000000,-89.9999999999999999
0.0000000000000000,7.0000000000000000,-17.1400089264000002,-891.0199584959999580,-7.1399898529100003,2.2599198818200001,-622.7799682620000110,-641.3200073240000160,27.6875000000000000,28.3568401337000004,-0.3600000000000000,-89.9999999999999999
0.0000000000000000,7.0000000000000000,-15.8000402450999999,-890.6999511720000550,-7.5999698638900002,2.6200201511399999,-621.8599853519999660,-640.3599853519999660,28.0000000000000000,28.3568401337000004,-0.3600000000000000,-89.9999999999999999
0.0000000000000000,7.0000000000000000,-16.9800128936999997,-891.1799926759999830,-6.8400101661699999,2.5199699401900002,-622.5199584959999580,-641.5599365230000320,28.0000000000000000,28.3880710602000015,-0.3600000000000000,-89.9999999999999999
0.0000000000000000,7.0000000000000000,-17.0400295258000014,-890.9799804689999960,-6.8199291229199996,1.7199698686600000,-622.9801635740000160,-640.6800537110000270,27.6875000000000000,28.3880710602000015,-0.3600000000000000,-89.9999999999999999
0.0000000000000000,7.0000000000000000,-16.6599426269999995,-890.9400024410000460,-6.6999707221999998,1.7400496005999999,-622.5399169920000300,-641.1799316410000520,28.0000000000000000,28.3568401337000004,-0.3600000000000000,-89.9999999999999999
0.0000000000000000,7.0000000000000000,-16.6400299071999988,-891.2199707029999440,-6.9199595451400002,2.6600103378300002,-622.3599243160000460,-640.8798828120000050,27.6875000000000000,28.3568401337000004,-0.3600000000000000,-89.9999999999999999
0.0000000000000000,7.0000000000000000,-17.2600193023999999,-890.9599609379999940,-7.1999797820999998,2.0800495147700002,-622.4599609379999940,-640.7000732420000300,27.6875000000000000,28.3568401337000004,-0.3600000000000000,-89.9999999999999999
0.0000000000000000,8.0000000000000000,636.7798461910000460,-633.9199829100000440,-10.1800594330000003,647.8599243160000460,-433.9400024409999900,-450.1600036620000080,28.0000000000000000,28.3568401337000004,-0.3600000000000000,-135.0000000000000000
0.0000000000000000,8.0000000000000000,637.6199340819999860,-634.1000366209999580,-9.3800306320200004,648.7398071290000410,-434.1798706050000190,-450.5600280759999800,27.6875000000000000,28.3568401337000004,-0.3600000000000000,-135.0000000000000000
0.0000000000000000,8.0000000000000000,637.0599365230000320,-634.0400390620000050,-9.5799989700299992,648.1799316410000520,-434.4200439449999740,-450.8599853520000230,27.6875000000000000,28.3880710602000015,-0.3600000000000000,-135.0000000000000000
0.0000000000000000,8.0000000000000000,636.9601440430000130,-634.4799804689999970,-9.6200294494600005,647.8200073240000160,-434.0000305180000160,-450.2199401859999730,28.0000000000000000,28.3880710602000015,-0.3600000000000000,-135.0000000000000000
0.0000000000000000,8.0000000000000000,636.5599365230000320,-634.3200073240000160,-9.3999996185299999,646.9598388670000300,-434.2999572749999970,-449.9199218750000000,28.3125000000000000,28.3880710602000015,-0.3600000000000000,-135.0000000000000000
0.0000000000000000,8.0000000000000000,636.4799804689999970,-634.5599365230000320,-9.8200416564899999,647.9399414060000020,-433.9599914550000220,-450.6001586909999900,27.6875000000000000,28.3568401337000004,-0.3600000000000000,-135.0000000000000000
0.0000000000000000,8.0000000000000000,636.8800048829999690,-634.1800537110000270,-9.8000202179000002,648.3400878910000520,-434.3999938960000120,-450.1598815919999760,28.0000000000000000,28.3568401337000004,-0.3600000000000000,-135.0000000000000000
0.0000000000000000,8.0000000000000000,637.0399780269999600,-634.1799926759999830,-9.4199304580700005,648.5399780269999600,-434.0199584960000150,-451.2199096680000130,28.0000000000000000,28.3880710602000015,-0.3600000000000000,-135.0000000000000000
0.0000000000000000,8.0000000000000000,637.0399780269999600,-633.9400024410000460,-8.9799499511699992,648.8400878910000520,-434.1800231930000100,-450.7799377439999940,27.6875000000000000,28.3880710602000015,-0.3600000000000000,-135.0000000000000000
0.0000000000000000,8.0000000000000000,637.5799560550000240,-634.0799560550000240,-9.5599794387799992,648.5399780269999600,-434.0999450680000100,-450.8799133300000220,28.0000000000000000,28.3568401337000004,-0.3600000000000000,-135.0000000000000000
0.0000000000000000,9.0000000000000000,824.1998901370000100,-4.5199899673499999,365.9200744629999910,827.9202270509999830,-246.8800506590000050,262.8201293949999810,28.0000000000000000,28.3568401337000004,24.3099999999999987,180.0000000000000000
0.0000000000000000,9.0000000000000000,825.5999755860000270,-4.2400202751200000,365.4199523930000160,827.8800659180000130,-246.7399902340000040,262.4200439449999750,27.6875000000000000,28.3568401337000004,24.3099999999999987,180.0000000000000000
0.0000000000000000,9.0000000000000000,824.9800415040000410,-4.3199691772500000,365.2999267580000260,828.8999023439999970,-246.6199340819999860,262.5198669430000110,27.6875000000000000,28.3568401337000004,24.3099999999999987,180.0000000000000000
0.0000000000000000,9.0000000000000000,824.7800292970000550,-4.4399895667999996,366.0400695800000220,827.8400878910000520,-246.8199768069999890,261.3399047849999870,28.0000000000000000,28.3568401337000004,24.3099999999999987,180.0000000000000000
0.0000000000000000,9.0000000000000000,824.5399780269999600,-4.6799993515000002,365.1000061039999870,828.1399536129999880,-246.8600921629999900,262.0799865719999950,27.6875000000000000,28.3568401337000004,24.3099999999999987,180.0000000000000000
0.0000000000000000,9.0000000000000000,826.0199584959999580,-4.2400293350200000,365.0399780270000180,828.9398803709999580,-246.4199676510000070,262.6000061039999880,27.6875000000000000,28.3568401337000004,24.3099999999999987,180.0000000000000000
0.0000000000000000,9.0000000000000000,825.3800659180000130,-4.6400103569000004,364.2400207520000200,828.7799682620000100,-246.5999298099999920,262.4999084469999950,28.0000000000000000,28.3568401337000004,24.3099999999999987,180.0000000000000000
0.0000000000000000,9.0000000000000000,825.3000488279999440,-4.2399997711199999,364.8599853520000230,828.1398925779999440,-246.7799987790000100,262.8600463870000110,28.0000000000000000,28.3568401337000004,24.3099999999999987,180.0000000000000000
0.0000000000000000,9.0000000000000000,826.0798950199999800,-4.4200205802900001,365.5799865719999950,828.8200683589999460,-246.8199768069999890,262.3999023439999970,27.6875000000000000,28.3256111144999991,24.3099999999999987,180.0000000000000000
0.0000000000000000,9.0000000000000000,824.8399047850000440,-4.3800001144399996,365.5200195310000020,828.2601318360000270,-246.8000488280000010,262.7599487300000190,28.0000000000000000,28.3256111144999991,24.3099999999999987,180.0000000000000000
0.0000000000000000,10.0000000000000000,594.9398193360000270,577.7199707029999440,363.4800415039999840,586.1800537110000270,163.8999938960000120,665.7400512699999800,27.6875000000000000,28.3568401337000004,24.3099999999999987,135.0000000000000000
0.0000000000000000,10.0000000000000000,595.6400146480000320,577.5199584959999580,363.8599243159999900,586.4201049800000190,163.6799926760000120,665.4200439449999740,27.6875000000000000,28.3568401337000004,24.3099999999999987,135.0000000000000000
0.0000000000000000,10.0000000000000000,595.5999755860000270,577.0599365230000320,363.0800170900000120,586.2201538089999520,164.0400390620000050,665.5400390620000050,27.6875000000000000,28.3256111144999991,24.3099999999999987,135.0000000000000000
0.0000000000000000,10.0000000000000000,595.4400024410000460,577.5599975589999520,363.7999572749999970,585.3599243160000460,163.6999664310000070,665.5400390620000050,27.6875000000000000,28.3256111144999991,24.3099999999999987,135.0000000000000000
0.0000000000000000,10.0000000000000000,595.4200439449999740,577.3798828120000050,363.3799133300000220,586.5800170899999550,163.6999816889999980,665.7197265620000050,28.0000000000000000,28.3256111144999991,24.3099999999999987,135.0000000000000000
0.0000000000000000,10.0000000000000000,595.4599609379999940,577.4999999999999990,363.9400634770000230,586.4800415040000410,163.7599945069999870,665.7000122069999860,27.6875000000000000,28.3256111144999991,24.3099999999999987,135.0000000000000000
0.0000000000000000,10.0000000000000000,596.1000976560000020,577.9799804689999970,363.4800415039999840,585.6798706050000190,164.1999969480000060,665.6400146480000320,28.0000000000000000,28.3256111144999991,24.3099999999999987,135.0000000000000000
0.0000000000000000,10.0000000000000000,595.4398803709999580,577.2600097660000520,363.4999389650000120,585.5997924800000190,163.7399597170000050,665.3999633790000410,28.0000000000000000,28.3256111144999991,24.3099999999999987,135.0000000000000000
0.0000000000000000,10.0000000000000000,595.3399658199999740,577.5601196290000410,363.0000000000000000,586.0601196290000410,164.1800689700000080,665.6199951170000300,27.6875000000000000,28.3256111144999991,24.3099999999999987,135.0000000000000000
0.0000000000000000,10.0000000000000000,595.1598510740000160,576.8600463870000110,363.1000366210000150,585.8800048829999690,163.9599761960000140,666.6400146480000320,27.6875000000000000,28.3568401337000004,24.3099999999999987,135.0000000000000000
0.0000000000000000,11.0000000000000000,21.7799968718999999,825.8399658199999740,370.8600158689999940,8.0999689102199994,336.9000244139999720,833.3999023439999970,27.6875000000000000,28.3256111144999991,24.3099999999999987,89.9999999999999999
0.0000000000000000,11.0000000000000000,21.6999893188000001,826.4400024410000460,370.3600158689999940,7.4600491523699999,336.4399414060000020,834.6198730470000550,27.6875000000000000,28.3256111144999991,24.3099999999999987,89.9999999999999999
0.0000000000000000,11.0000000000000000,21.3799705505000013,825.4799804689999970,369.9200744629999910,7.6399302482599998,336.7400207520000200,833.7402954100000440,27.6875000000000000,28.3256111144999991,24.3099999999999987,89.9999999999999999
0.0000000000000000,11.0000000000000000,22.4199771880999989,825.5999755860000270,369.5799560550000250,7.0800104141200002,336.6399841310000050,834.3001098629999880,27.6875000000000000,28.3256111144999991,24.3099999999999987,89.9999999999999999
0.0000000000000000,11.0000000000000000,22.2999820709000005,825.7999877930000130,370.2999877930000140,7.1800899505600002,336.8800964359999740,834.8601074220000550,28.0000000000000000,28.3256111144999991,24.3099999999999987,89.9999999999999999
0.0000000000000000,11.0000000000000000,21.6200428008999985,825.6199951170000300,370.0000305180000160,7.4399795532199997,336.4999084469999950,833.9600830079999690,27.6875000000000000,28.3256111144999991,24.3099999999999987,89.9999999999999999
0.0000000000000000,11.0000000000000000,22.3400287627999994,825.9799194339999520,370.0200195310000020,7.8600988388099999,336.9000244139999720,834.1597290040000410,28.0000000000000000,28.3256111144999991,24.3099999999999987,89.9999999999999999
0.0000000000000000,11.0000000000000000,21.9400386810000008,826.0999145509999830,370.8199768069999890,7.3599996566800003,336.5000305180000170,833.5199584959999580,28.0000000000000000,28.3256111144999991,24.3099999999999987,89.9999999999999999
0.0000000000000000,11.0000000000000000,22.6600284575999993,825.6199951170000300,370.6199951169999730,7.1198887825000003,336.3199157710000120,833.4999999999999990,27.6875000000000000,28.3256111144999991,24.3099999999999987,89.9999999999999999
0.0000000000000000,11.0000000000000000,21.7599697112999983,825.5400390620000040,370.2200012210000180,7.6198787689199996,336.4798889159999930,833.9199218749999990,28.0000000000000000,28.3256111144999991,24.3099999999999987,89.9999999999999999
0.0000000000000000,12.0000000000000000,-569.7199707029999440,593.4599609379999940,368.3000183109999740,-577.8399658199999740,159.9999694820000110,661.7000122069999860,27.6875000000000000,28.3256111144999991,24.3099999999999987,45.0000000000000000
0.0000000000000000,12.0000000000000000,-569.4799194339999520,593.2399291990000160,368.5999450680000110,-578.9400024410000460,159.8200378420000050,661.8398437499999990,28.0000000000000000,28.3256111144999991,24.3099999999999987,45.0000000000000000
0.0000000000000000,12.0000000000000000,-569.4600219730000380,593.2199707029999440,368.8800048830000260,-577.3600463870000110,159.4000091549999920,661.7200927730000320,28.0000000000000000,28.3256111144999991,24.3099999999999987,45.0000000000000000
0.0000000000000000,12.0000000000000000,-570.0798950199999800,593.3999633790000410,368.2799377439999940,-578.6400756839999520,159.3599548340000070,661.8599853519999660,28.0000000000000000,28.3256111144999991,24.3099999999999987,45.0000000000000000
0.0000000000000000,12.0000000000000000,-569.8599243160000460,592.9199829100000440,368.4800720210000120,-577.2799072269999660,159.7999725340000050,661.7000732420000300,27.6875000000000000,28.3256111144999991,24.3099999999999987,45.0000000000000000
0.0000000000000000,12.0000000000000000,-569.5999755860000270,593.2600708009999830,368.9999389650000120,-579.0599975589999520,159.8399505620000130,661.3999633790000410,28.0000000000000000,28.3256111144999991,24.3099999999999987,45.0000000000000000
0.0000000000000000,12.0000000000000000,-569.4400634769999660,593.7000732420000300,368.4399414060000020,-576.7400512699999800,159.6799621579999950,662.3399658199999740,27.3750000000000000,28.3256111144999991,24.3099999999999987,45.0000000000000000
0.0000000000000000,12.0000000000000000,-570.1800537110000270,593.2200317379999880,368.0799255370000080,-576.8999633790000410,159.6999664310000070,661.7000122069999860,27.6875000000000000,28.3256111144999991,24.3099999999999987,45.0000000000000000
0.0000000000000000,12.0000000000000000,-569.5999145509999830,593.3600463870000110,369.3799438479999820,-577.6799926759999830,159.5600280760000090,661.4599609379999940,27.6875000000000000,28.3256111144999991,24.3099999999999987,45.0000000000000000
0.0000000000000000,12.0000000000000000,-569.8599853519999660,593.3599853519999660,368.3799438479999820,-578.0198974610000270,159.3999938960000120,662.1199951170000300,28.0000000000000000,28.2943801880000016,24.3099999999999987,45.0000000000000000
0.0000000000000000,13.0000000000000000,-813.8798828120000040,15.8600091933999998,371.4600219729999820,-812.1601562499999990,-251.1999816889999970,256.6599731449999810,27.6875000000000000,28.3256111144999991,24.3099999999999987,0.0000000000000000
0.0000000000000000,13.0000000000000000,-813.4199218749999990,15.7800083160000000,371.0400695800000220,-812.7199096680000130,-251.1399993900000140,256.0401000979999820,27.6875000000000000,28.2943801880000016,24.3099999999999987,0.0000000000000000
0.0000000000000000,13.0000000000000000,-814.1398315430000130,15.8399896622000007,371.6199951169999730,-813.3599243160000460,-251.1599426269999920,256.3399658199999750,27.6875000000000000,28.2943801880000016,24.3099999999999987,0.0000000000000000
0.0000000000000000,13.0000000000000000,-814.1600341800000240,15.8999986649000000,371.7599792479999790,-812.8200073240000160,-251.1200103760000100,255.7200927730000040,28.0000000000000000,28.3256111144999991,24.3099999999999987,0.0000000000000000
0.0000000000000000,13.0000000000000000,-814.1599731449999800,15.7399902344000004,371.6999206539999810,-811.5399780269999600,-250.9199981689999960,257.1399536129999890,28.0000000000000000,28.3256111144999991,24.3099999999999987,0.0000000000000000
0.0000000000000000,13.0000000000000000,-813.3800048829999690,16.2200393677000001,371.9199829099999870,-812.9999999999999990,-250.9399719239999910,256.6800231930000110,27.6875000000000000,28.3256111144999991,24.3099999999999987,0.0000000000000000
0.0000000000000000,13.0000000000000000,-813.7799072269999660,15.7599906921000006,371.5599975590000100,-812.2399902339999460,-251.1199951170000020,256.1200256349999900,28.0000000000000000,28.2943801880000016,24.3099999999999987,0.0000000000000000
0.0000000000000000,13.0000000000000000,-813.8400878910000520,15.6999788284000008,371.0600280759999800,-812.1403198240000160,-251.2199401860000020,256.4401550289999820,28.0000000000000000,28.2943801880000016,24.3099999999999987,0.0000000000000000
0.0000000000000000,13.0000000000000000,-813.9998168949999800,16.0399780272999983,371.9199829099999870,-811.9999999999999990,-251.2399291989999880,256.3800353999999970,27.6875000000000000,28.3256111144999991,24.3099999999999987,0.0000000000000000
0.0000000000000000,13.0000000000000000,-813.9998779300000240,15.7199811935000007,371.8200988770000200,-811.8001098629999880,-251.1599884030000000,256.9799804689999970,27.6875000000000000,28.3256111144999991,24.3099999999999987,0.0000000000000000
0.0000000000000000,14.0000000000000000,-588.2000122069999860,-563.9600219730000380,367.7200012210000180,-575.2799682620000110,-658.5999145509999830,-150.7599334720000000,27.6875000000000000,28.3256111144999991,24.3200000000000003,-45.0000000000000000
0.0000000000000000,14.0000000000000000,-587.9200439449999740,-564.0399780269999600,366.6600341800000250,-574.3798828120000050,-658.1400756839999520,-150.8199157710000120,28.0000000000000000,28.3256111144999991,24.3099999999999987,-45.0000000000000000
0.0000000000000000,14.0000000000000000,-587.4800415040000410,-563.5399780269999600,367.7999572749999970,-575.1600341800000250,-658.5999755860000270,-150.2599639889999990,27.6875000000000000,28.2943801880000016,24.3099999999999987,-45.0000000000000000
0.0000000000000000,14.0000000000000000,-587.6400756839999520,-563.5200805660000460,366.8800659180000140,-575.0400390620000050,-658.2199096680000130,-150.4600372310000010,28.0000000000000000,28.2943801880000016,24.3200000000000003,-45.0000000000000000
0.0000000000000000,14.0000000000000000,-587.0198974610000270,-563.5399169920000300,367.1999511719999980,-575.2399291990000160,-658.4999999999999990,-150.0199890140000030,28.0000000000000000,28.2943801880000016,24.3099999999999987,-45.0000000000000000
0.0000000000000000,14.0000000000000000,-587.2399902339999470,-563.9400024410000460,366.6599121090000040,-574.3798828120000050,-657.9000854490000160,-150.0198822019999910,27.6875000000000000,28.2943801880000016,24.3099999999999987,-45.0000000000000000
0.0000000000000000,14.0000000000000000,-587.3798828120000050,-564.3200073240000160,367.3200378419999760,-574.9201049800000190,-658.5401611329999690,-149.8599853519999950,27.6875000000000000,28.2943801880000016,24.3099999999999987,-45.0000000000000000
0.0000000000000000,14.0000000000000000,-587.7800903319999860,-563.7399291990000160,367.9199829099999870,-574.5199584959999580,-658.6799926759999830,-149.7200012209999900,27.3750000000000000,28.2943801880000016,24.3099999999999987,-45.0000000000000000
0.0000000000000000,14.0000000000000000,-586.9000244139999720,-563.7600097660000520,367.5400390620000050,-574.4801025389999720,-658.2999877930000130,-150.5600128170000000,27.6875000000000000,28.3256111144999991,24.3200000000000003,-45.0000000000000000
0.0000000000000000,14.0000000000000000,-587.6399536129999880,-563.7200317379999880,368.0400390620000050,-575.4398193360000270,-657.9599609379999940,-150.2999572749999970,27.6875000000000000,28.3256111144999991,24.3099999999999987,-45.0000000000000000
0.0000000000000000,15.0000000000000000,-13.6599998473999999,-812.6799926759999830,367.9599914550000220,4.0800199508699997,-829.8000488279999440,-318.5199584960000150,27.6875000000000000,28.2943801880000016,24.3099999999999987,-89.9999999999999999
0.0000000000000000,15.0000000000000000,-12.9200000762999991,-812.9400024410000460,368.3200378419999760,3.3599901199300000,-829.8399047850000440,-318.7399597169999760,27.3750000000000000,28.2943801880000016,24.3200000000000003,-89.9999999999999999
0.0000000000000000,15.0000000000000000,-12.7599811554000002,-812.7799682620000100,368.1999816890000260,4.0200500488299999,-829.5399169920000300,-319.1600036620000080,27.6875000000000000,28.2943801880000016,24.3099999999999987,-89.9999999999999999
0.0000000000000000,15.0000000000000000,-12.5399885177999994,-812.7600708009999830,368.0000000000000000,3.6199705600700001,-829.8800659180000130,-318.5599670409999930,27.6875000000000000,28.2943801880000016,24.3099999999999987,-89.9999999999999999
0.0000000000000000,15.0000000000000000,-12.2399692535000000,-812.7999877930000130,367.4599914550000220,3.9599592685700000,-829.3599853519999660,-319.5599975590000100,28.0000000000000000,28.2943801880000016,24.3200000000000003,-89.9999999999999999
0.0000000000000000,15.0000000000000000,-12.6999597549000001,-812.7400512699999800,368.0000305180000160,3.8200700283100000,-830.1399536129999880,-319.0800170900000120,27.6875000000000000,28.2943801880000016,24.3099999999999987,-89.9999999999999999
0.0000000000000000,15.0000000000000000,-11.9599704742000004,-812.7000732420000300,368.3999938960000120,3.3199999332400001,-829.8201293949999800,-319.2801208500000030,27.3750000000000000,28.2943801880000016,24.3099999999999987,-89.9999999999999999
0.0000000000000000,15.0000000000000000,-12.2200183867999996,-812.5999755860000270,368.2199401859999740,4.6401605606100000,-829.4800415040000410,-318.7598571780000040,27.6875000000000000,28.2943801880000016,24.3099999999999987,-89.9999999999999999
0.0000000000000000,15.0000000000000000,-13.2799901962000000,-812.6400756839999520,368.2799987789999810,3.5399503707900002,-829.7799682620000100,-319.2599487300000190,28.0000000000000000,28.2943801880000016,24.3099999999999987,-89.9999999999999999
0.0000000000000000,15.0000000000000000,-12.6399803162000008,-812.7799682620000100,368.1201477050000220,3.6800096034999998,-829.7600097660000520,-319.0999145509999830,27.6875000000000000,28.2943801880000016,24.3099999999999987,-89.9999999999999999
0.0000000000000000,16.0000000000000000,579.4400024410000460,-581.8401489259999830,361.7399597169999760,595.6398925779999440,-655.5799560550000240,-148.0399627689999990,28.0000000000000000,28.2943801880000016,24.3099999999999987,-135.0000000000000000
0.0000000000000000,16.0000000000000000,579.1599121089999470,-581.9400634769999660,361.5599975590000100,595.7801513670000300,-656.1600341800000240,-147.9000549319999890,28.0000000000000000,28.2943801880000016,24.3099999999999987,-135.0000000000000000
0.0000000000000000,16.0000000000000000,579.6000976560000020,-581.6400146480000320,362.2200317379999880,595.7200927730000320,-655.3198852540000410,-147.3799591060000010,27.6875000000000000,28.2943801880000016,24.3099999999999987,-135.0000000000000000
0.0000000000000000,16.0000000000000000,579.8200683589999470,-581.6400146480000320,361.9400024409999900,594.7398071290000410,-655.8200073240000160,-148.1600341799999970,27.6875000000000000,28.2631511688000003,24.3200000000000003,-135.0000000000000000
0.0000000000000000,16.0000000000000000,580.2600097660000520,-581.9400024410000460,361.7599792479999790,595.6000976560000020,-655.4199829100000440,-147.4599456789999860,28.0000000000000000,28.2631511688000003,24.3099999999999987,-135.0000000000000000
0.0000000000000000,16.0000000000000000,579.9398803709999580,-581.7399291990000160,361.5600280759999800,595.9401245120000110,-656.6000366209999580,-147.9200286870000130,27.3750000000000000,28.2943801880000016,24.3099999999999987,-135.0000000000000000
0.0000000000000000,16.0000000000000000,579.7399902339999470,-581.7199707029999440,361.7200622560000050,595.2800903319999860,-655.7000122069999860,-147.2599792480000070,27.6875000000000000,28.2943801880000016,24.3200000000000003,-135.0000000000000000
0.0000000000000000,16.0000000000000000,580.1800537110000270,-581.8600463870000110,362.3400573729999790,594.9799194339999520,-655.8198852540000410,-148.5999145510000120,28.0000000000000000,28.2943801880000016,24.3200000000000003,-135.0000000000000000
0.0000000000000000,16.0000000000000000,579.3599853519999660,-581.6000366209999580,362.2599182129999910,595.7799682620000110,-655.6400146480000320,-146.9599609379999950,27.6875000000000000,28.2943801880000016,24.3200000000000003,-135.0000000000000000
0.0000000000000000,16.0000000000000000,579.8800048829999690,-582.0200805660000460,361.4598999020000180,594.3798828120000050,-655.4999999999999990,-147.8800201420000060,28.0000000000000000,28.2943801880000016,24.3099999999999987,-135.0000000000000000
0.0000000000000000,17.0000000000000000,627.9200439449999740,-0.5399900078770000,646.1600341800000240,631.6400146480000320,-442.1600036620000080,460.7600402830000230,27.6875000000000000,28.2943801880000016,46.4799999999999968,180.0000000000000000
0.0000000000000000,17.0000000000000000,627.4598999019999600,-0.3199799656870000,646.6199951170000300,631.2199707029999440,-442.0799865719999950,460.8000183109999730,27.6875000000000000,28.2943801880000016,46.4799999999999968,180.0000000000000000
0.0000000000000000,17.0000000000000000,627.4401245120000110,-0.1800400167700000,646.1000366209999580,630.4600219730000380,-442.5000305180000160,460.7599792479999790,28.0000000000000000,28.2631511688000003,46.4799999999999968,180.0000000000000000
0.0000000000000000,17.0000000000000000,627.5999755860000270,-0.8799999952320000,645.8800048829999690,630.5599365230000320,-442.7999572749999970,461.4799499509999800,28.0000000000000000,28.2631511688000003,46.4799999999999968,180.0000000000000000
0.0000000000000000,17.0000000000000000,627.3800048829999690,-0.2000199854370000,647.0399169920000300,631.1001586910000460,-442.6999511719999980,460.5198669430000100,27.3750000000000000,28.2631511688000003,46.4699999999999988,180.0000000000000000
0.0000000000000000,17.0000000000000000,627.9999999999999990,-0.0600299835205000,646.3999633790000410,630.8200683589999460,-442.6799926759999830,460.8601074219999980,28.0000000000000000,28.2631511688000003,46.4699999999999988,180.0000000000000000
0.0000000000000000,17.0000000000000000,628.1000366209999580,-0.4000099599360000,646.7000122069999860,630.7399291990000160,-442.1400756840000090,460.8199462889999720,27.3750000000000000,28.2631511688000003,46.4799999999999968,180.0000000000000000
0.0000000000000000,17.0000000000000000,627.1400146480000320,-0.3400099873540000,647.2600097660000520,630.9998779300000240,-442.2600402830000230,461.3599853520000230,27.6875000000000000,28.2631511688000003,46.4799999999999968,180.0000000000000000
0.0000000000000000,17.0000000000000000,627.6000366209999580,-0.2600199282170000,646.8999633790000410,630.9800415040000410,-442.5399780270000170,460.1202392580000260,27.6875000000000000,28.2631511688000003,46.4799999999999968,180.0000000000000000
0.0000000000000000,17.0000000000000000,627.9000244139999720,-0.0800199881196000,646.1199951170000300,631.0203247069999860,-441.7200012210000180,460.0801086430000160,27.6875000000000000,28.2631511688000003,46.4799999999999968,180.0000000000000000
0.0000000000000000,18.0000000000000000,451.8800048830000260,439.4200439449999740,646.0200805660000460,447.4999389650000120,-133.1600646969999960,766.1200561519999600,27.6875000000000000,28.2943801880000016,46.4799999999999968,135.0000000000000000
0.0000000000000000,18.0000000000000000,452.1799011229999790,439.7000427250000030,646.3199462889999720,447.8201599120000080,-132.9799957280000060,765.5798950199999800,27.6875000000000000,28.2943801880000016,46.4799999999999968,135.0000000000000000
0.0000000000000000,18.0000000000000000,451.0799560550000250,439.1799926759999830,646.8400878910000520,446.6999816890000260,-132.8598480219999940,766.7999267579999690,28.0000000000000000,28.2631511688000003,46.4799999999999968,135.0000000000000000
0.0000000000000000,18.0000000000000000,451.0200195310000020,438.7399902340000040,646.9398803709999580,447.9999084469999950,-133.0599823000000010,765.4199218749999990,28.0000000000000000,28.2631511688000003,46.4799999999999968,135.0000000000000000
0.0000000000000000,18.0000000000000000,451.4400024409999900,439.2399597169999760,645.9200439449999740,447.2800598140000260,-133.3000335689999930,766.1398925779999440,27.6875000000000000,28.2631511688000003,46.4799999999999968,135.0000000000000000
0.0000000000000000,18.0000000000000000,452.2800292969999980,439.3599548340000060,646.2600097660000520,447.0800781250000000,-132.9400482179999870,766.1799316410000520,27.3750000000000000,28.2631511688000003,46.4799999999999968,135.0000000000000000
0.0000000000000000,18.0000000000000000,451.1600646969999950,438.9199523930000160,646.4799804689999970,447.7600402830000230,-133.0199737549999950,767.1398925779999440,27.6875000000000000,28.2631511688000003,46.4799999999999968,135.0000000000000000
0.0000000000000000,18.0000000000000000,451.8799133300000220,439.2399597169999760,646.7800903319999860,447.2801513669999730,-132.9599914549999940,766.2199096680000130,27.6875000000000000,28.2631511688000003,46.4799999999999968,135.0000000000000000
0.0000000000000000,18.0000000000000000,451.9599914550000220,439.1000366210000150,646.2399902339999460,447.5599975590000090,-132.9999542239999920,765.9998779300000240,27.6875000000000000,28.2631511688000003,46.4799999999999968,135.0000000000000000
0.0000000000000000,18.0000000000000000,451.2399902340000040,439.4799499509999800,646.6200561519999600,447.0999450680000100,-133.3999938960000120,765.4400634769999660,27.6875000000000000,28.2631511688000003,46.4799999999999968,135.0000000000000000
0.0000000000000000,19.0000000000000000,17.5200099945000005,626.6400146480000320,651.9599609379999940,7.6400704383900004,-3.6399798393200000,894.3201293949999800,28.0000000000000000,28.2319202422999993,46.4799999999999968,89.9999999999999999
0.0000000000000000,19.0000000000000000,17.0400199890000010,626.7000122069999860,652.2000122069999860,7.6599688529999996,-3.4200201034500002,892.8200073240000160,27.6875000000000000,28.2631511688000003,46.4799999999999968,89.9999999999999999
0.0000000000000000,19.0000000000000000,18.2800216675000016,626.1400146480000320,652.3999633790000410,7.7199192047100000,-3.8800802230799998,894.2201538089999520,27.6875000000000000,28.2631511688000003,46.4799999999999968,89.9999999999999999
0.0000000000000000,19.0000000000000000,17.8800067901999995,626.7199707029999440,652.4799194339999520,7.7000207901000000,-3.6800096034999998,894.2199707029999440,28.0000000000000000,28.2631511688000003,46.4799999999999968,89.9999999999999999
0.0000000000000000,19.0000000000000000,17.7399997710999990,626.8600463870000110,653.1400756839999520,8.3399105072000008,-3.6799795627599998,893.9599609379999940,27.6875000000000000,28.2631511688000003,46.4799999999999968,89.9999999999999999
0.0000000000000000,19.0000000000000000,18.6999988556000005,626.6000366209999580,652.5198974610000270,7.5799994468699996,-3.7799699306500001,893.5999755860000270,27.6875000000000000,28.2631511688000003,46.4799999999999968,89.9999999999999999
0.0000000000000000,19.0000000000000000,17.8999786376999985,626.6400146480000320,653.1998901370000110,7.9400691986099998,-3.5799989700300001,893.5799560550000240,27.6875000000000000,28.2631511688000003,46.4799999999999968,89.9999999999999999
0.0000000000000000,19.0000000000000000,17.2000122070000003,626.6600341800000240,652.3200683589999460,7.5598897934000000,-3.6800091266599999,894.1001586910000460,27.6875000000000000,28.2631511688000003,46.4799999999999968,89.9999999999999999
0.0000000000000000,19.0000000000000000,17.9400100707999996,626.8599853519999660,651.9000244139999720,7.5800304412799999,-4.1000294685399998,894.0199584959999580,28.0000000000000000,28.2631511688000003,46.4799999999999968,89.9999999999999999
0.0000000000000000,19.0000000000000000,17.6600017547999997,626.5000610350000440,652.3799438480000380,7.2400207519500004,-4.1999998092700004,894.1799926759999830,27.3750000000000000,28.2631511688000003,46.4799999999999968,89.9999999999999999
0.0000000000000000,20.0000000000000000,-428.1199035640000260,448.0199584960000150,649.6199340819999860,-438.9400024409999900,-136.8599853519999950,763.0600585939999970,27.6875000000000000,28.2631511688000003,46.4799999999999968,45.0000000000000000
0.0000000000000000,20.0000000000000000,-428.0399475099999900,448.4999389650000120,649.7600097660000520,-438.9400024409999900,-136.6600036620000080,762.9799804689999970,28.0000000000000000,28.2631511688000003,46.4799999999999968,45.0000000000000000
0.0000000000000000,20.0000000000000000,-428.7600402830000230,448.3200988770000200,649.4799804689999970,-437.7800598140000260,-136.9399414060000030,763.3000488279999440,27.3750000000000000,28.2319202422999993,46.4799999999999968,45.0000000000000000
0.0000000000000000,20.0000000000000000,-427.7598876949999740,448.2800598140000260,648.8200073240000160,-439.0399780270000170,-136.3799896239999890,762.3399658199999740,27.6875000000000000,28.2631511688000003,46.4799999999999968,45.0000000000000000
0.0000000000000000,20.0000000000000000,-427.7200622560000050,448.1999816890000260,649.3200073240000160,-438.6399536129999880,-136.6000213620000070,763.3397216800000240,28.0000000000000000,28.2631511688000003,46.4799999999999968,45.0000000000000000
0.0000000000000000,20.0000000000000000,-428.1999816890000260,448.1399841310000050,648.3998413089999520,-438.2999877930000130,-136.6600494379999870,762.7399291990000160,27.3750000000000000,28.2631511688000003,46.4799999999999968,45.0000000000000000
0.0000000000000000,20.0000000000000000,-428.9000244139999720,448.4600830080000260,648.9998779300000240,-438.7400817870000080,-136.9800109859999960,763.0798339839999460,27.6875000000000000,28.2631511688000003,46.4799999999999968,45.0000000000000000
0.0000000000000000,20.0000000000000000,-429.1799926759999830,447.9399108889999750,649.2800903319999860,-437.6801147460000150,-136.8399963379999920,763.0802001949999740,28.0000000000000000,28.2631511688000003,46.4799999999999968,45.0000000000000000
0.0000000000000000,20.0000000000000000,-428.1600036620000080,448.3199768069999890,648.8598632810000020,-437.4799194340000100,-136.2400512700000090,764.0802001949999740,27.6875000000000000,28.2631511688000003,46.4799999999999968,45.0000000000000000
0.0000000000000000,20.0000000000000000,-428.3800659180000130,448.4598693849999900,648.6399536129999880,-438.4802246090000040,-136.7999572749999970,763.1599731449999800,27.6875000000000000,28.2319202422999993,46.4799999999999968,45.0000000000000000
0.0000000000000000,21.0000000000000000,-617.3798828120000050,14.8599767684999993,649.6599731449999800,-615.4998779300000240,-448.0799560550000250,455.8201599120000080,27.6875000000000000,28.2319202422999993,46.4799999999999968,0.0000000000000000
0.0000000000000000,21.0000000000000000,-617.0200805660000460,14.7200183867999996,649.2599487300000190,-614.7398071290000410,-448.0200805659999900,456.1400756840000090,27.6875000000000000,28.2319202422999993,46.4799999999999968,0.0000000000000000
0.0000000000000000,21.0000000000000000,-617.3600463870000110,14.4199800490999994,649.2999267579999690,-615.3600463870000110,-448.1000366210000150,455.5998840330000230,28.0000000000000000,28.2319202422999993,46.4799999999999968,0.0000000000000000
0.0000000000000000,21.0000000000000000,-617.2399291990000160,14.7199993134000007,650.1199951170000300,-615.0799560550000240,-447.5000305180000160,456.2799377439999940,27.6875000000000000,28.2319202422999993,46.4799999999999968,0.0000000000000000
0.0000000000000000,21.0000000000000000,-616.8599243160000460,14.3000192641999995,649.2000732420000300,-614.8599853519999660,-447.8200378419999760,455.7800292969999980,27.6875000000000000,28.2319202422999993,46.4799999999999968,0.0000000000000000
0.0000000000000000,21.0000000000000000,-617.4400024410000460,14.5799884796000008,650.3800048829999690,-614.9999999999999990,-447.7199096680000130,456.8399963379999910,27.6875000000000000,28.2319202422999993,46.4799999999999968,0.0000000000000000
0.0000000000000000,21.0000000000000000,-616.1999511720000550,14.3599786758000007,648.9000244139999720,-615.2399902339999460,-448.1798706050000190,456.5799560550000250,27.6875000000000000,28.2631511688000003,46.4799999999999968,0.0000000000000000
0.0000000000000000,21.0000000000000000,-616.6799316410000520,14.5400104523000007,649.1599731449999800,-614.7399291990000160,-448.1198730469999980,455.6201171879999940,27.6875000000000000,28.2631511688000003,46.4799999999999968,0.0000000000000000
0.0000000000000000,21.0000000000000000,-617.3400268550000190,14.2400093078999994,650.0799560550000240,-615.7401123050000240,-447.6799011229999790,456.0601196289999840,27.6875000000000000,28.2319202422999993,46.4799999999999968,0.0000000000000000
0.0000000000000000,21.0000000000000000,-617.2199096680000130,14.5600080490000003,649.2600708009999830,-614.9399414060000020,-447.9199829099999870,455.8399963379999910,27.3750000000000000,28.2319202422999993,46.4799999999999968,0.0000000000000000
0.0000000000000000,22.0000000000000000,-439.9599914550000220,-427.5399169919999730,649.2000122069999860,-432.8199462889999720,-757.3798828120000050,149.8999786379999930,28.0000000000000000,28.2319202422999993,46.4799999999999968,-45.0000000000000000
0.0000000000000000,22.0000000000000000,-440.0000305180000160,-427.5799560550000250,648.3400268550000190,-432.0001220699999740,-757.0998535160000520,150.0197906489999860,28.0000000000000000,28.2319202422999993,46.4799999999999968,-45.0000000000000000
0.0000000000000000,22.0000000000000000,-441.0800170900000120,-427.6199951169999730,648.9600830079999690,-432.7602233889999750,-757.5399780269999600,149.5199890140000030,27.6875000000000000,28.2319202422999993,46.4799999999999968,-45.0000000000000000
0.0000000000000000,22.0000000000000000,-440.7200317379999880,-427.2200927729999760,648.6799926759999830,-432.4400634770000230,-757.0999755860000270,149.2599639889999990,27.3750000000000000,28.2319202422999993,46.4799999999999968,-45.0000000000000000
0.0000000000000000,22.0000000000000000,-440.9201049800000190,-427.6599426270000200,648.2399291990000160,-433.3800964359999730,-757.4799804689999970,149.3400115970000000,27.6875000000000000,28.2319202422999993,46.4799999999999968,-45.0000000000000000
0.0000000000000000,22.0000000000000000,-440.9799804689999970,-427.3198852539999840,648.0800781249999990,-432.7399902340000040,-757.2399291990000160,150.3000640870000100,27.6875000000000000,28.2319202422999993,46.4799999999999968,-45.0000000000000000
0.0000000000000000,22.0000000000000000,-440.5001220699999740,-427.6600036620000080,648.7798461910000460,-433.0999755860000270,-757.3599853519999660,149.0800018310000040,27.6875000000000000,28.2319202422999993,46.4799999999999968,-45.0000000000000000
0.0000000000000000,22.0000000000000000,-439.9201049800000190,-427.7599487300000190,648.4799804689999970,-432.6799926759999830,-757.2598876949999740,150.3200683590000040,28.0000000000000000,28.2631511688000003,46.4799999999999968,-45.0000000000000000
0.0000000000000000,22.0000000000000000,-440.3999633789999840,-427.1800231930000100,648.6400146480000320,-434.1199035640000260,-757.2399902339999460,149.4000091549999920,27.6875000000000000,28.2319202422999993,46.4799999999999968,-45.0000000000000000
0.0000000000000000,22.0000000000000000,-439.7999877930000130,-427.6399230960000180,648.5401611329999690,-433.1800231930000100,-757.2000122069999850,150.6800689700000080,27.6875000000000000,28.2319202422999993,46.4799999999999968,-45.0000000000000000
0.0000000000000000,23.0000000000000000,-7.3799786567699996,-614.6799926759999830,651.6599731449999800,6.8799901008599997,-887.1000366209999580,22.2000923157000010,27.6875000000000000,28.2319202422999993,46.4799999999999968,-89.9999999999999999
0.0000000000000000,23.0000000000000000,-7.3800101280200003,-614.9999999999999990,651.4999999999999990,6.6600704193100002,-886.7399902339999460,22.5199832915999991,27.3750000000000000,28.2319202422999993,46.4799999999999968,-89.9999999999999999
0.0000000000000000,23.0000000000000000,-8.0800600051899991,-615.0200805660000460,651.2399902339999460,6.3200397491500002,-887.1799926759999830,21.9799709320000005,27.6875000000000000,28.2319202422999993,46.4799999999999968,-89.9999999999999999
0.0000000000000000,23.0000000000000000,-7.1999301910400000,-614.8400878910000520,650.8800659180000130,5.9599900245699997,-886.5399780269999600,21.4399986266999995,27.6875000000000000,28.2319202422999993,46.4799999999999968,-89.9999999999999999
0.0000000000000000,23.0000000000000000,-6.6600193977400002,-614.4400024410000460,650.2799682620000110,6.1800298690800002,-886.6399536129999880,21.4400463103999996,27.6875000000000000,28.2319202422999993,46.4799999999999968,-89.9999999999999999
0.0000000000000000,23.0000000000000000,-6.9400196075400000,-615.1199340819999860,650.1599731449999800,6.0399689674400001,-887.0000610350000430,22.3600158690999997,27.6875000000000000,28.2319202422999993,46.4799999999999968,-89.9999999999999999
0.0000000000000000,23.0000000000000000,-6.8000087738000001,-615.2799682620000110,650.5399169920000300,7.0000596046399997,-887.1999511720000550,22.7799892425999992,27.6875000000000000,28.2319202422999993,46.4799999999999968,-89.9999999999999999
0.0000000000000000,23.0000000000000000,-7.4000010490400001,-614.5400390620000050,651.1800537110000270,6.3399991989100002,-886.9199829100000430,21.8800086974999992,27.6875000000000000,28.2319202422999993,46.4799999999999968,-89.9999999999999999
0.0000000000000000,23.0000000000000000,-7.5399785041799996,-615.2000732420000300,650.4999999999999990,5.5999207496599999,-886.9599609379999940,22.4200572967999996,28.0000000000000000,28.2319202422999993,46.4799999999999968,-89.9999999999999999
0.0000000000000000,23.0000000000000000,-7.2400517463699998,-615.0399780269999600,650.9400634769999660,7.6398601531999999,-887.1599731449999800,22.6798992157000008,27.6875000000000000,28.2319202422999993,46.4799999999999968,-89.9999999999999999
0.0000000000000000,24.0000000000000000,440.6600341800000250,-439.2799377439999940,644.5200805660000460,454.6999206539999810,-754.9599609379999940,151.3000183110000020,28.0000000000000000,28.2319202422999993,46.4799999999999968,-135.0000000000000000
0.0000000000000000,24.0000000000000000,441.1999511719999980,-439.3799133300000220,644.2200927730000320,455.4000244139999720,-754.8998413089999520,151.8600006099999860,28.0000000000000000,28.2319202422999993,46.4799999999999968,-135.0000000000000000
0.0000000000000000,24.0000000000000000,440.0599975590000100,-439.1200256349999900,645.2799072269999660,455.4199829099999870,-754.4800415040000410,151.2400665280000000,27.6875000000000000,28.2319202422999993,46.4799999999999968,-135.0000000000000000
0.0000000000000000,24.0000000000000000,441.2200012210000180,-438.6000366210000150,645.3600463870000110,454.5600585939999970,-754.4401245120000100,151.5800323489999920,27.6875000000000000,28.2319202422999993,46.4799999999999968,-135.0000000000000000
0.0000000000000000,24.0000000000000000,441.0999145509999830,-439.6400756840000100,645.0199584959999580,455.0801086430000160,-755.1399536129999880,151.1600036620000080,27.6875000000000000,28.2319202422999993,46.4799999999999968,-135.0000000000000000
0.0000000000000000,24.0000000000000000,440.9598999020000170,-439.3999633789999840,644.8399658199999740,455.0199890139999750,-754.5999755860000270,151.8199615480000090,27.6875000000000000,28.2319202422999993,46.4799999999999968,-135.0000000000000000
0.0000000000000000,24.0000000000000000,441.0599060060000050,-439.1600341800000250,644.6599731449999800,455.4400634770000230,-754.6400756839999520,151.7199707030000010,27.6875000000000000,28.2319202422999993,46.4799999999999968,-135.0000000000000000
0.0000000000000000,24.0000000000000000,441.0799560550000250,-439.5399475099999900,645.2999877930000130,455.4599914550000220,-754.9400634769999660,151.6599731450000090,27.6875000000000000,28.2319202422999993,46.4799999999999968,-135.0000000000000000
0.0000000000000000,24.0000000000000000,441.4399108889999750,-439.1600646969999950,645.3598022459999580,455.4198608400000120,-754.4398803709999580,151.0798492430000120,28.0000000000000000,28.2319202422999993,46.4799999999999968,-135.0000000000000000
0.0000000000000000,24.0000000000000000,440.9799804689999970,-439.4800415039999840,645.0798950199999800,455.2798461909999900,-754.5199584959999580,151.0198059079999950,27.6875000000000000,28.2006912231000015,46.4799999999999968,-135.0000000000000000
0.0000000000000000,25.0000000000000000,340.4799499509999800,0.9999799728390000,827.8600463870000100,339.0599670409999930,-574.8400878910000520,593.5599975589999520,27.6875000000000000,28.2006912231000015,68.6200000000000045,180.0000000000000000
0.0000000000000000,25.0000000000000000,342.1200561520000180,1.6399898529100001,828.1799926759999830,338.6999206539999820,-575.6200561519999600,593.7799682620000110,27.6875000000000000,28.2006912231000015,68.6200000000000045,180.0000000000000000
0.0000000000000000,25.0000000000000000,341.4400024409999900,1.7599999904600001,828.7600097660000520,339.3200073240000160,-575.4599609379999940,593.5999755860000270,27.6875000000000000,28.2006912231000015,68.6200000000000045,180.0000000000000000
0.0000000000000000,25.0000000000000000,342.1600341800000250,1.5599999427800000,828.2400512699999800,339.7599792479999790,-575.2199707029999440,594.9400024410000460,27.6875000000000000,28.2319202422999993,68.6200000000000045,180.0000000000000000
0.0000000000000000,25.0000000000000000,341.7999267580000260,1.7799901962300000,828.2598266600000440,338.9199218750000000,-575.7799682620000110,594.0598754879999880,28.0000000000000000,28.2319202422999993,68.6200000000000045,180.0000000000000000
0.0000000000000000,25.0000000000000000,341.5199890139999750,1.3400198221199999,828.4600830079999690,339.0200805659999900,-575.0199584959999580,594.8800048829999690,27.6875000000000000,28.2006912231000015,68.6200000000000045,180.0000000000000000
0.0000000000000000,25.0000000000000000,342.0799560550000250,1.6799998283399999,828.4599609379999940,339.3600769039999820,-575.3200683589999470,595.1201171879999940,27.3750000000000000,28.2319202422999993,68.6200000000000045,180.0000000000000000
0.0000000000000000,25.0000000000000000,341.8399963379999910,0.9999700188640001,827.9799804689999970,339.2001953120000050,-575.4199829100000440,593.9599609379999940,27.6875000000000000,28.2319202422999993,68.6200000000000045,180.0000000000000000
0.0000000000000000,25.0000000000000000,341.8399047849999870,1.6599996089900000,828.4999999999999990,340.3200378419999760,-574.9400024410000460,593.7999877930000130,27.3750000000000000,28.2006912231000015,68.6200000000000045,180.0000000000000000
0.0000000000000000,25.0000000000000000,342.0200805659999900,1.7800298929200000,827.9797973629999880,339.6400756840000100,-575.1599731449999800,594.2199707029999440,27.6875000000000000,28.2006912231000015,68.6200000000000045,180.0000000000000000
0.0000000000000000,26.0000000000000000,244.9599761960000130,238.9599914549999930,829.5200805660000460,242.7599182129999920,-409.6398620609999740,756.0399780269999600,27.6875000000000000,28.2006912231000015,68.6200000000000045,135.0000000000000000
0.0000000000000000,26.0000000000000000,245.7999572749999970,238.9400329590000070,829.1399536129999880,242.4199523929999880,-409.9798278810000050,756.4799804689999970,27.6875000000000000,28.2006912231000015,68.6200000000000045,135.0000000000000000
0.0000000000000000,26.0000000000000000,245.5799560549999960,238.8199920650000080,829.1799926759999830,242.8000335689999930,-410.1999816890000260,756.2799682620000100,27.6875000000000000,28.2006912231000015,68.6200000000000045,135.0000000000000000
0.0000000000000000,26.0000000000000000,246.2600402829999950,239.1200103760000100,829.1199951170000300,242.2399902340000040,-409.5599670409999930,756.1000366209999580,28.0000000000000000,28.2006912231000015,68.6200000000000045,135.0000000000000000
0.0000000000000000,26.0000000000000000,245.9999542239999920,239.1200408939999990,829.4200439449999740,242.5200195310000020,-410.0399475099999900,756.1000366209999580,27.3750000000000000,28.2006912231000015,68.6200000000000045,135.0000000000000000
0.0000000000000000,26.0000000000000000,245.3000793459999900,238.9599761960000130,829.4799804689999970,242.3799591060000010,-409.5600280759999800,756.2399902339999460,27.6875000000000000,28.2006912231000015,68.6200000000000045,135.0000000000000000
0.0000000000000000,26.0000000000000000,245.4999389650000120,238.8600769040000100,828.8001098629999880,242.7798614499999980,-409.8399963379999910,756.0197753910000520,27.6875000000000000,28.2006912231000015,68.6200000000000045,135.0000000000000000
0.0000000000000000,26.0000000000000000,245.6999359129999900,239.0800018310000040,829.5200805660000460,242.4998168950000090,-410.2599182129999910,756.4998168949999800,27.6875000000000000,28.2006912231000015,68.6200000000000045,135.0000000000000000
0.0000000000000000,26.0000000000000000,245.2799682620000110,238.8799896239999890,829.1200561519999600,242.5400390620000050,-410.2199401859999740,756.2200317379999880,27.6875000000000000,28.2006912231000015,68.6200000000000045,135.0000000000000000
0.0000000000000000,26.0000000000000000,245.2999877930000140,238.8599700929999870,829.2601318360000270,242.8800506590000050,-409.9200439449999740,756.0399169920000300,27.6875000000000000,28.2006912231000015,68.6200000000000045,135.0000000000000000
0.0000000000000000,27.0000000000000000,11.9800090790000002,339.1801147460000150,830.9600830079999690,4.8800086975100001,-342.2200012210000180,824.0000610350000440,27.6875000000000000,28.2006912231000015,68.6200000000000045,89.9999999999999999
0.0000000000000000,27.0000000000000000,11.1601085662999999,339.0599670409999930,831.1198120120000100,5.4201192855800002,-342.5199890139999750,822.1398925779999440,27.6875000000000000,28.2006912231000015,68.6200000000000045,89.9999999999999999
0.0000000000000000,27.0000000000000000,11.0999794006000005,339.1000061039999870,830.9400024410000460,4.9201693534900004,-342.6998901370000110,822.8200073240000160,28.0000000000000000,28.2006912231000015,68.6200000000000045,89.9999999999999999
0.0000000000000000,27.0000000000000000,12.1599655150999997,339.0799865719999950,831.2600097660000520,4.5399403572099999,-342.5801086430000170,822.1398315430000130,27.3750000000000000,28.2006912231000015,68.6200000000000045,89.9999999999999999
0.0000000000000000,27.0000000000000000,11.6400012969999995,338.8800048830000260,831.2401123050000240,4.8399796485900000,-342.8800353999999970,823.5800781249999990,27.6875000000000000,28.2006912231000015,68.6200000000000045,89.9999999999999999
0.0000000000000000,27.0000000000000000,11.6799802780000004,338.9999389650000120,830.9398193360000270,4.5198903083799999,-342.7001037599999900,822.3599243160000460,27.6875000000000000,28.2006912231000015,68.6200000000000045,89.9999999999999999
0.0000000000000000,27.0000000000000000,12.0200300217000002,338.9199829099999870,831.2600097660000520,4.4400401115400001,-342.4800415039999840,822.7399291990000160,27.3750000000000000,28.2006912231000015,68.6200000000000045,89.9999999999999999
0.0000000000000000,27.0000000000000000,10.8599815368999994,339.4999389650000120,830.8798828120000040,4.5800199508699997,-342.6399841310000050,822.6400756839999520,27.6875000000000000,28.2006912231000015,68.6200000000000045,89.9999999999999999
0.0000000000000000,27.0000000000000000,12.3799695969000005,339.0199890139999750,830.9000854490000160,4.1199502944899997,-342.1600341800000250,822.9999999999999990,27.6875000000000000,28.2006912231000015,68.6200000000000045,89.9999999999999999
0.0000000000000000,27.0000000000000000,11.1600379943999997,338.7200317379999880,831.2000732420000300,4.0399909019500004,-342.4399414060000020,822.1999511720000550,27.6875000000000000,28.2006912231000015,68.6200000000000045,89.9999999999999999
0.0000000000000000,28.0000000000000000,-229.8799743650000090,242.9199676510000070,831.7999877930000130,-231.3799591060000010,-412.3800659180000130,753.2802734379999940,27.3750000000000000,28.2006912231000015,68.6200000000000045,45.0000000000000000
0.0000000000000000,28.0000000000000000,-230.9000091549999920,242.6000213620000070,831.5400390620000040,-231.2801666260000100,-412.3399963379999910,752.5200805660000460,27.3750000000000000,28.2006912231000015,68.6200000000000045,45.0000000000000000
0.0000000000000000,28.0000000000000000,-229.8801116939999930,242.7799987790000100,832.0598754879999880,-231.0399169920000020,-412.6399841310000050,753.1399536129999880,27.6875000000000000,28.2006912231000015,68.6200000000000045,45.0000000000000000
0.0000000000000000,28.0000000000000000,-229.9000091549999920,242.8000335689999930,831.5999145509999830,-231.4600219730000100,-412.4599914550000220,752.6599121089999460,27.6875000000000000,28.2006912231000015,68.6200000000000045,45.0000000000000000
0.0000000000000000,28.0000000000000000,-229.2599334720000000,242.7199707030000010,831.4799804689999970,-232.1800079349999920,-412.9600219729999820,752.6199951170000300,27.3750000000000000,28.2006912231000015,68.6200000000000045,45.0000000000000000
0.0000000000000000,28.0000000000000000,-229.4000396730000090,242.7800292969999980,831.2999267579999690,-231.5399932859999980,-412.7599487300000190,752.0199584959999580,27.6875000000000000,28.2006912231000015,68.6200000000000045,45.0000000000000000
0.0000000000000000,28.0000000000000000,-229.9800109859999960,242.6399688719999970,832.4001464839999460,-231.9400024409999900,-412.6399841310000050,752.9599609379999940,27.6875000000000000,28.2006912231000015,68.6200000000000045,45.0000000000000000
0.0000000000000000,28.0000000000000000,-230.0000000000000000,243.0799713129999870,831.2799682620000100,-231.7200927730000040,-412.4799499509999800,751.9997558589999460,27.6875000000000000,28.2006912231000015,68.6200000000000045,45.0000000000000000
0.0000000000000000,28.0000000000000000,-229.2799682620000110,242.7800140379999900,832.1998901370000100,-231.7600708010000120,-412.4599914550000220,752.5798950199999800,27.3750000000000000,28.2006912231000015,68.6200000000000045,45.0000000000000000
0.0000000000000000,28.0000000000000000,-230.1799621579999950,242.7800292969999980,831.2799682620000100,-230.9399108890000030,-412.2601318360000270,752.2801513670000300,27.6875000000000000,28.2006912231000015,68.6200000000000045,45.0000000000000000
0.0000000000000000,29.0000000000000000,-328.7799987789999820,8.7199916839600000,831.6199951170000300,-324.5000000000000000,-579.1000366209999580,587.5599365230000320,27.6875000000000000,28.2006912231000015,68.6200000000000045,0.0000000000000000
0.0000000000000000,29.0000000000000000,-328.4600830080000260,8.8800201415999993,832.3201293949999800,-325.2400207520000200,-578.6199951170000300,588.1200561519999600,28.0000000000000000,28.2006912231000015,68.6200000000000045,0.0000000000000000
0.0000000000000000,29.0000000000000000,-328.4000244139999720,8.7400102615400002,831.7998046879999940,-325.1200256349999900,-578.8200073240000160,587.4400024410000460,27.6875000000000000,28.2006912231000015,68.6200000000000045,0.0000000000000000
0.0000000000000000,29.0000000000000000,-328.8399047849999870,8.2200202941900002,832.2199707029999440,-325.7799987789999820,-578.3399047850000440,588.5399780269999600,28.0000000000000000,28.2006912231000015,68.6300000000000096,0.0000000000000000
0.0000000000000000,29.0000000000000000,-329.1800231930000110,8.0800104141200002,832.0999145509999830,-324.4601135249999970,-579.0400390620000050,588.2599487300000190,27.6875000000000000,28.2006912231000015,68.6300000000000096,0.0000000000000000
0.0000000000000000,29.0000000000000000,-329.6199646000000030,8.6399898529100003,832.1399536129999880,-324.7800292969999980,-578.7200927730000320,587.7799072269999660,27.6875000000000000,28.2006912231000015,68.6300000000000096,0.0000000000000000
0.0000000000000000,29.0000000000000000,-328.2000427250000030,8.5799989700299992,831.9799194339999520,-325.2399291990000160,-578.5599975589999520,587.3399047850000440,27.3750000000000000,28.2006912231000015,68.6300000000000096,0.0000000000000000
0.0000000000000000,29.0000000000000000,-328.8600463870000110,8.0799798965500003,832.3198852540000410,-324.5201721189999940,-578.9200439449999740,588.1600952149999550,28.0000000000000000,28.2006912231000015,68.6300000000000096,0.0000000000000000
0.0000000000000000,29.0000000000000000,-328.4399414060000020,8.1999883651700003,832.5599975589999520,-325.3000793460000180,-579.2000122069999860,587.6398315430000130,27.6875000000000000,28.2006912231000015,68.6200000000000045,0.0000000000000000
0.0000000000000000,29.0000000000000000,-328.5000305180000170,8.2400188445999998,832.1799926759999830,-324.8999328610000240,-579.4400024410000460,588.2999267579999690,27.6875000000000000,28.1694602966000005,68.6200000000000045,0.0000000000000000
0.0000000000000000,30.0000000000000000,-234.9799957280000060,-229.2399749760000130,831.5799560550000240,-226.7999725340000050,-743.9197998050000240,425.2801208500000030,28.0000000000000000,28.1694602966000005,68.6300000000000096,-45.0000000000000000
0.0000000000000000,30.0000000000000000,-234.3800201420000060,-229.4399566650000110,831.3399658199999740,-227.5000305179999880,-743.6599731449999800,425.8399963379999910,27.6875000000000000,28.2006912231000015,68.6200000000000045,-45.0000000000000000
0.0000000000000000,30.0000000000000000,-235.0999908450000080,-228.9799957280000060,832.0200805660000460,-227.3799743650000090,-743.9199829100000440,425.8001403810000050,27.3750000000000000,28.2006912231000015,68.6200000000000045,-45.0000000000000000
0.0000000000000000,30.0000000000000000,-234.7400360110000010,-228.7199401860000020,831.8600463870000100,-227.2599945069999870,-744.5199584959999580,425.1799621580000230,27.3750000000000000,28.2006912231000015,68.6200000000000045,-45.0000000000000000
0.0000000000000000,30.0000000000000000,-235.2599487299999910,-229.3399505620000120,830.9799804689999970,-227.1999206540000100,-743.7999877930000130,425.7801208500000030,27.3750000000000000,28.2006912231000015,68.6300000000000096,-45.0000000000000000
0.0000000000000000,30.0000000000000000,-235.4998779299999960,-229.0799102780000000,831.1599731449999800,-226.9199981689999960,-744.3599853519999660,426.3599548340000070,27.6875000000000000,28.2006912231000015,68.6200000000000045,-45.0000000000000000
0.0000000000000000,30.0000000000000000,-235.2600555420000030,-229.1999511719999980,831.4999999999999990,-227.9200134280000040,-744.5799560550000240,426.0198974610000270,27.6875000000000000,28.1694602966000005,68.6200000000000045,-45.0000000000000000
0.0000000000000000,30.0000000000000000,-235.5399780269999890,-229.0399780269999890,831.1800537110000270,-227.0800323489999920,-743.9799804689999970,425.5000000000000000,27.3750000000000000,28.1694602966000005,68.6200000000000045,-45.0000000000000000
0.0000000000000000,30.0000000000000000,-234.6399536129999890,-229.2199707030000010,831.0400390620000040,-226.7599487299999910,-744.3399047850000440,425.2198791499999970,27.6875000000000000,28.2006912231000015,68.6200000000000045,-45.0000000000000000
0.0000000000000000,30.0000000000000000,-233.7200469969999970,-229.2799682620000110,832.1400756839999520,-227.3599700929999870,-744.3798828120000050,425.6198730469999980,27.6875000000000000,28.2006912231000015,68.6300000000000096,-45.0000000000000000
0.0000000000000000,31.0000000000000000,0.1799600422380000,-330.1600341800000250,829.6799316410000520,8.2600603103600001,-811.8999023439999970,359.7400207520000200,27.6875000000000000,28.1694602966000005,68.6300000000000096,-89.9999999999999999
0.0000000000000000,31.0000000000000000,0.2799799740310000,-329.8800659180000140,830.6802368160000460,8.2599487304700005,-811.8399658199999740,359.8599548340000070,27.6875000000000000,28.1694602966000005,68.6300000000000096,-89.9999999999999999
0.0000000000000000,31.0000000000000000,-0.1999699771400000,-329.9200439449999750,830.2401123050000240,8.2200403213500000,-811.9398803709999580,360.3199462889999720,27.6875000000000000,28.2006912231000015,68.6300000000000096,-89.9999999999999999
0.0000000000000000,31.0000000000000000,0.3999999761580000,-330.2200012210000180,829.5198974610000270,8.8999805450400000,-811.8800048829999690,358.6600646969999950,28.0000000000000000,28.2006912231000015,68.6300000000000096,-89.9999999999999999
0.0000000000000000,31.0000000000000000,-1.0399798154800000,-330.1799926759999830,829.8400878910000520,8.7399291992200005,-811.9000854490000160,359.9000549319999890,27.6875000000000000,28.2006912231000015,68.6300000000000096,-89.9999999999999999
0.0000000000000000,31.0000000000000000,0.0199699681252000,-329.8599853520000230,830.3599853519999660,8.5799598693799997,-812.4601440430000130,359.9799194340000100,27.6875000000000000,28.2006912231000015,68.6300000000000096,-89.9999999999999999
0.0000000000000000,31.0000000000000000,-0.1200099736450000,-330.1399841310000050,830.4000854490000160,8.6600112915000000,-811.7400512699999800,359.5000305180000160,27.3750000000000000,28.2006912231000015,68.6300000000000096,-89.9999999999999999
0.0000000000000000,31.0000000000000000,0.5599799156190000,-330.5000305180000170,830.3801879879999880,8.4198598861700002,-811.2600097660000520,359.7599487300000190,27.6875000000000000,28.1694602966000005,68.6300000000000096,-89.9999999999999999
0.0000000000000000,31.0000000000000000,-0.2199300527570000,-329.7399902340000040,830.0999755860000270,7.9200201034499997,-811.8200073240000160,360.4999389650000120,27.6875000000000000,28.1694602966000005,68.6300000000000096,-89.9999999999999999
0.0000000000000000,31.0000000000000000,0.5200300216670000,-330.1000976560000020,829.9400024410000460,9.1199588775600002,-812.1000366209999580,358.4998779300000250,27.3750000000000000,28.1694602966000005,68.6300000000000096,-89.9999999999999999
0.0000000000000000,32.0000000000000000,242.4400176999999980,-233.3800201420000060,829.0000610350000440,248.6999206540000100,-740.8599853519999660,428.6399230960000180,27.6875000000000000,28.1694602966000005,68.6200000000000045,-135.0000000000000000
0.0000000000000000,32.0000000000000000,242.9399871829999990,-233.3599395749999980,828.9598999019999600,248.2799987790000100,-740.5199584959999580,428.5599975590000100,27.6875000000000000,28.1694602966000005,68.6200000000000045,-135.0000000000000000
0.0000000000000000,32.0000000000000000,242.6200866700000060,-233.5599975590000100,828.7800292970000550,247.8600769040000100,-741.5599975589999520,427.2999877930000130,27.6875000000000000,28.1694602966000005,68.6300000000000096,-135.0000000000000000
0.0000000000000000,32.0000000000000000,243.2199707030000010,-233.5199432370000070,829.1599121089999460,248.9000701900000080,-740.8999633790000410,428.1400146479999760,27.6875000000000000,28.1694602966000005,68.6300000000000096,-135.0000000000000000
0.0000000000000000,32.0000000000000000,243.0799560549999960,-233.8799743650000090,829.0199584959999580,248.6400299070000130,-741.3200073240000160,427.7198486330000260,28.0000000000000000,28.1694602966000005,68.6200000000000045,-135.0000000000000000
0.0000000000000000,32.0000000000000000,242.0999908450000080,-233.2599945069999870,829.0599975589999520,247.6202087400000090,-741.2600708009999830,427.4996643069999890,27.6875000000000000,28.1694602966000005,68.6200000000000045,-135.0000000000000000
0.0000000000000000,32.0000000000000000,242.5600128170000000,-233.4400482179999870,828.6798095699999740,248.9200897220000000,-741.8198852540000410,428.5198364259999830,27.6875000000000000,28.1694602966000005,68.6300000000000096,-135.0000000000000000
0.0000000000000000,32.0000000000000000,242.0799713129999870,-233.3600006099999860,828.5799560550000240,248.6999969480000060,-741.0199584959999580,428.2200317379999880,27.6875000000000000,28.1694602966000005,68.6300000000000096,-135.0000000000000000
0.0000000000000000,32.0000000000000000,241.8200073239999880,-233.9999694820000110,829.1199951170000300,248.2800140379999900,-740.8800048829999690,427.6799011229999790,27.6875000000000000,28.1694602966000005,68.6200000000000045,-135.0000000000000000
0.0000000000000000,32.0000000000000000,242.4799957280000060,-233.4400176999999980,828.5199584959999580,247.8999786379999930,-741.3399658199999740,428.6800537110000270,27.6875000000000000,28.1694602966000005,68.6300000000000096,-135.0000000000000000
0.0000000000000000,33.0000000000000000,36.1000175475999967,6.2600097656200004,894.2600097660000520,37.6200675963999984,-617.3198852540000410,639.5199584959999580,27.3750000000000000,28.1694602966000005,88.4800000000000039,180.0000000000000000
0.0000000000000000,33.0000000000000000,35.3999862670999974,6.1399984359699999,893.9600830079999690,37.9198837280000020,-617.7199707029999440,638.6198120120000110,27.3750000000000000,28.1694602966000005,88.4900000000000090,180.0000000000000000
0.0000000000000000,33.0000000000000000,35.0799865723000010,6.3800201416000002,893.7601928709999580,37.8799972533999991,-617.8200073240000160,639.2600708009999830,27.6875000000000000,28.1694602966000005,88.4900000000000090,180.0000000000000000
0.0000000000000000,33.0000000000000000,35.2000389099000017,6.0999999046299997,894.6799316410000520,37.1199798584000007,-617.8999633790000410,639.5200805660000460,27.3750000000000000,28.1694602966000005,88.4900000000000090,180.0000000000000000
0.0000000000000000,33.0000000000000000,36.2400283813000001,6.2599797248800000,894.2199707029999440,37.3599929809999977,-617.9999999999999990,639.6201171879999940,27.3750000000000000,28.1694602966000005,88.4900000000000090,180.0000000000000000
0.0000000000000000,33.0000000000000000,35.7800559997999983,6.5199909210199998,894.3200073240000160,37.8199996948000034,-617.8200073240000160,639.5799560550000240,27.6875000000000000,28.1694602966000005,88.4900000000000090,180.0000000000000000
0.0000000000000000,33.0000000000000000,35.4199981689000012,5.8800201416000002,893.8198852540000410,37.4800453185999984,-617.8800048829999690,639.5398559569999860,27.6875000000000000,28.1694602966000005,88.4900000000000090,180.0000000000000000
0.0000000000000000,33.0000000000000000,35.3400382996000033,5.9799499511700001,894.1599121089999460,37.6001052856000015,-617.7999267579999690,639.3600463870000110,27.3750000000000000,28.1694602966000005,88.4900000000000090,180.0000000000000000
0.0000000000000000,33.0000000000000000,34.6199913024999972,5.9800090789800002,893.9801635740000160,37.2200584412000026,-617.9799804689999970,639.7000122069999860,28.0000000000000000,28.1694602966000005,88.4900000000000090,180.0000000000000000
0.0000000000000000,33.0000000000000000,34.3400001525999982,5.6399998664900002,893.7201538089999520,37.4000396729000002,-617.6799926759999830,639.5198974610000270,27.6875000000000000,28.1694602966000005,88.4900000000000090,180.0000000000000000
0.0000000000000000,34.0000000000000000,25.3600482941000003,26.3000087737999983,894.0598754879999880,26.9799919127999992,-604.1600341800000240,652.9200439449999740,27.6875000000000000,28.1694602966000005,88.4900000000000090,135.0000000000000000
0.0000000000000000,34.0000000000000000,26.3999576568999998,25.8400402068999995,893.3999023439999960,27.2200107574000007,-604.9200439449999740,653.0399169920000300,27.6875000000000000,28.1694602966000005,88.4900000000000090,135.0000000000000000
0.0000000000000000,34.0000000000000000,26.6799869536999985,25.9799594879000004,893.2600708009999830,26.6398677825999996,-604.9599609379999940,653.1999511720000550,27.6875000000000000,28.1694602966000005,88.4900000000000090,135.0000000000000000
0.0000000000000000,34.0000000000000000,25.9800415039000008,25.4599704741999986,893.4800415040000410,27.3000106811999998,-604.3999633790000410,653.6000366209999580,27.6875000000000000,28.1694602966000005,88.4900000000000090,135.0000000000000000
0.0000000000000000,34.0000000000000000,25.6000099182000014,25.4000186919999997,894.0400390620000040,26.6599960327000005,-604.2600097660000520,652.6999511720000550,27.6875000000000000,28.1694602966000005,88.4900000000000090,135.0000000000000000
0.0000000000000000,34.0000000000000000,25.7999801636000008,26.1599922179999993,893.6198730470000550,27.3400802612000007,-604.4398803709999580,653.8399658199999740,27.6875000000000000,28.1694602966000005,88.4900000000000090,135.0000000000000000
0.0000000000000000,34.0000000000000000,26.7600040435999986,26.0800189971999998,893.6599121089999460,27.3400211334000005,-604.4398803709999580,653.8001708980000320,27.6875000000000000,28.1694602966000005,88.4900000000000090,135.0000000000000000
0.0000000000000000,34.0000000000000000,26.7200355529999989,25.7999897002999994,893.3800659180000130,27.2400379181000005,-604.8999633790000410,652.9399414060000020,27.6875000000000000,28.1694602966000005,88.4900000000000090,135.0000000000000000
0.0000000000000000,34.0000000000000000,25.7000160217000015,25.6999893188000001,893.4998779300000240,27.0999546050999989,-604.3399658199999740,653.2598876949999740,27.6875000000000000,28.1694602966000005,88.4900000000000090,135.0000000000000000
0.0000000000000000,34.0000000000000000,26.2799987793000014,26.3400020599000015,894.1198730470000550,26.2799606322999999,-604.5798950199999800,653.6400146480000320,27.3750000000000000,28.1694602966000005,88.4900000000000090,135.0000000000000000
0.0000000000000000,35.0000000000000000,4.6399993896499998,33.1199760436999995,892.7399291990000160,5.5800194740300002,-599.9800415040000410,658.0401611329999690,27.6875000000000000,28.1694602966000005,88.4900000000000090,89.9999999999999999
0.0000000000000000,35.0000000000000000,4.1599597930899996,32.6000175475999967,893.5600585939999960,5.9799399375900002,-600.1400146480000320,658.4200439449999740,27.6875000000000000,28.1694602966000005,88.4900000000000090,89.9999999999999999
0.0000000000000000,35.0000000000000000,3.9800300598099998,33.3199996948000034,893.6800537110000270,5.9200110435499997,-600.0200805660000460,658.9599609379999940,27.6875000000000000,28.1694602966000005,88.4900000000000090,89.9999999999999999
0.0000000000000000,35.0000000000000000,3.9399995803799999,32.8199691772000008,893.7200317379999880,6.0599703788800001,-599.7600097660000520,659.2399902339999460,27.3750000000000000,28.1694602966000005,88.4900000000000090,89.9999999999999999
0.0000000000000000,35.0000000000000000,5.1799101829499996,32.9599990844999979,893.1198730470000550,6.3200492858899997,-600.1600341800000240,658.1799316410000520,28.0000000000000000,28.1694602966000005,88.4900000000000090,89.9999999999999999
0.0000000000000000,35.0000000000000000,4.6000199317900003,32.6000099182000014,892.7999267579999690,5.4398393630999999,-600.4999389649999550,659.3999633790000410,27.3750000000000000,28.1694602966000005,88.4900000000000090,89.9999999999999999
0.0000000000000000,35.0000000000000000,5.2200098037700000,32.8199996948000034,893.4799194339999520,5.2999701499900000,-600.3001098629999880,658.6599731449999800,27.6875000000000000,28.1694602966000005,88.4900000000000090,89.9999999999999999
0.0000000000000000,35.0000000000000000,4.2200398445099996,32.6199951171999984,892.6399536129999880,6.2799992561300000,-599.8999023439999970,658.8999023439999970,27.6875000000000000,28.1694602966000005,88.4900000000000090,89.9999999999999999
0.0000000000000000,35.0000000000000000,4.5199689865100003,32.9799690246999972,893.2199707029999440,6.6799793243399996,-600.6998901370000110,658.7198486329999690,27.6875000000000000,28.1694602966000005,88.4900000000000090,89.9999999999999999
0.0000000000000000,35.0000000000000000,3.9200303554499998,32.7600173949999984,893.8198852540000410,6.3800311088599999,-600.5399780269999600,659.5399780269999600,27.6875000000000000,28.1694602966000005,88.4900000000000090,89.9999999999999999
0.0000000000000000,36.0000000000000000,-15.5999927521000003,23.5600185394000014,893.2799682620000100,-14.6200189589999994,-607.2799682620000110,651.8400878910000520,27.3750000000000000,28.1694602966000005,88.4999999999999999,45.0000000000000000
0.0000000000000000,36.0000000000000000,-16.2199745178000008,22.8600215911999989,893.7799682620000100,-13.9400749207000008,-606.9199829100000440,651.0399780269999600,27.6875000000000000,28.1694602966000005,88.4999999999999999,45.0000000000000000
0.0000000000000000,36.0000000000000000,-15.1799592971999999,23.1000003814999992,894.1200561519999600,-13.6399211884000007,-607.3000488279999440,651.5597534180000130,27.6875000000000000,28.1694602966000005,88.4900000000000090,45.0000000000000000
0.0000000000000000,36.0000000000000000,-15.5000095367000004,23.0200195311999991,893.2600097660000520,-13.7599096297999992,-607.1199951170000300,651.3999633790000410,27.3750000000000000,28.1694602966000005,88.4900000000000090,45.0000000000000000
0.0000000000000000,36.0000000000000000,-15.8800382613999993,22.6799888611000000,894.2999267579999690,-13.6799373627000005,-607.0599975589999520,651.1400756839999520,27.6875000000000000,28.1694602966000005,88.4900000000000090,45.0000000000000000
0.0000000000000000,36.0000000000000000,-15.7799901962000000,23.6599922179999993,893.6198120120000100,-13.4800109862999999,-606.9599609379999940,651.0399169920000300,27.6875000000000000,28.1694602966000005,88.4900000000000090,45.0000000000000000
0.0000000000000000,36.0000000000000000,-15.3199815749999999,23.5399799346999998,893.7399902339999460,-13.4600200653000002,-606.7798461910000460,652.0198364259999830,27.6875000000000000,28.1694602966000005,88.4900000000000090,45.0000000000000000
0.0000000000000000,36.0000000000000000,-16.1200122832999995,22.7000083922999991,893.5799560550000240,-13.3599786758000007,-606.9799804689999970,651.3198852540000410,27.6875000000000000,28.1694602966000005,88.4900000000000090,45.0000000000000000
0.0000000000000000,36.0000000000000000,-15.9599971771000000,23.0599994658999989,893.4799194339999520,-13.2599897384999998,-607.2600097660000520,651.7600097660000520,27.6875000000000000,28.1694602966000005,88.4900000000000090,45.0000000000000000
0.0000000000000000,36.0000000000000000,-15.5400266646999991,23.1799888611000000,893.9799804689999960,-13.4599094391000005,-607.5199584959999580,651.3999023439999970,27.3750000000000000,28.1382312775000010,88.4900000000000090,45.0000000000000000
0.0000000000000000,37.0000000000000000,-22.3000183105000005,2.4800200462299999,893.9997558589999460,-19.8600292206000013,-621.3200073240000160,636.4000854490000160,27.6875000000000000,28.1694602966000005,88.4999999999999999,0.0000000000000000
0.0000000000000000,37.0000000000000000,-22.0400123595999986,2.5400099754299998,894.0399780269999600,-19.8398590088000013,-621.1400756839999520,637.5800781249999990,27.3750000000000000,28.1694602966000005,88.4900000000000090,0.0000000000000000
0.0000000000000000,37.0000000000000000,-22.9000263213999986,2.2600197792099999,894.1799316410000520,-20.3800487518000004,-621.4400634769999660,637.0599365230000320,27.6875000000000000,28.1694602966000005,88.4999999999999999,0.0000000000000000
0.0000000000000000,37.0000000000000000,-22.0400409697999997,2.5000097751600001,893.0999755860000270,-20.2199897765999985,-621.3798828120000050,636.0599365230000320,27.6875000000000000,28.1694602966000005,88.4999999999999999,0.0000000000000000
0.0000000000000000,37.0000000000000000,-22.2599697112999983,2.4599897861500000,893.6199951170000300,-19.8998546599999990,-621.2399902339999460,636.8800048829999690,28.0000000000000000,28.1694602966000005,88.4900000000000090,0.0000000000000000
0.0000000000000000,37.0000000000000000,-22.3600101470999988,2.2799999713900001,894.2800292970000550,-20.0199851990000006,-621.3800048829999690,636.4999999999999990,27.3750000000000000,28.1694602966000005,88.4999999999999999,0.0000000000000000
0.0000000000000000,37.0000000000000000,-23.0399780272999983,2.1799902915999998,894.2999267579999690,-19.7799358368000000,-621.3399658199999740,636.6999511720000550,27.6875000000000000,28.1694602966000005,88.4999999999999999,0.0000000000000000
0.0000000000000000,37.0000000000000000,-22.4200210571000014,2.5000000000000000,893.6599731449999800,-20.2599716186999998,-621.7399902339999460,636.9601440430000130,27.6875000000000000,28.1694602966000005,88.4999999999999999,0.0000000000000000
0.0000000000000000,37.0000000000000000,-22.1200408935999988,2.6599497795099998,894.5399780269999600,-20.4599266051999997,-621.4199829100000440,636.9598999019999600,27.6875000000000000,28.1694602966000005,88.4999999999999999,0.0000000000000000
0.0000000000000000,37.0000000000000000,-22.2199478148999994,2.3599998951000001,894.2199707029999440,-20.2599754332999993,-621.3200073240000160,636.7799682620000110,27.6875000000000000,28.1694602966000005,88.4900000000000090,0.0000000000000000
0.0000000000000000,38.0000000000000000,-12.7000598907000004,-17.4399795532000006,894.1202392579999690,-10.0799798964999994,-634.9400024410000460,623.4001464839999460,27.6875000000000000,28.1694602966000005,88.4999999999999999,-45.0000000000000000
0.0000000000000000,38.0000000000000000,-12.4400501251000008,-17.0000171661000010,893.8998413089999520,-9.9999904632599996,-634.9800415040000410,624.4800415040000410,27.6875000000000000,28.1382312775000010,88.4999999999999999,-45.0000000000000000
0.0000000000000000,38.0000000000000000,-11.9600324630999992,-17.3799819946000014,895.0601196290000410,-10.3200387955000004,-635.4999999999999990,623.5998535160000520,27.6875000000000000,28.1382312775000010,88.4900000000000090,-45.0000000000000000
0.0000000000000000,38.0000000000000000,-12.8000402450999999,-17.7600097655999995,894.9200439449999740,-9.8398809433000007,-635.2000732420000300,623.1600341800000240,27.6875000000000000,28.1694602966000005,88.4999999999999999,-45.0000000000000000
0.0000000000000000,38.0000000000000000,-12.1199493407999999,-17.4800109863000017,894.3599243160000460,-9.8799896240200002,-635.0399780269999600,623.7598876949999740,27.6875000000000000,28.1694602966000005,88.4999999999999999,-45.0000000000000000
0.0000000000000000,38.0000000000000000,-12.8599910735999998,-17.2399997710999990,894.9400024410000460,-10.5399799346999998,-634.9000244139999720,623.5001220699999740,27.6875000000000000,28.1694602966000005,88.4999999999999999,-45.0000000000000000
0.0000000000000000,38.0000000000000000,-12.7999916077000009,-17.2800006866000011,895.0400390620000040,-10.7799968718999999,-635.0401611329999690,623.5798950199999800,27.6875000000000000,28.1694602966000005,88.4999999999999999,-45.0000000000000000
0.0000000000000000,38.0000000000000000,-13.1799993514999993,-17.2400074005000015,895.0400390620000040,-10.0001678467000001,-634.8800048829999690,623.6200561519999600,27.6875000000000000,28.1382312775000010,88.4900000000000090,-45.0000000000000000
0.0000000000000000,38.0000000000000000,-12.8799886702999995,-17.4799976348999983,894.1599731449999800,-10.1399507523000008,-634.8999633790000410,623.7000732420000300,27.3750000000000000,28.1694602966000005,88.4999999999999999,-45.0000000000000000
0.0000000000000000,38.0000000000000000,-12.9800176619999998,-17.0999698639000002,893.9600830079999690,-9.6000690460199998,-634.9598999019999600,623.2600097660000520,27.6875000000000000,28.1694602966000005,88.4999999999999999,-45.0000000000000000
0.0000000000000000,39.0000000000000000,7.6999797820999998,-24.4000015258999987,894.2399291990000160,9.5199718475299999,-640.3600463870000110,618.1999511720000550,27.6875000000000000,28.1694602966000005,88.4999999999999999,-89.9999999999999999
0.0000000000000000,39.0000000000000000,7.5999798774700000,-24.7600116730000010,893.8999023439999960,9.9598302841200006,-639.6398925779999440,618.2000732420000300,27.6875000000000000,28.1382312775000010,88.4999999999999999,-89.9999999999999999
0.0000000000000000,39.0000000000000000,7.8800101280200003,-24.4799709320000005,893.8800048829999690,10.2799482346000008,-639.7199707029999440,618.2199707029999440,28.0000000000000000,28.1382312775000010,88.4999999999999999,-89.9999999999999999
0.0000000000000000,39.0000000000000000,7.8199896812400000,-24.7199802398999999,893.8801269529999440,9.7200412750199998,-639.8599853519999660,617.5999755860000270,27.6875000000000000,28.1694602966000005,88.4900000000000090,-89.9999999999999999
0.0000000000000000,39.0000000000000000,7.8999795913700002,-24.5399894713999984,894.1400756839999520,10.5600318908999995,-639.9400024410000460,617.8999633790000410,27.6875000000000000,28.1694602966000005,88.4999999999999999,-89.9999999999999999
0.0000000000000000,39.0000000000000000,7.7400503158599996,-24.4399681091000005,893.5400390620000040,10.1600704193000002,-639.8399658199999740,618.7800903319999860,27.6875000000000000,28.1382312775000010,88.4999999999999999,-89.9999999999999999
0.0000000000000000,39.0000000000000000,7.2400002479600003,-24.4200134276999989,894.4998779300000240,10.2199602127000002,-640.3200683589999460,617.9999999999999990,27.6875000000000000,28.1694602966000005,88.4999999999999999,-89.9999999999999999
0.0000000000000000,39.0000000000000000,7.3799800872799999,-24.7399692535000000,894.4799804689999960,10.5999593735000008,-639.8599853519999660,618.0199584959999580,27.6875000000000000,28.1694602966000005,88.4999999999999999,-89.9999999999999999
0.0000000000000000,39.0000000000000000,6.9799790382399998,-23.9999904633000014,893.4800415040000410,10.1799612044999996,-640.2999877930000130,618.4398803709999580,27.6875000000000000,28.1694602966000005,88.4999999999999999,-89.9999999999999999
0.0000000000000000,39.0000000000000000,6.6599888801600002,-24.6600017547999997,893.7401123050000240,10.8600397110000006,-640.0999755860000270,618.1399536129999880,28.0000000000000000,28.1694602966000005,88.4999999999999999,-89.9999999999999999
0.0000000000000000,40.0000000000000000,27.5999603270999998,-14.5399999618999995,893.2398071290000410,30.1997909546000009,-632.4400024410000460,623.9598999019999600,27.6875000000000000,28.1382312775000010,88.4999999999999999,-135.0000000000000000
0.0000000000000000,40.0000000000000000,28.0800075530999997,-14.9600000381000004,892.8798828120000040,29.8400897980000010,-632.5999755860000270,624.2799682620000110,27.6875000000000000,28.1382312775000010,88.4999999999999999,-135.0000000000000000
0.0000000000000000,40.0000000000000000,28.3000392914000009,-14.3400001526000000,893.2200317379999880,29.6799411773999999,-633.1400146480000320,624.6398315430000130,27.3750000000000000,28.1382312775000010,88.4999999999999999,-135.0000000000000000
0.0000000000000000,40.0000000000000000,27.6600093841999985,-14.5999908447000006,893.3200073240000160,29.7000503539999982,-632.7999877930000130,624.4400024410000460,27.6875000000000000,28.1382312775000010,88.4999999999999999,-135.0000000000000000
0.0000000000000000,40.0000000000000000,27.4999904633000014,-14.5799779891999996,893.0798339839999460,30.0800189971999998,-633.0599975589999520,624.9401245120000110,27.6875000000000000,28.1694602966000005,88.4999999999999999,-135.0000000000000000
0.0000000000000000,40.0000000000000000,27.3199462890999989,-14.7600202560000007,893.8600463870000100,30.7999477386000002,-632.6600341800000240,625.1799316410000520,27.0625000000000000,28.1694602966000005,88.4999999999999999,-135.0000000000000000
0.0000000000000000,40.0000000000000000,28.0200099945000005,-14.7399797439999993,893.4398803709999580,30.5801067352000011,-633.0199584959999580,624.7000732420000300,28.0000000000000000,28.1694602966000005,88.4999999999999999,-135.0000000000000000
0.0000000000000000,40.0000000000000000,27.3399791717999996,-15.0399999618999995,893.0999145509999830,29.4799919127999992,-633.2199707029999440,624.9598999019999600,28.0000000000000000,28.1694602966000005,88.4900000000000090,-135.0000000000000000
0.0000000000000000,40.0000000000000000,27.5999374390000014,-14.6199884415000003,893.6199951170000300,29.2999496460000017,-632.7399291990000160,624.4601440430000130,27.6875000000000000,28.1694602966000005,88.4999999999999999,-135.0000000000000000
0.0000000000000000,40.0000000000000000,27.9199790955000004,-14.6600275040000003,893.6401367189999960,30.2999820709000005,-633.0600585939999970,624.0198974610000270,27.3750000000000000,28.1694602966000005,88.4999999999999999,-135.0000000000000000
