Index,X Accel 1,Y Accel 1,Z Accel 1,X Accel 2,Y Accel 2,Z Accel2,Temp,Theta ,Phi
1,900.42,2.63,-4.16,901.68,-4.76,-6.97,24.25,0.51,180
1,900.23,2.695,-4.365,900.585,-4.775,-6.27,23.937,0.51,180
1,900.43,3.085,-4.635,901.275,-3.925,-6.465,24.25,0.51,180
1,899.85,2.95,-4.545,900.265,-3.805,-6.535,24.25,0.51,180
1,900.335,2.8,-3.845,899.455,-4.025,-5.495,24.25,0.51,180
1,900.01,2.67,-4.855,901.22,-4.455,-5.72,23.937,0.51,180
1,900.415,2.42,-3.885,898.69,-3.95,-6.1,23.937,0.51,180
1,900.38,2.575,-4.27,899.635,-3.8,-7.29,24.25,0.51,180
1,900.805,2.105,-4.325,900.615,-4.67,-6.835,24.25,0.51,180
1,900,3.125,-4.295,900.785,-4.26,-5.79,24.25,0.51,180
2,644.625,634.01,-3.82,647.51,448.885,437.33,24.25,0.51,135
2,644.365,633.76,-4.18,646.63,448.795,436.765,24.25,0.51,135
2,645.255,633.645,-3.35,646.635,448.52,436.775,24.562,0.51,135
2,644.945,633.395,-3.97,646.82,448.86,438.105,24.25,0.51,135
2,644.925,633.535,-3.15,646.33,449.125,438.505,24.25,0.51,135
2,644.155,633.435,-3.49,646.18,448.955,438.255,23.937,0.51,135
2,644.425,633.28,-3.605,647.24,448.88,436.785,24.25,0.51,135
2,645.11,633.675,-3.17,648.47,448.57,437.96,23.937,0.51,135
2,644.685,633.455,-3.07,647.425,449.005,437.52,24.562,0.51,135
2,644.61,634.11,-3.82,647.765,448.585,437.905,24.25,0.51,135
3,6.99,904.33,0.94,16.575,638.025,633.765,23.937,0.51,90
3,6.135,903.445,0.915,17.26,637.46,632.815,24.25,0.51,90
3,6.325,903.335,0.195,16.515,637.54,634.1,24.25,0.51,90
3,6.415,903.84,0.065,18.41,637.495,635.425,23.937,0.51,90
3,6.69,903.79,0.63,16.91,637.72,633.97,24.25,0.51,90
3,6.205,903.465,0.745,17.905,637.575,633.345,23.937,0.51,90
3,6.525,904.285,0.54,17.305,637.47,634.965,23.937,0.51,90
3,6.17,903.6,0.515,16.94,637.795,634.41,24.25,0.51,90
3,5.61,903.705,0.135,16.805,638.065,635.555,23.937,0.51,90
3,6.425,903.655,1.16,16.635,637.615,632.5,23.937,0.51,90
4,-644.28,639.015,7.155,-630.345,450.395,451.685,24.25,0.51,45
4,-644.16,639.935,6.675,-630.035,450.415,450.05,23.937,0.51,45
4,-643.785,639.275,6.465,-629.48,450.61,451.9,24.25,0.51,45
4,-644.115,638.965,6.475,-631.675,450.6,449.355,24.25,0.51,45
4,-643.73,638.96,6.59,-629.46,450.2,451.295,23.937,0.51,45
4,-643.63,640.05,6.42,-628.88,451.005,451.925,24.25,0.51,45
4,-643.455,638.825,6.93,-630.575,450.15,451.215,24.25,0.51,45
4,-644.98,639.225,6.355,-632.16,450.325,450.315,24.562,0.51,45
4,-643.575,639.615,6.52,-630.695,450.355,451.445,23.937,0.51,45
4,-644.52,639.06,6.465,-632.175,450.255,449.81,24.25,0.51,45
5,-899.44,6.67,9.13,-896.275,-2.385,11.57,24.25,0.51,0
5,-899.715,7.45,9.57,-896.88,-2.47,10.41,24.25,0.51,0
5,-899.18,6.475,9.115,-896.555,-1.86,11.205,24.25,0.51,0
5,-900.475,6.615,9.34,-897.915,-2.12,11.62,24.25,0.51,0
5,-899.4,6.92,8.77,-896.88,-2.155,11.265,23.937,0.51,0
5,-899.295,6.75,8.165,-897.605,-2.57,11.52,24.25,0.51,0
5,-900,7.09,8.685,-897.24,-1.805,11.685,24.25,0.51,0
5,-899.23,7.09,8.925,-897.305,-1.93,12.435,24.25,0.51,0
5,-899.94,7.225,8.655,-896.75,-2.02,11.715,24.25,0.51,0
5,-899.735,7.15,8.82,-896.9,-2.28,11.83,24.25,0.51,0
6,-646.92,-625.665,9.875,-642.995,-454.125,-432.84,23.937,0.51,-45
6,-647.81,-624.365,9.51,-644.15,-454.62,-433.01,24.25,0.51,-45
6,-646.11,-625.115,10.125,-643.34,-454.78,-433.935,24.25,0.51,-45
6,-647.26,-625.255,9.73,-641.31,-453.94,-434.825,24.25,0.51,-45
6,-647.395,-625.315,9.85,-643.045,-454.215,-432.39,24.25,0.51,-45
6,-646.775,-624.955,9.345,-642.715,-454.205,-434.395,24.25,0.51,-45
6,-646.575,-625.23,9.53,-643.13,-454.3,-433.605,24.25,0.51,-45
6,-646.41,-625.39,9.82,-642.745,-453.97,-433.985,24.25,0.51,-45
6,-646.855,-625.04,8.9,-641.58,-454.815,-433.325,23.937,0.51,-45
6,-646.64,-625.09,9.23,-641.495,-454.545,-432.19,23.937,0.51,-45
7,-0.705,-895.205,4.955,-6.745,-643.315,-632.025,24.25,0.51,-90
7,-0.615,-895.635,4.93,-5.67,-642.87,-630.61,24.25,0.51,-90
7,-0.56,-895.96,4.615,-4.775,-643.08,-631.38,24.25,0.51,-90
7,-0.71,-895.43,4.37,-4.375,-642.56,-630.92,23.937,0.51,-90
7,-0.225,-895.295,5.89,-3.645,-643.065,-631.635,24.25,0.51,-90
7,-0.125,-895.27,4.93,-6.02,-643.06,-631.09,24.25,0.51,-90
7,0.34,-895.335,4.84,-4.49,-642.595,-630.935,24.25,0.51,-90
7,0.205,-894.83,5.035,-5.035,-643.22,-631.975,24.25,0.51,-90
7,-0.12,-894.775,5.225,-4,-643.265,-630.995,24.25,0.51,-90
7,0.505,-895.225,5.58,-4.485,-643.165,-632.24,24.25,0.51,-90
8,639.965,-633.045,-5.52,636.83,-456.025,-445.565,24.25,0.51,-135
8,640.61,-632.39,-5.81,636.38,-456.04,-446.21,24.25,0.51,-135
8,641.305,-631.395,-6.485,637.16,-456.47,-445.93,23.937,0.51,-135
8,640.435,-632.22,-6.49,637.185,-456.435,-445.81,23.937,0.51,-135
8,639.665,-631.965,-6.62,636.72,-456.66,-447.09,24.25,0.51,-135
8,640.51,-632.12,-5.37,635.505,-456.435,-445.735,23.937,0.51,-135
8,640.125,-631.77,-6.665,635.24,-456.07,-446.095,24.25,0.51,-135
8,641.24,-632.275,-5.47,635.93,-456.29,-446.11,24.25,0.51,-135
8,640.74,-632.305,-6.35,636.025,-455.77,-446.535,24.25,0.51,-135
8,640.745,-632.045,-6.14,635.86,-455.78,-446.63,24.25,0.51,-135
9,819.48,4.56,367.855,820.965,-265.46,259.825,23.937,25.01,180
9,819.81,3.99,368.565,820.31,-265.375,259.69,24.25,25.01,180
9,819.52,3.86,367.81,819.215,-265.61,259.92,24.25,25.01,180
9,819.47,4.025,368.235,821.1,-265.345,258.48,23.937,25.01,180
9,819.645,4.5,368.475,821.475,-265.225,259.085,24.25,25.01,180
9,819.645,3.99,368.545,819.34,-264.645,258.995,24.25,25.01,180
9,819.76,4.26,368.4,819.675,-264.995,258.59,24.25,25.01,180
9,819.745,3.97,367.615,821.015,-265.21,259.99,23.937,25.01,180
9,820.09,4.28,367.53,820.855,-265.245,258.995,23.937,25.01,180
9,819.565,3.835,367.39,819.015,-265.305,257.755,23.937,25.01,180
10,582.77,579.94,366.1,589.485,146.02,661.9,24.25,25.01,135
10,582.065,579.44,366.025,590.535,146.055,661.725,24.25,25.01,135
10,582.345,579.525,366.11,589.2,146.115,662.735,23.937,25.01,135
10,581.75,580.21,366.215,589.26,146.12,663.16,23.937,25.01,135
10,582.315,580.19,365.32,589.255,145.765,662.77,23.937,25.01,135
10,582.155,580.31,365.69,587.445,145.91,663.22,23.937,25.01,135
10,582.34,580.07,366.04,588.18,146.54,663.485,24.25,25.01,135
10,581.925,579.745,365.805,588.575,145.105,664.49,24.25,25.01,135
10,581.6,580.195,366.995,589.11,146.69,661.615,23.937,25.01,135
10,582.63,579.835,365.98,591.2,145.32,661.36,24.25,25.01,135
11,9.23,821.015,373.775,17.65,323.015,832.91,24.25,25.01,90
11,9.755,821.315,373.665,17.94,322.205,831.8,24.25,25.01,90
11,8.85,821.17,374.3,18.145,323.03,832.87,24.25,25.01,90
11,9.36,820.86,373.31,17.76,322.9,832.36,24.25,25.01,90
11,9.625,821.45,373.73,19.09,323.26,832.155,24.25,25.01,90
11,9.015,821.02,373.91,17.305,322.89,832.78,23.937,25.01,90
11,8.93,821.015,374.095,18.42,322.895,832.77,24.25,25.01,90
11,9.115,820.79,373.105,18.43,323.14,831.7,23.937,25.01,90
11,9.46,821.575,373.625,17.28,322.91,833.51,23.937,25.01,90
11,9.91,821.115,373.665,18.315,323.13,832.57,24.25,25.01,90
12,-576.705,583.925,372.285,-568.99,147.815,674.1,24.25,25.01,45
12,-576.605,583.555,372.21,-569.375,147.16,674.265,23.937,25.01,45
12,-576.245,583.66,372.63,-568.72,147.695,674.07,24.562,25.01,45
12,-576.365,583.88,373.075,-568.68,146.38,673.89,24.25,25.01,45
12,-575.175,583.785,372.305,-568.58,147.515,673.4,23.937,25.01,45
12,-575.86,584.025,372.455,-569.225,147.58,673.815,24.25,25.01,45
12,-576.38,584.155,372.12,-568.595,147.725,674.295,24.562,25.01,45
12,-575.97,583.63,372.82,-570.595,147.325,672.405,24.25,25.01,45
12,-576.185,583.685,372.645,-570.325,147.605,672.53,23.937,25.01,45
12,-576.19,583.575,371.98,-569.74,146.915,673.41,23.937,25.01,45
13,-811.39,6.755,380.92,-810.41,-264.09,275.06,24.25,25.01,0
13,-811.165,6.68,380.775,-809.56,-264.44,275.175,24.25,25.01,0
13,-811.635,6.26,380.455,-811.615,-264.595,275.265,24.25,25.01,0
13,-811.96,6.425,380.695,-811.035,-264.375,275.165,24.25,25.01,0
13,-811.29,6.27,380.435,-811.81,-263.85,275.945,23.937,25.01,0
13,-811.775,6.005,381.055,-810.835,-264.415,275.705,24.25,25.01,0
13,-811.385,6.5,381.285,-810.7,-264.03,275.015,24.25,25.01,0
13,-811.32,6.24,381.415,-812.725,-264.365,274.85,24.25,25.01,0
13,-811.235,5.985,380.98,-810.2,-263.7,275.565,24.25,25.01,0
13,-811.395,6.67,381.035,-810.665,-264.63,276.035,24.25,25.01,0
14,-578.485,-569.75,377.57,-583.87,-671.115,-132.015,23.937,25.01,-45
14,-578.925,-571.155,378.465,-583.88,-671.09,-130.845,24.25,25.01,-45
14,-577.615,-570.085,378.035,-582.985,-671.54,-130.655,23.937,25.01,-45
14,-577.975,-570.78,377.72,-583.315,-671.6,-132.84,24.25,25.01,-45
14,-578.375,-570.66,377.89,-583.915,-671.175,-131.195,24.25,25.01,-45
14,-577.93,-569.9,377.575,-584.245,-671.645,-132.3,23.937,25.01,-45
14,-577.57,-570.345,378.26,-583.825,-670.945,-131.755,23.937,25.01,-45
14,-578.01,-570.465,377.1,-584.12,-671.415,-130.985,24.25,25.01,-45
14,-578.125,-570.325,377.775,-584.505,-671.21,-131.57,24.562,25.01,-45
14,-578.73,-570.96,378.205,-584.14,-671.31,-131.395,24.25,25.01,-45
15,4.15,-811.055,378.15,-0.755,-844.93,-308.27,24.25,25.01,-90
15,4.82,-811.24,376.93,-0.095,-845.06,-307.915,24.562,25.01,-90
15,4.04,-811.185,378.515,0.43,-844.695,-308.29,24.25,25.01,-90
15,4.815,-810.19,377.935,0.06,-844.885,-307.255,24.25,25.01,-90
15,4.025,-811.03,377.985,0.86,-844.74,-308.395,23.937,25.01,-90
15,4.32,-810.225,378.04,0.04,-844.69,-307.31,24.25,25.01,-90
15,4.535,-811.325,377.61,0.015,-844.915,-308.26,24.25,25.01,-90
15,3.385,-811.265,377.685,0.28,-844.955,-307.08,24.562,25.01,-90
15,4.58,-810.905,377.765,0.185,-844.42,-306.74,24.25,25.01,-90
15,4.49,-811.325,378.155,0.24,-844.71,-307.315,24.562,25.01,-90
16,583.21,-573.09,366.72,587.01,-672.035,-143.19,24.25,25.01,-135
16,583.295,-572.475,366.5,584.72,-672.165,-143.43,24.25,25.01,-135
16,583.43,-572.8,366.465,585.235,-672.475,-143.85,24.25,25.01,-135
16,583.305,-573.055,367.045,584.085,-672.16,-144.22,23.937,25.01,-135
16,584.185,-572.81,366.655,585.315,-672.555,-143.9,24.25,25.01,-135
16,583.37,-572.81,366.485,585.145,-672.28,-143.875,23.937,25.01,-135
16,583.52,-572.05,366.87,585.83,-672.315,-144.975,24.25,25.01,-135
16,583.855,-572.605,366.915,586.515,-671.88,-144.275,23.937,25.01,-135
16,583.695,-572.72,367.32,582.93,-672.255,-144.925,24.25,25.01,-135
16,583.33,-573.315,365.69,585.735,-672.275,-144.795,24.25,25.01,-135
17,655.435,1.12,612.38,658.195,-434.3,432.905,24.25,44.15,180
17,654.435,1.74,611.915,659.08,-435.195,433.085,24.25,44.15,180
17,655.27,2.01,612.345,657.385,-434.945,433.51,24.25,44.15,180
17,654.935,1.73,612.795,658.065,-434.735,433.95,24.25,44.15,180
17,655.07,1.465,611.975,658.07,-434.555,432.59,24.25,44.15,180
17,654.88,1.69,612.64,658.08,-434.835,433.785,24.25,44.15,180
17,655.405,1.54,612.635,657.015,-434.805,434.535,23.937,44.15,180
17,655.625,1.78,612.2,656.07,-434.715,434.36,23.937,44.15,180
17,654.965,2.22,612.305,657.12,-434.375,434.005,24.25,44.15,180
17,656.14,1.595,611.88,658.33,-435.345,432.865,24.25,44.15,180
18,463.64,462.545,614.77,474.235,-108.76,753.135,24.562,44.15,135
18,463.43,462.055,614.42,475.445,-109,752.835,24.562,44.15,135
18,464.805,462.925,614.36,474.2,-109.345,753.79,24.562,44.15,135
18,463.96,462.615,614.405,473.36,-108.655,754.445,24.562,44.15,135
18,463.5,462.51,613.185,473.3,-108.94,753.14,23.937,44.15,135
18,463.99,462.06,614.355,473.96,-108.98,753.985,24.25,44.15,135
18,463.495,462.65,613.86,474.035,-108.89,752.755,24.25,44.15,135
18,463.735,462.53,614.32,476.535,-108.935,753.96,24.25,44.15,135
18,463.67,462.15,614.03,474.175,-109.375,752.765,24.25,44.15,135
18,463.57,462.02,613.72,475.285,-108.315,753.215,24.25,44.15,135
19,9.62,653.855,621.255,14.22,28.66,890.385,23.937,44.15,90
19,9.55,653.385,621.165,14.73,27.985,890,24.25,44.15,90
19,9.325,653.555,620.68,14.99,29.1,891.37,24.25,44.15,90
19,9.665,653.63,621.49,14.75,28.2,889.61,24.25,44.15,90
19,9.81,653.055,620.515,14.055,28.385,891.185,24.562,44.15,90
19,9.915,653.34,621.515,14.64,28.465,891.04,23.937,44.15,90
19,9.67,653.03,621.285,15.495,28.33,891.52,23.937,44.15,90
19,9.52,652.395,620.995,14.23,28.195,890.655,23.937,44.15,90
19,9.715,653.1,621.595,14.895,28.365,891.67,24.25,44.15,90
19,9.25,653.335,621.17,13.9,28.875,891.175,24.25,44.15,90
20,-453.575,463.495,618.29,-454.895,-108.835,762.72,23.937,44.15,45
20,-454.36,463.335,618.67,-453.635,-108.935,762.035,24.25,44.15,45
20,-454.26,464.16,619.34,-454.04,-108.545,761.755,24.25,44.15,45
20,-454.685,464.485,618.93,-453.475,-108.705,763.505,24.562,44.15,45
20,-454.095,464.39,619.5,-452.125,-108.815,762.13,24.25,44.15,45
20,-455.1,464.33,618.275,-454.98,-108.485,762.28,23.937,44.15,45
20,-454.385,463.78,619.3,-453.58,-109.1,762.205,24.25,44.15,45
20,-454.415,464.405,617.715,-453.95,-109.14,763.355,23.937,44.15,45
20,-455.18,464.35,618.84,-454.085,-108.77,764.13,24.25,44.15,45
20,-454.095,464.805,618.8,-454.855,-108.7,761.705,24.25,44.15,45
21,-651.77,5.905,619.75,-645.15,-434.305,445.025,24.25,44.15,0
21,-651.835,6.49,619.63,-644.32,-434.4,445,24.562,44.15,0
21,-650.68,5.825,620.025,-644.435,-434.515,445.845,24.25,44.15,0
21,-650.825,6.065,618.805,-644.305,-434.455,444.71,24.562,44.15,0
21,-650.63,6.04,619.77,-644.225,-433.72,445.79,24.25,44.15,0
21,-650.645,5.735,619.77,-643.26,-434,445.64,24.25,44.15,0
21,-651.04,5.985,619.1,-644.135,-434.095,444.145,24.25,44.15,0
21,-651.105,5.92,619.815,-645.405,-434.135,445.385,24.25,44.15,0
21,-650.09,5.815,619.88,-643.195,-434.245,446.52,24.25,44.15,0
21,-650.885,5.245,619.15,-645.065,-434.05,445.255,24.25,44.15,0
22,-457.63,-451.905,622.78,-460.7,-760.24,125.14,24.25,44.15,-45
22,-457.675,-451.735,623.38,-460.995,-760.165,126.34,24.25,44.15,-45
22,-457.825,-452.18,622.725,-461.285,-759.86,126.675,24.25,44.15,-45
22,-457.28,-451.85,622.865,-461.815,-760.095,126.255,24.25,44.15,-45
22,-457.765,-451.83,623.38,-461.69,-760.05,126.06,24.25,44.15,-45
22,-457.125,-451.76,623.52,-462.125,-759.66,125.885,24.25,44.15,-45
22,-457.985,-451.98,622.825,-460.89,-759.605,127.185,24.25,44.15,-45
22,-457.47,-452.18,622.73,-461.98,-759.935,125.815,24.562,44.15,-45
22,-456.945,-451.81,623.77,-462.165,-759.71,125.545,24.562,44.15,-45
22,-457.805,-452.275,623.62,-462.83,-759.96,125.935,23.937,44.15,-45
23,2.97,-644.63,621,4.525,-897.89,-12.96,24.25,44.15,-90
23,3.515,-644.68,620.43,3.05,-897.605,-13.25,24.25,44.15,-90
23,3.875,-644.55,620.63,4.15,-898.1,-13.06,24.25,44.15,-90
23,4.01,-644.76,620.51,5.215,-897.315,-14.785,24.25,44.15,-90
23,4.02,-645.28,620.805,2.885,-897.505,-14.21,24.25,44.15,-90
23,3.845,-644.58,620.775,4.8,-897.665,-14.54,24.25,44.15,-90
23,3.51,-645.265,620.84,3.035,-897.645,-15,24.25,44.15,-90
23,3.52,-645.005,620.67,5.49,-898.105,-14.34,23.937,44.15,-90
23,3.635,-644.695,620.985,4.015,-898.18,-14.11,24.25,44.15,-90
23,3.315,-644.66,621.485,3.825,-898.305,-13.75,24.25,44.15,-90
24,466.58,-452.66,614.435,466.4,-761.015,115.39,24.25,44.15,-135
24,466.67,-453.05,614.215,468.18,-760.57,116.14,24.25,44.15,-135
24,466.905,-452.45,614.475,469.18,-759.935,113.96,24.562,44.15,-135
24,466.64,-452.3,614.65,467.905,-759.545,117.235,23.625,44.15,-135
24,467.125,-452.035,614.375,468.965,-760.075,115.885,24.25,44.15,-135
24,466.95,-452.515,613.995,469.255,-760.19,115.83,23.937,44.15,-135
24,466.64,-452.77,614.79,468.995,-760.155,115.66,24.25,44.15,-135
24,466.37,-452.375,614.88,469.315,-760.535,117.06,24.25,44.15,-135
24,466.715,-452.595,614.735,470.245,-760.005,116.385,23.937,44.15,-135
24,466.8,-452.485,614.165,467.9,-759.62,116.855,24.25,44.15,-135
25,396.735,6.425,799.795,394.105,-568.025,571.36,24.25,65.06,180
25,396.915,6.54,800.14,393.3,-567.85,571.58,24.25,65.06,180
25,397.415,6.775,799.985,392.885,-567.755,572.75,23.937,65.06,180
25,396.835,6.24,800.055,393.335,-567.535,572.075,23.937,65.06,180
25,396.82,7.215,800.35,393.35,-567.41,572.25,24.25,65.06,180
25,397.15,6.965,799.77,392.86,-568.1,572.7,24.25,65.06,180
25,396.49,6.605,800.96,393.01,-567.79,573.25,24.25,65.06,180
25,397.035,6.63,800.075,392.66,-568.03,572.12,24.25,65.06,180
25,395.85,6.62,799.38,393.86,-567.98,572.235,24.25,65.06,180
25,397.33,7.085,799.84,393.98,-567.205,572.095,24.25,65.06,180
26,282.555,279.09,800.185,280.835,-373.525,765.065,24.25,65.06,135
26,282.585,279.55,800.47,280.5,-373.035,764.125,23.625,65.06,135
26,281.53,279.5,800.125,279.85,-373.04,764.74,24.25,65.06,135
26,282.735,280,800.5,279.455,-373.135,763.7,24.25,65.06,135
26,282.255,279.535,799.965,281.81,-373.08,763.76,24.25,65.06,135
26,282.515,279.425,799.96,281.135,-373.205,764.685,24.25,65.06,135
26,283.305,279.43,800.63,281.79,-372.66,764.865,24.25,65.06,135
26,282.51,280,800.67,280.35,-373.14,764.39,24.562,65.06,135
26,282.03,280.165,799.76,280.975,-372.815,763.685,23.937,65.06,135
26,281.865,280.335,800.39,281.635,-372.09,763.125,24.562,65.06,135
27,7.745,395.45,802.28,11.9,-295.64,842.445,24.25,65.06,90
27,9.055,394.61,802.71,11.87,-295.605,843.55,24.562,65.06,90
27,8.42,395.07,802.465,11.325,-295.55,841.755,24.25,65.06,90
27,8.14,395.44,802.4,12.27,-294.23,841.13,23.937,65.06,90
27,8.14,395.265,801.555,13.435,-295.355,841.875,24.25,65.06,90
27,8.84,394.89,802.2,12.54,-294.975,841.015,24.25,65.06,90
27,9.62,395.36,801.365,12.885,-295.08,841.85,23.937,65.06,90
27,8.365,394.61,802.645,11.52,-295.085,842.115,23.937,65.06,90
27,8.22,394.755,802.585,11.22,-294.915,840.655,23.937,65.06,90
27,8.685,395.1,801.48,12.14,-294.665,842.495,24.25,65.06,90
28,-271.185,280.175,804.41,-263.455,-374.225,769.35,24.562,65.06,45
28,-271.805,280.535,805.015,-262.92,-374.55,768.045,24.25,65.06,45
28,-270.55,280.05,804.985,-262.365,-373.785,768.83,24.562,65.06,45
28,-271.485,280.255,805.125,-263.19,-374.395,768.69,24.25,65.06,45
28,-271.385,279.865,804.895,-262.61,-374.8,769.735,24.562,65.06,45
28,-271.07,279.85,804.32,-264,-374.31,770.915,23.937,65.06,45
28,-271.71,280.07,804.75,-264.99,-374.735,767.995,24.25,65.06,45
28,-271.67,279.99,804.645,-263.575,-375.04,770.8,24.25,65.06,45
28,-270.955,280.19,804.91,-262.235,-374.445,769.215,24.25,65.06,45
28,-271.315,279.645,804.26,-264.195,-373.915,769.175,24.562,65.06,45
29,-382.03,5.88,806.7,-378.365,-568.855,579.28,24.562,65.06,0
29,-380.94,4.735,806.435,-378.17,-568.7,581.205,24.25,65.06,0
29,-381.98,4.93,806.82,-379.055,-569.14,579,23.937,65.06,0
29,-381.41,4.14,806.255,-378.68,-569.24,580.945,24.25,65.06,0
29,-381.65,4.745,807.115,-379.09,-569.02,579.325,23.937,65.06,0
29,-381.725,4.95,807.465,-379.445,-569.13,581.205,24.562,65.06,0
29,-381.16,5.01,806.545,-377.205,-569.53,579.215,24.25,65.06,0
29,-381.2,5.045,807.72,-378.475,-569.165,580.165,24.25,65.06,0
29,-381.385,5.125,807.12,-379,-568.85,579.625,24.25,65.06,0
29,-380.97,4.925,806.725,-379.775,-569.175,579.83,24.562,65.06,0
30,-268.6,-268.855,807.61,-269.26,-761.41,390.81,23.937,65.06,-45
30,-269.115,-269.13,807.035,-269.2,-762.42,390.42,24.25,65.06,-45
30,-269.165,-268.405,806.44,-270.2,-761.795,389.72,23.937,65.06,-45
30,-269.985,-269.255,807.905,-268.2,-762.3,392.06,24.562,65.06,-45
30,-268.945,-268.79,807.845,-270.805,-762.51,389.01,23.937,65.06,-45
30,-269.495,-268.985,807.2,-268.86,-762.32,390.225,24.25,65.06,-45
30,-270.085,-268.7,807.795,-269.25,-761.95,389.415,24.25,65.06,-45
30,-269.04,-268.8,807.045,-269.005,-762.21,390.865,24.25,65.06,-45
30,-269.545,-269.575,807.385,-269.885,-762.36,390.545,24.25,65.06,-45
30,-269.625,-268.855,808.025,-267.675,-762.065,388.54,24.25,65.06,-45
31,8.52,-383.7,804.75,6.935,-843.525,307.265,24.25,65.06,-90
31,8.93,-383.8,805.28,5.745,-843.52,307.415,24.25,65.06,-90
31,9.255,-383.325,804.78,7.07,-843.415,306.75,24.25,65.06,-90
31,9.915,-383.555,805.21,6.67,-843.77,306.98,24.25,65.06,-90
31,9.25,-383.68,804.855,6.79,-843.055,307.11,24.25,65.06,-90
31,8.945,-383.19,805.17,8.14,-843.205,306.055,24.25,65.06,-90
31,9.44,-383.72,805.265,6.885,-843.3,305.975,24.25,65.06,-90
31,8.665,-383.54,805.055,7.33,-843.78,307.795,24.562,65.06,-90
31,10.075,-383.34,805.755,6.695,-842.73,306.765,23.937,65.06,-90
31,8.34,-383.755,805.045,7.41,-843.405,306.655,23.937,65.06,-90
32,284.695,-267.23,802.83,284.37,-760.39,385.59,24.25,65.06,-135
32,285.15,-267.38,802.505,284.42,-760.235,385.39,24.562,65.06,-135
32,284.195,-266.625,801.72,284.51,-760.655,386.7,24.562,65.06,-135
32,284.975,-266.78,802.78,283.05,-760.78,386.08,24.25,65.06,-135
32,285.385,-266.945,802.89,283.66,-760.34,385.775,24.25,65.06,-135
32,284.345,-266.955,802.43,284.28,-760.27,386.845,24.562,65.06,-135
32,284.875,-266.905,802.34,283.715,-760.475,387.425,24.25,65.06,-135
32,284.93,-266.975,801.83,284.675,-760.365,387.505,24.25,65.06,-135
32,285.05,-267.335,802.685,283.935,-760.065,385.6,24.25,65.06,-135
32,285.505,-266.955,801.8,283.92,-760.295,384.795,24.25,65.06,-135
33,60.285,7.31,889.045,61.56,-624.515,641.815,23.937,87.28,180
33,60.53,7.53,889.93,61.325,-624.57,641.31,24.562,87.28,180
33,59.5,7.68,889.785,60.715,-624.335,641.49,24.25,87.28,180
33,60.68,8.21,889.405,61.01,-624.185,641.44,23.937,87.28,180
33,59.31,7.745,889.62,59.99,-624.385,641.365,23.937,87.28,180
33,60.2,7.615,889.455,60.705,-624.67,642.675,24.25,87.28,180
33,60.69,7.88,890.28,60.455,-623.61,641.9,24.25,87.28,180
33,60.18,7.38,890.105,61.65,-624.235,640.45,23.937,87.28,180
33,60.425,7.485,889.74,61.335,-624.235,643.39,24.25,87.28,180
33,60.2,7.885,889.845,60.62,-624.01,640.135,24.25,87.28,180
34,43.505,43.275,889.225,45.525,-598.225,666.64,23.937,87.28,135
34,43.445,43.155,889.13,44.095,-598.625,666.43,24.25,87.28,135
34,42.525,43.55,889.92,44.99,-598.09,666.16,23.937,87.28,135
34,41.955,44.135,889.125,45.245,-598.22,667.61,23.937,87.28,135
34,41.655,43.435,889.655,44.91,-598.495,665.91,24.562,87.28,135
34,43.75,43.315,889.53,44.245,-597.975,666.7,24.25,87.28,135
34,42.505,43.125,888.68,44.795,-598.685,666.625,24.25,87.28,135
34,42.475,43.06,888.925,44.565,-598.385,666.125,23.937,87.28,135
34,41.665,43.555,889.46,44.52,-598.825,666.68,23.937,87.28,135
34,42.645,43.93,889.235,44.81,-598.125,665.865,24.25,87.28,135
35,4.66,57.86,889.395,7.17,-588.935,675.63,24.25,87.28,90
35,4.965,57.885,888.715,8.005,-589.17,675.665,24.562,87.28,90
35,5.07,57.595,890,7.075,-588.89,676.24,24.25,87.28,90
35,4.855,57.055,889.56,9.02,-588.335,675.775,23.937,87.28,90
35,5.515,57.165,889.26,6.28,-589.015,676.205,24.562,87.28,90
35,4.97,56.94,888.545,8.26,-588.77,675.855,24.25,87.28,90
35,4.865,57.97,889.235,7.9,-589.275,675.36,23.937,87.28,90
35,4.47,57.555,889.015,7.68,-588.915,675.785,24.25,87.28,90
35,4.565,56.995,888.38,6.92,-588.955,675.705,24.25,87.28,90
35,4.75,57.825,889.235,8.31,-588.735,676.165,24.25,87.28,90
36,-31.045,41.895,889.67,-31.655,-601.94,664.79,24.25,87.28,45
36,-31.22,41.865,888.975,-30.295,-601.795,666.255,23.937,87.28,45
36,-30.46,41.41,889.14,-32.075,-601.725,665.685,24.25,87.28,45
36,-29.905,41.89,888.635,-30.45,-601.745,666.995,23.937,87.28,45
36,-31.265,41.59,888.885,-29.465,-601.345,664.865,24.562,87.28,45
36,-31.03,41.275,889.85,-30.065,-601.715,665.62,24.562,87.28,45
36,-30.44,41.825,889.26,-29.855,-601.95,667.72,24.25,87.28,45
36,-30.15,41.445,889.57,-29.795,-601.62,664.91,24.25,87.28,45
36,-31.145,41.195,888.815,-30.365,-601.86,666.6,23.937,87.28,45
36,-30.305,41.49,888.69,-31.1,-601.535,666.195,24.25,87.28,45
37,-44.155,4.76,889.65,-44.44,-628.05,639.465,23.937,87.28,0
37,-44.72,5.16,889.78,-43.73,-627.9,639.675,24.25,87.28,0
37,-45.35,4.94,889.855,-43.67,-628.01,640.41,23.937,87.28,0
37,-44.035,5.01,889.605,-45.225,-628.145,639.995,23.937,87.28,0
37,-45.855,4.87,889.1,-44.875,-627.73,639.43,24.25,87.28,0
37,-45.42,5.025,890.28,-43.38,-628.505,640.5,24.25,87.28,0
37,-44.445,4.915,890.305,-43.9,-628.355,639.185,24.25,87.28,0
37,-44.835,4.55,889.27,-43.815,-628.185,640.34,24.25,87.28,0
37,-44.98,4.585,889.77,-43.74,-627.885,639.055,24.25,87.28,0
37,-44.565,5.155,889.36,-42.46,-627.95,640.69,23.937,87.28,0
38,-27.735,-31.56,888.965,-27.36,-653.585,615.74,24.25,87.28,-45
38,-27.14,-31.765,890.155,-26.59,-653.265,614.755,24.25,87.28,-45
38,-27.46,-32.215,888.91,-28.155,-653.205,616.31,23.937,87.28,-45
38,-27.665,-31.98,889.605,-26.815,-653.045,615.295,24.25,87.28,-45
38,-27.555,-31.885,889.415,-27.2,-652.985,615.735,24.25,87.28,-45
38,-27.315,-32.06,889.66,-27.065,-652.505,616.115,23.937,87.28,-45
38,-27.435,-31.745,889.92,-26.165,-653.135,614.84,23.937,87.28,-45
38,-27.35,-31.6,889.53,-27.41,-652.935,615.86,24.25,87.28,-45
38,-27.48,-32.215,889.145,-28.19,-653.31,615.845,24.25,87.28,-45
38,-28.09,-31.725,889.255,-27.76,-653.835,615.51,24.25,87.28,-45
39,10.085,-45.775,888.89,10.785,-662.965,605.335,23.937,87.28,-90
39,10.71,-45.425,890.215,10.215,-663.045,603.915,24.25,87.28,-90
39,9.28,-45.785,889.805,10.61,-663.025,604.47,23.937,87.28,-90
39,9.18,-45.64,889.37,10.795,-663.35,604.04,23.937,87.28,-90
39,9.2,-45.475,889.095,9.66,-663.05,604.88,24.562,87.28,-90
39,9.585,-45.555,889.56,9.745,-662.535,604.5,24.25,87.28,-90
39,9.46,-45.13,889.98,10.22,-663.015,604.92,23.937,87.28,-90
39,9.82,-45.39,889.335,10.56,-662.975,604.645,24.25,87.28,-90
39,9.795,-45.655,890.025,10.27,-662.61,604.295,23.937,87.28,-90
39,10.03,-45.15,890.115,9.94,-663.195,603.655,24.25,87.28,-90
40,46.5,-28.735,888.93,46.92,-650.895,615.205,24.25,87.28,-135
40,46.055,-28.39,890.16,46.96,-651.57,614.385,24.25,87.28,-135
40,46.79,-28.485,889.625,48.245,-650.79,615.74,24.562,87.28,-135
40,46.48,-28.505,889.84,46.885,-650.75,615.405,24.25,87.28,-135
40,46.085,-28.84,889.94,46.31,-651.315,615.465,23.937,87.28,-135
40,45.73,-28.4,889.16,46.13,-650.78,614.165,23.937,87.28,-135
40,45.78,-28.15,889.675,47.075,-651.01,615.025,24.25,87.28,-135
40,46.2,-28.675,889.6,47,-650.93,615.895,24.25,87.28,-135
40,45.61,-28.365,889.215,47.39,-651.02,616.33,24.562,87.28,-135
40,46.055,-28.75,889.28,47.875,-650.645,615.28,24.562,87.28,-135
