Temp Iter,Index,X Accel 1,Y Accel 1,Z Accel 1,X Accel 2,Y Accel 2,Z Accel2, Temp_6g,Temp,Theta,Phi,,,,,,
0.0000000000000000,1.0000000000000000,916.8349609379999940,45.2262496948000034,-15.8687496185000008,916.0397338870000100,80.8801345825000055,-8.3600597381600004,25.5000000000000000,26.5454998015999983,-1.0800000000000001,180.0000000000000000
0.0000000000000000,1.0000000000000000,915.6812133790000410,46.2099990844999979,-16.7075004577999984,915.6795654300000240,80.8803863524999968,-8.9200992584200005,25.5000000000000000,26.5454998015999983,-1.0800000000000001,180.0000000000000000
0.0000000000000000,1.0000000000000000,916.8549804689999960,45.4650001525999982,-16.2262496947999999,916.3201293949999800,80.6802139282000041,-8.7196798324600007,25.5000000000000000,26.5454998015999983,-1.0700000000000001,180.0000000000000000
0.0000000000000000,1.0000000000000000,916.6787109379999940,45.9837493895999998,-16.7600002289000010,915.8800048829999690,80.4399719238000017,-8.2398395538300004,25.1875000000000000,26.5454998015999983,-1.0800000000000001,180.0000000000000000
0.0000000000000000,1.0000000000000000,915.9262084959999570,46.9637489318999996,-16.0612487793000014,916.2799072269999660,80.1600341797000055,-8.6799592971799999,25.5000000000000000,26.5454998015999983,-1.0800000000000001,180.0000000000000000
0.0000000000000000,1.0000000000000000,916.9774780269999600,45.8512496948000034,-15.6637496947999999,915.8800048829999690,80.1600799561000059,-8.8802394866899998,25.5000000000000000,26.5454998015999983,-1.0800000000000001,180.0000000000000000
0.0000000000000000,1.0000000000000000,917.9649658199999740,45.5212478637999993,-16.7812500000000000,916.3201293949999800,80.4000930785999940,-8.5599594116199995,25.8125000000000000,26.5454998015999983,-1.0800000000000001,180.0000000000000000
0.0000000000000000,1.0000000000000000,917.6424560550000240,46.8562507628999967,-16.1875000000000000,915.7598876949999740,80.6403121948000034,-9.0399799346900007,25.1875000000000000,26.5454998015999983,-1.0800000000000001,180.0000000000000000
0.0000000000000000,1.0000000000000000,916.7199707029999440,45.8174972533999991,-16.1437492370999998,916.4800415040000410,80.0001602173000065,-8.6797590255700001,25.1875000000000000,26.5454998015999983,-1.0800000000000001,180.0000000000000000
0.0000000000000000,1.0000000000000000,916.8999633790000410,45.6687507628999967,-16.8062496185000008,915.9199218749999990,80.3599624633999951,-9.1200399398799998,25.5000000000000000,26.5454998015999983,-1.0800000000000001,180.0000000000000000
0.0000000000000000,2.0000000000000000,671.0999755860000270,680.8699951170000300,-12.8324995040999994,651.1200561519999600,527.9198608399999550,432.8396911620000080,25.1875000000000000,26.5454998015999983,-1.0800000000000001,135.0000000000000000
0.0000000000000000,2.0000000000000000,671.9187622069999850,681.4349975589999520,-14.2274999618999995,650.7199096680000130,528.8803710939999970,433.1600341800000250,25.1875000000000000,26.5454998015999983,-1.0800000000000001,135.0000000000000000
0.0000000000000000,2.0000000000000000,671.3800048829999690,680.7662353519999660,-13.4912500381000004,651.2802734379999940,527.9998168949999800,432.7202148439999970,25.5000000000000000,26.5454998015999983,-1.0800000000000001,135.0000000000000000
0.0000000000000000,2.0000000000000000,671.1262207029999440,680.5874633790000410,-13.6049995421999998,650.4396362300000190,528.8001708980000330,433.2803955080000260,25.5000000000000000,26.5454998015999983,-1.0800000000000001,135.0000000000000000
0.0000000000000000,2.0000000000000000,671.8312377930000130,681.9712524410000460,-13.6412496566999994,651.5603637699999800,527.7994995120000110,433.8800659180000130,25.5000000000000000,26.5454998015999983,-1.0800000000000001,135.0000000000000000
0.0000000000000000,2.0000000000000000,670.5612182620000110,681.1387329100000440,-13.7962493895999998,651.4802246089999460,528.4000854490000160,433.3203125000000000,25.5000000000000000,26.5454998015999983,-1.0800000000000001,135.0000000000000000
0.0000000000000000,2.0000000000000000,670.6712646480000320,681.7537231449999800,-13.6424999237000009,651.2800903319999860,527.9200439449999740,433.3200683590000040,25.5000000000000000,26.5454998015999983,-1.0800000000000001,135.0000000000000000
0.0000000000000000,2.0000000000000000,671.6762084959999580,682.3649902339999460,-13.8874998092999995,651.1200561519999600,528.1199340819999860,432.8800659180000130,25.1875000000000000,26.5454998015999983,-1.0800000000000001,135.0000000000000000
0.0000000000000000,2.0000000000000000,671.9137573240000160,681.2487182620000110,-13.9812498092999995,650.9202270509999830,528.4396972660000520,433.6801452639999750,25.5000000000000000,26.5454998015999983,-1.0800000000000001,135.0000000000000000
0.0000000000000000,2.0000000000000000,672.5075073240000160,679.8649902339999460,-14.3187494278000003,651.0400390620000050,528.7199096680000130,432.7598876949999740,25.5000000000000000,26.5454998015999983,-1.0800000000000001,135.0000000000000000
0.0000000000000000,3.0000000000000000,39.6049995421999980,958.2474975589999520,-10.5199995040999994,19.8399810790999993,714.4001464839999460,620.7597656249999990,25.5000000000000000,26.5454998015999983,-1.0800000000000001,89.9999999999999999
0.0000000000000000,3.0000000000000000,40.1674995421999980,959.0224609379999940,-10.5787496566999994,19.6400794983000004,714.5200805660000460,620.7200927730000320,25.5000000000000000,26.5142707824999988,-1.0800000000000001,89.9999999999999999
0.0000000000000000,3.0000000000000000,40.1562500000000000,956.5599975589999520,-10.4912500381000004,19.5601596831999984,714.6399536129999880,620.8000488279999440,25.5000000000000000,26.5142707824999988,-1.0800000000000001,89.9999999999999999
0.0000000000000000,3.0000000000000000,38.9974975586000028,958.3649902339999460,-10.5287494659000007,19.8401985168000010,713.9602661129999880,620.2798461910000460,25.5000000000000000,26.5142707824999988,-1.0800000000000001,89.9999999999999999
0.0000000000000000,3.0000000000000000,39.9287490844999979,957.6474609379999940,-9.9887495040900003,19.2401199341000009,714.8401489259999830,621.4801635740000160,25.1875000000000000,26.5142707824999988,-1.0800000000000001,89.9999999999999999
0.0000000000000000,3.0000000000000000,38.9174995421999980,958.8437499999999990,-10.3212499618999995,19.5199394226000002,714.9598388670000300,620.6400756839999520,25.5000000000000000,26.5454998015999983,-1.0800000000000001,89.9999999999999999
0.0000000000000000,3.0000000000000000,40.1650009155000020,958.2949829100000430,-10.2699995040999994,19.4797191619999985,714.1597290040000410,620.3598022459999580,25.5000000000000000,26.5454998015999983,-1.0800000000000001,89.9999999999999999
0.0000000000000000,3.0000000000000000,39.9637489318999996,957.9974975589999520,-10.0012493134000007,19.3200397491000011,714.5999755860000270,620.9999999999999990,25.5000000000000000,26.5454998015999983,-1.0800000000000001,89.9999999999999999
0.0000000000000000,3.0000000000000000,40.4925003051999965,957.1599731449999800,-9.9512500762900000,19.6399784088000011,714.5198364259999830,620.2802734379999940,25.5000000000000000,26.5454998015999983,-1.0800000000000001,89.9999999999999999
0.0000000000000000,3.0000000000000000,39.7612495421999980,958.0274658199999740,-10.2812500000000000,19.3200988769999995,713.7598266600000440,620.7202758790000410,25.5000000000000000,26.5454998015999983,-1.0800000000000001,89.9999999999999999
0.0000000000000000,4.0000000000000000,-613.0824584959999580,701.0937499999999990,-8.8562498092700004,-623.6002197269999660,525.1202392579999690,430.3999938960000120,25.5000000000000000,26.5767307280999994,-1.0800000000000001,45.0000000000000000
0.0000000000000000,4.0000000000000000,-613.6212158199999740,701.6774902339999460,-8.2562494278000003,-624.0800781249999990,524.6403808589999470,429.1197509770000230,25.5000000000000000,26.5767307280999994,-1.0800000000000001,45.0000000000000000
0.0000000000000000,4.0000000000000000,-612.7299804689999970,702.5025024410000460,-9.1899995803800003,-623.3599243160000460,524.1996459959999580,429.5201416020000230,25.5000000000000000,26.5454998015999983,-1.0800000000000001,45.0000000000000000
0.0000000000000000,4.0000000000000000,-612.2037353519999660,702.4999999999999990,-9.3099994659400007,-623.7202758790000410,524.3998413089999530,430.2400817870000080,25.5000000000000000,26.5454998015999983,-1.0800000000000001,45.0000000000000000
0.0000000000000000,4.0000000000000000,-612.2687377930000130,702.0087280269999600,-7.5687499046299997,-623.6801147459999580,524.9201660160000520,429.4398193360000270,25.5000000000000000,26.5454998015999983,-1.0800000000000001,45.0000000000000000
0.0000000000000000,4.0000000000000000,-612.8399658199999740,702.0462646480000320,-8.4962501525899992,-623.8398437499999990,524.6799926759999830,429.9999084469999950,25.1875000000000000,26.5454998015999983,-1.0800000000000001,45.0000000000000000
0.0000000000000000,4.0000000000000000,-613.3587646480000320,701.9174804689999970,-9.2224998474100008,-623.1599731449999800,524.4401245120000110,429.9600219729999820,25.5000000000000000,26.5454998015999983,-1.0800000000000001,45.0000000000000000
0.0000000000000000,4.0000000000000000,-612.6275024410000460,702.2287597660000520,-8.2699995040900003,-623.7202758790000410,524.5200805660000460,430.3602294919999730,25.1875000000000000,26.5454998015999983,-1.0800000000000001,45.0000000000000000
0.0000000000000000,4.0000000000000000,-612.9487304689999970,701.8574829100000440,-8.4224996566799994,-623.9600219730000380,524.5599975589999530,429.7600402830000230,25.5000000000000000,26.5454998015999983,-1.0800000000000001,45.0000000000000000
0.0000000000000000,4.0000000000000000,-613.2799682620000110,701.1112060550000240,-7.5249996185299999,-623.8399658199999740,524.7604370120000110,430.2403564449999740,25.1875000000000000,26.5454998015999983,-1.0800000000000001,45.0000000000000000
0.0000000000000000,5.0000000000000000,-878.1287231449999800,72.0299987793000013,-9.5999994278000003,-881.4001464839999460,73.3600997924999944,-15.9202184676999998,25.5000000000000000,26.5454998015999983,-1.0800000000000001,0.0000000000000000
0.0000000000000000,5.0000000000000000,-878.4149780269999600,72.5674972534000062,-9.5462493896500007,-881.2800292970000550,72.5597000121999968,-15.5598783492999999,25.5000000000000000,26.5454998015999983,-1.0800000000000001,0.0000000000000000
0.0000000000000000,5.0000000000000000,-877.5624999999999990,72.4349975586000027,-8.7150001525899992,-881.1206054689999960,72.7599182129000041,-15.0801610946999993,25.5000000000000000,26.5454998015999983,-1.0800000000000001,0.0000000000000000
0.0000000000000000,5.0000000000000000,-878.0862426759999830,72.7200012206999986,-9.0999994278000003,-881.0399780269999600,73.2401123047000055,-15.0800180435000008,24.8750000000000000,26.5454998015999983,-1.0800000000000001,0.0000000000000000
0.0000000000000000,5.0000000000000000,-878.1399536129999880,71.7849960326999934,-9.8699998855600004,-881.3198242189999960,73.3599166869999947,-16.0798797606999990,25.5000000000000000,26.5454998015999983,-1.0700000000000001,0.0000000000000000
0.0000000000000000,5.0000000000000000,-877.9237060550000240,73.8949966431000007,-9.0325002670300005,-881.4801635740000160,73.4000549315999961,-15.8801603317000008,25.5000000000000000,26.5454998015999983,-1.0800000000000001,0.0000000000000000
0.0000000000000000,5.0000000000000000,-877.5212402339999460,73.2350006103999930,-9.1599998474100008,-881.6801147459999580,73.3997573853000062,-15.4397602080999992,25.5000000000000000,26.5454998015999983,-1.0800000000000001,0.0000000000000000
0.0000000000000000,5.0000000000000000,-877.5512084959999580,71.5899963379000041,-10.4799995421999998,-881.4400634769999660,73.5200576782000041,-15.6401815414000005,25.5000000000000000,26.5454998015999983,-1.0800000000000001,0.0000000000000000
0.0000000000000000,5.0000000000000000,-878.0749511720000550,72.5124969481999954,-8.6999998092700004,-881.0000610350000430,72.9597854614000027,-15.7599401474000000,25.5000000000000000,26.5454998015999983,-1.0800000000000001,0.0000000000000000
0.0000000000000000,5.0000000000000000,-877.6799926759999830,73.4574966431000007,-9.5450000762900000,-880.8798217769999600,73.1198883057000017,-16.1202602386000002,25.5000000000000000,26.5454998015999983,-1.0800000000000001,0.0000000000000000
0.0000000000000000,6.0000000000000000,-633.9312133790000410,-560.9174804689999970,-10.7849998473999999,-617.8001708980000320,-375.0399780270000170,-461.2401428219999950,25.5000000000000000,26.5454998015999983,-1.0700000000000001,-45.0000000000000000
0.0000000000000000,6.0000000000000000,-633.6662597660000520,-560.8637084959999580,-11.8049993514999993,-617.8800048829999690,-376.3600158689999940,-460.6795959469999950,25.5000000000000000,26.5454998015999983,-1.0700000000000001,-45.0000000000000000
0.0000000000000000,6.0000000000000000,-632.7837524410000460,-562.7512207029999440,-11.2349996566999994,-617.8797607420000300,-375.1199951169999730,-461.0400695800000220,25.8125000000000000,26.5454998015999983,-1.0700000000000001,-45.0000000000000000
0.0000000000000000,6.0000000000000000,-634.1062622069999860,-561.9249877930000130,-10.7837495804000003,-618.2000122069999860,-375.1195373539999870,-460.5999145509999830,25.5000000000000000,26.5454998015999983,-1.0700000000000001,-45.0000000000000000
0.0000000000000000,6.0000000000000000,-632.6237182620000110,-561.0999755860000270,-9.7174997329699995,-617.4398193360000270,-374.9999084469999950,-460.8000793460000180,25.5000000000000000,26.5454998015999983,-1.0700000000000001,-45.0000000000000000
0.0000000000000000,6.0000000000000000,-634.3812255860000270,-560.7212524410000460,-10.6662502288999992,-618.3601684569999860,-374.9997863770000200,-460.7600708009999830,25.1875000000000000,26.5454998015999983,-1.0700000000000001,-45.0000000000000000
0.0000000000000000,6.0000000000000000,-633.4299926759999830,-560.5362548829999690,-10.4174995421999998,-617.5999755860000270,-375.2803344729999820,-460.2798461909999900,25.8125000000000000,26.5454998015999983,-1.0700000000000001,-45.0000000000000000
0.0000000000000000,6.0000000000000000,-633.8150024410000460,-560.1687622069999860,-9.7874994278000003,-617.5196533199999740,-375.9602355960000180,-460.3596801759999830,25.5000000000000000,26.5454998015999983,-1.0700000000000001,-45.0000000000000000
0.0000000000000000,6.0000000000000000,-634.4912109379999940,-561.1662597660000520,-11.7924995421999998,-616.9596557620000110,-375.4805908199999750,-460.7198486330000260,25.5000000000000000,26.5454998015999983,-1.0800000000000001,-45.0000000000000000
0.0000000000000000,6.0000000000000000,-632.9312133790000410,-561.9387207029999440,-10.7849998473999999,-617.5999755860000270,-375.3199768069999890,-460.6399841310000050,25.1875000000000000,26.5454998015999983,-1.0800000000000001,-45.0000000000000000
0.0000000000000000,7.0000000000000000,-1.5149999856900000,-839.1674804689999970,-13.8837499618999995,14.3199396133000007,-560.4796142579999690,-647.7597656249999990,25.5000000000000000,26.5454998015999983,-1.0800000000000001,-89.9999999999999999
0.0000000000000000,7.0000000000000000,-0.1149999946360000,-838.0737304689999970,-13.3099994659000007,14.0398387908999993,-561.1605224610000270,-648.0400390620000050,25.5000000000000000,26.5454998015999983,-1.0700000000000001,-89.9999999999999999
0.0000000000000000,7.0000000000000000,-1.0612499713900001,-839.2174682620000100,-12.5712499618999995,14.1200218200999998,-561.7602539060000020,-648.2801513670000300,25.5000000000000000,26.5454998015999983,-1.0700000000000001,-89.9999999999999999
0.0000000000000000,7.0000000000000000,-1.0587500333800000,-838.3374633790000410,-14.3424997330000004,14.4398202896000001,-560.8000488279999440,-647.1997680660000460,25.5000000000000000,26.5454998015999983,-1.0800000000000001,-89.9999999999999999
0.0000000000000000,7.0000000000000000,-0.6937499642370000,-838.1325073240000160,-13.9924993514999993,13.9998607634999992,-560.7996215819999860,-647.9603881839999520,25.5000000000000000,26.5454998015999983,-1.0800000000000001,-89.9999999999999999
0.0000000000000000,7.0000000000000000,-0.5274999737740000,-839.2525024410000460,-13.5487499237000009,13.1595811844000003,-561.0401611329999690,-648.4803466800000240,25.5000000000000000,26.5454998015999983,-1.0700000000000001,-89.9999999999999999
0.0000000000000000,7.0000000000000000,-0.4962500035760000,-839.7287597660000520,-13.2374992370999998,14.1599206924000001,-561.2799682620000110,-647.5201416019999660,25.1875000000000000,26.5454998015999983,-1.0800000000000001,-89.9999999999999999
0.0000000000000000,7.0000000000000000,-0.7687500119210000,-838.5587158199999740,-12.9712495804000003,14.8799591063999994,-561.3197631839999530,-647.7600097660000520,25.1875000000000000,26.5454998015999983,-1.0800000000000001,-89.9999999999999999
0.0000000000000000,7.0000000000000000,-0.6299999952320000,-838.9187011720000550,-14.2899999618999995,14.3199987410999991,-562.2801513670000300,-647.7197875980000380,25.5000000000000000,26.5454998015999983,-1.0700000000000001,-89.9999999999999999
0.0000000000000000,7.0000000000000000,-0.7724999785420000,-839.6637573240000160,-13.8299999237000009,14.8399801254000003,-560.6399536129999880,-647.6398925779999440,25.5000000000000000,26.5454998015999983,-1.0700000000000001,-89.9999999999999999
0.0000000000000000,8.0000000000000000,654.1162109379999940,-581.6300048829999690,-15.2812500000000000,660.5199584959999580,-371.5197143550000190,-455.7999267580000260,25.5000000000000000,26.5767307280999994,-1.0800000000000001,-135.0000000000000000
0.0000000000000000,8.0000000000000000,653.7600097660000520,-580.4174804689999970,-14.8862495421999998,660.1997680660000460,-371.4001159669999760,-456.1199035640000260,25.5000000000000000,26.5767307280999994,-1.0800000000000001,-135.0000000000000000
0.0000000000000000,8.0000000000000000,653.9562377930000130,-582.3837280269999600,-15.8787498473999999,660.5203247069999860,-371.7196655270000170,-456.2802124020000170,25.1875000000000000,26.5454998015999983,-1.0800000000000001,-135.0000000000000000
0.0000000000000000,8.0000000000000000,654.4712524410000460,-582.2949829100000440,-15.1274995804000003,660.3599853519999660,-371.1194763180000110,-456.0802917479999790,25.5000000000000000,26.5454998015999983,-1.0800000000000001,-135.0000000000000000
0.0000000000000000,8.0000000000000000,654.0912475589999520,-582.1574707029999440,-15.3724994659000007,660.4799804689999970,-371.5200805659999900,-456.0000610349999870,25.5000000000000000,26.5454998015999983,-1.0800000000000001,-135.0000000000000000
0.0000000000000000,8.0000000000000000,654.4587402339999460,-579.9724731449999800,-16.4612503052000001,660.6001586910000460,-371.3999023439999970,-455.9197998050000250,25.1875000000000000,26.5454998015999983,-1.0800000000000001,-135.0000000000000000
0.0000000000000000,8.0000000000000000,654.4574584959999580,-581.6824951170000300,-14.5774993895999998,660.3198242189999970,-371.4403076169999730,-455.3198242189999970,25.5000000000000000,26.5454998015999983,-1.0800000000000001,-135.0000000000000000
0.0000000000000000,8.0000000000000000,653.7525024410000460,-581.1212158199999740,-15.5312500000000000,659.9199829100000440,-370.2395629879999880,-455.9600830080000260,25.5000000000000000,26.5454998015999983,-1.0800000000000001,-135.0000000000000000
0.0000000000000000,8.0000000000000000,653.7374877930000130,-581.3812255860000270,-16.3937492370999997,660.6801147459999580,-371.1997985840000070,-455.9202270509999830,25.5000000000000000,26.5454998015999983,-1.0800000000000001,-135.0000000000000000
0.0000000000000000,8.0000000000000000,654.2412109379999940,-580.7037353519999660,-15.1799993514999993,661.0001220699999740,-371.0400695800000220,-455.9201354979999790,25.8125000000000000,26.5454998015999983,-1.0800000000000001,-135.0000000000000000
0.0000000000000000,9.0000000000000000,852.1024780269999600,49.7362480163999976,341.6287536620000080,850.3201293949999800,-172.2403106689999960,246.0794525150000140,25.1875000000000000,26.5767307280999994,22.4299999999999997,180.0000000000000000
0.0000000000000000,9.0000000000000000,851.8850097660000520,47.8762474059999974,341.0137329099999870,850.5597534180000130,-171.7998352049999940,246.5999145510000120,25.5000000000000000,26.5454998015999983,22.4299999999999997,180.0000000000000000
0.0000000000000000,9.0000000000000000,852.3337402339999460,47.8824996948000034,342.4112548830000260,849.7596435550000240,-172.4399108890000030,246.4801483150000080,25.5000000000000000,26.5454998015999983,22.4299999999999997,180.0000000000000000
0.0000000000000000,9.0000000000000000,852.5774536129999880,48.4949989318999996,342.8274841310000050,849.6799926759999830,-172.1200714109999980,246.0395660400000110,25.5000000000000000,26.5454998015999983,22.4299999999999997,180.0000000000000000
0.0000000000000000,9.0000000000000000,853.4425048829999690,48.1062507628999967,341.5874938960000120,850.6401367189999960,-171.5198822019999910,246.6400909420000000,25.8125000000000000,26.5454998015999983,22.4299999999999997,180.0000000000000000
0.0000000000000000,9.0000000000000000,852.5249633790000410,49.4274978637999993,341.7187500000000000,850.6798095699999740,-170.8799896239999890,246.3601074219999980,25.5000000000000000,26.5454998015999983,22.4299999999999997,180.0000000000000000
0.0000000000000000,9.0000000000000000,852.1599731449999800,48.5812492371000033,342.0075073240000160,850.6400756839999520,-171.3199005129999930,246.7198638920000060,25.1875000000000000,26.5454998015999983,22.4299999999999997,180.0000000000000000
0.0000000000000000,9.0000000000000000,853.0862426759999830,48.2837486267000031,341.7637329099999870,850.5598754879999880,-170.8400115970000000,245.9197540280000000,25.5000000000000000,26.5454998015999983,22.4299999999999997,180.0000000000000000
0.0000000000000000,9.0000000000000000,852.1224975589999520,49.0037498474000017,341.6487426759999830,849.8398437499999990,-171.4798278810000050,246.3599090579999990,25.5000000000000000,26.5454998015999983,22.4299999999999997,180.0000000000000000
0.0000000000000000,9.0000000000000000,853.2537231449999800,50.3374977112000010,342.4662475590000100,850.1999511720000550,-171.4001922610000010,246.8799133299999930,25.5000000000000000,26.5454998015999983,22.4299999999999997,180.0000000000000000
0.0000000000000000,10.0000000000000000,620.3150024410000460,638.0199584959999580,342.8337402340000040,603.6799926759999830,243.1999816889999970,655.0396728519999660,25.5000000000000000,26.5454998015999983,22.4299999999999997,135.0000000000000000
0.0000000000000000,10.0000000000000000,619.9312133790000410,637.1574707029999440,341.6974792479999790,603.4396362300000190,243.4802246090000040,655.0801391600000440,25.5000000000000000,26.5454998015999983,22.4299999999999997,135.0000000000000000
0.0000000000000000,10.0000000000000000,620.5224609379999940,637.9549560550000240,341.1737365719999950,604.1599731449999800,243.1998901370000110,654.9202270509999830,25.1875000000000000,26.5454998015999983,22.4299999999999997,135.0000000000000000
0.0000000000000000,10.0000000000000000,619.1049804689999970,637.2424926759999830,341.9662475590000100,603.3996582029999440,242.4397277829999950,654.8400268550000180,25.5000000000000000,26.5454998015999983,22.4299999999999997,135.0000000000000000
0.0000000000000000,10.0000000000000000,620.3624877930000130,637.4299926759999830,342.5912475590000100,603.4400024410000460,243.0395050049999950,654.7200927730000320,25.8125000000000000,26.5454998015999983,22.4299999999999997,135.0000000000000000
0.0000000000000000,10.0000000000000000,619.2562255860000270,637.4099731449999800,341.7612304689999970,604.0801391600000440,242.7601318359999990,654.6401367189999970,25.5000000000000000,26.5454998015999983,22.4299999999999997,135.0000000000000000
0.0000000000000000,10.0000000000000000,620.1300048829999690,636.9112548829999690,340.8312377930000140,604.2398071290000410,243.4400329590000070,654.4398803709999580,25.5000000000000000,26.5454998015999983,22.4299999999999997,135.0000000000000000
0.0000000000000000,10.0000000000000000,620.3999633790000410,636.8912353519999660,340.6637573240000160,604.0002441410000520,243.5203704829999930,655.0798950199999800,25.5000000000000000,26.5454998015999983,22.4299999999999997,135.0000000000000000
0.0000000000000000,10.0000000000000000,619.3399658199999740,638.0174560550000240,341.6875000000000000,603.3197631839999520,242.7199096680000140,654.8797607420000300,25.5000000000000000,26.5454998015999983,22.4299999999999997,135.0000000000000000
0.0000000000000000,10.0000000000000000,619.9012451170000300,636.7637329100000440,341.1649780270000180,603.7600097660000520,243.8404083249999980,654.5597534180000130,25.1875000000000000,26.5454998015999983,22.4299999999999997,135.0000000000000000
0.0000000000000000,11.0000000000000000,38.9612503051999965,888.8387451170000300,349.1487426759999830,18.2796764373999991,417.2399902340000040,823.8801879879999880,25.8125000000000000,26.5454998015999983,22.4299999999999997,89.9999999999999999
0.0000000000000000,11.0000000000000000,39.0750007628999967,888.2299804689999960,348.5599975590000100,18.9600181580000004,418.2398376460000120,823.1599121089999460,25.1875000000000000,26.5454998015999983,22.4299999999999997,89.9999999999999999
0.0000000000000000,11.0000000000000000,39.6324996948000034,890.1437377930000130,348.5387573240000160,18.7997970581000011,417.1597290039999840,824.0004272459999580,25.5000000000000000,26.5454998015999983,22.4299999999999997,89.9999999999999999
0.0000000000000000,11.0000000000000000,40.0324974059999974,888.8699951170000300,348.8187561039999870,19.2000389099000017,417.4800720210000120,823.3602294920000300,25.5000000000000000,26.5454998015999983,22.4299999999999997,89.9999999999999999
0.0000000000000000,11.0000000000000000,39.1987495421999980,888.8274536129999880,348.6162414550000220,18.9197597504000008,416.7193603520000230,823.7202758790000410,25.1875000000000000,26.5454998015999983,22.4299999999999997,89.9999999999999999
0.0000000000000000,11.0000000000000000,39.0125007628999967,889.3137207029999440,348.3450012210000180,18.9597587585000014,417.9598693849999900,823.0000610350000440,25.8125000000000000,26.5454998015999983,22.4299999999999997,89.9999999999999999
0.0000000000000000,11.0000000000000000,38.8099975586000028,887.9187011720000550,348.8062438960000120,18.7198181151999989,416.8797912599999900,823.4802246089999460,25.8125000000000000,26.5454998015999983,22.4299999999999997,89.9999999999999999
0.0000000000000000,11.0000000000000000,40.3512496948000034,888.7812499999999990,348.9287414550000220,19.9201183318999995,417.8802185060000050,822.5999145509999830,25.1875000000000000,26.5454998015999983,22.4299999999999997,89.9999999999999999
0.0000000000000000,11.0000000000000000,39.8512496948000034,888.4087524410000460,349.4174804689999970,18.8401393890000008,418.0001525879999910,823.5999755860000270,25.5000000000000000,26.5454998015999983,22.4299999999999997,89.9999999999999999
0.0000000000000000,11.0000000000000000,38.7637481689000012,888.1887207029999440,349.0899963379999910,18.8398609161000010,417.0399169919999730,823.3998413089999520,25.5000000000000000,26.5454998015999983,22.4299999999999997,89.9999999999999999
0.0000000000000000,12.0000000000000000,-560.0824584959999580,653.4924926759999830,345.5524902340000040,-575.0799560550000250,238.0405273439999970,649.8800048829999690,25.8125000000000000,26.5454998015999983,22.4399999999999977,45.0000000000000000
0.0000000000000000,12.0000000000000000,-559.3449707029999440,654.4787597660000520,346.2924804689999970,-574.8801269529999440,238.1599121090000040,649.6001586910000460,25.5000000000000000,26.5454998015999983,22.4399999999999977,45.0000000000000000
0.0000000000000000,12.0000000000000000,-559.2399902339999470,655.4162597660000520,345.6999816890000260,-574.4396972660000520,238.3601531980000060,649.1600341800000240,25.8125000000000000,26.5454998015999983,22.4399999999999977,45.0000000000000000
0.0000000000000000,12.0000000000000000,-559.4024658199999740,653.2312622069999860,346.3624877930000140,-575.4000854490000160,238.8800201420000060,649.2797241209999580,25.5000000000000000,26.5454998015999983,22.4299999999999997,45.0000000000000000
0.0000000000000000,12.0000000000000000,-560.3162231449999800,653.4862060550000240,346.4549865719999950,-575.3599243160000460,238.5603332519999920,649.5199584959999580,25.5000000000000000,26.5454998015999983,22.4299999999999997,45.0000000000000000
0.0000000000000000,12.0000000000000000,-558.4837646480000320,654.5962524410000460,346.2012329099999870,-575.6403198240000160,238.4398956299999950,649.6398925779999440,25.5000000000000000,26.5454998015999983,22.4299999999999997,45.0000000000000000
0.0000000000000000,12.0000000000000000,-559.8949584959999580,653.4349975589999520,346.7912292479999790,-574.5595703120000050,238.5598449709999900,649.4000854490000160,25.5000000000000000,26.5454998015999983,22.4299999999999997,45.0000000000000000
0.0000000000000000,12.0000000000000000,-559.1187133790000410,654.6300048829999690,346.9425048830000260,-575.6400756839999520,238.3198547359999960,649.8000488279999440,25.5000000000000000,26.5454998015999983,22.4299999999999997,45.0000000000000000
0.0000000000000000,12.0000000000000000,-559.9224853519999660,654.0824584959999580,346.1012573240000160,-575.0800781249999990,237.9998626709999880,649.5599975589999520,25.8125000000000000,26.5454998015999983,22.4399999999999977,45.0000000000000000
0.0000000000000000,12.0000000000000000,-559.9824829100000440,653.7962646480000320,346.0387573240000160,-574.8796997069999860,238.3199615480000090,649.2802734379999940,25.5000000000000000,26.5454998015999983,22.4299999999999997,45.0000000000000000
0.0000000000000000,13.0000000000000000,-807.8124999999999990,69.0124969481999954,348.8262329099999870,-813.7600708009999830,-178.4002838129999870,237.3199005129999930,25.5000000000000000,26.5454998015999983,22.4399999999999977,0.0000000000000000
0.0000000000000000,13.0000000000000000,-808.1024780269999600,69.5574951172000055,348.5675048830000260,-814.1201171879999940,-178.9200134280000040,237.7603607179999870,25.5000000000000000,26.5454998015999983,22.4399999999999977,0.0000000000000000
0.0000000000000000,13.0000000000000000,-808.2649536129999880,69.4662475586000027,350.2699890139999750,-814.3596801759999830,-178.8797607420000020,237.3999328609999960,25.8125000000000000,26.5454998015999983,22.4399999999999977,0.0000000000000000
0.0000000000000000,13.0000000000000000,-807.7874755860000270,70.9362487793000013,348.8024902340000040,-813.7994995120000100,-178.7199554439999930,237.3198242189999970,25.5000000000000000,26.5454998015999983,22.4399999999999977,0.0000000000000000
0.0000000000000000,13.0000000000000000,-808.4637451170000300,69.7874984741000048,349.1499938960000120,-814.1998901370000100,-178.6000518799999950,237.1199951170000020,25.5000000000000000,26.5454998015999983,22.4399999999999977,0.0000000000000000
0.0000000000000000,13.0000000000000000,-808.8937377930000130,69.6937484741000048,349.4349975590000100,-813.4794921879999940,-178.9203643799999950,237.5998992920000030,25.1875000000000000,26.5454998015999983,22.4399999999999977,0.0000000000000000
0.0000000000000000,13.0000000000000000,-808.9824829100000440,70.0250015258999951,349.1875000000000000,-814.3998413089999520,-178.2799377439999940,237.8002471920000000,25.1875000000000000,26.5454998015999983,22.4399999999999977,0.0000000000000000
0.0000000000000000,13.0000000000000000,-808.4337158199999740,69.9137496948000034,348.0512390139999750,-814.2796020509999830,-179.6804199219999980,237.5600280760000090,25.5000000000000000,26.5454998015999983,22.4399999999999977,0.0000000000000000
0.0000000000000000,13.0000000000000000,-807.9162597660000520,69.3375015258999951,349.1162414550000220,-814.3601684569999850,-178.4401092530000030,237.8002471920000000,25.8125000000000000,26.5454998015999983,22.4399999999999977,0.0000000000000000
0.0000000000000000,13.0000000000000000,-808.5974731449999800,69.5012512206999986,349.3087463379999910,-814.3995971680000130,-178.6401367189999970,237.4801483150000080,25.1875000000000000,26.5454998015999983,22.4399999999999977,0.0000000000000000
0.0000000000000000,14.0000000000000000,-581.2224731449999800,-517.2487182620000110,347.4262390139999750,-572.3203124999999990,-592.2000732420000300,-174.1201171879999950,25.1875000000000000,26.5454998015999983,22.4399999999999977,-45.0000000000000000
0.0000000000000000,14.0000000000000000,-582.3087158199999740,-517.9924926759999830,347.1537475590000100,-570.6395874019999600,-590.8797607420000300,-174.7199707030000010,25.1875000000000000,26.5454998015999983,22.4399999999999977,-45.0000000000000000
0.0000000000000000,14.0000000000000000,-581.2762451170000300,-517.5087280269999600,347.6699829099999870,-571.4400024410000460,-590.9999389649999550,-175.0401306150000090,25.5000000000000000,26.5454998015999983,22.4399999999999977,-45.0000000000000000
0.0000000000000000,14.0000000000000000,-581.6874999999999990,-517.5924682620000110,348.0962524409999900,-572.0402832029999440,-591.1595458980000320,-174.6802520749999980,25.5000000000000000,26.5454998015999983,22.4399999999999977,-45.0000000000000000
0.0000000000000000,14.0000000000000000,-582.2399902339999470,-517.1449584959999580,347.7137451169999730,-571.7598876949999740,-591.2396240230000320,-174.1599578860000010,25.5000000000000000,26.5454998015999983,22.4399999999999977,-45.0000000000000000
0.0000000000000000,14.0000000000000000,-582.3124999999999990,-517.5924682620000110,347.5700073240000160,-571.7600708009999830,-590.7597045899999550,-175.1601257320000110,25.1875000000000000,26.5454998015999983,22.4399999999999977,-45.0000000000000000
0.0000000000000000,14.0000000000000000,-581.5362548829999690,-516.9412231449999800,347.6262512210000180,-570.9995727540000410,-591.8803710939999970,-174.7601470950000080,25.1875000000000000,26.5454998015999983,22.4399999999999977,-45.0000000000000000
0.0000000000000000,14.0000000000000000,-581.0874633790000410,-516.3549804689999970,347.5362548830000260,-571.5599975589999520,-591.2796630860000270,-174.5999450680000110,25.1875000000000000,26.5454998015999983,22.4399999999999977,-45.0000000000000000
0.0000000000000000,14.0000000000000000,-580.4724731449999800,-516.5587158199999740,347.4012451169999730,-571.8801269529999440,-591.0397338870000110,-174.5600891109999960,25.5000000000000000,26.5454998015999983,22.4399999999999977,-45.0000000000000000
0.0000000000000000,14.0000000000000000,-582.4662475589999520,-518.0912475589999530,346.8862304689999970,-570.9996337889999720,-590.2796630860000270,-174.6402740480000090,25.5000000000000000,26.5454998015999983,22.4399999999999977,-45.0000000000000000
0.0000000000000000,15.0000000000000000,2.2200000286099999,-771.5174560550000240,345.7324829099999870,15.1599407195999998,-765.0400390620000050,-344.7996826169999730,25.8125000000000000,26.5454998015999983,22.4399999999999977,-89.9999999999999999
0.0000000000000000,15.0000000000000000,3.4199998378799998,-772.2587280269999600,345.9337463379999910,14.8801603317000008,-765.5603637699999800,-345.6402282710000120,25.1875000000000000,26.5454998015999983,22.4399999999999977,-89.9999999999999999
0.0000000000000000,15.0000000000000000,3.3137500286099999,-771.4062499999999990,346.1974792479999790,15.6801977158000003,-764.5590209959999580,-346.0399475099999900,25.8125000000000000,26.5454998015999983,22.4399999999999977,-89.9999999999999999
0.0000000000000000,15.0000000000000000,2.8975000381500000,-773.6824951170000300,344.6537475590000100,15.6001777648999997,-765.3201904300000240,-345.8001403810000050,25.5000000000000000,26.5454998015999983,22.4399999999999977,-89.9999999999999999
0.0000000000000000,15.0000000000000000,3.6799998283400002,-771.9712524410000460,345.0787353520000230,15.7601995467999991,-764.9998168949999800,-345.5201416020000230,25.5000000000000000,26.5767307280999994,22.4399999999999977,-89.9999999999999999
0.0000000000000000,15.0000000000000000,3.0474998951000001,-772.2324829100000440,344.5499877930000140,15.1999187468999999,-764.8398437499999990,-345.3600463870000110,25.5000000000000000,26.5767307280999994,22.4399999999999977,-89.9999999999999999
0.0000000000000000,15.0000000000000000,1.8924999237100000,-771.7349853519999660,345.4774780270000180,15.4801387787000006,-765.6403808589999460,-345.3998413090000100,25.8125000000000000,26.5767307280999994,22.4399999999999977,-89.9999999999999999
0.0000000000000000,15.0000000000000000,2.3250000476800001,-771.7199707029999440,345.9024963379999910,15.3201990127999998,-765.2799072269999660,-345.4801025389999720,25.5000000000000000,26.5767307280999994,22.4399999999999977,-89.9999999999999999
0.0000000000000000,15.0000000000000000,2.6562500000000000,-772.2149658199999740,345.1300048830000260,14.7199602127000002,-765.3999633790000410,-346.0004882810000020,25.5000000000000000,26.5767307280999994,22.4399999999999977,-89.9999999999999999
0.0000000000000000,15.0000000000000000,3.0899999141699999,-771.7962036129999880,346.3462524409999900,15.8801193237000007,-764.7196655269999600,-345.1997985840000070,25.5000000000000000,26.5767307280999994,22.4399999999999977,-89.9999999999999999
0.0000000000000000,16.0000000000000000,604.5787353519999660,-536.0512084959999580,339.2149963379999910,614.6398315430000130,-587.3604125980000380,-169.6400146480000040,25.5000000000000000,26.5454998015999983,22.4399999999999977,-135.0000000000000000
0.0000000000000000,16.0000000000000000,605.1987304689999970,-537.4924926759999830,339.3825073240000160,614.9605102540000410,-587.8003540040000410,-170.6401367189999970,25.8125000000000000,26.5454998015999983,22.4399999999999977,-135.0000000000000000
0.0000000000000000,16.0000000000000000,603.8587646480000320,-537.1537475589999530,339.4412536620000080,614.3201293949999800,-587.6402587889999720,-169.9600677489999890,25.5000000000000000,26.5454998015999983,22.4399999999999977,-135.0000000000000000
0.0000000000000000,16.0000000000000000,604.1524658199999740,-537.1174926759999830,338.9849853520000230,615.3599853519999660,-586.7597656249999990,-170.2399902340000040,25.5000000000000000,26.5454998015999983,22.4399999999999977,-135.0000000000000000
0.0000000000000000,16.0000000000000000,603.9962158199999740,-536.9512329100000440,339.0474853520000230,615.0799560550000240,-587.2799072269999660,-170.3999176030000060,25.5000000000000000,26.5454998015999983,22.4399999999999977,-135.0000000000000000
0.0000000000000000,16.0000000000000000,604.4649658199999740,-537.1124877930000130,339.2962341310000050,614.3198852540000410,-586.5595092769999600,-170.4800872799999920,25.1875000000000000,26.5767307280999994,22.4399999999999977,-135.0000000000000000
0.0000000000000000,16.0000000000000000,604.3999633790000410,-537.3225097660000520,339.8349914550000220,614.6398925779999440,-587.9604492189999970,-170.0400390620000050,25.5000000000000000,26.5767307280999994,22.4399999999999977,-135.0000000000000000
0.0000000000000000,16.0000000000000000,604.7625122069999860,-537.4987182620000110,339.1012573240000160,614.9199829100000440,-586.2393798829999690,-170.5197296139999990,25.1875000000000000,26.5767307280999994,22.4399999999999977,-135.0000000000000000
0.0000000000000000,16.0000000000000000,605.5487060550000240,-536.2224731449999800,339.7462463379999910,615.3602294920000300,-587.9997558589999470,-170.7199707030000010,25.1875000000000000,26.5767307280999994,22.4399999999999977,-135.0000000000000000
0.0000000000000000,16.0000000000000000,604.7749633790000410,-537.5725097660000520,339.2837524409999900,614.6001586910000460,-587.0800781249999990,-171.1201171879999950,25.5000000000000000,26.5454998015999983,22.4399999999999977,-135.0000000000000000
0.0000000000000000,17.0000000000000000,666.5449829100000440,50.2462501525999982,627.5712280269999600,665.6400146480000320,-370.7601623539999870,446.4799499509999800,25.1875000000000000,26.5767307280999994,44.2800000000000011,180.0000000000000000
0.0000000000000000,17.0000000000000000,667.8312377930000130,50.9762496948000034,628.4862060550000240,664.7998046879999940,-370.8001403810000050,446.4800720210000120,25.5000000000000000,26.5767307280999994,44.2800000000000011,180.0000000000000000
0.0000000000000000,17.0000000000000000,667.4412231449999800,50.3537483214999994,626.9199829100000440,666.1601562499999990,-370.6800231930000110,446.5598449710000180,25.5000000000000000,26.5767307280999994,44.2800000000000011,180.0000000000000000
0.0000000000000000,17.0000000000000000,667.9612426759999830,51.1112480163999976,628.6249999999999990,665.5600585939999970,-369.9196777340000040,446.3598327639999750,25.5000000000000000,26.5454998015999983,44.2800000000000011,180.0000000000000000
0.0000000000000000,17.0000000000000000,668.0362548829999690,50.8712501525999982,627.9587402339999460,665.0394897459999580,-370.0397644039999810,447.1201782229999820,25.5000000000000000,26.5454998015999983,44.2800000000000011,180.0000000000000000
0.0000000000000000,17.0000000000000000,666.8225097660000520,50.9762496948000034,628.4762573240000160,665.6400146480000320,-371.3202514650000120,447.0401000979999820,25.5000000000000000,26.5454998015999983,44.2800000000000011,180.0000000000000000
0.0000000000000000,17.0000000000000000,667.6737060550000240,51.2737503051999965,627.0075073240000160,665.8800048829999690,-370.8402404789999870,447.0801391599999870,25.5000000000000000,26.5454998015999983,44.2800000000000011,180.0000000000000000
0.0000000000000000,17.0000000000000000,666.0374755860000270,50.8675003051999965,627.9799804689999970,666.4801635740000160,-370.1599426270000200,446.6801452639999750,25.1875000000000000,26.5454998015999983,44.2800000000000011,180.0000000000000000
0.0000000000000000,17.0000000000000000,666.7912597660000520,50.4387474059999974,627.7824707029999440,665.8401489259999830,-369.9197692870000080,446.9602966310000050,25.5000000000000000,26.5454998015999983,44.2800000000000011,180.0000000000000000
0.0000000000000000,17.0000000000000000,667.3062133790000410,50.2075004578000019,626.8449707029999440,665.7999877930000130,-370.5997314449999750,446.1999511719999980,25.5000000000000000,26.5454998015999983,44.2800000000000011,180.0000000000000000
0.0000000000000000,18.0000000000000000,487.3125000000000000,508.3924865719999950,625.8887329100000440,474.9197692870000080,-48.8802528380999987,761.4797973629999880,25.5000000000000000,26.5767307280999994,44.2800000000000011,135.0000000000000000
0.0000000000000000,18.0000000000000000,487.6087341310000050,509.2487487789999810,626.3900146480000320,474.6000366210000150,-49.8002738953000019,762.7201538089999520,25.5000000000000000,26.5767307280999994,44.2800000000000011,135.0000000000000000
0.0000000000000000,18.0000000000000000,487.6099853520000230,507.5212402340000030,625.5337524410000460,475.0801391599999870,-49.0801010132000001,762.4801635740000160,25.1875000000000000,26.5767307280999994,44.2800000000000011,135.0000000000000000
0.0000000000000000,18.0000000000000000,486.3924865719999950,508.2637329099999870,626.0874633790000410,473.9195861819999890,-47.8799362183000028,761.6799926759999830,25.1875000000000000,26.5767307280999994,44.2800000000000011,135.0000000000000000
0.0000000000000000,18.0000000000000000,486.1124877930000130,508.1074829099999870,625.8099975589999520,474.3597106930000100,-48.6800003051999965,761.7199096680000130,25.1875000000000000,26.5454998015999983,44.2800000000000011,135.0000000000000000
0.0000000000000000,18.0000000000000000,485.8174743650000090,507.9474792479999790,625.4187622069999860,474.6396484379999940,-48.5602836608999979,761.8798217769999600,25.1875000000000000,26.5454998015999983,44.2800000000000011,135.0000000000000000
0.0000000000000000,18.0000000000000000,485.8087463379999910,508.2299804689999970,625.8900146480000320,475.1600341800000250,-47.6797027587999977,761.6799926759999830,25.5000000000000000,26.5454998015999983,44.2800000000000011,135.0000000000000000
0.0000000000000000,18.0000000000000000,486.6412353520000230,508.0325012210000180,625.3974609379999940,474.8800659180000130,-48.5595169066999972,761.3200683589999460,25.1875000000000000,26.5454998015999983,44.2800000000000011,135.0000000000000000
0.0000000000000000,18.0000000000000000,486.4624938960000120,508.3787536620000080,625.8900146480000320,474.7198791499999970,-48.4402198792000007,761.8001098629999880,25.5000000000000000,26.5454998015999983,44.2800000000000011,135.0000000000000000
0.0000000000000000,18.0000000000000000,486.9462280270000170,508.1437377930000130,625.6162109379999940,474.8802490229999760,-48.8399734496999968,762.6801147459999580,24.8750000000000000,26.5454998015999983,44.2800000000000011,135.0000000000000000
0.0000000000000000,19.0000000000000000,35.0187492371000033,702.6662597660000520,633.7099609379999940,17.3198986053000006,83.5597457885999972,895.0400390620000040,25.5000000000000000,26.5454998015999983,44.2800000000000011,89.9999999999999999
0.0000000000000000,19.0000000000000000,36.4500007628999967,702.6375122069999850,633.3512573240000160,17.4799594879000004,84.0399780272999947,894.8398437499999990,25.5000000000000000,26.5454998015999983,44.2800000000000011,89.9999999999999999
0.0000000000000000,19.0000000000000000,35.8762474059999974,702.3837280269999600,633.1900024410000460,17.2000598907000004,84.0001754760999972,895.1602783199999740,25.5000000000000000,26.5454998015999983,44.2800000000000011,89.9999999999999999
0.0000000000000000,19.0000000000000000,36.0612487793000014,702.6950073240000160,633.1549682620000110,17.2398185730000009,84.0802307129000041,894.4401245120000100,25.5000000000000000,26.5454998015999983,44.2800000000000011,89.9999999999999999
0.0000000000000000,19.0000000000000000,36.1725006104000002,703.3850097660000520,633.3074951170000300,17.3999004363999994,83.8000183104999933,895.0801391600000430,25.5000000000000000,26.5454998015999983,44.2800000000000011,89.9999999999999999
0.0000000000000000,19.0000000000000000,36.1375007628999967,703.3275146480000320,633.7712402339999460,17.2400398254000002,84.0400924683000027,895.0399780269999600,25.1875000000000000,26.5454998015999983,44.2800000000000011,89.9999999999999999
0.0000000000000000,19.0000000000000000,36.0675010681000003,703.4937133790000410,633.0750122069999860,17.4001617432000017,83.1198043823000034,895.1599121089999460,25.1875000000000000,26.5454998015999983,44.2800000000000011,89.9999999999999999
0.0000000000000000,19.0000000000000000,35.5574989318999996,702.2625122069999850,633.1074829100000440,16.8394966124999996,84.3604049683000027,894.8001098629999880,25.5000000000000000,26.5454998015999983,44.2800000000000011,89.9999999999999999
0.0000000000000000,19.0000000000000000,36.0912475586000028,703.0725097660000520,633.3024902339999460,17.0799598693999996,84.0400543213000048,894.9199218749999990,25.5000000000000000,26.5454998015999983,44.2800000000000011,89.9999999999999999
0.0000000000000000,19.0000000000000000,36.5174980163999976,702.9712524410000460,633.4899902339999460,17.2400588988999992,85.0004577636999982,894.8801269529999440,25.5000000000000000,26.5454998015999983,44.2800000000000011,89.9999999999999999
0.0000000000000000,20.0000000000000000,-428.0899963379999910,519.2299804689999970,628.8962402339999460,-445.4400939939999940,-52.6403999329000029,759.7598266600000440,25.5000000000000000,26.5454998015999983,44.2899999999999991,45.0000000000000000
0.0000000000000000,20.0000000000000000,-428.0462341310000050,519.3537597660000520,627.9962158199999740,-445.0800170900000120,-52.4800376892000031,760.1199951170000300,25.5000000000000000,26.5454998015999983,44.2899999999999991,45.0000000000000000
0.0000000000000000,20.0000000000000000,-428.2712402340000040,521.1012573240000160,628.6224975589999520,-444.2397460939999970,-52.5597991942999982,759.7196655269999600,25.5000000000000000,26.5454998015999983,44.2899999999999991,45.0000000000000000
0.0000000000000000,20.0000000000000000,-428.3537292479999790,519.7762451170000300,628.9149780269999600,-445.0802001949999740,-53.1599388122999983,760.7199707029999440,25.5000000000000000,26.5454998015999983,44.2899999999999991,45.0000000000000000
0.0000000000000000,20.0000000000000000,-428.3999938960000120,518.8112182620000110,628.3749999999999990,-445.9205017090000060,-53.6402130127000020,760.6401367189999970,25.5000000000000000,26.5454998015999983,44.2899999999999991,45.0000000000000000
0.0000000000000000,20.0000000000000000,-428.8187255860000270,518.5025024410000460,629.5462646480000320,-444.6399841310000050,-52.7999725342000019,760.3599243160000460,25.1875000000000000,26.5454998015999983,44.2899999999999991,45.0000000000000000
0.0000000000000000,20.0000000000000000,-428.1262512210000180,519.4024658199999740,628.0812377930000130,-444.2399902340000040,-52.7603759766000024,760.1998901370000100,25.1875000000000000,26.5454998015999983,44.2899999999999991,45.0000000000000000
0.0000000000000000,20.0000000000000000,-428.9749755860000270,519.4062500000000000,628.8587646480000320,-444.8399963379999910,-53.4000625609999986,759.7193603519999660,25.5000000000000000,26.5454998015999983,44.2899999999999991,45.0000000000000000
0.0000000000000000,20.0000000000000000,-427.9237365719999950,520.6737670899999550,628.8399658199999740,-445.0000000000000000,-53.0798797607000025,760.2399902339999460,25.1875000000000000,26.5454998015999983,44.2899999999999991,45.0000000000000000
0.0000000000000000,20.0000000000000000,-428.3012390139999750,517.9162597660000520,629.0324707029999440,-444.5198974610000270,-52.3996620177999972,760.8803100589999520,25.5000000000000000,26.5454998015999983,44.2899999999999991,45.0000000000000000
0.0000000000000000,21.0000000000000000,-620.2374877930000130,66.2262496948000034,632.1187133790000410,-629.7999267579999690,-377.3598327639999750,437.5201416020000230,25.5000000000000000,26.5454998015999983,44.2899999999999991,0.0000000000000000
0.0000000000000000,21.0000000000000000,-619.2324829100000440,66.0212478637999993,632.1549682620000110,-630.1998291019999660,-376.6399841310000050,437.6803283689999940,25.5000000000000000,26.5454998015999983,44.2899999999999991,0.0000000000000000
0.0000000000000000,21.0000000000000000,-619.9274902339999460,65.9112472534000062,631.8962402339999460,-630.3597412110000270,-376.2799987789999810,437.3598327639999750,25.5000000000000000,26.5454998015999983,44.2899999999999991,0.0000000000000000
0.0000000000000000,21.0000000000000000,-619.7600097660000520,66.7562484741000048,632.5487060550000240,-630.9202270509999830,-376.4000244139999720,437.4398193360000270,25.1875000000000000,26.5454998015999983,44.2899999999999991,0.0000000000000000
0.0000000000000000,21.0000000000000000,-619.3275146480000320,66.6299972534000062,632.8087158199999740,-630.8402709959999580,-377.1201477050000220,437.3997802729999760,25.8125000000000000,26.5454998015999983,44.2899999999999991,0.0000000000000000
0.0000000000000000,21.0000000000000000,-619.8850097660000520,65.5599975586000027,632.9324951170000300,-630.5599365230000320,-376.8002014159999930,438.3199157710000120,25.5000000000000000,26.5454998015999983,44.2899999999999991,0.0000000000000000
0.0000000000000000,21.0000000000000000,-619.8762207029999440,66.5662460326999934,632.0150146480000320,-630.1196289060000020,-377.6404113770000200,437.8800048830000260,25.5000000000000000,26.5454998015999983,44.2899999999999991,0.0000000000000000
0.0000000000000000,21.0000000000000000,-621.4012451170000300,66.2500000000000000,634.1174926759999830,-630.1598510740000160,-377.0800781250000000,437.7603149409999900,25.5000000000000000,26.5454998015999983,44.2899999999999991,0.0000000000000000
0.0000000000000000,21.0000000000000000,-620.3387451170000300,65.4887466431000007,631.5562133790000410,-630.2003173829999690,-377.0000610349999870,437.7200012210000180,25.1875000000000000,26.5454998015999983,44.2899999999999991,0.0000000000000000
0.0000000000000000,21.0000000000000000,-620.6587524410000460,66.5325012206999986,631.6812133790000410,-630.1601562499999990,-377.1996765139999750,437.5994567870000080,25.5000000000000000,26.5454998015999983,44.2899999999999991,0.0000000000000000
0.0000000000000000,22.0000000000000000,-441.5612487789999810,-392.8175048830000260,627.4024658199999740,-438.5199890139999750,-697.9197998050000240,119.6800384520000050,25.1875000000000000,26.5454998015999983,44.2899999999999991,-45.0000000000000000
0.0000000000000000,22.0000000000000000,-441.6412353520000230,-392.5325012210000180,627.6412353519999660,-438.8803710939999970,-697.5599365230000320,119.4799423219999990,25.5000000000000000,26.5454998015999983,44.2899999999999991,-45.0000000000000000
0.0000000000000000,22.0000000000000000,-440.4649963379999910,-390.7287292479999790,627.2837524410000460,-438.4399108889999750,-698.4798583980000320,119.1997222899999970,25.5000000000000000,26.5454998015999983,44.2899999999999991,-45.0000000000000000
0.0000000000000000,22.0000000000000000,-440.9174804689999970,-392.6499938960000120,627.0524902339999460,-439.0001831050000190,-698.6799926759999830,119.3199768070000030,25.5000000000000000,26.5454998015999983,44.2899999999999991,-45.0000000000000000
0.0000000000000000,22.0000000000000000,-441.4912414550000220,-391.8687438960000120,627.8012084959999580,-438.1597290039999840,-697.9999999999999990,119.7599487300000050,25.5000000000000000,26.5454998015999983,44.2899999999999991,-45.0000000000000000
0.0000000000000000,22.0000000000000000,-441.6374816890000260,-392.1962280270000170,627.5862426759999830,-438.6801452639999750,-699.2003784180000130,119.8403015140000040,25.1875000000000000,26.5454998015999983,44.2899999999999991,-45.0000000000000000
0.0000000000000000,22.0000000000000000,-441.0174865719999950,-391.8624877930000140,627.2974853519999660,-439.1202697749999970,-698.3200073240000160,119.6800384520000050,25.1875000000000000,26.5454998015999983,44.2899999999999991,-45.0000000000000000
0.0000000000000000,22.0000000000000000,-441.3962402340000040,-392.9987487789999810,627.4699707029999440,-438.8802185060000050,-698.5599975589999520,119.8800353999999970,25.5000000000000000,26.5454998015999983,44.2899999999999991,-45.0000000000000000
0.0000000000000000,22.0000000000000000,-442.0174865719999950,-391.8999938960000120,627.3875122069999860,-438.2398376460000120,-698.8802490230000320,119.3200454710000000,25.5000000000000000,26.5454998015999983,44.2899999999999991,-45.0000000000000000
0.0000000000000000,22.0000000000000000,-441.3212280270000170,-390.4812316890000260,626.9787597660000520,-438.8400573729999790,-697.5998535160000520,119.5200347899999970,25.5000000000000000,26.5454998015999983,44.2899999999999991,-45.0000000000000000
0.0000000000000000,23.0000000000000000,9.5675001144399996,-586.8062133790000410,630.5412597660000520,17.9204216002999992,-832.8800659180000130,-13.2801017761000004,25.5000000000000000,26.5767307280999994,44.2899999999999991,-89.9999999999999999
0.0000000000000000,23.0000000000000000,10.2799997330000004,-586.1950073240000160,630.3924560550000240,17.4399795532000006,-833.3993530269999600,-13.4002208710000001,25.5000000000000000,26.5454998015999983,44.2899999999999991,-89.9999999999999999
0.0000000000000000,23.0000000000000000,9.6449995040900003,-586.1799926759999830,630.7087402339999460,18.0402584075999996,-832.5597534180000130,-13.3601188660000005,25.1875000000000000,26.5454998015999983,44.2899999999999991,-89.9999999999999999
0.0000000000000000,23.0000000000000000,9.6024999618500004,-586.3275146480000320,630.5837402339999460,18.0799789428999986,-832.1195068360000270,-13.4799995421999998,25.5000000000000000,26.5454998015999983,44.2899999999999991,-89.9999999999999999
0.0000000000000000,23.0000000000000000,9.4524993896500007,-585.5762329100000440,630.3187255860000270,17.4399585723999983,-832.8796386720000550,-13.8402013778999997,25.5000000000000000,26.5454998015999983,44.2899999999999991,-89.9999999999999999
0.0000000000000000,23.0000000000000000,9.8400001525899992,-586.3875122069999860,630.2699584959999580,17.7600994109999988,-833.9202270509999830,-12.6798009872000001,25.5000000000000000,26.5454998015999983,44.2899999999999991,-89.9999999999999999
0.0000000000000000,23.0000000000000000,10.9425001143999996,-585.8200073240000160,630.2699584959999580,17.4399204254000004,-833.2003173829999690,-13.0398797988999995,25.1875000000000000,26.5454998015999983,44.2899999999999991,-89.9999999999999999
0.0000000000000000,23.0000000000000000,9.6174993514999993,-586.9937133790000410,629.6762084959999580,17.5199584960999992,-833.7604370120000100,-13.0801391601999999,25.5000000000000000,26.5454998015999983,44.2899999999999991,-89.9999999999999999
0.0000000000000000,23.0000000000000000,9.5549993514999993,-587.5974731449999800,630.9612426759999830,17.9203205109000017,-832.1201171879999940,-13.1199789046999999,25.5000000000000000,26.5454998015999983,44.2899999999999991,-89.9999999999999999
0.0000000000000000,23.0000000000000000,9.6112499237100000,-587.5474853519999660,629.7724609379999940,17.8399181366000015,-833.1204223629999880,-12.1993999480999999,25.5000000000000000,26.5454998015999983,44.2899999999999991,-89.9999999999999999
0.0000000000000000,24.0000000000000000,475.4749755860000270,-403.4887390139999750,625.0374755860000270,483.1999206539999810,-695.3604736329999690,124.2801513670000020,25.8125000000000000,26.5454998015999983,44.2899999999999991,-135.0000000000000000
0.0000000000000000,24.0000000000000000,475.9674987789999810,-405.4412536620000080,624.0624999999999990,483.0801391599999870,-694.8800048829999690,124.4000549320000030,25.5000000000000000,26.5454998015999983,44.2899999999999991,-135.0000000000000000
0.0000000000000000,24.0000000000000000,475.2987365719999950,-405.3287353520000230,624.5087280269999600,482.3195495609999730,-695.3200073240000160,123.8399200439999960,25.5000000000000000,26.5454998015999983,44.2899999999999991,-135.0000000000000000
0.0000000000000000,24.0000000000000000,476.2674865719999950,-404.5025024409999900,625.3037109379999940,483.5601501460000120,-695.3201904300000240,124.2002639770000060,24.8750000000000000,26.5454998015999983,44.2899999999999991,-135.0000000000000000
0.0000000000000000,24.0000000000000000,475.7299804689999970,-405.6537475590000100,625.4187622069999860,482.6799926759999830,-695.0399169920000300,123.8401336670000030,25.5000000000000000,26.5454998015999983,44.2899999999999991,-135.0000000000000000
0.0000000000000000,24.0000000000000000,475.4062500000000000,-405.3762512210000180,624.6749877930000130,482.3999023439999970,-695.9999999999999990,124.1997222899999970,25.1875000000000000,26.5454998015999983,44.2899999999999991,-135.0000000000000000
0.0000000000000000,24.0000000000000000,475.6337280270000170,-405.7062377930000130,624.4662475589999520,483.4801025389999720,-694.1996459959999580,124.1600189210000020,25.8125000000000000,26.5767307280999994,44.2899999999999991,-135.0000000000000000
0.0000000000000000,24.0000000000000000,476.1162414550000220,-404.8837280270000170,624.2224731449999800,483.4801025389999720,-695.2402343749999990,125.0803070070000020,25.5000000000000000,26.5767307280999994,44.2899999999999991,-135.0000000000000000
0.0000000000000000,24.0000000000000000,475.4862365719999950,-404.2887268069999890,625.2000122069999860,482.9600524900000090,-695.0401611329999690,123.9599609379999950,25.5000000000000000,26.5767307280999994,44.2899999999999991,-135.0000000000000000
0.0000000000000000,24.0000000000000000,476.7637329099999870,-405.2049865719999950,625.0050048829999690,483.2799987789999810,-695.1203002930000130,124.0800628660000060,25.5000000000000000,26.5454998015999983,44.2899999999999991,-135.0000000000000000
0.0000000000000000,25.0000000000000000,396.4287414550000220,54.0299987793000014,816.2012329100000440,387.8401489259999830,-508.1197509770000230,583.8800659180000130,25.5000000000000000,26.5767307280999994,66.1000000000000085,180.0000000000000000
0.0000000000000000,25.0000000000000000,395.0724792479999790,54.9262504578000019,817.0662231449999800,387.5201110840000070,-508.2800292969999980,583.6801147459999580,25.5000000000000000,26.5767307280999994,66.1000000000000085,180.0000000000000000
0.0000000000000000,25.0000000000000000,395.7024841310000050,53.3487472533999991,815.5399780269999600,386.4801025389999720,-508.2797851560000020,583.5599365230000320,25.8125000000000000,26.5767307280999994,66.1000000000000085,180.0000000000000000
0.0000000000000000,25.0000000000000000,396.0537414550000220,53.4074974059999974,816.0762329100000440,387.3600158689999940,-508.4402160640000260,583.5601196290000410,25.5000000000000000,26.5767307280999994,66.1000000000000085,180.0000000000000000
0.0000000000000000,25.0000000000000000,395.8849792479999790,54.6800003051999965,815.9924926759999830,386.9199218750000000,-508.3999023439999970,583.9599609379999940,25.5000000000000000,26.5454998015999983,66.1000000000000085,180.0000000000000000
0.0000000000000000,25.0000000000000000,395.0087280270000170,54.0874977112000010,815.3775024410000460,388.0802612300000190,-509.0802917479999790,583.9203491209999580,25.5000000000000000,26.5454998015999983,66.1000000000000085,180.0000000000000000
0.0000000000000000,25.0000000000000000,396.2212524409999900,55.3787498474000017,816.2550048829999690,387.4401855469999980,-508.0000000000000000,583.9597167970000550,25.5000000000000000,26.5454998015999983,66.1000000000000085,180.0000000000000000
0.0000000000000000,25.0000000000000000,394.9137268069999890,53.9124984740999977,817.0387573240000160,387.2397460939999970,-508.3600769039999810,583.6400756839999520,25.5000000000000000,26.5454998015999983,66.1000000000000085,180.0000000000000000
0.0000000000000000,25.0000000000000000,395.6437377930000140,54.9637489318999996,816.0112304689999970,387.3195495609999740,-508.5199890139999750,583.8001708980000320,25.5000000000000000,26.5454998015999983,66.1000000000000085,180.0000000000000000
0.0000000000000000,25.0000000000000000,396.0950012210000180,53.8874969482000025,816.0924682620000100,386.8001403810000050,-507.6802978520000230,583.8798828120000050,25.1875000000000000,26.5454998015999983,66.1000000000000085,180.0000000000000000
0.0000000000000000,26.0000000000000000,288.5350036620000080,315.7062377930000140,818.3912353519999660,278.3200988770000210,-326.3994750979999820,763.3594970699999740,25.5000000000000000,26.5454998015999983,66.1000000000000085,135.0000000000000000
0.0000000000000000,26.0000000000000000,290.6600036620000080,316.0924987789999820,817.6562499999999990,278.1200866699999780,-326.8801574710000180,763.2401123050000240,25.1875000000000000,26.5767307280999994,66.1000000000000085,135.0000000000000000
0.0000000000000000,26.0000000000000000,289.3150024409999900,316.3099975590000100,817.9199829100000440,277.8398132319999830,-327.6001586909999900,763.1197509769999660,25.5000000000000000,26.5767307280999994,66.1000000000000085,135.0000000000000000
0.0000000000000000,26.0000000000000000,290.3699951169999730,316.5749816890000260,817.9162597660000520,277.9196777340000040,-327.3203430180000170,763.5197753910000520,25.1875000000000000,26.5767307280999994,66.1000000000000085,135.0000000000000000
0.0000000000000000,26.0000000000000000,290.4062500000000000,316.3037414550000220,817.9962158199999740,278.1999511719999980,-326.2395935060000050,762.9197998050000240,25.5000000000000000,26.5767307280999994,66.1000000000000085,135.0000000000000000
0.0000000000000000,26.0000000000000000,290.2825012210000180,316.0149841310000050,817.7474975589999520,278.3198852539999850,-327.5201416020000230,763.1198120120000100,25.5000000000000000,26.5454998015999983,66.1000000000000085,135.0000000000000000
0.0000000000000000,26.0000000000000000,289.8912353520000240,316.3949890139999750,818.4862060550000240,278.3200378419999760,-326.5995178219999950,763.5598144529999440,25.5000000000000000,26.5454998015999983,66.1000000000000085,135.0000000000000000
0.0000000000000000,26.0000000000000000,290.4624938960000120,316.2637329099999870,817.9712524410000460,277.1998291020000240,-326.8398132319999830,763.6801147459999580,25.5000000000000000,26.5454998015999983,66.1000000000000085,135.0000000000000000
0.0000000000000000,26.0000000000000000,290.5675048830000260,316.6099853520000240,817.8212280269999600,277.3598022460000150,-326.5597228999999970,763.1599121089999460,25.8125000000000000,26.5454998015999983,66.1000000000000085,135.0000000000000000
0.0000000000000000,26.0000000000000000,290.0912475590000100,316.6625061039999870,817.6325073240000160,278.1999206539999820,-326.3600769039999820,763.5998535160000520,25.5000000000000000,26.5454998015999983,66.1000000000000085,135.0000000000000000
0.0000000000000000,27.0000000000000000,30.2612495422000016,427.5824890139999750,819.5062255860000270,16.3198795318999998,-250.1195220950000080,839.7600097660000520,25.1875000000000000,26.5454998015999983,66.1000000000000085,89.9999999999999999
0.0000000000000000,27.0000000000000000,30.0275001525999983,427.9574890139999750,818.8574829100000440,16.1196975707999996,-250.8401947019999910,839.0804443360000270,25.5000000000000000,26.5454998015999983,66.1000000000000085,89.9999999999999999
0.0000000000000000,27.0000000000000000,29.6674995422000016,428.5962524409999900,818.3074951170000300,16.8002796172999993,-251.1602935790000110,839.0797729490000160,25.5000000000000000,26.5454998015999983,66.1000000000000085,89.9999999999999999
0.0000000000000000,27.0000000000000000,29.5725002289000009,427.4212341310000050,818.3225097660000520,16.1599388122999983,-250.8798522950000060,839.0394897459999580,25.5000000000000000,26.5454998015999983,66.1000000000000085,89.9999999999999999
0.0000000000000000,27.0000000000000000,30.1512489318999996,427.4437255860000270,819.9324951170000300,17.2399368286000012,-249.8400115970000000,839.3201293949999800,25.5000000000000000,26.5454998015999983,66.1000000000000085,89.9999999999999999
0.0000000000000000,27.0000000000000000,31.0237483977999986,426.6962280270000170,819.1024780269999600,16.7599391936999993,-251.5199890140000030,838.7996826170000300,25.1875000000000000,26.5454998015999983,66.1000000000000085,89.9999999999999999
0.0000000000000000,27.0000000000000000,30.4562492370999997,427.2774963379999910,819.4425048829999690,17.2802200317000007,-251.4002532959999880,839.5998535160000520,25.5000000000000000,26.5454998015999983,66.1000000000000085,89.9999999999999999
0.0000000000000000,27.0000000000000000,29.4812488556000005,427.1762390139999750,819.4912109379999940,17.3201599120999994,-251.8009185790000110,838.5198364259999830,25.5000000000000000,26.5454998015999983,66.1000000000000085,89.9999999999999999
0.0000000000000000,27.0000000000000000,30.0362491608000006,427.1287536620000080,819.6937255860000270,16.8400592803999984,-250.8000488280000010,838.7197265620000040,25.8125000000000000,26.5454998015999983,66.1000000000000085,89.9999999999999999
0.0000000000000000,27.0000000000000000,29.8899993895999998,427.1137390139999750,819.1874999999999990,16.7597999573000003,-250.7604064939999940,839.3600463870000100,25.8125000000000000,26.5454998015999983,66.1000000000000085,89.9999999999999999
0.0000000000000000,28.0000000000000000,-236.6212463379999920,320.2974853520000230,821.2949829100000440,-246.8399200439999960,-329.8799133300000220,760.0399780269999600,25.5000000000000000,26.5454998015999983,66.1099999999999994,45.0000000000000000
0.0000000000000000,28.0000000000000000,-236.3274993900000140,321.3249816890000260,820.3175048829999690,-246.3998260500000010,-330.1202392580000260,760.5198364259999830,25.5000000000000000,26.5454998015999983,66.1099999999999994,45.0000000000000000
0.0000000000000000,28.0000000000000000,-237.0187377930000140,321.8649902340000040,819.8800048829999690,-246.7999420170000060,-330.7999877930000140,760.7998046879999940,25.8125000000000000,26.5454998015999983,66.1099999999999994,45.0000000000000000
0.0000000000000000,28.0000000000000000,-236.6699981689999960,321.6187438960000120,820.1012573240000160,-246.0399932859999980,-329.5597839359999740,760.5599975589999520,25.5000000000000000,26.5454998015999983,66.1099999999999994,45.0000000000000000
0.0000000000000000,28.0000000000000000,-238.0674896239999890,322.3062438960000120,820.5249633790000410,-246.1200103760000100,-329.3998413090000100,760.9601440430000130,25.1875000000000000,26.5454998015999983,66.1099999999999994,45.0000000000000000
0.0000000000000000,28.0000000000000000,-237.2087402340000040,321.0025024409999900,820.6037597660000520,-246.1997375489999910,-329.5196838379999910,760.5999145509999830,25.5000000000000000,26.5454998015999983,66.1099999999999994,45.0000000000000000
0.0000000000000000,28.0000000000000000,-237.2574920650000080,322.7149963379999910,820.0224609379999940,-246.6004638670000020,-329.9600219729999820,760.9600830079999690,25.5000000000000000,26.5454998015999983,66.1099999999999994,45.0000000000000000
0.0000000000000000,28.0000000000000000,-236.6399993900000140,321.0499877930000140,820.3037109379999940,-246.7602233890000030,-329.4796447749999970,760.8801879879999880,25.1875000000000000,26.5454998015999983,66.1099999999999994,45.0000000000000000
0.0000000000000000,28.0000000000000000,-237.3037414549999930,320.9199829099999870,820.2349853519999660,-246.3998565670000000,-329.0401611330000260,760.8798217769999600,25.5000000000000000,26.5454998015999983,66.1099999999999994,45.0000000000000000
0.0000000000000000,28.0000000000000000,-237.2249908450000080,321.9362487789999820,820.4087524410000460,-246.8403015140000030,-329.4800720210000120,760.4398803709999580,25.8125000000000000,26.5454998015999983,66.1099999999999994,45.0000000000000000
0.0000000000000000,29.0000000000000000,-349.1062316890000260,60.9837493895999998,820.1212158199999740,-350.6399841310000050,-514.6401977540000410,576.7598876949999740,25.5000000000000000,26.5767307280999994,66.1099999999999994,0.0000000000000000
0.0000000000000000,29.0000000000000000,-349.5287475590000100,60.5900001525999982,820.5012207029999440,-350.5996398930000160,-514.1998901370000110,577.9603881839999520,25.8125000000000000,26.5454998015999983,66.1099999999999994,0.0000000000000000
0.0000000000000000,29.0000000000000000,-348.5099792479999790,60.9774971008000008,820.0574951170000300,-351.4001464840000040,-513.7997436519999600,576.9197387699999800,25.8125000000000000,26.5454998015999983,66.1099999999999994,0.0000000000000000
0.0000000000000000,29.0000000000000000,-348.9212341310000050,61.5099983214999994,820.7912597660000520,-351.3995361330000260,-513.8395385740000160,576.9997558589999470,25.5000000000000000,26.5454998015999983,66.1099999999999994,0.0000000000000000
0.0000000000000000,29.0000000000000000,-349.0199890139999750,61.3562469482000025,821.4162597660000520,-352.0000305180000160,-513.6797485350000440,577.5600585939999970,25.5000000000000000,26.5454998015999983,66.1099999999999994,0.0000000000000000
0.0000000000000000,29.0000000000000000,-348.7449951169999730,60.0812492371000033,820.4462280269999600,-350.9598388669999730,-513.5200805660000460,577.2402343749999990,25.5000000000000000,26.5454998015999983,66.1099999999999994,0.0000000000000000
0.0000000000000000,29.0000000000000000,-348.9162292479999790,60.0974998474000017,819.2174682620000100,-351.1202392580000260,-514.6000366209999580,578.1201171879999940,25.1875000000000000,26.5454998015999983,66.1099999999999994,0.0000000000000000
0.0000000000000000,29.0000000000000000,-349.2937316890000260,60.5749969482000025,820.5512084959999580,-351.6402282710000120,-513.1195068360000270,576.6799926759999830,25.5000000000000000,26.5454998015999983,66.1099999999999994,0.0000000000000000
0.0000000000000000,29.0000000000000000,-349.4149780270000180,60.4237480163999976,819.7687377930000130,-351.2795715330000230,-514.0400390620000050,578.0803222660000520,25.1875000000000000,26.5454998015999983,66.1099999999999994,0.0000000000000000
0.0000000000000000,29.0000000000000000,-349.0924987789999810,60.7387504578000019,820.2162475589999520,-350.9598999020000180,-514.5599365230000330,576.8398437499999990,25.5000000000000000,26.5454998015999983,66.1099999999999994,0.0000000000000000
0.0000000000000000,30.0000000000000000,-244.6787414549999930,-201.8237457280000060,820.8412475589999520,-242.2001647950000060,-697.4398193360000270,396.5601196289999840,25.5000000000000000,26.5454998015999983,66.1099999999999994,-45.0000000000000000
0.0000000000000000,30.0000000000000000,-244.0199890140000030,-202.2549896239999890,819.6137084959999580,-242.4001464840000040,-697.2799072269999660,395.9997558590000040,25.1875000000000000,26.5454998015999983,66.1099999999999994,-45.0000000000000000
0.0000000000000000,30.0000000000000000,-244.7624969480000060,-202.9137420650000080,819.3200073240000160,-242.3999023439999970,-698.3996582029999440,396.3203125000000000,25.8125000000000000,26.5454998015999983,66.1099999999999994,-45.0000000000000000
0.0000000000000000,30.0000000000000000,-244.5024871829999990,-201.9049987790000100,819.6149902339999460,-242.2798614499999980,-697.1598510740000160,396.2399902340000040,25.5000000000000000,26.5454998015999983,66.1099999999999994,-45.0000000000000000
0.0000000000000000,30.0000000000000000,-243.7187500000000000,-202.4137420650000080,819.1599731449999800,-241.4797973629999890,-697.5198974610000270,395.6798400879999910,25.5000000000000000,26.5454998015999983,66.1099999999999994,-45.0000000000000000
0.0000000000000000,30.0000000000000000,-244.0512390140000030,-202.0962524409999900,819.9274902339999460,-242.3999328609999960,-697.8401489259999830,396.4397888180000110,25.1875000000000000,26.5454998015999983,66.1099999999999994,-45.0000000000000000
0.0000000000000000,30.0000000000000000,-243.8724975590000100,-201.5987396239999890,820.2187499999999990,-243.1601562500000000,-697.4001464839999460,396.2001342770000170,25.1875000000000000,26.5454998015999983,66.1099999999999994,-45.0000000000000000
0.0000000000000000,30.0000000000000000,-245.0999908450000080,-203.5599975590000100,820.3474731449999800,-242.4797668459999900,-697.7600097660000520,396.2800292969999980,25.5000000000000000,26.5454998015999983,66.1099999999999994,-45.0000000000000000
0.0000000000000000,30.0000000000000000,-243.6912384030000000,-202.8262481689999960,820.8112182620000100,-241.4798431400000140,-697.5199584959999580,395.8002929689999970,25.5000000000000000,26.5454998015999983,66.1099999999999994,-45.0000000000000000
0.0000000000000000,30.0000000000000000,-245.3399963379999920,-201.3399963379999920,820.0374755860000270,-242.1199493409999940,-698.0803222660000520,396.9601440430000140,25.5000000000000000,26.5454998015999983,66.1099999999999994,-45.0000000000000000
0.0000000000000000,31.0000000000000000,16.1724987029999987,-315.1962280270000180,816.9475097660000520,18.9996795654000010,-773.0798339839999460,322.2402648930000170,25.1875000000000000,26.5454998015999983,66.1099999999999994,-89.9999999999999999
0.0000000000000000,31.0000000000000000,17.1537494658999989,-314.5350036620000080,818.3662109379999940,19.0399188995000017,-773.7198486329999690,321.9198608400000120,25.5000000000000000,26.5454998015999983,66.1099999999999994,-89.9999999999999999
0.0000000000000000,31.0000000000000000,16.9812488556000005,-315.1787414550000220,818.2962036129999880,19.8001403809000003,-774.3599243160000460,322.4402465819999860,25.5000000000000000,26.5454998015999983,66.1099999999999994,-89.9999999999999999
0.0000000000000000,31.0000000000000000,17.0000000000000000,-314.7162475590000100,817.3712158199999740,19.1601028442000007,-772.9596557620000100,321.5200195310000020,25.5000000000000000,26.5454998015999983,66.1099999999999994,-89.9999999999999999
0.0000000000000000,31.0000000000000000,16.9349994658999989,-314.6349792479999790,818.0037231449999800,19.2400588988999992,-773.5197753910000520,322.2001037599999900,25.5000000000000000,26.5767307280999994,66.1099999999999994,-89.9999999999999999
0.0000000000000000,31.0000000000000000,17.6187496185000008,-315.3112487789999820,817.3812255860000270,18.9202194213999988,-772.3193359379999940,322.2800598140000260,25.5000000000000000,26.5767307280999994,66.1099999999999994,-89.9999999999999999
0.0000000000000000,31.0000000000000000,17.6350002289000010,-314.5362548830000260,817.7525024410000460,19.5200195311999991,-773.2402343749999990,322.7201232909999930,25.5000000000000000,26.5767307280999994,66.1099999999999994,-89.9999999999999999
0.0000000000000000,31.0000000000000000,16.9449996947999999,-314.5587463379999910,817.9174804689999970,19.2398204803000006,-773.6798095699999740,322.3200988770000200,25.5000000000000000,26.5767307280999994,66.1099999999999994,-89.9999999999999999
0.0000000000000000,31.0000000000000000,17.8424987793000014,-314.4587402340000040,818.7474975589999520,19.2798366546999986,-773.4397583009999830,322.8799438479999820,25.1875000000000000,26.5767307280999994,66.1099999999999994,-89.9999999999999999
0.0000000000000000,31.0000000000000000,16.3549995422000016,-314.8087463379999910,817.3312377930000130,19.5601806640999989,-774.8803710939999970,322.3600769039999820,25.5000000000000000,26.5767307280999994,66.1099999999999994,-89.9999999999999999
0.0000000000000000,32.0000000000000000,284.5412292479999790,-208.1112518310000040,816.2224731449999800,284.4000854490000160,-694.5600585939999970,400.1998596189999940,25.5000000000000000,26.5454998015999983,66.1099999999999994,-135.0000000000000000
0.0000000000000000,32.0000000000000000,285.0224914550000220,-207.0912475590000100,817.0187377930000130,284.8401184080000230,-693.1196899410000460,400.6800231930000100,25.5000000000000000,26.5454998015999983,66.1099999999999994,-135.0000000000000000
0.0000000000000000,32.0000000000000000,284.7137451169999730,-208.5699920650000080,817.7499999999999990,283.9999389650000120,-693.1596679689999970,400.6399230960000180,25.5000000000000000,26.5454998015999983,66.1099999999999994,-135.0000000000000000
0.0000000000000000,32.0000000000000000,284.0362548830000260,-208.2412414549999940,816.6012573240000160,284.4801940919999760,-693.7999877930000130,400.2000732419999730,25.1875000000000000,26.5454998015999983,66.1099999999999994,-135.0000000000000000
0.0000000000000000,32.0000000000000000,284.3512573240000160,-207.2424926760000120,816.3599853519999660,284.0401916499999970,-694.0801391600000440,400.4000549319999890,25.5000000000000000,26.5454998015999983,66.1099999999999994,-135.0000000000000000
0.0000000000000000,32.0000000000000000,284.2575073240000160,-206.5849914549999940,815.7799682620000100,284.4001770020000210,-693.7197265620000050,400.7999877930000140,25.5000000000000000,26.5767307280999994,66.1099999999999994,-135.0000000000000000
0.0000000000000000,32.0000000000000000,283.9462585449999780,-206.9812469480000060,816.5462036129999880,283.7197875979999820,-693.6403198240000160,400.6002197270000230,25.5000000000000000,26.5767307280999994,66.1099999999999994,-135.0000000000000000
0.0000000000000000,32.0000000000000000,285.0975036620000080,-208.0124969480000060,816.4187622069999850,284.7602539060000020,-694.3201904300000240,401.0001525879999910,25.5000000000000000,26.5767307280999994,66.1099999999999994,-135.0000000000000000
0.0000000000000000,32.0000000000000000,284.3812561039999880,-206.2699890140000030,816.0075073240000160,284.2399597169999760,-693.9998779300000240,400.0396728520000230,25.5000000000000000,26.5767307280999994,66.1099999999999994,-135.0000000000000000
0.0000000000000000,32.0000000000000000,283.2174987789999820,-207.1762390140000030,816.6787109379999940,283.5996704099999870,-693.4400024410000460,399.6796875000000000,25.5000000000000000,26.5767307280999994,66.1099999999999994,-135.0000000000000000
0.0000000000000000,33.0000000000000000,49.1199989318999996,58.7624969482000025,897.5287475589999520,44.0802497864000031,-563.5996704100000440,638.9597778319999860,25.8125000000000000,26.5767307280999994,88.6899999999999977,180.0000000000000000
0.0000000000000000,33.0000000000000000,49.6062507628999967,57.6787490844999979,897.6737060550000240,43.9598770142000035,-565.5999145509999830,638.8001098629999880,25.8125000000000000,26.5767307280999994,88.6899999999999977,180.0000000000000000
0.0000000000000000,33.0000000000000000,48.5562477112000010,57.4712486267000031,897.3749999999999990,44.6401786803999982,-564.8000488279999440,639.2400512699999800,25.5000000000000000,26.5767307280999994,88.6899999999999977,180.0000000000000000
0.0000000000000000,33.0000000000000000,49.0275001525999982,57.7812500000000000,896.8837280269999600,44.5201148987000010,-563.4793090819999860,639.1599731449999800,25.5000000000000000,26.5767307280999994,88.6899999999999977,180.0000000000000000
0.0000000000000000,33.0000000000000000,49.7287483214999994,57.4575004578000019,896.9024658199999740,44.4801406859999986,-564.2801513670000300,638.9597778319999860,25.1875000000000000,26.5767307280999994,88.6899999999999977,180.0000000000000000
0.0000000000000000,33.0000000000000000,49.9575004578000019,58.3199996948000034,896.9649658199999740,44.7601814269999991,-563.4798583980000320,638.8800659180000130,25.5000000000000000,26.5767307280999994,88.6899999999999977,180.0000000000000000
0.0000000000000000,33.0000000000000000,48.8774986267000031,58.5512504578000019,896.6537475589999520,44.1999397278000003,-563.5198974610000270,639.4000854490000160,24.8750000000000000,26.5767307280999994,88.6899999999999977,180.0000000000000000
0.0000000000000000,33.0000000000000000,49.0125007628999967,58.1937484740999977,897.7099609379999940,44.2002563476999981,-564.4002075199999800,639.5204467769999600,25.5000000000000000,26.5767307280999994,88.6899999999999977,180.0000000000000000
0.0000000000000000,33.0000000000000000,48.7000007628999967,58.9312477112000010,897.4299926759999830,44.4799194336000027,-563.5598144529999440,638.9998779300000240,25.1875000000000000,26.5767307280999994,88.6899999999999977,180.0000000000000000
0.0000000000000000,33.0000000000000000,48.5162506104000002,57.7037506104000002,898.5574951170000300,44.6800384520999998,-563.8399047850000440,639.3200683589999460,25.5000000000000000,26.5767307280999994,88.6899999999999977,180.0000000000000000
0.0000000000000000,34.0000000000000000,40.4674987793000014,73.6762466431000007,898.1787109379999940,35.1601600647000012,-552.3203124999999990,651.4000854490000160,25.5000000000000000,26.5767307280999994,88.6899999999999977,135.0000000000000000
0.0000000000000000,34.0000000000000000,40.9874992371000033,75.7462463379000041,897.9874877930000130,35.3200607300000015,-552.9202270509999830,651.9999999999999990,25.5000000000000000,26.5767307280999994,88.6899999999999977,135.0000000000000000
0.0000000000000000,34.0000000000000000,41.1787490844999979,73.7374954224000020,897.6162109379999940,35.9203567504999981,-552.2802734379999940,651.6397705079999690,25.5000000000000000,26.5767307280999994,88.6899999999999977,135.0000000000000000
0.0000000000000000,34.0000000000000000,41.4337501525999982,75.4424972534000062,898.0675048829999690,35.2801170349000017,-551.7998046879999940,651.7600097660000520,25.5000000000000000,26.5767307280999994,88.6899999999999977,135.0000000000000000
0.0000000000000000,34.0000000000000000,40.9650001525999982,75.3300018311000059,898.2899780269999600,36.0001564025999982,-552.3599853519999660,651.7598876949999740,25.5000000000000000,26.5767307280999994,88.6899999999999977,135.0000000000000000
0.0000000000000000,34.0000000000000000,41.0312500000000000,73.6025009155000020,897.4412231449999800,35.6400032043000010,-551.8801269529999440,651.7600097660000520,25.5000000000000000,26.5767307280999994,88.6899999999999977,135.0000000000000000
0.0000000000000000,34.0000000000000000,40.0825004578000019,74.7624969481999954,896.8150024410000460,35.3999977112000010,-551.8400878910000520,651.4798583980000320,25.5000000000000000,26.5454998015999983,88.6899999999999977,135.0000000000000000
0.0000000000000000,34.0000000000000000,41.5974998474000017,73.5112457274999968,898.1162109379999940,35.3995971679999996,-552.3198852540000410,651.0396118160000460,25.5000000000000000,26.5454998015999983,88.6899999999999977,135.0000000000000000
0.0000000000000000,34.0000000000000000,40.3474998474000017,74.4687500000000000,898.1337280269999600,35.5598983765000014,-552.0798950199999800,651.6798706050000190,25.1875000000000000,26.5454998015999983,88.6899999999999977,135.0000000000000000
0.0000000000000000,34.0000000000000000,41.6924972533999991,76.5012512206999986,897.3949584959999580,35.8402595519999991,-551.8801269529999440,652.2403564449999740,25.5000000000000000,26.5454998015999983,88.6899999999999977,135.0000000000000000
0.0000000000000000,35.0000000000000000,21.9237499237000008,81.7487487793000013,897.4487304689999960,16.6800193786999991,-548.2000732420000300,656.7198486329999690,25.5000000000000000,26.5767307280999994,88.6899999999999977,89.9999999999999999
0.0000000000000000,35.0000000000000000,21.7524986266999995,82.3124999999999999,897.5912475589999520,17.3600978851000001,-547.9999389649999550,656.3999633790000410,25.8125000000000000,26.5767307280999994,88.6899999999999977,89.9999999999999999
0.0000000000000000,35.0000000000000000,22.6574993133999989,81.7425003051999965,897.6737060550000240,17.0001430511000002,-548.5996093749999990,656.5598144529999440,25.5000000000000000,26.5767307280999994,88.6899999999999977,89.9999999999999999
0.0000000000000000,35.0000000000000000,21.7137489318999996,82.1262512206999986,896.8449707029999440,17.0400161742999998,-547.2399291990000160,656.6797485350000440,25.1875000000000000,26.5767307280999994,88.6899999999999977,89.9999999999999999
0.0000000000000000,35.0000000000000000,21.4137496947999999,81.6762466431000007,898.8762207029999440,17.4801006317000009,-548.1599121089999470,656.9595947269999660,25.5000000000000000,26.5767307280999994,88.6899999999999977,89.9999999999999999
0.0000000000000000,35.0000000000000000,22.9025001525999983,82.6725006103999930,897.0100097660000520,17.0799388884999992,-547.8798828120000050,657.4401245120000110,25.5000000000000000,26.5767307280999994,88.6899999999999977,89.9999999999999999
0.0000000000000000,35.0000000000000000,22.0275001525999983,80.7037506103999930,897.0624999999999990,17.1600818633999985,-548.4801635740000160,656.4001464839999460,25.5000000000000000,26.5767307280999994,88.6899999999999977,89.9999999999999999
0.0000000000000000,35.0000000000000000,21.8737487793000014,81.7212448119999947,897.1849975589999520,17.4002609252999996,-547.7199096680000130,656.8801269529999440,25.1875000000000000,26.5767307280999994,88.6899999999999977,89.9999999999999999
0.0000000000000000,35.0000000000000000,22.9099998474000017,82.2812499999999999,896.9849853519999660,16.5599594116000013,-548.0800781249999990,656.6400146480000320,25.1875000000000000,26.5767307280999994,88.6899999999999977,89.9999999999999999
0.0000000000000000,35.0000000000000000,21.3974990845000015,82.8925018311000059,896.7087402339999460,17.0001602172999995,-549.0803222660000520,656.3200683589999460,25.5000000000000000,26.5767307280999994,88.6899999999999977,89.9999999999999999
0.0000000000000000,36.0000000000000000,4.1087498664900002,73.2549972534000062,896.6300048829999690,-0.0002000617969320,-554.8803100589999530,650.3203124999999990,25.5000000000000000,26.5454998015999983,88.6899999999999977,45.0000000000000000
0.0000000000000000,36.0000000000000000,3.7099997997299998,73.5599975586000027,896.2999877930000130,-0.6401199698450000,-553.8399658199999740,650.4002075199999800,25.5000000000000000,26.5454998015999983,88.6899999999999977,45.0000000000000000
0.0000000000000000,36.0000000000000000,3.6699998378799998,73.0824966431000007,896.4174804689999960,-0.4801999032500000,-553.7200927730000320,650.4000244139999720,25.8125000000000000,26.5454998015999983,88.6899999999999977,45.0000000000000000
0.0000000000000000,36.0000000000000000,4.8912496566800003,72.1912460326999934,896.2637329100000430,-0.8800999522210000,-555.0001831050000190,651.0004272459999580,25.8125000000000000,26.5454998015999983,88.6899999999999977,45.0000000000000000
0.0000000000000000,36.0000000000000000,5.5662498474099999,72.1674957274999968,895.8112182620000100,0.0804401636124000,-553.8400878910000520,650.3598022459999580,25.1875000000000000,26.5454998015999983,88.6899999999999977,45.0000000000000000
0.0000000000000000,36.0000000000000000,4.5099997520399997,73.3162460326999934,896.2674560550000240,0.4001799821850000,-554.1196289060000020,649.9196777339999460,25.5000000000000000,26.5767307280999994,88.6899999999999977,45.0000000000000000
0.0000000000000000,36.0000000000000000,4.5312500000000000,73.1887512206999986,896.3649902339999460,-0.1997399032120000,-553.8801269529999440,650.7199096680000130,25.8125000000000000,26.5767307280999994,88.6899999999999977,45.0000000000000000
0.0000000000000000,36.0000000000000000,3.6675000190699998,72.8375015258999951,896.2324829100000430,-0.6001400947570000,-553.7197875980000380,650.3599853519999660,25.5000000000000000,26.5767307280999994,88.6899999999999977,45.0000000000000000
0.0000000000000000,36.0000000000000000,4.7812500000000000,73.8149948119999947,896.2499999999999990,-0.5201399922370000,-554.1599731449999800,649.8798828120000050,25.5000000000000000,26.5767307280999994,88.6899999999999977,45.0000000000000000
0.0000000000000000,36.0000000000000000,4.7199997901900002,73.6337509155000020,896.2987060550000240,-0.2799000442030000,-553.7202148439999970,649.3998413089999520,25.5000000000000000,26.5767307280999994,88.6899999999999977,45.0000000000000000
0.0000000000000000,37.0000000000000000,-1.6949999332400001,54.3600006104000002,897.0437011720000550,-6.8404393196099997,-566.0398559569999860,637.5598144529999440,25.5000000000000000,26.5454998015999983,88.6899999999999977,0.0000000000000000
0.0000000000000000,37.0000000000000000,-1.6699999570799999,55.7437477112000010,896.9987182620000100,-6.3999791145299998,-567.0001220699999740,637.4798583980000320,25.1875000000000000,26.5454998015999983,88.6899999999999977,0.0000000000000000
0.0000000000000000,37.0000000000000000,-1.5537499189399999,55.6875000000000000,897.4662475589999520,-5.9598197937000004,-566.8801879879999880,637.0399169920000300,25.5000000000000000,26.5454998015999983,88.6899999999999977,0.0000000000000000
0.0000000000000000,37.0000000000000000,-1.2899999618500000,56.1712493895999998,897.0399780269999600,-7.1201395988499998,-567.3198242189999970,637.3598022459999580,25.1875000000000000,26.5454998015999983,88.6899999999999977,0.0000000000000000
0.0000000000000000,37.0000000000000000,-3.1250000000000000,55.7474975586000027,897.2287597660000520,-6.6397595405600001,-567.2000732420000300,637.8799438480000380,25.8125000000000000,26.5454998015999983,88.6899999999999977,0.0000000000000000
0.0000000000000000,37.0000000000000000,-1.4774999618500000,55.2087478637999993,897.4512329100000430,-6.6000804901099999,-567.6401367189999970,636.8396606449999800,25.5000000000000000,26.5454998015999983,88.6899999999999977,0.0000000000000000
0.0000000000000000,37.0000000000000000,-1.9787499904600001,56.1987495421999980,897.8649902339999460,-6.5199594497700000,-566.9197387699999800,637.2000732420000300,25.1875000000000000,26.5454998015999983,88.6899999999999977,0.0000000000000000
0.0000000000000000,37.0000000000000000,-2.3462500572199998,55.9449996948000034,897.3837280269999600,-7.1201806068400000,-567.0795288089999530,637.4400024410000460,25.5000000000000000,26.5454998015999983,88.6899999999999977,0.0000000000000000
0.0000000000000000,37.0000000000000000,-1.5649999380099999,55.5437469482000025,898.2887573240000160,-6.4798202514599996,-567.1599121089999470,637.5202026370000110,25.8125000000000000,26.5767307280999994,88.6899999999999977,0.0000000000000000
0.0000000000000000,37.0000000000000000,-1.9712499380099999,55.2487487793000014,898.9599609379999940,-6.9603204727200003,-566.1998901370000110,637.6000366209999580,25.5000000000000000,26.5767307280999994,88.6899999999999977,0.0000000000000000
0.0000000000000000,38.0000000000000000,6.2799997329700004,35.7674980163999976,899.1487426759999830,1.7199600934999999,-578.5997314449999740,625.7200927730000320,25.5000000000000000,26.5767307280999994,88.6899999999999977,-45.0000000000000000
0.0000000000000000,38.0000000000000000,6.7474999427800002,37.2224998474000017,897.7824707029999440,1.6398398876200000,-579.6799926759999830,625.3199462889999720,25.5000000000000000,26.5767307280999994,88.6899999999999977,-45.0000000000000000
0.0000000000000000,38.0000000000000000,6.0812497139000001,37.4824981689000012,897.4475097660000520,1.9599200487099999,-578.8000488279999440,625.3198852540000410,25.5000000000000000,26.5767307280999994,88.6899999999999977,-45.0000000000000000
0.0000000000000000,38.0000000000000000,6.9012498855600004,38.3474998474000017,897.4374999999999990,2.1198999881699998,-579.6798706050000190,624.7198486329999690,25.5000000000000000,26.5767307280999994,88.6899999999999977,-45.0000000000000000
0.0000000000000000,38.0000000000000000,6.3337497711199999,36.9799995421999980,898.5149536129999880,1.8401198387100000,-579.1997680660000460,625.1201171879999940,25.8125000000000000,26.5767307280999994,88.6899999999999977,-45.0000000000000000
0.0000000000000000,38.0000000000000000,5.6974997520399997,37.6237487793000014,898.4762573240000160,2.2800400257100000,-579.5202026370000110,624.9597778319999860,25.1875000000000000,26.5454998015999983,88.6899999999999977,-45.0000000000000000
0.0000000000000000,38.0000000000000000,6.0850000381499996,38.3887481689000012,898.8749999999999990,2.4000198841099998,-579.1200561519999600,625.0001220699999740,25.5000000000000000,26.5454998015999983,88.6899999999999977,-45.0000000000000000
0.0000000000000000,38.0000000000000000,6.2024998664900002,37.2637481689000012,898.5799560550000240,2.3998999595599999,-579.9598999019999600,625.2401733399999550,25.5000000000000000,26.5454998015999983,88.7000000000000028,-45.0000000000000000
0.0000000000000000,38.0000000000000000,6.4712500572199998,37.2024993895999998,897.4487304689999960,2.1197402477299998,-579.0798339839999470,625.0398559569999860,25.5000000000000000,26.5454998015999983,88.7000000000000028,-45.0000000000000000
0.0000000000000000,38.0000000000000000,6.1562500000000000,37.3924980163999976,897.9274902339999460,2.1597402095799998,-578.8802490230000320,625.0800781249999990,25.5000000000000000,26.5767307280999994,88.6899999999999977,-45.0000000000000000
0.0000000000000000,39.0000000000000000,24.1987495422000016,31.0537490845000015,898.0962524410000460,20.0401592254999983,-583.3197631839999520,620.4802856449999800,25.8125000000000000,26.5767307280999994,88.6899999999999977,-89.9999999999999999
0.0000000000000000,39.0000000000000000,23.3812503814999992,30.4475002289000009,897.3012084959999580,20.0799770355000007,-583.8001708980000320,620.1595458980000320,25.5000000000000000,26.5767307280999994,88.6899999999999977,-89.9999999999999999
0.0000000000000000,39.0000000000000000,24.1837501525999983,31.2312488556000005,898.2124633790000410,20.0796794890999983,-583.4797363279999440,620.8001708980000320,25.5000000000000000,26.5767307280999994,88.6899999999999977,-89.9999999999999999
0.0000000000000000,39.0000000000000000,22.4874992370999997,30.3750000000000000,897.6424560550000240,20.1199588775999984,-584.0402832029999440,620.6403198240000160,25.5000000000000000,26.5767307280999994,88.6899999999999977,-89.9999999999999999
0.0000000000000000,39.0000000000000000,23.8524990081999988,31.7087497710999990,897.4299926759999830,20.2001781463999990,-583.6802368160000460,620.2801513670000300,25.8125000000000000,26.5767307280999994,88.6899999999999977,-89.9999999999999999
0.0000000000000000,39.0000000000000000,23.2762489318999996,30.6875000000000000,897.6912231449999800,20.1200408935999988,-584.5601196290000410,620.2401123050000240,25.5000000000000000,26.5767307280999994,88.6899999999999977,-89.9999999999999999
0.0000000000000000,39.0000000000000000,22.3212490081999988,31.7387485504000004,897.4937133790000410,20.1998615265000012,-584.4801635740000160,620.4000244139999720,25.5000000000000000,26.5767307280999994,88.7000000000000028,-89.9999999999999999
0.0000000000000000,39.0000000000000000,23.0637493133999989,30.3187484741000013,897.1387329100000430,19.9600181580000004,-583.1598510740000160,620.3999633790000410,25.5000000000000000,26.5767307280999994,88.6899999999999977,-89.9999999999999999
0.0000000000000000,39.0000000000000000,24.1137485504000004,30.5512485504000004,898.2449951170000300,20.4000205994000012,-584.3604125980000380,620.8800659180000130,25.5000000000000000,26.5767307280999994,88.6899999999999977,-89.9999999999999999
0.0000000000000000,39.0000000000000000,23.8874988556000005,30.3887500762999991,897.9699707029999440,20.2397575377999992,-584.1200561519999600,619.8798828120000050,25.8125000000000000,26.5767307280999994,88.7000000000000028,-89.9999999999999999
0.0000000000000000,40.0000000000000000,41.7350006104000002,38.9212493895999998,897.8012084959999580,37.8403167725000031,-578.4403686519999600,625.9600830079999690,25.8125000000000000,26.5767307280999994,88.6899999999999977,-135.0000000000000000
0.0000000000000000,40.0000000000000000,41.8937492371000033,39.9012489318999996,898.6074829100000430,37.5999946593999965,-577.8800659180000130,626.1600341800000240,25.8125000000000000,26.5767307280999994,88.6899999999999977,-135.0000000000000000
0.0000000000000000,40.0000000000000000,41.7975006104000002,40.0200004578000019,898.6112060550000240,37.3199195862000010,-577.6396484379999940,626.1199340819999860,25.1875000000000000,26.5767307280999994,88.6899999999999977,-135.0000000000000000
0.0000000000000000,40.0000000000000000,41.6224975586000027,37.8624992371000033,896.9262084959999580,37.6798210143999981,-576.9997558589999470,625.8798828120000050,25.5000000000000000,26.5767307280999994,88.6899999999999977,-135.0000000000000000
0.0000000000000000,40.0000000000000000,41.6562500000000000,38.8349990844999979,898.4249877930000130,37.3200759887999993,-577.3598022459999580,625.7601318360000270,25.1875000000000000,26.5767307280999994,88.6899999999999977,-135.0000000000000000
0.0000000000000000,40.0000000000000000,41.3424987793000014,39.5249977112000010,897.2062377930000130,37.4002799988000021,-577.8799438480000380,626.5599365230000320,25.5000000000000000,26.5767307280999994,88.6899999999999977,-135.0000000000000000
0.0000000000000000,40.0000000000000000,43.2649993895999998,39.5912475586000028,898.3349609379999940,37.4001197815000026,-577.5197753910000520,626.3199462889999720,25.5000000000000000,26.5767307280999994,88.6899999999999977,-135.0000000000000000
0.0000000000000000,40.0000000000000000,42.2137489318999996,39.8950004578000019,897.3399658199999740,38.8001785278000000,-578.0800170899999550,627.0402221680000130,25.8125000000000000,26.5767307280999994,88.6899999999999977,-135.0000000000000000
0.0000000000000000,40.0000000000000000,41.9249992371000033,39.2350006104000002,897.8974609379999940,37.6402778624999996,-576.8396606449999800,626.3198242189999970,25.5000000000000000,26.5767307280999994,88.6899999999999977,-135.0000000000000000
0.0000000000000000,40.0000000000000000,41.7449989318999996,39.5874977112000010,897.2937011720000550,37.3201370239000027,-577.0401611329999690,625.9201660160000520,25.5000000000000000,26.5767307280999994,88.6899999999999977,-135.0000000000000000
