Index,X Accel 1,Y Accel 1,Z Accel 1,X Accel 2,Y Accel 2,Z Accel2,Temp,Theta ,Phi,,,,,,,,
1.000,635.978,-4.012,-646.551,0.000,0.000,0.000,23.766,-45.947,180.000
1.000,636.420,-4.772,-646.845,0.000,0.000,0.000,23.766,-45.944,180.000
1.000,635.139,-4.829,-644.093,0.000,0.000,0.000,23.766,-45.950,180.000
1.000,635.622,-4.430,-645.946,0.000,0.000,0.000,23.766,-45.940,180.000
1.000,635.960,-4.996,-646.432,0.000,0.000,0.000,23.766,-45.934,180.000
1.000,635.656,-4.503,-645.261,0.000,0.000,0.000,23.766,-45.939,180.000
1.000,636.147,-5.047,-644.676,0.000,0.000,0.000,23.766,-45.934,180.000
1.000,636.368,-4.445,-645.833,0.000,0.000,0.000,23.766,-45.934,180.000
1.000,635.845,-4.480,-645.104,0.000,0.000,0.000,23.735,-45.934,180.000
1.000,635.570,-4.394,-644.171,0.000,0.000,0.000,23.766,-45.942,180.000
2.000,444.987,442.939,-653.489,0.000,0.000,0.000,23.735,-45.944,135.000
2.000,445.870,443.095,-654.205,0.000,0.000,0.000,23.766,-45.944,135.000
2.000,444.337,443.897,-652.971,0.000,0.000,0.000,23.766,-45.935,135.000
2.000,447.016,442.976,-653.770,0.000,0.000,0.000,23.766,-45.935,135.000
2.000,444.599,443.655,-653.984,0.000,0.000,0.000,23.766,-45.974,135.000
2.000,444.415,444.254,-653.131,0.000,0.000,0.000,23.735,-45.959,135.000
2.000,446.794,443.184,-654.181,0.000,0.000,0.000,23.735,-45.959,135.000
2.000,445.476,443.402,-653.095,0.000,0.000,0.000,23.735,-45.944,135.000
2.000,446.192,442.467,-652.909,0.000,0.000,0.000,23.766,-45.944,135.000
2.000,447.660,442.718,-653.912,0.000,0.000,0.000,23.766,-45.944,135.000
3.000,4.798,632.354,-658.924,0.000,0.000,0.000,23.735,-45.954,90.000
3.000,4.767,630.665,-657.699,0.000,0.000,0.000,23.766,-45.944,90.000
3.000,3.755,630.454,-656.869,0.000,0.000,0.000,23.766,-45.944,90.000
3.000,4.564,630.791,-657.648,0.000,0.000,0.000,23.766,-45.944,90.000
3.000,3.394,630.570,-657.749,0.000,0.000,0.000,23.766,-45.944,90.000
3.000,3.674,632.886,-657.795,0.000,0.000,0.000,23.735,-45.955,90.000
3.000,4.546,632.267,-657.886,0.000,0.000,0.000,23.735,-45.944,90.000
3.000,4.582,630.535,-657.027,0.000,0.000,0.000,23.766,-45.934,90.000
3.000,2.583,631.227,-658.537,0.000,0.000,0.000,23.735,-45.925,90.000
3.000,4.084,630.824,-658.273,0.000,0.000,0.000,23.766,-45.939,90.000
4.000,-441.944,454.864,-650.365,0.000,0.000,0.000,23.735,-45.934,45.000
4.000,-443.042,452.921,-649.696,0.000,0.000,0.000,23.735,-45.954,45.000
4.000,-443.686,453.169,-651.028,0.000,0.000,0.000,23.766,-45.954,45.000
4.000,-442.134,453.376,-651.066,0.000,0.000,0.000,23.735,-45.950,45.000
4.000,-442.852,453.950,-651.817,0.000,0.000,0.000,23.766,-45.947,45.000
4.000,-442.984,453.204,-651.207,0.000,0.000,0.000,23.735,-45.947,45.000
4.000,-442.650,453.065,-649.908,0.000,0.000,0.000,23.735,-45.954,45.000
4.000,-441.942,453.475,-650.165,0.000,0.000,0.000,23.766,-45.950,45.000
4.000,-442.232,454.188,-650.904,0.000,0.000,0.000,23.735,-45.944,45.000
4.000,-441.739,453.190,-650.615,0.000,0.000,0.000,23.735,-45.944,45.000
5.000,-642.879,8.375,-640.992,0.000,0.000,0.000,23.735,-45.930,0.000
5.000,-641.985,9.190,-640.815,0.000,0.000,0.000,23.735,-45.932,0.000
5.000,-642.415,8.088,-640.600,0.000,0.000,0.000,23.735,-45.932,0.000
5.000,-642.883,8.483,-640.633,0.000,0.000,0.000,23.735,-45.940,0.000
5.000,-642.795,8.800,-641.633,0.000,0.000,0.000,23.735,-45.944,0.000
5.000,-642.496,7.930,-642.292,0.000,0.000,0.000,23.735,-45.944,0.000
5.000,-643.834,8.776,-641.174,0.000,0.000,0.000,23.735,-45.944,0.000
5.000,-642.913,7.416,-642.356,0.000,0.000,0.000,23.735,-45.944,0.000
5.000,-642.388,8.129,-641.369,0.000,0.000,0.000,23.735,-45.937,0.000
5.000,-643.061,9.088,-641.231,0.000,0.000,0.000,23.735,-45.934,0.000
6.000,-457.204,-437.575,-647.433,0.000,0.000,0.000,23.766,-45.944,-45.000
6.000,-456.684,-437.094,-645.923,0.000,0.000,0.000,23.735,-45.944,-45.000
6.000,-457.587,-437.789,-646.727,0.000,0.000,0.000,23.766,-45.944,-45.000
6.000,-457.001,-437.236,-646.255,0.000,0.000,0.000,23.735,-45.944,-45.000
6.000,-456.880,-435.813,-646.715,0.000,0.000,0.000,23.735,-45.944,-45.000
6.000,-455.726,-437.736,-647.781,0.000,0.000,0.000,23.735,-45.959,-45.000
6.000,-456.508,-436.768,-646.442,0.000,0.000,0.000,23.766,-45.957,-45.000
6.000,-455.007,-438.558,-646.112,0.000,0.000,0.000,23.735,-45.959,-45.000
6.000,-457.261,-437.199,-646.061,0.000,0.000,0.000,23.735,-45.957,-45.000
6.000,-455.051,-437.438,-646.407,0.000,0.000,0.000,23.735,-45.944,-45.000
7.000,-8.270,-628.047,-648.479,0.000,0.000,0.000,23.704,-45.947,-90.000
7.000,-7.553,-628.630,-648.233,0.000,0.000,0.000,23.735,-45.947,-90.000
7.000,-8.516,-628.279,-646.945,0.000,0.000,0.000,23.735,-45.944,-90.000
7.000,-8.417,-627.945,-648.228,0.000,0.000,0.000,23.735,-45.944,-90.000
7.000,-8.158,-627.505,-647.772,0.000,0.000,0.000,23.735,-45.954,-90.000
7.000,-7.060,-627.772,-648.165,0.000,0.000,0.000,23.704,-45.954,-90.000
7.000,-7.982,-627.874,-648.384,0.000,0.000,0.000,23.735,-45.947,-90.000
7.000,-7.384,-627.481,-647.608,0.000,0.000,0.000,23.735,-45.947,-90.000
7.000,-8.490,-627.999,-647.500,0.000,0.000,0.000,23.735,-45.944,-90.000
7.000,-8.134,-627.911,-647.788,0.000,0.000,0.000,23.735,-45.954,-90.000
8.000,439.386,-445.441,-650.995,0.000,0.000,0.000,23.735,-45.954,-135.000
8.000,439.340,-445.886,-653.194,0.000,0.000,0.000,23.735,-45.955,-135.000
8.000,439.484,-445.372,-651.366,0.000,0.000,0.000,23.735,-45.949,-135.000
8.000,438.270,-445.456,-652.987,0.000,0.000,0.000,23.735,-45.947,-135.000
8.000,438.982,-445.012,-651.044,0.000,0.000,0.000,23.735,-45.944,-135.000
8.000,438.849,-445.409,-650.963,0.000,0.000,0.000,23.735,-45.955,-135.000
8.000,439.104,-446.236,-652.150,0.000,0.000,0.000,23.735,-45.955,-135.000
8.000,438.752,-446.122,-650.780,0.000,0.000,0.000,23.766,-45.940,-135.000
8.000,438.573,-446.482,-651.824,0.000,0.000,0.000,23.735,-45.942,-135.000
8.000,440.545,-446.380,-651.259,0.000,0.000,0.000,23.735,-45.944,-135.000
9.000,908.501,-0.999,-4.452,0.000,0.000,0.000,23.735,-0.155,180.000
9.000,907.955,-2.099,-4.641,0.000,0.000,0.000,23.735,-0.164,180.000
9.000,908.434,-1.370,-3.858,0.000,0.000,0.000,23.766,-0.150,180.000
9.000,908.709,-1.018,-4.261,0.000,0.000,0.000,23.735,-0.157,180.000
9.000,909.312,-0.222,-3.636,0.000,0.000,0.000,23.735,-0.157,180.000
9.000,908.320,-1.547,-4.941,0.000,0.000,0.000,23.735,-0.157,180.000
9.000,908.790,0.174,-4.456,0.000,0.000,0.000,23.766,-0.145,180.000
9.000,909.182,-0.417,-4.633,0.000,0.000,0.000,23.766,-0.145,180.000
9.000,908.183,-0.609,-5.314,0.000,0.000,0.000,23.735,-0.145,180.000
9.000,909.124,-1.374,-4.575,0.000,0.000,0.000,23.766,-0.145,180.000
10.000,655.911,641.226,-6.775,0.000,0.000,0.000,23.766,-0.145,135.000
10.000,656.248,641.570,-7.930,0.000,0.000,0.000,23.735,-0.145,135.000
10.000,655.523,642.752,-7.849,0.000,0.000,0.000,23.766,-0.145,135.000
10.000,655.383,641.333,-8.610,0.000,0.000,0.000,23.766,-0.152,135.000
10.000,656.091,641.636,-7.883,0.000,0.000,0.000,23.735,-0.147,135.000
10.000,653.297,641.738,-7.739,0.000,0.000,0.000,23.766,-0.155,135.000
10.000,655.577,643.326,-6.653,0.000,0.000,0.000,23.735,-0.155,135.000
10.000,656.520,642.107,-7.353,0.000,0.000,0.000,23.735,-0.155,135.000
10.000,655.367,642.017,-7.830,0.000,0.000,0.000,23.766,-0.145,135.000
10.000,655.502,642.871,-7.725,0.000,0.000,0.000,23.735,-0.145,135.000
11.000,8.774,915.672,-5.474,0.000,0.000,0.000,23.735,-0.145,90.000
11.000,9.404,915.385,-5.790,0.000,0.000,0.000,23.735,-0.145,90.000
11.000,9.183,915.025,-6.509,0.000,0.000,0.000,23.735,-0.145,90.000
11.000,8.926,915.500,-4.901,0.000,0.000,0.000,23.735,-0.145,90.000
11.000,10.234,915.521,-4.683,0.000,0.000,0.000,23.735,-0.145,90.000
11.000,10.161,916.032,-5.546,0.000,0.000,0.000,23.735,-0.147,90.000
11.000,9.517,915.037,-5.756,0.000,0.000,0.000,23.735,-0.155,90.000
11.000,9.473,915.623,-7.137,0.000,0.000,0.000,23.735,-0.155,90.000
11.000,8.789,915.120,-5.786,0.000,0.000,0.000,23.735,-0.145,90.000
11.000,7.594,915.677,-5.380,0.000,0.000,0.000,23.735,-0.145,90.000
12.000,-641.777,652.513,-0.601,0.000,0.000,0.000,23.704,-0.145,45.000
12.000,-643.484,651.954,-1.625,0.000,0.000,0.000,23.735,-0.145,45.000
12.000,-642.541,652.513,-1.916,0.000,0.000,0.000,23.704,-0.145,45.000
12.000,-641.097,652.788,-0.853,0.000,0.000,0.000,23.735,-0.145,45.000
12.000,-641.709,653.746,-0.603,0.000,0.000,0.000,23.735,-0.145,45.000
12.000,-641.943,651.679,0.399,0.000,0.000,0.000,23.735,-0.155,45.000
12.000,-641.253,652.997,0.008,0.000,0.000,0.000,23.735,-0.140,45.000
12.000,-641.586,652.186,-0.166,0.000,0.000,0.000,23.704,-0.142,45.000
12.000,-642.183,652.633,-0.652,0.000,0.000,0.000,23.704,-0.142,45.000
12.000,-641.963,652.861,-1.153,0.000,0.000,0.000,23.704,-0.142,45.000
13.000,-909.070,10.981,3.913,0.000,0.000,0.000,23.704,-0.145,0.000
13.000,-908.423,11.645,4.114,0.000,0.000,0.000,23.704,-0.145,0.000
13.000,-908.546,11.616,4.706,0.000,0.000,0.000,23.735,-0.145,0.000
13.000,-909.335,11.311,4.960,0.000,0.000,0.000,23.704,-0.145,0.000
13.000,-908.013,9.914,5.223,0.000,0.000,0.000,23.704,-0.155,0.000
13.000,-908.271,11.268,4.662,0.000,0.000,0.000,23.704,-0.155,0.000
13.000,-908.829,11.539,4.002,0.000,0.000,0.000,23.704,-0.145,0.000
13.000,-907.848,10.370,3.671,0.000,0.000,0.000,23.704,-0.145,0.000
13.000,-906.613,11.346,4.523,0.000,0.000,0.000,23.704,-0.152,0.000
13.000,-909.429,10.606,4.358,0.000,0.000,0.000,23.704,-0.152,0.000
14.000,-651.924,-630.659,11.406,0.000,0.000,0.000,23.704,-0.155,-45.000
14.000,-653.035,-629.557,10.755,0.000,0.000,0.000,23.704,-0.145,-45.000
14.000,-653.110,-631.262,9.291,0.000,0.000,0.000,23.704,-0.152,-45.000
14.000,-652.612,-631.065,10.382,0.000,0.000,0.000,23.704,-0.152,-45.000
14.000,-652.432,-630.472,12.549,0.000,0.000,0.000,23.704,-0.155,-45.000
14.000,-651.421,-630.709,10.256,0.000,0.000,0.000,23.704,-0.155,-45.000
14.000,-650.873,-630.530,10.710,0.000,0.000,0.000,23.735,-0.155,-45.000
14.000,-653.327,-630.325,10.293,0.000,0.000,0.000,23.704,-0.145,-45.000
14.000,-650.218,-630.174,11.247,0.000,0.000,0.000,23.704,-0.152,-45.000
14.000,-653.781,-631.890,11.829,0.000,0.000,0.000,23.704,-0.147,-45.000
15.000,-7.156,-901.866,4.645,0.000,0.000,0.000,23.704,-0.145,-90.000
15.000,-6.677,-901.173,3.864,0.000,0.000,0.000,23.704,-0.145,-90.000
15.000,-7.783,-900.800,4.435,0.000,0.000,0.000,23.704,-0.152,-90.000
15.000,-7.575,-901.545,3.945,0.000,0.000,0.000,23.704,-0.147,-90.000
15.000,-8.828,-901.082,4.766,0.000,0.000,0.000,23.704,-0.155,-90.000
15.000,-8.820,-901.548,5.446,0.000,0.000,0.000,23.704,-0.155,-90.000
15.000,-8.650,-900.648,4.288,0.000,0.000,0.000,23.704,-0.145,-90.000
15.000,-8.559,-901.460,5.013,0.000,0.000,0.000,23.704,-0.152,-90.000
15.000,-7.410,-901.466,5.249,0.000,0.000,0.000,23.735,-0.147,-90.000
15.000,-7.273,-902.272,3.385,0.000,0.000,0.000,23.704,-0.140,-90.000
16.000,646.459,-637.352,-1.290,0.000,0.000,0.000,23.704,-0.152,-135.000
16.000,646.938,-636.358,-0.677,0.000,0.000,0.000,23.704,-0.155,-135.000
16.000,645.581,-636.272,-1.209,0.000,0.000,0.000,23.704,-0.155,-135.000
16.000,645.600,-637.534,-0.462,0.000,0.000,0.000,23.704,-0.155,-135.000
16.000,645.115,-637.961,-2.836,0.000,0.000,0.000,23.704,-0.155,-135.000
16.000,644.253,-637.613,-1.031,0.000,0.000,0.000,23.735,-0.134,-135.000
16.000,644.645,-636.956,-2.119,0.000,0.000,0.000,23.704,-0.134,-135.000
16.000,643.737,-636.185,-0.805,0.000,0.000,0.000,23.704,-0.140,-135.000
16.000,646.316,-637.175,0.168,0.000,0.000,0.000,23.704,-0.145,-135.000
16.000,645.733,-636.722,-0.892,0.000,0.000,0.000,23.704,-0.145,-135.000
17.000,653.777,6.624,638.733,0.000,0.000,0.000,23.766,44.305,180.000
17.000,654.845,5.588,638.954,0.000,0.000,0.000,23.766,44.305,180.000
17.000,654.653,5.969,639.176,0.000,0.000,0.000,23.766,44.305,180.000
17.000,655.830,5.965,637.888,0.000,0.000,0.000,23.735,44.305,180.000
17.000,654.219,5.958,639.922,0.000,0.000,0.000,23.735,44.305,180.000
17.000,653.783,6.498,639.353,0.000,0.000,0.000,23.735,44.305,180.000
17.000,654.956,5.848,638.895,0.000,0.000,0.000,23.766,44.305,180.000
17.000,653.777,6.383,637.682,0.000,0.000,0.000,23.766,44.312,180.000
17.000,654.433,6.624,637.747,0.000,0.000,0.000,23.766,44.307,180.000
17.000,654.240,7.357,637.753,0.000,0.000,0.000,23.766,44.315,180.000
18.000,472.854,464.398,634.961,0.000,0.000,0.000,23.766,44.315,135.000
18.000,475.030,464.038,633.911,0.000,0.000,0.000,23.766,44.315,135.000
18.000,473.703,464.504,634.834,0.000,0.000,0.000,23.766,44.305,135.000
18.000,473.804,465.319,635.700,0.000,0.000,0.000,23.766,44.305,135.000
18.000,473.274,464.851,634.708,0.000,0.000,0.000,23.766,44.305,135.000
18.000,475.246,465.743,633.779,0.000,0.000,0.000,23.766,44.305,135.000
18.000,473.876,464.753,633.951,0.000,0.000,0.000,23.766,44.294,135.000
18.000,473.081,464.675,633.591,0.000,0.000,0.000,23.766,44.302,135.000
18.000,472.919,465.259,635.140,0.000,0.000,0.000,23.766,44.305,135.000
18.000,474.513,465.206,634.803,0.000,0.000,0.000,23.766,44.305,135.000
19.000,9.900,659.127,637.123,0.000,0.000,0.000,23.766,44.305,90.000
19.000,9.285,660.725,637.277,0.000,0.000,0.000,23.766,44.305,90.000
19.000,9.473,659.674,636.632,0.000,0.000,0.000,23.766,44.305,90.000
19.000,11.280,659.274,637.388,0.000,0.000,0.000,23.766,44.305,90.000
19.000,9.429,660.672,636.781,0.000,0.000,0.000,23.766,44.305,90.000
19.000,10.469,660.071,637.017,0.000,0.000,0.000,23.766,44.305,90.000
19.000,9.506,659.560,637.045,0.000,0.000,0.000,23.766,44.302,90.000
19.000,9.064,659.473,636.646,0.000,0.000,0.000,23.766,44.305,90.000
19.000,10.204,658.430,638.798,0.000,0.000,0.000,23.766,44.312,90.000
19.000,9.308,660.186,638.030,0.000,0.000,0.000,23.766,44.307,90.000
20.000,-454.066,473.512,635.655,0.000,0.000,0.000,23.766,44.302,45.000
20.000,-453.352,474.181,636.281,0.000,0.000,0.000,23.735,44.314,45.000
20.000,-455.515,474.049,636.889,0.000,0.000,0.000,23.766,44.314,45.000
20.000,-453.698,474.484,636.413,0.000,0.000,0.000,23.766,44.314,45.000
20.000,-454.026,474.650,635.311,0.000,0.000,0.000,23.766,44.310,45.000
20.000,-453.646,475.356,636.264,0.000,0.000,0.000,23.735,44.305,45.000
20.000,-453.524,474.833,635.788,0.000,0.000,0.000,23.735,44.305,45.000
20.000,-453.682,474.769,636.801,0.000,0.000,0.000,23.735,44.314,45.000
20.000,-454.067,474.123,636.256,0.000,0.000,0.000,23.766,44.314,45.000
20.000,-454.679,473.873,636.285,0.000,0.000,0.000,23.766,44.314,45.000
21.000,-648.754,10.721,640.570,0.000,0.000,0.000,23.735,44.307,0.000
21.000,-649.407,11.248,640.720,0.000,0.000,0.000,23.766,44.305,0.000
21.000,-649.153,9.996,641.078,0.000,0.000,0.000,23.735,44.305,0.000
21.000,-647.673,10.809,641.087,0.000,0.000,0.000,23.735,44.305,0.000
21.000,-647.941,9.975,640.739,0.000,0.000,0.000,23.766,44.314,0.000
21.000,-647.710,10.873,640.612,0.000,0.000,0.000,23.735,44.314,0.000
21.000,-648.475,11.275,640.529,0.000,0.000,0.000,23.735,44.302,0.000
21.000,-649.142,10.565,640.186,0.000,0.000,0.000,23.735,44.302,0.000
21.000,-648.292,11.383,641.386,0.000,0.000,0.000,23.704,44.302,0.000
21.000,-648.719,10.988,641.390,0.000,0.000,0.000,23.766,44.305,0.000
22.000,-458.375,-445.784,640.910,0.000,0.000,0.000,23.766,44.305,-45.000
22.000,-457.343,-446.241,642.140,0.000,0.000,0.000,23.735,44.297,-45.000
22.000,-458.948,-446.917,642.543,0.000,0.000,0.000,23.735,44.297,-45.000
22.000,-460.474,-447.816,639.513,0.000,0.000,0.000,23.735,44.302,-45.000
22.000,-456.904,-446.185,641.864,0.000,0.000,0.000,23.735,44.305,-45.000
22.000,-458.670,-447.002,639.611,0.000,0.000,0.000,23.735,44.284,-45.000
22.000,-458.548,-446.502,640.450,0.000,0.000,0.000,23.735,44.315,-45.000
22.000,-458.790,-446.330,640.419,0.000,0.000,0.000,23.735,44.305,-45.000
22.000,-459.449,-447.296,640.338,0.000,0.000,0.000,23.735,44.305,-45.000
22.000,-459.872,-446.804,640.860,0.000,0.000,0.000,23.735,44.305,-45.000
23.000,-0.143,-639.327,645.446,0.000,0.000,0.000,23.735,44.294,-90.000
23.000,0.303,-640.482,643.578,0.000,0.000,0.000,23.735,44.294,-90.000
23.000,-0.477,-639.331,644.035,0.000,0.000,0.000,23.735,44.294,-90.000
23.000,-0.142,-641.119,642.935,0.000,0.000,0.000,23.766,44.294,-90.000
23.000,0.284,-639.520,643.640,0.000,0.000,0.000,23.766,44.305,-90.000
23.000,-0.763,-639.453,643.916,0.000,0.000,0.000,23.766,44.305,-90.000
23.000,-1.025,-640.435,644.355,0.000,0.000,0.000,23.735,44.305,-90.000
23.000,-0.285,-640.943,644.194,0.000,0.000,0.000,23.735,44.305,-90.000
23.000,-0.106,-640.022,644.280,0.000,0.000,0.000,23.735,44.305,-90.000
23.000,0.142,-639.463,644.067,0.000,0.000,0.000,23.735,44.305,-90.000
24.000,462.739,-451.538,636.211,0.000,0.000,0.000,23.735,44.305,-135.000
24.000,463.118,-451.563,636.321,0.000,0.000,0.000,23.735,44.305,-135.000
24.000,460.360,-451.062,636.359,0.000,0.000,0.000,23.766,44.297,-135.000
24.000,461.548,-452.388,636.013,0.000,0.000,0.000,23.735,44.294,-135.000
24.000,463.562,-451.771,636.364,0.000,0.000,0.000,23.766,44.294,-135.000
24.000,461.483,-452.083,637.755,0.000,0.000,0.000,23.766,44.294,-135.000
24.000,463.530,-451.760,636.109,0.000,0.000,0.000,23.735,44.302,-135.000
24.000,461.442,-451.097,635.920,0.000,0.000,0.000,23.766,44.302,-135.000
24.000,462.118,-451.375,635.102,0.000,0.000,0.000,23.735,44.302,-135.000
24.000,463.812,-451.676,636.798,0.000,0.000,0.000,23.735,44.302,-135.000
25.000,387.881,8.365,825.474,0.000,0.000,0.000,23.766,65.644,180.000
25.000,389.201,10.054,823.153,0.000,0.000,0.000,23.766,65.644,180.000
25.000,388.641,8.775,823.259,0.000,0.000,0.000,23.766,65.650,180.000
25.000,387.187,9.656,823.995,0.000,0.000,0.000,23.766,65.654,180.000
25.000,389.125,8.599,824.522,0.000,0.000,0.000,23.766,65.654,180.000
25.000,388.714,8.761,824.157,0.000,0.000,0.000,23.766,65.654,180.000
25.000,388.112,7.832,824.204,0.000,0.000,0.000,23.766,65.654,180.000
25.000,388.221,8.893,824.201,0.000,0.000,0.000,23.766,65.654,180.000
25.000,388.586,8.646,825.077,0.000,0.000,0.000,23.766,65.654,180.000
25.000,390.007,8.857,825.026,0.000,0.000,0.000,23.766,65.654,180.000
26.000,279.699,279.934,822.058,0.000,0.000,0.000,23.766,65.654,135.000
26.000,278.649,281.172,822.196,0.000,0.000,0.000,23.797,65.654,135.000
26.000,280.090,279.930,822.880,0.000,0.000,0.000,23.797,65.654,135.000
26.000,279.126,280.447,823.269,0.000,0.000,0.000,23.766,65.654,135.000
26.000,278.918,278.566,820.896,0.000,0.000,0.000,23.766,65.654,135.000
26.000,279.056,281.249,823.096,0.000,0.000,0.000,23.766,65.654,135.000
26.000,278.653,280.223,821.721,0.000,0.000,0.000,23.797,65.647,135.000
26.000,279.440,279.525,822.532,0.000,0.000,0.000,23.766,65.644,135.000
26.000,279.976,279.530,822.827,0.000,0.000,0.000,23.766,65.650,135.000
26.000,279.304,278.797,820.515,0.000,0.000,0.000,23.766,65.654,135.000
27.000,13.714,388.249,829.229,0.000,0.000,0.000,23.766,65.654,90.000
27.000,13.140,387.256,828.450,0.000,0.000,0.000,23.766,65.665,90.000
27.000,13.927,387.931,826.889,0.000,0.000,0.000,23.797,65.665,90.000
27.000,13.422,388.478,828.653,0.000,0.000,0.000,23.766,65.665,90.000
27.000,13.330,387.770,827.634,0.000,0.000,0.000,23.797,65.672,90.000
27.000,13.324,388.311,827.930,0.000,0.000,0.000,23.766,65.669,90.000
27.000,12.960,387.882,827.774,0.000,0.000,0.000,23.766,65.645,90.000
27.000,13.185,388.299,827.632,0.000,0.000,0.000,23.797,65.645,90.000
27.000,13.492,387.812,828.376,0.000,0.000,0.000,23.766,65.654,90.000
27.000,12.399,388.764,827.594,0.000,0.000,0.000,23.797,65.654,90.000
28.000,-256.987,279.365,830.607,0.000,0.000,0.000,23.766,65.665,45.000
28.000,-257.236,279.988,831.359,0.000,0.000,0.000,23.766,65.665,45.000
28.000,-256.923,279.258,832.737,0.000,0.000,0.000,23.766,65.665,45.000
28.000,-256.157,280.037,831.972,0.000,0.000,0.000,23.797,65.665,45.000
28.000,-258.070,280.498,831.843,0.000,0.000,0.000,23.766,65.665,45.000
28.000,-257.672,280.232,831.515,0.000,0.000,0.000,23.766,65.665,45.000
28.000,-257.654,279.705,830.917,0.000,0.000,0.000,23.766,65.654,45.000
28.000,-258.306,279.878,831.242,0.000,0.000,0.000,23.766,65.654,45.000
28.000,-257.047,279.978,831.227,0.000,0.000,0.000,23.766,65.665,45.000
28.000,-258.324,280.232,830.458,0.000,0.000,0.000,23.766,65.647,45.000
29.000,-375.686,13.985,827.971,0.000,0.000,0.000,23.766,65.665,0.000
29.000,-376.673,12.584,828.396,0.000,0.000,0.000,23.797,65.660,0.000
29.000,-376.861,13.831,829.533,0.000,0.000,0.000,23.766,65.654,0.000
29.000,-376.824,14.430,828.365,0.000,0.000,0.000,23.797,65.654,0.000
29.000,-375.357,14.627,828.893,0.000,0.000,0.000,23.797,65.665,0.000
29.000,-376.368,12.943,828.114,0.000,0.000,0.000,23.766,65.665,0.000
29.000,-375.634,12.831,827.589,0.000,0.000,0.000,23.766,65.665,0.000
29.000,-375.736,13.601,829.070,0.000,0.000,0.000,23.766,65.657,0.000
29.000,-375.949,13.009,827.959,0.000,0.000,0.000,23.797,65.654,0.000
29.000,-375.781,13.741,828.388,0.000,0.000,0.000,23.766,65.654,0.000
30.000,-265.771,-255.527,829.317,0.000,0.000,0.000,23.766,65.660,-45.000
30.000,-265.683,-256.013,830.609,0.000,0.000,0.000,23.766,65.665,-45.000
30.000,-265.849,-255.648,828.888,0.000,0.000,0.000,23.766,65.665,-45.000
30.000,-265.089,-255.261,830.708,0.000,0.000,0.000,23.766,65.665,-45.000
30.000,-264.869,-256.016,830.303,0.000,0.000,0.000,23.766,65.665,-45.000
30.000,-266.742,-255.442,829.292,0.000,0.000,0.000,23.766,65.660,-45.000
30.000,-265.860,-256.328,829.552,0.000,0.000,0.000,23.766,65.654,-45.000
30.000,-266.436,-255.330,829.671,0.000,0.000,0.000,23.766,65.654,-45.000
30.000,-265.871,-254.227,830.709,0.000,0.000,0.000,23.766,65.647,-45.000
30.000,-266.346,-254.604,829.935,0.000,0.000,0.000,23.766,65.665,-45.000
31.000,3.330,-368.932,828.531,0.000,0.000,0.000,23.797,65.665,-90.000
31.000,3.470,-368.789,826.890,0.000,0.000,0.000,23.766,65.660,-90.000
31.000,2.853,-368.478,826.653,0.000,0.000,0.000,23.766,65.660,-90.000
31.000,2.398,-368.341,828.962,0.000,0.000,0.000,23.766,65.662,-90.000
31.000,2.669,-369.443,827.563,0.000,0.000,0.000,23.766,65.660,-90.000
31.000,2.805,-368.590,828.697,0.000,0.000,0.000,23.766,65.644,-90.000
31.000,3.556,-368.660,827.822,0.000,0.000,0.000,23.797,65.654,-90.000
31.000,3.752,-368.600,828.237,0.000,0.000,0.000,23.766,65.654,-90.000
31.000,3.590,-369.484,828.536,0.000,0.000,0.000,23.766,65.654,-90.000
31.000,4.184,-369.027,828.198,0.000,0.000,0.000,23.766,65.654,-90.000
32.000,269.347,-252.923,832.194,0.000,0.000,0.000,23.766,65.665,-135.000
32.000,267.295,-252.662,831.461,0.000,0.000,0.000,23.766,65.654,-135.000
32.000,268.196,-253.326,831.673,0.000,0.000,0.000,23.766,65.654,-135.000
32.000,269.051,-253.137,831.865,0.000,0.000,0.000,23.766,65.654,-135.000
32.000,268.282,-253.857,833.337,0.000,0.000,0.000,23.766,65.654,-135.000
32.000,267.218,-252.582,832.549,0.000,0.000,0.000,23.766,65.654,-135.000
32.000,268.939,-252.845,831.656,0.000,0.000,0.000,23.766,65.654,-135.000
32.000,268.376,-253.391,832.322,0.000,0.000,0.000,23.766,65.654,-135.000
32.000,269.356,-252.971,831.715,0.000,0.000,0.000,23.766,65.654,-135.000
32.000,267.371,-253.357,832.904,0.000,0.000,0.000,23.766,65.654,-135.000
33.000,68.732,11.784,906.268,0.000,0.000,0.000,23.766,86.292,180.000
33.000,69.158,11.700,905.930,0.000,0.000,0.000,23.766,86.292,180.000
33.000,69.931,11.303,905.807,0.000,0.000,0.000,23.797,86.294,180.000
33.000,70.207,11.246,906.481,0.000,0.000,0.000,23.797,86.302,180.000
33.000,70.756,12.662,905.528,0.000,0.000,0.000,23.797,86.294,180.000
33.000,68.787,12.703,906.702,0.000,0.000,0.000,23.797,86.294,180.000
33.000,69.468,11.571,905.765,0.000,0.000,0.000,23.797,86.300,180.000
33.000,69.011,11.708,905.716,0.000,0.000,0.000,23.797,86.305,180.000
33.000,69.855,11.028,905.605,0.000,0.000,0.000,23.766,86.305,180.000
33.000,69.074,12.077,905.975,0.000,0.000,0.000,23.766,86.305,180.000
34.000,50.378,56.399,906.556,0.000,0.000,0.000,23.797,86.294,135.000
34.000,48.756,56.773,904.121,0.000,0.000,0.000,23.766,86.294,135.000
34.000,49.722,56.107,905.871,0.000,0.000,0.000,23.797,86.300,135.000
34.000,48.778,57.105,906.276,0.000,0.000,0.000,23.797,86.315,135.000
34.000,49.718,56.824,906.255,0.000,0.000,0.000,23.797,86.317,135.000
34.000,49.905,56.699,906.906,0.000,0.000,0.000,23.797,86.317,135.000
34.000,49.954,55.774,904.702,0.000,0.000,0.000,23.797,86.324,135.000
34.000,50.275,55.854,904.801,0.000,0.000,0.000,23.797,86.315,135.000
34.000,50.015,55.904,905.188,0.000,0.000,0.000,23.766,86.315,135.000
34.000,50.968,56.415,905.910,0.000,0.000,0.000,23.797,86.315,135.000
35.000,6.869,74.745,905.726,0.000,0.000,0.000,23.797,86.312,90.000
35.000,4.974,74.684,905.569,0.000,0.000,0.000,23.797,86.315,90.000
35.000,6.046,74.081,905.476,0.000,0.000,0.000,23.797,86.315,90.000
35.000,5.591,74.190,905.687,0.000,0.000,0.000,23.797,86.307,90.000
35.000,6.508,73.974,906.617,0.000,0.000,0.000,23.797,86.305,90.000
35.000,6.486,74.962,905.763,0.000,0.000,0.000,23.797,86.312,90.000
35.000,5.758,74.625,906.959,0.000,0.000,0.000,23.766,86.315,90.000
35.000,6.454,75.671,905.984,0.000,0.000,0.000,23.797,86.300,90.000
35.000,7.366,75.427,905.207,0.000,0.000,0.000,23.797,86.300,90.000
35.000,6.979,75.515,905.107,0.000,0.000,0.000,23.797,86.300,90.000
36.000,-38.232,56.718,909.057,0.000,0.000,0.000,23.766,86.305,45.000
36.000,-36.886,55.244,908.045,0.000,0.000,0.000,23.797,86.305,45.000
36.000,-36.405,56.696,907.163,0.000,0.000,0.000,23.797,86.305,45.000
36.000,-37.783,56.515,908.098,0.000,0.000,0.000,23.797,86.297,45.000
36.000,-38.117,56.510,907.707,0.000,0.000,0.000,23.797,86.297,45.000
36.000,-37.439,55.443,907.428,0.000,0.000,0.000,23.797,86.297,45.000
36.000,-37.477,56.577,906.224,0.000,0.000,0.000,23.766,86.294,45.000
36.000,-36.106,57.041,906.546,0.000,0.000,0.000,23.797,86.300,45.000
36.000,-35.996,57.435,907.626,0.000,0.000,0.000,23.797,86.305,45.000
36.000,-36.702,56.127,907.399,0.000,0.000,0.000,23.797,86.294,45.000
37.000,-57.255,11.548,906.821,0.000,0.000,0.000,23.797,86.305,0.000
37.000,-56.912,11.900,906.726,0.000,0.000,0.000,23.797,86.305,0.000
37.000,-56.080,12.022,907.178,0.000,0.000,0.000,23.766,86.305,0.000
37.000,-55.439,11.830,906.258,0.000,0.000,0.000,23.766,86.305,0.000
37.000,-56.609,12.014,906.672,0.000,0.000,0.000,23.797,86.305,0.000
37.000,-57.056,11.042,906.619,0.000,0.000,0.000,23.797,86.305,0.000
37.000,-55.851,12.225,906.202,0.000,0.000,0.000,23.766,86.309,0.000
37.000,-56.384,11.970,907.148,0.000,0.000,0.000,23.766,86.312,0.000
37.000,-57.020,12.439,905.945,0.000,0.000,0.000,23.797,86.312,0.000
37.000,-57.015,11.367,905.764,0.000,0.000,0.000,23.797,86.312,0.000
38.000,-37.926,-33.855,907.489,0.000,0.000,0.000,23.797,86.305,-45.000
38.000,-36.272,-33.180,906.602,0.000,0.000,0.000,23.766,86.309,-45.000
38.000,-39.441,-31.607,906.680,0.000,0.000,0.000,23.797,86.315,-45.000
38.000,-38.558,-32.600,908.393,0.000,0.000,0.000,23.766,86.315,-45.000
38.000,-37.319,-32.521,906.855,0.000,0.000,0.000,23.766,86.305,-45.000
38.000,-37.835,-32.363,907.141,0.000,0.000,0.000,23.766,86.305,-45.000
38.000,-38.637,-32.366,906.912,0.000,0.000,0.000,23.797,86.305,-45.000
38.000,-38.227,-31.365,906.976,0.000,0.000,0.000,23.797,86.305,-45.000
38.000,-37.664,-31.703,907.062,0.000,0.000,0.000,23.797,86.305,-45.000
38.000,-37.481,-32.661,906.979,0.000,0.000,0.000,23.766,86.305,-45.000
39.000,4.769,-50.483,906.565,0.000,0.000,0.000,23.766,86.312,-90.000
39.000,7.167,-52.184,905.865,0.000,0.000,0.000,23.797,86.324,-90.000
39.000,4.975,-50.861,906.409,0.000,0.000,0.000,23.797,86.324,-90.000
39.000,5.420,-50.519,907.918,0.000,0.000,0.000,23.797,86.317,-90.000
39.000,7.285,-51.592,905.724,0.000,0.000,0.000,23.797,86.315,-90.000
39.000,6.624,-50.665,907.168,0.000,0.000,0.000,23.797,86.315,-90.000
39.000,6.322,-49.992,905.985,0.000,0.000,0.000,23.797,86.315,-90.000
39.000,5.427,-51.630,907.949,0.000,0.000,0.000,23.797,86.305,-90.000
39.000,5.730,-51.543,907.189,0.000,0.000,0.000,23.797,86.305,-90.000
39.000,5.684,-50.719,907.417,0.000,0.000,0.000,23.797,86.295,-90.000
40.000,49.740,-33.998,906.638,0.000,0.000,0.000,23.797,86.305,-135.000
40.000,50.489,-32.822,907.985,0.000,0.000,0.000,23.797,86.305,-135.000
40.000,51.579,-33.668,907.665,0.000,0.000,0.000,23.797,86.295,-135.000
40.000,49.439,-32.610,905.346,0.000,0.000,0.000,23.797,86.295,-135.000
40.000,49.888,-33.299,905.251,0.000,0.000,0.000,23.797,86.295,-135.000
40.000,50.138,-32.395,907.972,0.000,0.000,0.000,23.797,86.295,-135.000
40.000,48.254,-33.304,906.818,0.000,0.000,0.000,23.766,86.295,-135.000
40.000,49.230,-31.713,907.370,0.000,0.000,0.000,23.797,86.295,-135.000
40.000,50.219,-32.527,907.333,0.000,0.000,0.000,23.797,86.295,-135.000
40.000,51.787,-32.412,907.214,0.000,0.000,0.000,23.797,86.295,-135.000
