Temp Iter,Index,X Accel 1,Y Accel 1,Z Accel 1,X Accel 2,Y Accel 2,Z Accel2, Temp_6g,Temp,Theta,Phi,,,,,,
0.0000000000000000,1.0000000000000000,908.0200805660000460,20.7800197601000001,-18.8199787140000012,-892.6401977540000410,-38.9399757385000029,1.8001595735500000,26.4375000000000000,26.5767307280999994,-0.9700000000000000,180.0000000000000000
0.0000000000000000,1.0000000000000000,907.5600585939999960,20.5199928283999995,-19.2199878692999988,-893.3998413089999520,-38.9200057982999965,2.0800096988700001,26.4375000000000000,26.5767307280999994,-0.9700000000000000,180.0000000000000000
0.0000000000000000,1.0000000000000000,908.1199951170000300,20.5399894713999984,-19.4200096130000013,-892.2199096680000130,-39.1400299072000024,1.4400105476400000,26.4375000000000000,26.6079597473000007,-0.9700000000000000,180.0000000000000000
0.0000000000000000,1.0000000000000000,907.5999145509999830,20.8400192261000008,-18.6200084685999982,-892.9797973629999880,-38.9000320434999977,1.7199597358700001,26.4375000000000000,26.6079597473000007,-0.9700000000000000,180.0000000000000000
0.0000000000000000,1.0000000000000000,907.4600830079999690,20.5399894713999984,-19.1199588775999984,-892.8400878910000520,-39.0199890136999983,1.6799401044800000,26.4375000000000000,26.6079597473000007,-0.9700000000000000,180.0000000000000000
0.0000000000000000,1.0000000000000000,907.6399536129999880,21.2600097655999995,-18.9400177001999985,-893.1398315430000130,-38.9400291442999986,2.1799998283400002,26.1250000000000000,26.6079597473000007,-0.9700000000000000,180.0000000000000000
0.0000000000000000,1.0000000000000000,907.5599975589999520,20.6399993895999998,-19.1400108336999999,-893.1999511720000550,-38.9000091552999976,1.6399799585299999,26.4375000000000000,26.6079597473000007,-0.9700000000000000,180.0000000000000000
0.0000000000000000,1.0000000000000000,907.9400024410000460,21.0799903869999987,-19.2199974060000009,-892.3598022459999580,-38.8000183105000005,1.7400498390200001,26.4375000000000000,26.6391906738000017,-0.9700000000000000,180.0000000000000000
0.0000000000000000,1.0000000000000000,907.3800048829999690,20.2400093078999994,-19.4000091553000011,-893.4602050779999440,-38.8599510192999986,2.0998897552500000,26.1250000000000000,26.6391906738000017,-0.9700000000000000,180.0000000000000000
0.0000000000000000,1.0000000000000000,906.8800048829999690,20.4799804688000009,-19.0000019072999997,-892.9199829100000430,-38.7800178528000003,1.3799695968600001,26.1250000000000000,26.6391906738000017,-0.9700000000000000,180.0000000000000000
0.0000000000000000,2.0000000000000000,639.6200561519999600,650.4199829100000440,-15.7600278853999995,-611.7600708009999830,-512.0998535160000520,405.0799865719999950,26.4375000000000000,26.7016506195000005,-0.9700000000000000,135.0000000000000000
0.0000000000000000,2.0000000000000000,640.3000488279999440,650.3000488279999440,-16.0999584198000001,-610.8798217769999600,-512.4400024410000460,405.5599975590000100,26.4375000000000000,26.7016506195000005,-0.9700000000000000,135.0000000000000000
0.0000000000000000,2.0000000000000000,639.6799926759999830,649.6599731449999800,-16.9400177001999985,-612.1000366209999580,-512.5800170899999550,405.3999633789999840,26.1250000000000000,26.7016506195000005,-0.9700000000000000,135.0000000000000000
0.0000000000000000,2.0000000000000000,639.6400146480000320,650.7600097660000520,-15.9600009917999994,-610.7600708009999830,-512.6199340819999860,404.6200256349999900,26.7500000000000000,26.7016506195000005,-0.9700000000000000,135.0000000000000000
0.0000000000000000,2.0000000000000000,639.4200439449999740,650.3200073240000160,-16.1200065612999985,-611.0599365230000320,-512.6400146480000330,404.9800720210000120,26.7500000000000000,26.7328815460000015,-0.9700000000000000,135.0000000000000000
0.0000000000000000,2.0000000000000000,640.0999145509999830,650.3599243160000460,-15.9399700165000002,-611.0599365230000320,-512.3398437500000000,405.5799255370000080,26.1250000000000000,26.7328815460000015,-0.9700000000000000,135.0000000000000000
0.0000000000000000,2.0000000000000000,639.8599853519999660,650.4600830079999690,-16.2799797057999989,-610.8598632810000020,-512.3999633790000410,404.8800353999999970,26.4375000000000000,26.7328815460000015,-0.9700000000000000,135.0000000000000000
0.0000000000000000,2.0000000000000000,639.1800537110000270,650.1599731449999800,-15.8600120544000003,-610.0998535160000520,-512.9000854490000160,405.6600341800000250,26.4375000000000000,26.7328815460000015,-0.9700000000000000,135.0000000000000000
0.0000000000000000,2.0000000000000000,640.1199340819999860,650.3599853519999660,-16.2199916840000000,-611.3800048829999690,-512.3200073240000160,405.1799621580000230,26.4375000000000000,26.7328815460000015,-0.9700000000000000,135.0000000000000000
0.0000000000000000,2.0000000000000000,639.6400756839999520,650.3999633790000410,-16.2800102234000015,-611.7000732420000300,-512.5400390620000050,405.7001037599999900,26.4375000000000000,26.7328815460000015,-0.9700000000000000,135.0000000000000000
0.0000000000000000,3.0000000000000000,1.9799796342800000,906.1599731449999800,-13.2400302886999999,32.2998733521000005,-690.5799560550000240,569.8599243160000460,26.7500000000000000,26.7953414917000003,-0.9700000000000000,89.9999999999999999
0.0000000000000000,3.0000000000000000,1.5999999046300000,906.3200073240000160,-12.8600072861000001,33.0399589538999976,-691.0999755860000270,571.3200073240000160,26.4375000000000000,26.7953414917000003,-0.9700000000000000,89.9999999999999999
0.0000000000000000,3.0000000000000000,1.1999900341000000,906.4598999019999600,-12.9799804687999991,33.1200294495000022,-690.6998901370000110,570.7601928709999580,26.4375000000000000,26.7953414917000003,-0.9700000000000000,89.9999999999999999
0.0000000000000000,3.0000000000000000,1.6400001048999999,906.5799560550000240,-12.9400091171000007,32.5000877379999977,-691.0600585939999970,570.6000366209999580,26.7500000000000000,26.7953414917000003,-0.9700000000000000,89.9999999999999999
0.0000000000000000,3.0000000000000000,2.0599999427800002,906.6799926759999830,-12.7000093459999999,32.5797996521000002,-690.6998291019999660,571.2000122069999860,26.1250000000000000,26.7953414917000003,-0.9700000000000000,89.9999999999999999
0.0000000000000000,3.0000000000000000,1.6000200510000000,906.7399902339999460,-12.9200277327999995,32.5799598693999996,-690.2999877930000130,570.6799316410000520,26.7500000000000000,26.7953414917000003,-0.9700000000000000,89.9999999999999999
0.0000000000000000,3.0000000000000000,1.6799801588100001,906.3800659180000130,-13.2399883270000007,31.8999252318999993,-690.3800048829999690,570.9199829100000440,26.4375000000000000,26.8265705109000016,-0.9700000000000000,89.9999999999999999
0.0000000000000000,3.0000000000000000,1.5199998617199999,906.7600097660000520,-12.1599693297999991,32.5799903870000022,-690.6799926759999830,571.4400024410000460,26.7500000000000000,26.8265705109000016,-0.9700000000000000,89.9999999999999999
0.0000000000000000,3.0000000000000000,1.8199899196600000,907.1400756839999520,-12.5199785233000007,33.5801162719999979,-690.4398803709999580,570.5400390620000050,26.7500000000000000,26.8265705109000016,-0.9700000000000000,89.9999999999999999
0.0000000000000000,3.0000000000000000,1.5600401163099999,906.8800048829999690,-12.9400110245000004,32.6000022887999989,-690.4799804689999970,571.6801147459999580,26.7500000000000000,26.8265705109000016,-0.9700000000000000,89.9999999999999999
0.0000000000000000,4.0000000000000000,-640.6398315430000130,631.7400512699999800,-11.3999814987000008,669.5799560550000240,-466.2799377439999940,384.8800659180000140,27.0625000000000000,26.8578014373999991,-0.9700000000000000,45.0000000000000000
0.0000000000000000,4.0000000000000000,-640.2799682620000110,631.8599853519999660,-11.5599908828999993,669.7001342769999600,-466.5000305180000160,385.8401489259999830,26.4375000000000000,26.8578014373999991,-0.9700000000000000,45.0000000000000000
0.0000000000000000,4.0000000000000000,-640.1799926759999830,631.9799804689999970,-11.8400192261000008,669.6599121089999460,-466.7198181150000090,384.6798706050000190,26.7500000000000000,26.8890304564999987,-0.9700000000000000,45.0000000000000000
0.0000000000000000,4.0000000000000000,-639.7000122069999860,631.7399902339999460,-11.6200017929000001,669.1200561519999600,-466.9799194340000090,385.1400451659999930,26.7500000000000000,26.8890304564999987,-0.9700000000000000,45.0000000000000000
0.0000000000000000,4.0000000000000000,-639.7199707029999440,631.8800048829999690,-12.3199996947999999,670.0400390620000050,-466.8999938960000120,384.4598999020000170,26.4375000000000000,26.8890304564999987,-0.9700000000000000,45.0000000000000000
0.0000000000000000,4.0000000000000000,-639.4199829100000440,632.0800781249999990,-11.6999998092999995,669.9598388670000300,-466.7200317379999880,385.1799926759999830,26.4375000000000000,26.8890304564999987,-0.9700000000000000,45.0000000000000000
0.0000000000000000,4.0000000000000000,-639.4999389649999550,631.5999755860000270,-11.7000188828000002,669.2598876949999740,-466.6199951169999730,385.1600341800000250,26.4375000000000000,26.8890304564999987,-0.9700000000000000,45.0000000000000000
0.0000000000000000,4.0000000000000000,-640.1599731449999800,631.7799682620000110,-11.2799806594999996,669.1199340819999850,-466.9200134280000040,384.5200195310000020,26.7500000000000000,26.8890304564999987,-0.9700000000000000,45.0000000000000000
0.0000000000000000,4.0000000000000000,-640.1399536129999880,631.6199951170000300,-12.6199989318999997,669.8400878910000520,-466.7599792479999790,385.2800292969999980,26.4375000000000000,26.8890304564999987,-0.9700000000000000,45.0000000000000000
0.0000000000000000,4.0000000000000000,-640.3200073240000160,631.6400146480000320,-11.2799911499000007,669.2600097660000520,-466.8399353030000040,384.9798889159999930,26.7500000000000000,26.8890304564999987,-0.9700000000000000,45.0000000000000000
0.0000000000000000,5.0000000000000000,-889.7399902339999460,-4.8999791145299998,-16.7399997710999990,901.9801635740000160,23.8200683594000004,-27.0599765778000005,26.7500000000000000,26.9514904022000010,-0.9700000000000000,0.0000000000000000
0.0000000000000000,5.0000000000000000,-889.2799072269999660,-4.9599900245699997,-16.9599971771000000,901.3800048829999690,24.3800258636000002,-26.9200096130000013,27.0625000000000000,26.9514904022000010,-0.9700000000000000,0.0000000000000000
0.0000000000000000,5.0000000000000000,-889.7001342769999600,-5.0999898910499999,-16.8599700928000011,902.4199829100000430,24.5799579620000017,-26.8400573730000005,26.7500000000000000,26.9514904022000010,-0.9700000000000000,0.0000000000000000
0.0000000000000000,5.0000000000000000,-889.9201660160000520,-5.1800103187600000,-17.2400112151999991,901.3399658199999740,24.1999988556000005,-27.1600189209000007,26.7500000000000000,26.9514904022000010,-0.9700000000000000,0.0000000000000000
0.0000000000000000,5.0000000000000000,-888.8399658199999740,-5.1600298881500004,-17.3799839019999993,901.5799560550000240,24.1199512481999996,-26.1601123810000011,26.7500000000000000,26.9514904022000010,-0.9700000000000000,0.0000000000000000
0.0000000000000000,5.0000000000000000,-889.5999755860000270,-4.9599900245699997,-16.9800186157000006,901.8800659180000130,24.3200798035000005,-27.2799797057999988,26.7500000000000000,26.9827213286999985,-0.9700000000000000,0.0000000000000000
0.0000000000000000,5.0000000000000000,-889.3198852540000410,-5.3399796485900000,-17.4999809265000010,900.9999999999999990,24.3400001525999983,-27.1599807738999992,27.0625000000000000,26.9827213286999985,-0.9700000000000000,0.0000000000000000
0.0000000000000000,5.0000000000000000,-889.8800048829999690,-5.4199895858799998,-17.4000320435000013,901.4600830079999690,24.0800514220999986,-26.3000183105000005,27.0625000000000000,26.9827213286999985,-0.9700000000000000,0.0000000000000000
0.0000000000000000,5.0000000000000000,-889.6800537110000270,-4.9800100326500001,-16.4200172424000001,901.1598510740000160,24.3199863434000001,-27.0599479675000012,26.4375000000000000,26.9827213286999985,-0.9700000000000000,0.0000000000000000
0.0000000000000000,5.0000000000000000,-889.4599609379999940,-5.5600199699399999,-16.8800125122000004,901.4998779300000240,24.4399967193999998,-27.0199985504000004,26.7500000000000000,26.9827213286999985,-0.9700000000000000,0.0000000000000000
0.0000000000000000,6.0000000000000000,-622.4999999999999990,-633.0799560550000240,-21.7400321960000013,617.2600097660000520,497.4799194340000090,-430.1600341800000250,26.4375000000000000,27.0139503478999998,-0.9700000000000000,-45.0000000000000000
0.0000000000000000,6.0000000000000000,-621.9400634769999660,-632.6199340819999860,-21.9000415801999999,617.9000854490000160,497.6199951169999730,-430.1400146479999760,26.7500000000000000,27.0139503478999998,-0.9700000000000000,-45.0000000000000000
0.0000000000000000,6.0000000000000000,-621.9799804689999970,-632.9000244139999720,-21.6600208282000004,618.4400634769999660,497.6598815919999760,-430.7200012210000180,26.4375000000000000,27.0139503478999998,-0.9700000000000000,-45.0000000000000000
0.0000000000000000,6.0000000000000000,-622.3599243160000460,-632.9400024410000460,-20.9400119780999994,618.5599365230000320,497.8399047849999870,-430.1998291020000230,26.7500000000000000,27.0139503478999998,-0.9700000000000000,-45.0000000000000000
0.0000000000000000,6.0000000000000000,-622.2999267579999690,-633.2000122069999860,-21.0799674987999985,617.4599609379999940,497.6599121090000030,-430.3999633789999840,26.7500000000000000,27.0139503478999998,-0.9700000000000000,-45.0000000000000000
0.0000000000000000,6.0000000000000000,-622.4198608399999550,-633.1599121089999460,-21.3800220490000008,617.9398803709999580,497.7000427250000020,-430.3999633789999840,26.7500000000000000,27.0451812744000008,-0.9700000000000000,-45.0000000000000000
0.0000000000000000,6.0000000000000000,-621.9198608399999550,-632.9799804689999970,-21.2999897002999994,618.0199584959999580,497.7200622560000050,-430.0000305180000160,27.0625000000000000,27.0451812744000008,-0.9700000000000000,-45.0000000000000000
0.0000000000000000,6.0000000000000000,-622.4999389649999550,-632.7799682620000110,-21.5399875640999987,617.8400268550000190,497.6000366210000150,-430.1999511719999980,26.7500000000000000,27.0451812744000008,-0.9700000000000000,-45.0000000000000000
0.0000000000000000,6.0000000000000000,-622.1998291019999660,-633.3599853519999660,-21.0199794769000014,618.2000122069999860,497.9999389650000120,-429.9800720210000120,26.4375000000000000,27.0451812744000008,-0.9700000000000000,-45.0000000000000000
0.0000000000000000,6.0000000000000000,-622.0999755860000270,-633.1599731449999800,-21.7399864196999992,618.2199096680000130,497.8599853520000230,-430.8399658199999740,26.7500000000000000,27.0451812744000008,-0.9700000000000000,-45.0000000000000000
0.0000000000000000,7.0000000000000000,15.7600011825999999,-890.3999633790000410,-24.2400093078999994,-23.7600307465000000,675.6199340819999850,-596.3601074220000550,27.0625000000000000,27.0764102935999986,-0.9700000000000000,-89.9999999999999999
0.0000000000000000,7.0000000000000000,15.1800384520999998,-890.3399658199999740,-24.0799961089999996,-23.3799610137999991,675.9000854490000160,-595.4599609379999940,27.0625000000000000,27.0764102935999986,-0.9700000000000000,-89.9999999999999999
0.0000000000000000,7.0000000000000000,15.7599897384999998,-890.3800048829999690,-23.8999710082999996,-23.1800384520999998,675.5799560550000240,-595.7798461910000460,26.7500000000000000,27.0764102935999986,-0.9700000000000000,-89.9999999999999999
0.0000000000000000,7.0000000000000000,15.8600111007999995,-890.5799560550000240,-23.8600120543999985,-23.2198925018000004,675.5600585939999970,-595.6199951170000300,26.7500000000000000,27.0764102935999986,-0.9700000000000000,-89.9999999999999999
0.0000000000000000,7.0000000000000000,15.9199781417999997,-890.1000366209999580,-23.8000049591000007,-23.5000629425000014,675.5399780269999600,-595.8399658199999740,26.7500000000000000,27.1076412200999996,-0.9700000000000000,-89.9999999999999999
0.0000000000000000,7.0000000000000000,15.5999803542999995,-890.4800415040000410,-24.1600112914999982,-23.9200954436999993,675.7000122069999850,-595.2399902339999470,27.0625000000000000,27.1076412200999996,-0.9700000000000000,-89.9999999999999999
0.0000000000000000,7.0000000000000000,15.7599992752000002,-890.2598876949999740,-23.9400291442999986,-23.0399894713999984,675.9199829100000440,-596.5399169920000300,26.7500000000000000,27.1076412200999996,-0.9700000000000000,-89.9999999999999999
0.0000000000000000,7.0000000000000000,15.7799863815000005,-890.5799560550000240,-24.1800117493000002,-23.6199913025000008,675.4001464839999460,-595.4400634769999660,26.7500000000000000,27.1076412200999996,-0.9700000000000000,-89.9999999999999999
0.0000000000000000,7.0000000000000000,15.3400106429999994,-890.5599975589999520,-24.1000003814999992,-24.0001010894999993,675.6199951170000300,-596.1600952149999550,27.0625000000000000,27.1076412200999996,-0.9700000000000000,-89.9999999999999999
0.0000000000000000,7.0000000000000000,15.5599803925000000,-890.6599731449999800,-24.0200290679999995,-23.9599304199000009,675.3798217769999600,-595.9598999019999600,27.0625000000000000,27.1076412200999996,-0.9700000000000000,-89.9999999999999999
0.0000000000000000,8.0000000000000000,659.0999755860000270,-615.4599609379999940,-24.1400165557999990,-657.6398925779999440,452.3999633789999840,-408.4798278810000050,27.0625000000000000,27.1388702393000010,-0.9700000000000000,-135.0000000000000000
0.0000000000000000,8.0000000000000000,660.4599609379999940,-616.2600097660000520,-23.7399826050000016,-657.3198852540000410,452.6399536129999880,-408.9400939939999940,26.7500000000000000,27.1388702393000010,-0.9700000000000000,-135.0000000000000000
0.0000000000000000,8.0000000000000000,659.4199218749999990,-615.4400024410000460,-23.8000183105000005,-657.3999023439999970,452.2800598140000260,-408.3199157710000120,26.7500000000000000,27.1388702393000010,-0.9700000000000000,-135.0000000000000000
0.0000000000000000,8.0000000000000000,659.7799682620000110,-615.0800781249999990,-24.0200195311999991,-657.3798828120000050,451.9600830080000260,-408.0799865719999950,26.7500000000000000,27.1388702393000010,-0.9700000000000000,-135.0000000000000000
0.0000000000000000,8.0000000000000000,659.3599853519999660,-615.2000732420000300,-23.4599685668999989,-658.5999145509999830,452.2599182129999910,-408.9799499509999800,26.7500000000000000,27.1388702393000010,-0.9700000000000000,-135.0000000000000000
0.0000000000000000,8.0000000000000000,659.4799804689999970,-615.9599609379999940,-24.1999893188000001,-657.6599121089999460,452.2400207520000200,-408.5000000000000000,27.0625000000000000,27.1388702393000010,-0.9700000000000000,-135.0000000000000000
0.0000000000000000,8.0000000000000000,659.2799682620000110,-615.2999877930000130,-24.0600090026999993,-658.2199707029999440,452.3399658199999740,-408.5200805659999900,26.7500000000000000,27.1388702393000010,-0.9700000000000000,-135.0000000000000000
0.0000000000000000,8.0000000000000000,659.6599731449999800,-615.3598632810000020,-23.3199729918999985,-657.9598388670000300,452.1400756840000090,-407.5597839359999740,26.7500000000000000,27.1701011657999984,-0.9700000000000000,-135.0000000000000000
0.0000000000000000,8.0000000000000000,659.5599975589999520,-615.8399658199999740,-23.4199771880999989,-658.3399658199999740,451.4200439449999740,-407.7399902340000040,26.7500000000000000,27.1701011657999984,-0.9700000000000000,-135.0000000000000000
0.0000000000000000,8.0000000000000000,659.8399047850000440,-615.3399658199999740,-23.4799900054999995,-658.1400146480000320,452.0199890139999750,-408.4600219729999820,27.0625000000000000,27.1701011657999984,-0.9700000000000000,-135.0000000000000000
0.0000000000000000,9.0000000000000000,829.5199584959999580,18.3600196838000009,371.4599914550000220,-820.0400390620000040,212.6000213620000070,295.9399108889999750,26.7500000000000000,27.2325611115000008,24.6600000000000001,180.0000000000000000
0.0000000000000000,9.0000000000000000,830.2600097660000520,18.4799995422000016,371.2799072270000230,-819.6200561519999600,212.0599212650000140,295.4598388669999730,27.0625000000000000,27.2325611115000008,24.6600000000000001,180.0000000000000000
0.0000000000000000,9.0000000000000000,830.3399658199999740,18.2199783324999984,371.9799499509999800,-819.7799072269999660,212.5799560549999960,295.0199584960000150,27.0625000000000000,27.2325611115000008,24.6600000000000001,180.0000000000000000
0.0000000000000000,9.0000000000000000,830.2800292970000550,18.2399883269999989,371.5000000000000000,-820.4999999999999990,212.1399993900000140,296.1600036620000080,26.7500000000000000,27.2325611115000008,24.6600000000000001,180.0000000000000000
0.0000000000000000,9.0000000000000000,829.8599243160000460,18.4800090789999984,371.8200378419999760,-819.1601562499999990,211.8799133299999940,295.5599365229999760,27.0625000000000000,27.2325611115000008,24.6600000000000001,180.0000000000000000
0.0000000000000000,9.0000000000000000,830.3198852540000410,18.7000102997000006,371.2399902340000040,-819.5001220699999740,212.4199981689999960,296.1998901370000110,26.7500000000000000,27.2325611115000008,24.6600000000000001,180.0000000000000000
0.0000000000000000,9.0000000000000000,830.4999999999999990,18.1000099182000014,371.4399414060000020,-819.3400878910000520,212.4999389650000120,295.4201049800000190,27.0625000000000000,27.2325611115000008,24.6600000000000001,180.0000000000000000
0.0000000000000000,9.0000000000000000,830.2001342769999600,18.1600112914999983,372.2200317379999880,-819.3801879879999880,212.5199890140000030,295.1999816890000260,27.0625000000000000,27.2325611115000008,24.6600000000000001,180.0000000000000000
0.0000000000000000,9.0000000000000000,830.1799926759999830,18.3799991608000006,371.5800781250000000,-819.9797973629999880,212.7199401860000020,295.6000366210000150,26.7500000000000000,27.2325611115000008,24.6600000000000001,180.0000000000000000
0.0000000000000000,9.0000000000000000,830.5399780269999600,18.3000087737999983,371.3000793460000180,-820.1998901370000100,211.6600341799999960,295.7000427250000030,27.0625000000000000,27.2637901306000003,24.6600000000000001,180.0000000000000000
0.0000000000000000,10.0000000000000000,584.4399414060000020,590.8599853519999660,372.2399597169999760,-561.1799316410000520,-219.0200195310000020,661.4799804689999970,27.0625000000000000,27.2637901306000003,24.6699999999999981,135.0000000000000000
0.0000000000000000,10.0000000000000000,584.6200561519999600,590.5599975589999520,372.2999877930000140,-561.3399658199999740,-219.4800109859999960,661.9602050779999440,27.0625000000000000,27.2637901306000003,24.6699999999999981,135.0000000000000000
0.0000000000000000,10.0000000000000000,585.0599365230000320,590.7799682620000110,372.3200378419999760,-561.9602050779999440,-219.0399932859999980,661.2999877930000130,26.7500000000000000,27.2637901306000003,24.6699999999999981,135.0000000000000000
0.0000000000000000,10.0000000000000000,584.4799194339999520,590.8198852540000410,372.3999938960000120,-561.2199707029999440,-219.1200103760000100,661.8200073240000160,26.7500000000000000,27.2637901306000003,24.6699999999999981,135.0000000000000000
0.0000000000000000,10.0000000000000000,584.3801269529999440,590.3800048829999690,372.3199462889999720,-561.4199829100000440,-219.4800415040000130,660.9799194339999520,26.7500000000000000,27.2637901306000003,24.6699999999999981,135.0000000000000000
0.0000000000000000,10.0000000000000000,583.3200073240000160,591.0800170899999550,372.0399780270000170,-561.7600097660000520,-219.2599792480000070,661.9798583980000320,27.0625000000000000,27.2637901306000003,24.6600000000000001,135.0000000000000000
0.0000000000000000,10.0000000000000000,584.4799194339999520,591.4999999999999990,371.9799804689999970,-560.7600708009999830,-219.7800292969999980,661.5798339839999460,27.0625000000000000,27.2950210571000014,24.6600000000000001,135.0000000000000000
0.0000000000000000,10.0000000000000000,584.8600463870000110,590.8000488279999440,372.9600219729999820,-561.7399291990000160,-218.8000335689999930,660.8599853519999660,27.3750000000000000,27.2950210571000014,24.6600000000000001,135.0000000000000000
0.0000000000000000,10.0000000000000000,584.6199340819999860,590.6199951170000300,372.2399902340000040,-562.3399047850000440,-219.4800109859999960,661.6799926759999830,26.7500000000000000,27.2950210571000014,24.6600000000000001,135.0000000000000000
0.0000000000000000,10.0000000000000000,584.1599731449999800,590.4799804689999970,371.8999023439999970,-561.7600097660000520,-218.8999633790000130,662.1801147459999580,27.0625000000000000,27.2950210571000014,24.6699999999999981,135.0000000000000000
0.0000000000000000,11.0000000000000000,2.5000197887400000,823.9799804689999970,374.6998596189999940,29.2199764251999987,-383.4599609379999940,808.0199584959999580,27.0625000000000000,27.3262500762999991,24.6699999999999981,89.9999999999999999
0.0000000000000000,11.0000000000000000,2.6800100803400002,824.3599853519999660,375.1000061039999870,29.5200138092000017,-383.2600402830000230,808.1599121089999460,26.7500000000000000,27.3262500762999991,24.6699999999999981,89.9999999999999999
0.0000000000000000,11.0000000000000000,2.3399996757500001,824.3999633790000410,374.7200317379999880,29.3600292206000013,-383.5198669430000110,807.8196411129999880,26.7500000000000000,27.3262500762999991,24.6699999999999981,89.9999999999999999
0.0000000000000000,11.0000000000000000,2.2199897766099999,824.1799926759999830,375.1000061039999870,29.8400096893000004,-383.6199646000000030,807.7399291990000160,27.0625000000000000,27.3262500762999991,24.6699999999999981,89.9999999999999999
0.0000000000000000,11.0000000000000000,2.1600203514100000,824.1199951170000300,375.0599975590000100,29.7999095917000005,-383.8600769039999810,808.9199829100000440,26.7500000000000000,27.3262500762999991,24.6699999999999981,89.9999999999999999
0.0000000000000000,11.0000000000000000,2.7200093269300001,824.1599731449999800,375.5000000000000000,29.0398788452000005,-383.1399841310000050,808.1001586910000460,26.7500000000000000,27.3262500762999991,24.6699999999999981,89.9999999999999999
0.0000000000000000,11.0000000000000000,2.2400205135300002,824.1399536129999880,374.7200012210000180,28.8599319457999996,-383.5999450680000110,807.4800415040000410,27.0625000000000000,27.3262500762999991,24.6699999999999981,89.9999999999999999
0.0000000000000000,11.0000000000000000,2.4799699783300002,824.2600097660000520,375.7201232909999930,30.0401287078999992,-383.8199157710000120,807.6598510740000160,27.0625000000000000,27.3262500762999991,24.6699999999999981,89.9999999999999999
0.0000000000000000,11.0000000000000000,2.3399896621699998,824.3800048829999690,375.2399597169999760,29.1999778747999983,-383.3999023439999970,807.9197998050000240,27.0625000000000000,27.3262500762999991,24.6699999999999981,89.9999999999999999
0.0000000000000000,11.0000000000000000,2.1799995899200000,824.3399658199999740,374.9400024409999900,29.0800170897999983,-383.5599975590000100,808.1998901370000100,27.0625000000000000,27.3574810028000002,24.6699999999999981,89.9999999999999999
0.0000000000000000,12.0000000000000000,-581.8599853519999660,573.8599853519999660,374.3400573729999790,606.9400024410000460,-172.6600036620000080,644.3798217769999600,26.7500000000000000,27.3574810028000002,24.6699999999999981,45.0000000000000000
0.0000000000000000,12.0000000000000000,-581.1799926759999830,573.8200073240000160,374.6000366210000150,607.5200195310000020,-172.6399993900000140,644.2199707029999440,26.7500000000000000,27.3574810028000002,24.6699999999999981,45.0000000000000000
0.0000000000000000,12.0000000000000000,-581.1799926759999830,573.8399658199999740,373.6200256349999900,607.1400146480000320,-173.1599731450000090,644.5399169920000300,26.7500000000000000,27.3574810028000002,24.6699999999999981,45.0000000000000000
0.0000000000000000,12.0000000000000000,-581.4799804689999970,573.7999877930000130,374.7399902340000040,606.5401000980000380,-172.9400482179999870,644.0599975589999520,27.0625000000000000,27.3574810028000002,24.6699999999999981,45.0000000000000000
0.0000000000000000,12.0000000000000000,-580.4599609379999940,573.5999755860000270,373.6399841310000050,607.4398803709999580,-173.1999816889999980,644.2998046879999940,26.7500000000000000,27.3574810028000002,24.6699999999999981,45.0000000000000000
0.0000000000000000,12.0000000000000000,-580.9399414060000020,573.9799804689999970,374.8599853520000230,607.0799560550000240,-173.0599823000000010,644.2999877930000130,27.0625000000000000,27.3574810028000002,24.6699999999999981,45.0000000000000000
0.0000000000000000,12.0000000000000000,-581.2199707029999440,574.0198974610000270,374.6999511719999980,607.2198486329999690,-172.8799743650000090,643.9600830079999690,27.0625000000000000,27.3574810028000002,24.6699999999999981,45.0000000000000000
0.0000000000000000,12.0000000000000000,-581.3399658199999740,573.8599853519999660,374.6400451659999930,607.3600463870000110,-172.8599548340000070,644.7200317379999880,26.7500000000000000,27.3574810028000002,24.6699999999999981,45.0000000000000000
0.0000000000000000,12.0000000000000000,-581.5399780269999600,573.6599731449999800,374.2399902340000040,607.8200073240000160,-172.6400146480000040,643.8999633790000410,27.0625000000000000,27.3574810028000002,24.6699999999999981,45.0000000000000000
0.0000000000000000,12.0000000000000000,-581.5999755860000270,573.9399414060000020,373.8399658199999750,607.1599731449999800,-173.0800170900000120,644.0000610350000440,26.7500000000000000,27.3574810028000002,24.6699999999999981,45.0000000000000000
0.0000000000000000,13.0000000000000000,-807.5400390620000040,-7.0799894332899997,371.4799499509999800,818.2000122069999850,273.5199584960000150,269.6598815919999760,27.3750000000000000,27.3887100220000015,24.6699999999999981,0.0000000000000000
0.0000000000000000,13.0000000000000000,-807.4398803709999580,-7.1199994087200000,372.0599060060000050,817.5399780269999600,273.7599792479999790,270.7400817870000080,27.0625000000000000,27.3887100220000015,24.6699999999999981,0.0000000000000000
0.0000000000000000,13.0000000000000000,-807.4999999999999990,-7.1799674034100001,371.1999816890000260,817.8400878910000520,273.6399841310000050,270.1999816890000260,27.0625000000000000,27.3887100220000015,24.6699999999999981,0.0000000000000000
0.0000000000000000,13.0000000000000000,-807.5798950199999800,-6.9200091362000000,371.5001220699999750,818.0199584959999580,273.7200317379999880,270.5000305180000170,27.0625000000000000,27.3887100220000015,24.6699999999999981,0.0000000000000000
0.0000000000000000,13.0000000000000000,-807.3399658199999740,-7.0000200271599997,371.2400207520000200,817.7799072269999660,273.7799987789999820,269.9199218750000000,27.0625000000000000,27.3887100220000015,24.6699999999999981,0.0000000000000000
0.0000000000000000,13.0000000000000000,-807.3400878910000520,-7.4999794959999999,371.5999450680000110,817.4998168949999800,273.6199035640000260,270.3601074219999980,27.0625000000000000,27.3887100220000015,24.6699999999999981,0.0000000000000000
0.0000000000000000,13.0000000000000000,-807.5599975589999520,-7.2399902343799996,370.9000244139999720,818.3200683589999460,273.7800292969999980,270.7400817870000080,27.0625000000000000,27.3887100220000015,24.6699999999999981,0.0000000000000000
0.0000000000000000,13.0000000000000000,-807.3800048829999690,-7.4600200653100002,371.4199523930000160,817.1598510740000160,273.7000427250000030,269.5399475099999900,26.7500000000000000,27.3887100220000015,24.6699999999999981,0.0000000000000000
0.0000000000000000,13.0000000000000000,-807.1399536129999880,-7.1599993705699996,371.3599243159999900,817.5598754879999880,274.0600280759999800,270.6200256349999900,27.0625000000000000,27.3887100220000015,24.6699999999999981,0.0000000000000000
0.0000000000000000,13.0000000000000000,-807.4398803709999580,-7.5799994468699996,371.2800292969999980,817.8198852540000410,274.0800476069999830,270.1399841310000050,27.3750000000000000,27.3887100220000015,24.6699999999999981,0.0000000000000000
0.0000000000000000,14.0000000000000000,-563.7800292970000550,-581.2799682620000110,366.7199401859999740,561.9598999019999600,702.1199340819999850,-100.6798400880000060,27.0625000000000000,27.4199409484999989,24.6699999999999981,-45.0000000000000000
0.0000000000000000,14.0000000000000000,-563.9199218749999990,-580.8399658199999740,367.0400390620000050,561.6199951170000300,702.0000610350000440,-101.4599990840000030,27.0625000000000000,27.4199409484999989,24.6699999999999981,-45.0000000000000000
0.0000000000000000,14.0000000000000000,-564.0800170899999550,-580.7600708009999830,366.4799499509999800,560.9400024410000460,702.0599975589999520,-100.2600173950000050,27.0625000000000000,27.4199409484999989,24.6699999999999981,-45.0000000000000000
0.0000000000000000,14.0000000000000000,-564.5199584959999580,-580.5599975589999520,366.6799621580000230,562.3800659180000130,702.0599975589999520,-101.1800308229999960,27.0625000000000000,27.4199409484999989,24.6699999999999981,-45.0000000000000000
0.0000000000000000,14.0000000000000000,-563.9799804689999970,-580.6400146480000320,366.6400451659999930,561.2000122069999860,701.8999633790000410,-101.0600204469999990,27.3750000000000000,27.4199409484999989,24.6699999999999981,-45.0000000000000000
0.0000000000000000,14.0000000000000000,-564.1200561519999600,-580.7799682620000110,365.9799804689999970,561.5799560550000250,702.1000366209999580,-101.4800643920000030,27.0625000000000000,27.4199409484999989,24.6699999999999981,-45.0000000000000000
0.0000000000000000,14.0000000000000000,-564.5400390620000050,-581.2000122069999860,366.3999023439999970,561.3599853519999660,701.7600097660000520,-101.2800369259999940,27.0625000000000000,27.4199409484999989,24.6699999999999981,-45.0000000000000000
0.0000000000000000,14.0000000000000000,-563.7600708009999830,-581.0399169920000300,366.2599792479999790,562.8801269529999440,702.1199951170000300,-101.5000457759999930,27.3750000000000000,27.4511699677000003,24.6699999999999981,-45.0000000000000000
0.0000000000000000,14.0000000000000000,-563.6799926759999830,-580.8800048829999690,366.4200439449999750,561.8999633790000410,701.5201416019999660,-100.1598587040000010,27.0625000000000000,27.4511699677000003,24.6699999999999981,-45.0000000000000000
0.0000000000000000,14.0000000000000000,-563.7000122069999860,-580.8000488279999440,366.0400390620000050,562.0801391600000440,702.0200805660000460,-101.3601379389999980,27.0625000000000000,27.4199409484999989,24.6699999999999981,-45.0000000000000000
0.0000000000000000,15.0000000000000000,17.4000225067000009,-812.0999145509999830,365.2999877930000140,-26.5000476837000001,866.3798828120000040,-247.2200012209999900,27.0625000000000000,27.4511699677000003,24.6699999999999981,-89.9999999999999999
0.0000000000000000,15.0000000000000000,17.7400074005000015,-812.4801635740000160,365.9200744629999910,-26.8999900817999986,866.3200073240000160,-247.0200195310000020,26.7500000000000000,27.4511699677000003,24.6699999999999981,-89.9999999999999999
0.0000000000000000,15.0000000000000000,17.8800182342999996,-811.6799926759999830,365.7400817870000080,-26.3600254059000001,866.7399902339999460,-247.0600128170000000,26.7500000000000000,27.4511699677000003,24.6699999999999981,-89.9999999999999999
0.0000000000000000,15.0000000000000000,17.5200271606000015,-812.1398925779999440,365.1399841310000050,-27.0599975585999992,866.5399780269999600,-247.8199920650000080,27.3750000000000000,27.4511699677000003,24.6699999999999981,-89.9999999999999999
0.0000000000000000,15.0000000000000000,18.2200183867999996,-812.0599975589999520,366.3199768069999890,-26.2999992370999997,866.3800048829999690,-246.4000549319999890,27.3750000000000000,27.4511699677000003,24.6699999999999981,-89.9999999999999999
0.0000000000000000,15.0000000000000000,17.2800006866000011,-811.9599609379999940,365.3199157710000120,-26.6000385283999989,866.9601440430000130,-248.1799163819999870,27.0625000000000000,27.4511699677000003,24.6699999999999981,-89.9999999999999999
0.0000000000000000,15.0000000000000000,17.5000209807999987,-812.1399536129999880,365.6400451659999930,-27.1999893188000001,866.0201416019999660,-247.2599334720000000,27.0625000000000000,27.4511699677000003,24.6699999999999981,-89.9999999999999999
0.0000000000000000,15.0000000000000000,17.0999813080000003,-812.1800537110000270,365.3399963379999910,-26.1799697876000010,866.5799560550000240,-247.1999359129999900,27.0625000000000000,27.4511699677000003,24.6699999999999981,-89.9999999999999999
0.0000000000000000,15.0000000000000000,17.9399623870999996,-811.9599609379999940,365.5799560550000250,-26.5599994658999989,866.4600830079999690,-247.4400787349999860,27.0625000000000000,27.4511699677000003,24.6699999999999981,-89.9999999999999999
0.0000000000000000,15.0000000000000000,17.7000198363999992,-812.1799926759999830,365.5801086430000160,-26.3999710082999996,866.1399536129999880,-246.9799499510000090,26.7500000000000000,27.4511699677000003,24.6699999999999981,-89.9999999999999999
0.0000000000000000,16.0000000000000000,602.0600585939999970,-562.7800292970000550,364.6799011229999790,-606.8600463870000110,660.6199340819999860,-78.5600128173999934,27.0625000000000000,27.4824008942000013,24.6699999999999981,-135.0000000000000000
0.0000000000000000,16.0000000000000000,600.4799804689999970,-562.3999633790000410,364.3599243159999900,-606.7000122069999860,660.6201171879999940,-79.0399322509999961,27.0625000000000000,27.4824008942000013,24.6699999999999981,-135.0000000000000000
0.0000000000000000,16.0000000000000000,601.8001098629999880,-563.0199584959999580,364.0200195310000020,-607.3400268550000190,660.4400024410000460,-78.9201126099000020,26.7500000000000000,27.4824008942000013,24.6699999999999981,-135.0000000000000000
0.0000000000000000,16.0000000000000000,602.2600097660000520,-562.4400024410000460,363.9199523930000160,-607.1199340819999860,660.7799682620000110,-78.6199569701999934,27.0625000000000000,27.4824008942000013,24.6699999999999981,-135.0000000000000000
0.0000000000000000,16.0000000000000000,601.6400146480000320,-562.5999755860000270,364.8399047849999870,-606.6402587889999720,661.0000610350000440,-79.6000976562000062,27.0625000000000000,27.4824008942000013,24.6699999999999981,-135.0000000000000000
0.0000000000000000,16.0000000000000000,602.3198852540000410,-562.5999755860000270,364.3399047849999870,-607.4398803709999580,660.2600097660000520,-78.6999969481999954,27.0625000000000000,27.4824008942000013,24.6699999999999981,-135.0000000000000000
0.0000000000000000,16.0000000000000000,601.9999999999999990,-563.1199951170000300,364.0399780270000180,-607.1199340819999860,660.7000122069999860,-79.4799880980999944,27.0625000000000000,27.4824008942000013,24.6699999999999981,-135.0000000000000000
0.0000000000000000,16.0000000000000000,602.0599975589999520,-562.9400024410000460,363.7999572749999970,-607.2798461910000460,660.3198852540000410,-79.1599426270000066,27.0625000000000000,27.4824008942000013,24.6699999999999981,-135.0000000000000000
0.0000000000000000,16.0000000000000000,601.3999633790000410,-562.8798828120000050,363.7599487300000190,-606.8801269529999440,660.3800048829999690,-78.8799819946000013,27.0625000000000000,27.5136299133000008,24.6699999999999981,-135.0000000000000000
0.0000000000000000,16.0000000000000000,601.9998779300000240,-563.1000366209999580,364.6400451659999930,-606.6599731449999800,659.9400024410000460,-79.4800262451000065,27.0625000000000000,27.5136299133000008,24.6699999999999981,-135.0000000000000000
0.0000000000000000,17.0000000000000000,633.9400024410000460,12.9799900054999995,647.7398681639999720,-620.1202392579999690,400.4199829099999870,506.3999633789999840,27.3750000000000000,27.5448608397999983,46.6700000000000017,180.0000000000000000
0.0000000000000000,17.0000000000000000,633.4400024410000460,13.2200107574000007,647.7999877930000130,-620.8399658199999740,400.7599792479999790,506.4200744629999910,27.3750000000000000,27.5448608397999983,46.6799999999999997,180.0000000000000000
0.0000000000000000,17.0000000000000000,633.4199829100000440,13.7000179290999995,646.9999999999999990,-621.0400390620000050,400.4400024409999900,506.3199462889999720,27.0625000000000000,27.5448608397999983,46.6799999999999997,180.0000000000000000
0.0000000000000000,17.0000000000000000,633.4199829100000440,13.3199882506999998,647.1400146480000320,-620.4799194339999520,400.4199829099999870,506.7199401859999730,27.0625000000000000,27.5448608397999983,46.6799999999999997,180.0000000000000000
0.0000000000000000,17.0000000000000000,633.5799560550000240,13.2599792480000005,647.4200439449999740,-620.8800048829999690,401.0400390620000050,506.6000366210000150,27.0625000000000000,27.5448608397999983,46.6799999999999997,180.0000000000000000
0.0000000000000000,17.0000000000000000,634.1600341800000240,13.1199998856000004,647.7999877930000130,-620.6799926759999830,400.5599670409999930,506.8399047849999870,27.0625000000000000,27.5448608397999983,46.6799999999999997,180.0000000000000000
0.0000000000000000,17.0000000000000000,633.3400878910000520,13.4600095749000008,647.6199951170000300,-620.3198852540000410,400.6599121090000040,506.7999877930000130,27.0625000000000000,27.5448608397999983,46.6799999999999997,180.0000000000000000
0.0000000000000000,17.0000000000000000,633.5799560550000240,13.4999799728000003,647.6400146480000320,-621.1599731449999800,400.6000671389999750,506.8800353999999970,27.0625000000000000,27.5448608397999983,46.6799999999999997,180.0000000000000000
0.0000000000000000,17.0000000000000000,633.9599609379999940,13.2999887466000004,647.9400024410000460,-620.8999633790000410,400.4399108889999750,506.2000427250000020,27.3750000000000000,27.5448608397999983,46.6799999999999997,180.0000000000000000
0.0000000000000000,17.0000000000000000,633.3599853519999660,13.0599889754999996,647.3200073240000160,-620.6199340819999860,400.5599670409999930,506.1398620609999730,27.3750000000000000,27.5448608397999983,46.6799999999999997,180.0000000000000000
0.0000000000000000,18.0000000000000000,443.8998413090000090,448.9399414060000020,650.3198852540000410,-426.6799621580000230,73.7399673462000038,783.6199951170000300,27.0625000000000000,27.5760898589999996,46.6799999999999997,135.0000000000000000
0.0000000000000000,18.0000000000000000,444.0600280759999800,448.3599853520000230,650.5599975589999520,-427.0999755860000270,73.6200408936000059,782.4998168949999800,27.0625000000000000,27.5760898589999996,46.6799999999999997,135.0000000000000000
0.0000000000000000,18.0000000000000000,443.9999389650000120,448.8800353999999970,650.8599853519999660,-426.1201171879999940,73.5999984741000048,783.4199218749999990,27.0625000000000000,27.5448608397999983,46.6799999999999997,135.0000000000000000
0.0000000000000000,18.0000000000000000,444.1399841310000050,448.9799804689999970,650.7600097660000520,-426.3598327639999750,74.3200683593999968,783.0799560550000240,27.3750000000000000,27.5448608397999983,46.6799999999999997,135.0000000000000000
0.0000000000000000,18.0000000000000000,443.1600036620000080,448.5599975590000090,650.4799804689999970,-425.9399414060000020,73.7200775146000069,783.4000854490000160,27.3750000000000000,27.5448608397999983,46.6799999999999997,135.0000000000000000
0.0000000000000000,18.0000000000000000,443.8600158689999940,448.8600158689999940,650.6400146480000320,-425.8998718259999800,73.9600753784000062,782.9398803709999580,27.3750000000000000,27.5448608397999983,46.6799999999999997,135.0000000000000000
0.0000000000000000,18.0000000000000000,443.8599548340000060,448.4599914550000220,650.6599731449999800,-427.1399536129999880,73.9599609375000000,782.1400756839999520,27.0625000000000000,27.5760898589999996,46.6799999999999997,135.0000000000000000
0.0000000000000000,18.0000000000000000,443.4000244139999720,448.7800292969999980,650.7999877930000130,-426.8800964359999730,73.7400436400999978,782.0999755860000270,27.3750000000000000,27.5760898589999996,46.6799999999999997,135.0000000000000000
0.0000000000000000,18.0000000000000000,443.7999572749999970,448.9199523930000160,650.2400512699999800,-426.4200744629999910,74.1800003051999965,782.5997314449999740,27.3750000000000000,27.5760898589999996,46.6799999999999997,135.0000000000000000
0.0000000000000000,18.0000000000000000,444.2199401859999730,448.8399658199999740,650.5399780269999600,-426.2998352050000220,73.7200012206999986,782.6798095699999740,27.6875000000000000,27.5760898589999996,46.6799999999999997,135.0000000000000000
0.0000000000000000,19.0000000000000000,4.1000299453700002,623.4199829100000440,654.1600341800000240,20.6998577118000000,-49.1600379943999996,893.4000854490000160,26.7500000000000000,27.5760898589999996,46.6799999999999997,89.9999999999999999
0.0000000000000000,19.0000000000000000,4.8999991416900004,623.2600097660000520,654.8999633790000410,21.0397682189999990,-49.6599693297999991,892.8801269529999440,27.3750000000000000,27.5760898589999996,46.6799999999999997,89.9999999999999999
0.0000000000000000,19.0000000000000000,4.2599897384599998,622.9199829100000440,654.4199829100000440,21.2600231171000011,-49.5400581359999989,893.3801879879999880,27.0625000000000000,27.5760898589999996,46.6799999999999997,89.9999999999999999
0.0000000000000000,19.0000000000000000,4.6600098609899998,623.3798828120000050,654.4999999999999990,21.2801036834999984,-49.4799995421999980,893.0399169920000300,27.0625000000000000,27.5760898589999996,46.6799999999999997,89.9999999999999999
0.0000000000000000,19.0000000000000000,4.5600290298499999,623.3199462889999720,654.5199584959999580,21.7200489043999987,-49.4399909973000007,892.6399536129999880,27.3750000000000000,27.5760898589999996,46.6799999999999997,89.9999999999999999
0.0000000000000000,19.0000000000000000,4.5000200271599997,623.6799926759999830,653.9600219730000380,21.6200294494999987,-49.3800430297999995,892.8399047850000430,26.7500000000000000,27.5760898589999996,46.6799999999999997,89.9999999999999999
0.0000000000000000,19.0000000000000000,3.9999794959999999,623.7199707029999440,654.2999267579999690,20.8799991608000006,-49.6200103760000033,892.7200317379999880,27.3750000000000000,27.5760898589999996,46.6799999999999997,89.9999999999999999
0.0000000000000000,19.0000000000000000,4.9599885940600004,623.6599731449999800,654.8800048829999690,21.1600265502999996,-49.1800079345999989,892.7199707029999440,27.0625000000000000,27.5760898589999996,46.6799999999999997,89.9999999999999999
0.0000000000000000,19.0000000000000000,4.1799893379200004,623.4999999999999990,654.7000732420000300,21.3600196838000009,-48.9399909973000007,892.1999511720000550,27.0625000000000000,27.5760898589999996,46.6799999999999997,89.9999999999999999
0.0000000000000000,19.0000000000000000,4.6799697876000001,623.3200073240000160,655.4799804689999970,21.2199878692999988,-49.8599586487000010,893.5000610350000430,26.7500000000000000,27.6073207855000007,46.6799999999999997,89.9999999999999999
0.0000000000000000,20.0000000000000000,-437.7200317379999880,434.2400207520000200,650.7600708009999830,459.8399963379999910,107.0999755859999990,765.9201660160000520,27.3750000000000000,27.6073207855000007,46.6799999999999997,45.0000000000000000
0.0000000000000000,20.0000000000000000,-436.7599487300000190,434.2599487300000190,650.5999755860000270,460.1600341800000250,107.5000076289999950,766.2799682620000100,27.0625000000000000,27.6073207855000007,46.6799999999999997,45.0000000000000000
0.0000000000000000,20.0000000000000000,-437.3999938960000120,433.9999389650000120,651.1799926759999830,459.7401123050000250,107.6000366210000010,766.2198486329999690,27.3750000000000000,27.6073207855000007,46.6799999999999997,45.0000000000000000
0.0000000000000000,20.0000000000000000,-437.4199829099999870,433.9799804689999970,650.7799682620000110,460.4199829099999870,107.5999755859999990,765.9199829100000440,27.3750000000000000,27.6073207855000007,46.6799999999999997,45.0000000000000000
0.0000000000000000,20.0000000000000000,-437.2400817870000080,433.8600158689999940,650.3599853519999660,459.0400390620000050,107.5999755859999990,765.9800415040000410,27.0625000000000000,27.6073207855000007,46.6799999999999997,45.0000000000000000
0.0000000000000000,20.0000000000000000,-437.5999755860000270,434.1199646000000030,650.7400512699999800,459.7200317379999880,107.6399765010000070,765.6800537110000270,27.0625000000000000,27.6073207855000007,46.6799999999999997,45.0000000000000000
0.0000000000000000,20.0000000000000000,-436.6398620609999730,434.0799865719999950,650.7999267579999690,460.3800353999999970,107.3199768070000030,766.2201538089999520,27.0625000000000000,27.6073207855000007,46.6799999999999997,45.0000000000000000
0.0000000000000000,20.0000000000000000,-438.1199035640000260,434.1599426270000200,650.8799438480000380,459.6001586909999900,107.2599792479999930,766.2399902339999460,27.3750000000000000,27.6073207855000007,46.6799999999999997,45.0000000000000000
0.0000000000000000,20.0000000000000000,-437.3999633789999840,433.7400817870000080,650.5200805660000460,460.1400756840000090,107.2600402829999950,766.5200805660000460,27.0625000000000000,27.6073207855000007,46.6799999999999997,45.0000000000000000
0.0000000000000000,20.0000000000000000,-437.3399963379999910,433.9000549319999890,650.6599731449999800,459.9398193360000270,107.0600738530000060,766.1000366209999580,27.3750000000000000,27.6073207855000007,46.6799999999999997,45.0000000000000000
0.0000000000000000,21.0000000000000000,-610.1799926759999830,-7.6799993515000002,649.8999633790000410,617.6599731449999800,445.2200317379999880,483.1799926759999830,27.0625000000000000,27.6385498046999984,46.6799999999999997,0.0000000000000000
0.0000000000000000,21.0000000000000000,-609.9800415040000410,-7.1000299453700002,648.4400024410000460,617.1999511720000550,445.2398986819999890,483.6801147460000150,27.0625000000000000,27.6385498046999984,46.6909999999999954,0.0000000000000000
0.0000000000000000,21.0000000000000000,-609.7600097660000520,-7.3600096702600002,648.7799682620000110,617.7799072269999660,445.6200561520000170,483.9998474120000080,27.3750000000000000,27.6385498046999984,46.6799999999999997,0.0000000000000000
0.0000000000000000,21.0000000000000000,-609.3999633790000410,-7.2199892997699999,649.3599853519999660,617.0799560550000240,445.3998718259999800,482.9799194340000090,27.0625000000000000,27.6385498046999984,46.6799999999999997,0.0000000000000000
0.0000000000000000,21.0000000000000000,-610.1799926759999830,-7.7400097846999998,649.2799072269999660,617.7800903319999860,445.1599426270000200,484.0200805659999900,27.3750000000000000,27.6385498046999984,46.6909999999999954,0.0000000000000000
0.0000000000000000,21.0000000000000000,-609.3599243160000460,-7.9599986076400002,648.9999389649999550,617.5800781249999990,445.1799926759999830,483.7399902340000040,27.0625000000000000,27.6385498046999984,46.6799999999999997,0.0000000000000000
0.0000000000000000,21.0000000000000000,-609.6400756839999520,-7.3799691200300002,649.5999755860000270,617.2198486329999690,445.3399963379999910,484.1800231930000100,27.0625000000000000,27.6385498046999984,46.6909999999999954,0.0000000000000000
0.0000000000000000,21.0000000000000000,-610.3200073240000160,-7.4000091552700002,649.0599365230000320,617.9999999999999990,445.0800781250000000,483.4598693849999900,27.3750000000000000,27.6385498046999984,46.6909999999999954,0.0000000000000000
0.0000000000000000,21.0000000000000000,-610.1599731449999800,-7.3199992179900004,649.0399780269999600,617.4999999999999990,445.7400207520000200,483.9801025389999720,27.0625000000000000,27.6385498046999984,46.6909999999999954,0.0000000000000000
0.0000000000000000,21.0000000000000000,-609.2200317379999880,-7.5600194931000004,649.5399780269999600,617.9400024410000460,445.2999572749999970,482.3599243159999900,27.0625000000000000,27.6385498046999984,46.6909999999999954,0.0000000000000000
0.0000000000000000,22.0000000000000000,-422.0599365229999760,-440.9400024409999900,645.3600463870000110,425.3201599120000080,770.6001586910000460,206.5400543210000140,27.3750000000000000,27.6385498046999984,46.6909999999999954,-45.0000000000000000
0.0000000000000000,22.0000000000000000,-422.4600219729999820,-440.5599975590000090,645.3599853519999660,425.4599914550000220,771.3399047850000440,206.7000732420000020,27.0625000000000000,27.6385498046999984,46.6909999999999954,-45.0000000000000000
0.0000000000000000,22.0000000000000000,-422.0600280759999800,-440.5199584960000150,645.6800537110000270,426.3199462889999720,770.9199829100000440,206.7400665280000000,27.3750000000000000,27.6697807311999995,46.6909999999999954,-45.0000000000000000
0.0000000000000000,22.0000000000000000,-422.1399230960000180,-440.8400268550000190,645.4800415040000410,425.1600952150000120,770.9400024410000460,206.3399353030000040,27.3750000000000000,27.6697807311999995,46.6909999999999954,-45.0000000000000000
0.0000000000000000,22.0000000000000000,-422.4599609379999940,-440.6999816890000260,645.8199462889999720,425.5599365229999760,771.2199707029999440,206.1599884030000000,27.0625000000000000,27.6697807311999995,46.6909999999999954,-45.0000000000000000
0.0000000000000000,22.0000000000000000,-422.7200012210000180,-440.6600341800000250,644.9799194339999520,425.7799072270000230,770.9598999019999600,206.3999786379999930,27.0625000000000000,27.6697807311999995,46.6909999999999954,-45.0000000000000000
0.0000000000000000,22.0000000000000000,-422.5799865719999950,-440.5999755860000270,645.8599243160000460,425.5600280759999800,771.5399780269999600,206.2400207519999920,27.3750000000000000,27.6697807311999995,46.6909999999999954,-45.0000000000000000
0.0000000000000000,22.0000000000000000,-422.0800170900000120,-440.5199890139999750,645.6599731449999800,426.0199584960000150,771.1800537110000270,206.1599578860000010,27.3750000000000000,27.6697807311999995,46.6799999999999997,-45.0000000000000000
0.0000000000000000,22.0000000000000000,-421.8200683590000040,-440.5199584960000150,645.4200439449999740,425.5800170900000120,771.0598754879999880,206.1200408939999990,27.0625000000000000,27.6697807311999995,46.6799999999999997,-45.0000000000000000
0.0000000000000000,22.0000000000000000,-421.8399658199999740,-440.7000732419999730,645.6199951170000300,426.8600158689999940,771.3399658199999740,206.6999359129999900,27.6875000000000000,27.6697807311999995,46.6799999999999997,-45.0000000000000000
0.0000000000000000,23.0000000000000000,18.5799808501999983,-615.2600097660000520,645.1599731449999800,-22.9200382233000006,896.5000610350000430,95.8599319457999996,27.3750000000000000,27.6697807311999995,46.6909999999999954,-89.9999999999999999
0.0000000000000000,23.0000000000000000,18.0600299835000015,-615.4399414060000020,645.4800415040000410,-22.1199016571000015,896.3800048829999690,96.4999465941999971,27.6875000000000000,27.6697807311999995,46.6799999999999997,-89.9999999999999999
0.0000000000000000,23.0000000000000000,18.0200366973999983,-615.3999633790000410,645.9199218749999990,-22.5200099945000005,896.2799682620000100,95.2800598145000065,27.0625000000000000,27.6697807311999995,46.6799999999999997,-89.9999999999999999
0.0000000000000000,23.0000000000000000,17.6999797821000015,-615.1199951170000300,646.0599975589999520,-22.4800376891999995,896.2200317379999880,95.8999023437999937,27.3750000000000000,27.7010097504000008,46.6799999999999997,-89.9999999999999999
0.0000000000000000,23.0000000000000000,18.2200012206999986,-615.0200805660000460,645.1800537110000270,-22.0600185394000014,896.5799560550000240,96.2600173950000055,27.3750000000000000,27.7010097504000008,46.6799999999999997,-89.9999999999999999
0.0000000000000000,23.0000000000000000,18.0199985504000004,-614.9199218749999990,645.8798828120000050,-22.3000679015999985,896.0198974610000270,96.4199523925999954,27.0625000000000000,27.6697807311999995,46.6799999999999997,-89.9999999999999999
0.0000000000000000,23.0000000000000000,18.3199806213000009,-615.4799804689999970,645.7999877930000130,-22.9199733734000013,895.8399047850000430,94.9200363159000062,27.0625000000000000,27.6697807311999995,46.6799999999999997,-89.9999999999999999
0.0000000000000000,23.0000000000000000,17.7199916840000000,-615.5199584959999580,646.0200805660000460,-23.0400295258000014,896.7600097660000520,96.1000137328999954,27.0625000000000000,27.6697807311999995,46.6799999999999997,-89.9999999999999999
0.0000000000000000,23.0000000000000000,17.8999710082999996,-615.0799560550000240,645.7599487300000190,-22.1400222778000000,896.4600830079999690,95.2000656128000031,27.6875000000000000,27.6697807311999995,46.6799999999999997,-89.9999999999999999
0.0000000000000000,23.0000000000000000,18.2200412749999998,-615.3799438480000380,646.2999267579999690,-23.6800460814999987,895.6999511720000550,96.3799972534000062,27.3750000000000000,27.6697807311999995,46.6799999999999997,-89.9999999999999999
0.0000000000000000,24.0000000000000000,459.7199401859999730,-426.1600646969999950,645.2598876949999740,-464.1600341800000250,739.7999267579999690,222.4400482179999870,27.3750000000000000,27.7010097504000008,46.6799999999999997,-135.0000000000000000
0.0000000000000000,24.0000000000000000,460.3199768069999890,-426.0799865719999950,645.8399047850000440,-463.0198669430000100,740.1399536129999880,222.9199829099999870,27.0625000000000000,27.7010097504000008,46.6799999999999997,-135.0000000000000000
0.0000000000000000,24.0000000000000000,460.8199157710000120,-425.8600158689999940,644.6400146480000320,-462.8801574710000180,739.7400512699999800,222.4400176999999980,27.6875000000000000,27.7010097504000008,46.6799999999999997,-135.0000000000000000
0.0000000000000000,24.0000000000000000,459.9200439449999740,-425.9800415039999840,645.2999267579999690,-463.1200561520000170,739.8200073240000160,222.4599761960000140,27.0625000000000000,27.7010097504000008,46.6909999999999954,-135.0000000000000000
0.0000000000000000,24.0000000000000000,460.3999633789999840,-425.6600646969999950,645.1400146480000320,-462.9800415039999840,739.8999633790000410,222.7599182129999920,27.0625000000000000,27.7010097504000008,46.6799999999999997,-135.0000000000000000
0.0000000000000000,24.0000000000000000,459.9599914550000220,-425.7799987789999810,645.4398803709999580,-462.5799560550000250,740.0599975589999520,222.8801116939999930,27.3750000000000000,27.7010097504000008,46.6909999999999954,-135.0000000000000000
0.0000000000000000,24.0000000000000000,460.3800353999999970,-425.7000427250000030,644.9800415040000410,-462.9800415039999840,740.1399536129999880,222.4600219730000100,27.3750000000000000,27.7010097504000008,46.6799999999999997,-135.0000000000000000
0.0000000000000000,24.0000000000000000,459.8200378419999760,-425.9599914550000220,645.2399902339999460,-462.9199218750000000,740.0999145509999830,222.7400360110000010,27.0625000000000000,27.7010097504000008,46.6799999999999997,-135.0000000000000000
0.0000000000000000,24.0000000000000000,459.9800415039999840,-425.9799499509999800,645.5399169920000300,-463.1198425289999810,739.8800048829999690,222.5799713129999870,27.3750000000000000,27.7010097504000008,46.6909999999999954,-135.0000000000000000
0.0000000000000000,24.0000000000000000,460.5000305180000160,-425.7999267580000260,645.7199707029999440,-462.7999572749999970,739.6400756839999520,222.5999298099999920,27.6875000000000000,27.7010097504000008,46.6799999999999997,-135.0000000000000000
0.0000000000000000,25.0000000000000000,343.8799438479999820,9.8599996566799994,832.0999755860000270,-330.8599548340000070,530.5199584959999580,644.2600708009999830,27.0625000000000000,27.7322406768999983,68.7800000000000011,180.0000000000000000
0.0000000000000000,25.0000000000000000,344.0399780270000180,10.0599813461000007,832.1399536129999880,-330.4000244139999720,530.8199462889999720,644.3001098629999880,27.3750000000000000,27.7322406768999983,68.7800000000000011,180.0000000000000000
0.0000000000000000,25.0000000000000000,344.6999206539999820,9.6800003051800001,832.2600097660000520,-331.3400573729999790,530.6799926759999830,643.9598999019999600,27.0625000000000000,27.7322406768999983,68.7800000000000011,180.0000000000000000
0.0000000000000000,25.0000000000000000,343.9799194340000100,9.6399908065800002,832.0999755860000270,-331.1199646000000030,530.5999755860000270,644.3198852540000410,27.6875000000000000,27.7322406768999983,68.7800000000000011,180.0000000000000000
0.0000000000000000,25.0000000000000000,344.4199523930000170,9.7199897766099994,831.7998046879999940,-331.2398681639999720,530.6000366209999580,643.4998779300000240,27.3750000000000000,27.7322406768999983,68.7900000000000062,180.0000000000000000
0.0000000000000000,25.0000000000000000,344.1199646000000030,9.8200006485000006,831.6998901370000100,-329.8800048830000260,530.6599731449999800,644.0599975589999520,27.3750000000000000,27.7322406768999983,68.7900000000000062,180.0000000000000000
0.0000000000000000,25.0000000000000000,344.2399902340000040,9.2799692153900004,832.7399902339999460,-330.3000793460000180,530.8200073240000160,644.8598632810000020,27.3750000000000000,27.7322406768999983,68.7900000000000062,180.0000000000000000
0.0000000000000000,25.0000000000000000,344.4200439449999750,9.5600004196199997,832.2199707029999440,-330.0399780270000180,530.6201171879999940,644.2198486329999690,27.6875000000000000,27.7322406768999983,68.7900000000000062,180.0000000000000000
0.0000000000000000,25.0000000000000000,343.5200195310000020,10.1199989318999997,832.1999511720000550,-330.8999938960000120,530.5199584959999580,643.5198974610000270,27.3750000000000000,27.7634716033999993,68.7900000000000062,180.0000000000000000
0.0000000000000000,25.0000000000000000,344.1000061039999870,10.0000104903999993,832.4200439449999740,-330.8200378419999760,530.7199707029999440,643.7599487300000190,27.3750000000000000,27.7634716033999993,68.7900000000000062,180.0000000000000000
0.0000000000000000,26.0000000000000000,241.5599823000000010,241.7199554439999930,833.6998901370000100,-227.6999359129999900,359.1000061039999870,789.3200073240000160,27.0625000000000000,27.7634716033999993,68.7900000000000062,135.0000000000000000
0.0000000000000000,26.0000000000000000,241.5600128170000000,241.7799377439999940,833.6600341800000240,-228.4799957280000060,359.4598999020000180,789.8198852540000410,27.3750000000000000,27.7634716033999993,68.7900000000000062,135.0000000000000000
0.0000000000000000,26.0000000000000000,241.7799377439999940,241.6800079349999920,833.8399658199999740,-227.3399353030000040,359.6400756840000100,789.6800537110000270,27.3750000000000000,27.7322406768999983,68.7900000000000062,135.0000000000000000
0.0000000000000000,26.0000000000000000,242.0800018310000040,241.6400299070000130,833.4600830079999690,-228.0800170900000120,359.3999633789999840,789.7600097660000520,26.7500000000000000,27.7322406768999983,68.7900000000000062,135.0000000000000000
0.0000000000000000,26.0000000000000000,241.3800353999999970,241.6399688719999970,833.3999633790000410,-228.0999755859999990,359.6199951169999730,790.2399291990000160,27.3750000000000000,27.7322406768999983,68.7900000000000062,135.0000000000000000
0.0000000000000000,26.0000000000000000,241.8600158689999940,241.5000000000000000,833.6799926759999830,-228.8000793459999900,359.4399108889999750,789.1200561519999600,27.3750000000000000,27.7322406768999983,68.7900000000000062,135.0000000000000000
0.0000000000000000,26.0000000000000000,242.0599823000000010,241.8800353999999970,833.6600341800000240,-227.9200134280000040,359.5000305180000160,789.4801635740000160,27.0625000000000000,27.7634716033999993,68.7900000000000062,135.0000000000000000
0.0000000000000000,26.0000000000000000,241.4199218750000000,242.0999755859999990,833.9398193360000270,-228.4399719239999910,359.4400024409999900,789.4398803709999580,27.0625000000000000,27.7634716033999993,68.7900000000000062,135.0000000000000000
0.0000000000000000,26.0000000000000000,241.1999359129999900,241.7799987790000100,833.5799560550000240,-228.8999328609999960,359.1399536129999880,789.7400512699999800,27.0625000000000000,27.7634716033999993,68.7900000000000062,135.0000000000000000
0.0000000000000000,26.0000000000000000,242.0399780269999890,241.8999786379999930,833.1999511720000550,-228.1600189209999880,359.5200805659999900,788.4800415040000410,27.3750000000000000,27.7634716033999993,68.7900000000000062,135.0000000000000000
0.0000000000000000,27.0000000000000000,6.2399802207899997,334.9599914550000220,834.4398803709999580,10.3399410247999999,293.5600280759999800,845.8999633790000410,27.3750000000000000,27.7634716033999993,68.7900000000000062,89.9999999999999999
0.0000000000000000,27.0000000000000000,6.3400192260699999,335.2999877930000140,834.1798095699999740,9.6600408554099992,293.1399841310000050,846.3198852540000410,27.3750000000000000,27.7634716033999993,68.7900000000000062,89.9999999999999999
0.0000000000000000,27.0000000000000000,5.8999500274700001,335.3199157710000120,834.1599731449999800,10.8999595641999996,293.7399902340000040,845.5998535160000520,27.3750000000000000,27.7634716033999993,68.7900000000000062,89.9999999999999999
0.0000000000000000,27.0000000000000000,6.5399894714400002,335.0599670409999930,834.4599609379999940,10.9399690627999995,293.4799804689999970,845.9797973629999880,27.3750000000000000,27.7634716033999993,68.7900000000000062,89.9999999999999999
0.0000000000000000,27.0000000000000000,5.8999700546299998,334.8800048830000260,833.8999633790000410,10.6600103377999993,293.6201477050000220,846.1000366209999580,27.0625000000000000,27.7634716033999993,68.7900000000000062,89.9999999999999999
0.0000000000000000,27.0000000000000000,6.8800191879300003,335.3200073240000160,833.7399902339999460,10.0999813080000003,293.5599975590000100,846.3399047850000430,27.3750000000000000,27.7634716033999993,68.7900000000000062,89.9999999999999999
0.0000000000000000,27.0000000000000000,6.3400096893300004,334.9799804689999970,833.8999633790000410,9.8998899459800000,293.9599914550000220,846.4599609379999940,27.3750000000000000,27.7634716033999993,68.7900000000000062,89.9999999999999999
0.0000000000000000,27.0000000000000000,6.0600090026900002,335.0399169919999730,834.0400390620000040,10.4800481796000007,293.6199340819999860,846.7199707029999440,27.6875000000000000,27.7634716033999993,68.7900000000000062,89.9999999999999999
0.0000000000000000,27.0000000000000000,5.9599900245699997,334.6999511719999980,833.7799072269999660,10.7802400589000005,293.6599121090000040,846.7601318360000270,27.3750000000000000,27.7634716033999993,68.7900000000000062,89.9999999999999999
0.0000000000000000,27.0000000000000000,6.2800097465500002,334.8200073240000160,833.6399536129999880,10.8800497054999994,293.5199279789999880,845.7998046879999940,27.3750000000000000,27.7634716033999993,68.7900000000000062,89.9999999999999999
0.0000000000000000,28.0000000000000000,-230.6599884030000000,231.5199890140000030,833.8998413089999520,239.7198944090000050,373.0999450680000110,783.3201293949999800,27.6875000000000000,27.7947006226000006,68.7900000000000062,45.0000000000000000
0.0000000000000000,28.0000000000000000,-230.1399383540000090,231.4400024409999900,833.6799926759999830,239.4799346920000000,372.8999633789999840,782.9598999019999600,27.3750000000000000,27.7947006226000006,68.7900000000000062,45.0000000000000000
0.0000000000000000,28.0000000000000000,-230.5799407959999880,231.2399902340000040,834.1198730470000550,240.0198822019999910,373.0199890139999750,783.1399536129999880,27.3750000000000000,27.7947006226000006,68.7900000000000062,45.0000000000000000
0.0000000000000000,28.0000000000000000,-230.3999786379999930,231.5600280760000090,834.0400390620000040,240.1600189209999880,372.7600708009999830,783.6798095699999740,27.3750000000000000,27.7947006226000006,68.7900000000000062,45.0000000000000000
0.0000000000000000,28.0000000000000000,-230.6200714109999980,231.7999572749999970,834.5598754879999880,240.4400482179999870,373.1200256349999900,783.0600585939999970,27.3750000000000000,27.7634716033999993,68.7900000000000062,45.0000000000000000
0.0000000000000000,28.0000000000000000,-230.3399810790000120,231.5800018310000040,833.7800292970000550,238.7000274659999940,372.4399108889999750,783.0598754879999880,27.3750000000000000,27.7634716033999993,68.7900000000000062,45.0000000000000000
0.0000000000000000,28.0000000000000000,-230.3799591060000010,231.5000000000000000,834.3600463870000100,239.9799499510000090,372.9599914550000220,783.5799560550000240,27.0625000000000000,27.7947006226000006,68.7900000000000062,45.0000000000000000
0.0000000000000000,28.0000000000000000,-230.5399932859999980,231.4599914549999940,834.1399536129999880,239.9399566650000110,372.6201171879999940,783.7600708009999830,27.3750000000000000,27.7947006226000006,68.7900000000000062,45.0000000000000000
0.0000000000000000,28.0000000000000000,-230.5200347900000110,231.0599823000000010,833.7600097660000520,239.6399536129999890,373.1399841310000050,782.7000732420000300,27.0625000000000000,27.7947006226000006,68.7900000000000062,45.0000000000000000
0.0000000000000000,28.0000000000000000,-230.7599945069999870,231.5400085450000060,834.0800781249999990,240.0400695799999930,372.7799377439999940,783.1399536129999880,27.3750000000000000,27.7947006226000006,68.7900000000000062,45.0000000000000000
0.0000000000000000,29.0000000000000000,-320.2799987789999820,-3.8999693393700001,833.3599853519999660,325.0198059080000230,555.6799316410000520,629.1398315430000130,27.3750000000000000,27.7947006226000006,68.7900000000000062,0.0000000000000000
0.0000000000000000,29.0000000000000000,-320.0399780270000180,-3.5200397968299999,833.4199218749999990,325.5399780270000180,555.8399658199999740,630.0799560550000240,27.3750000000000000,27.7947006226000006,68.7900000000000062,0.0000000000000000
0.0000000000000000,29.0000000000000000,-321.0799560550000250,-4.1999907493600004,833.1600341800000240,325.5999450680000110,555.2598876949999740,629.8400268550000190,27.3750000000000000,27.7947006226000006,68.7900000000000062,0.0000000000000000
0.0000000000000000,29.0000000000000000,-320.3200073240000160,-4.1800198555000003,832.9000854490000160,325.0999450680000110,555.4801635740000160,629.3599853519999660,27.0625000000000000,27.7947006226000006,68.7900000000000062,0.0000000000000000
0.0000000000000000,29.0000000000000000,-320.1799926759999830,-3.6000201702100001,833.6799926759999830,325.1799621580000230,555.8800659180000130,630.5601196290000410,27.3750000000000000,27.7947006226000006,68.7900000000000062,0.0000000000000000
0.0000000000000000,29.0000000000000000,-320.6200561520000180,-4.0999999046299997,833.0799560550000240,325.2799987789999820,555.4199829100000440,630.5800781249999990,27.3750000000000000,27.7947006226000006,68.7900000000000062,0.0000000000000000
0.0000000000000000,29.0000000000000000,-320.1000366210000150,-4.0599799156199996,833.1599731449999800,325.5000610349999870,555.5599975589999530,630.0198974610000270,27.0625000000000000,27.7947006226000006,68.7900000000000062,0.0000000000000000
0.0000000000000000,29.0000000000000000,-320.3999938960000120,-3.4600000381500000,833.1399536129999880,325.2599792479999790,555.9199829100000440,629.0800781249999990,27.3750000000000000,27.7947006226000006,68.7900000000000062,0.0000000000000000
0.0000000000000000,29.0000000000000000,-320.1599426270000200,-4.0999999046299997,833.5799560550000240,325.5799865719999950,555.5800170899999550,629.6599731449999800,27.3750000000000000,27.7947006226000006,68.7900000000000062,0.0000000000000000
0.0000000000000000,29.0000000000000000,-319.7200317379999880,-4.0799999237100000,833.2401123050000240,324.8198242189999970,555.9200439449999740,629.5800170899999550,27.3750000000000000,27.7947006226000006,68.7900000000000062,0.0000000000000000
0.0000000000000000,30.0000000000000000,-219.3400573730000070,-236.4800109859999960,832.1600341800000240,221.8402099609999990,728.3999633790000410,485.2399597169999760,27.3750000000000000,27.7947006226000006,68.7900000000000062,-45.0000000000000000
0.0000000000000000,30.0000000000000000,-219.2799377439999940,-236.5199584959999870,831.7399902339999460,222.6399993900000140,728.3598022459999580,484.7399597169999760,27.3750000000000000,27.8259315491000016,68.7900000000000062,-45.0000000000000000
0.0000000000000000,30.0000000000000000,-218.5400543210000140,-235.9199981689999960,831.4400024410000460,221.7399291989999880,728.6599731449999800,483.9198303219999950,27.0625000000000000,27.8259315491000016,68.7900000000000062,-45.0000000000000000
0.0000000000000000,30.0000000000000000,-219.0800018310000040,-236.7999725340000050,831.5399169920000300,222.2399139400000080,728.5799560550000240,484.6801147460000150,27.6875000000000000,27.8259315491000016,68.7900000000000062,-45.0000000000000000
0.0000000000000000,30.0000000000000000,-219.2000274659999940,-236.6599731450000090,831.4600830079999690,221.3199005129999930,728.7800903319999850,484.6800231930000100,27.3750000000000000,27.8259315491000016,68.7900000000000062,-45.0000000000000000
0.0000000000000000,30.0000000000000000,-218.9400024409999900,-236.0999908450000080,831.8599243160000460,222.6601104739999920,728.7000122069999850,485.5199890139999750,27.3750000000000000,27.8259315491000016,68.7900000000000062,-45.0000000000000000
0.0000000000000000,30.0000000000000000,-219.2799682620000110,-236.4999694820000110,831.8599243160000460,221.8799591060000010,728.5598144529999440,484.3399047849999870,27.6875000000000000,27.8259315491000016,68.7900000000000062,-45.0000000000000000
0.0000000000000000,30.0000000000000000,-218.9800415040000130,-236.0199890140000030,832.0600585939999970,222.9800872799999920,728.4001464839999460,484.6400756840000090,27.3750000000000000,27.8259315491000016,68.7900000000000062,-45.0000000000000000
0.0000000000000000,30.0000000000000000,-219.1400146480000040,-236.1199951170000020,832.0799560550000240,221.7600708010000120,728.1799926759999830,484.5799255370000080,27.0625000000000000,27.8259315491000016,68.7900000000000062,-45.0000000000000000
0.0000000000000000,30.0000000000000000,-219.2199554439999930,-236.2000579829999930,832.1799926759999830,222.3999786379999930,728.8399658199999740,485.0600585939999970,27.0625000000000000,27.8259315491000016,68.7900000000000062,-45.0000000000000000
0.0000000000000000,31.0000000000000000,15.1799602509000007,-329.5000000000000000,830.2799682620000100,-14.4599218368999995,794.4400634769999660,427.5200805659999900,27.3750000000000000,27.8259315491000016,68.7900000000000062,-89.9999999999999999
0.0000000000000000,31.0000000000000000,15.7599897384999998,-329.6200256349999900,829.9398803709999580,-15.4001092910999997,794.3800048829999690,426.0397644039999810,27.3750000000000000,27.8259315491000016,68.7900000000000062,-89.9999999999999999
0.0000000000000000,31.0000000000000000,15.6000194550000000,-329.9200439449999750,829.7200317379999880,-14.0200719832999994,794.3399047850000440,426.3599548340000070,27.3750000000000000,27.8259315491000016,68.7900000000000062,-89.9999999999999999
0.0000000000000000,31.0000000000000000,15.5799999237000009,-329.7000427250000030,830.4000854490000160,-14.3800306320000004,794.6998901370000100,426.2599487300000190,27.0625000000000000,27.8259315491000016,68.7900000000000062,-89.9999999999999999
0.0000000000000000,31.0000000000000000,15.1600217818999994,-329.5599670409999930,829.9799804689999970,-15.3600387572999999,794.7199096680000130,427.4600830080000260,27.3750000000000000,27.8259315491000016,68.7900000000000062,-89.9999999999999999
0.0000000000000000,31.0000000000000000,15.6200103759999997,-329.2599792479999790,829.6199951170000300,-14.5400304794000004,794.2799682620000100,426.4600219729999820,27.3750000000000000,27.8259315491000016,68.7900000000000062,-89.9999999999999999
0.0000000000000000,31.0000000000000000,15.5800189971999998,-329.9400329590000070,829.9199218749999990,-15.1199903488000000,794.8200683589999460,426.9400634770000230,27.3750000000000000,27.8259315491000016,68.7900000000000062,-89.9999999999999999
0.0000000000000000,31.0000000000000000,15.0999813080000003,-329.7999877930000140,830.3999633790000410,-14.8999395369999998,794.3798217769999600,426.7801513669999730,27.6875000000000000,27.8259315491000016,68.7900000000000062,-89.9999999999999999
0.0000000000000000,31.0000000000000000,15.3999996185000008,-329.6799926759999830,830.1200561519999600,-14.1799793242999996,794.5399780269999600,427.0800781250000000,27.3750000000000000,27.8259315491000016,68.7900000000000062,-89.9999999999999999
0.0000000000000000,31.0000000000000000,15.3999910354999994,-329.6399841310000050,830.2198486329999690,-14.7600603104000001,794.7400512699999800,427.1999816890000260,27.6875000000000000,27.8259315491000016,68.7900000000000062,-89.9999999999999999
0.0000000000000000,32.0000000000000000,252.8199920650000080,-226.4199829099999870,831.7000732420000300,-249.6000366209999870,710.2600097660000520,494.7200317379999880,27.0625000000000000,27.8259315491000016,68.7900000000000062,-135.0000000000000000
0.0000000000000000,32.0000000000000000,252.9799957280000060,-227.0600280760000090,832.1200561519999600,-249.8999481200000050,710.5799560550000240,494.6198425289999810,27.3750000000000000,27.8259315491000016,68.7900000000000062,-135.0000000000000000
0.0000000000000000,32.0000000000000000,252.6800079349999920,-226.4399719239999910,831.8200073240000160,-249.6000366209999870,709.9599609379999940,494.8799438479999820,27.6875000000000000,27.8259315491000016,68.7900000000000062,-135.0000000000000000
0.0000000000000000,32.0000000000000000,253.1599884030000000,-226.4599761960000140,831.7399902339999460,-250.6800384519999910,710.4598999019999600,494.3599243159999900,27.6875000000000000,27.8259315491000016,68.7900000000000062,-135.0000000000000000
0.0000000000000000,32.0000000000000000,252.7799530030000030,-227.0600128170000000,831.6399536129999880,-249.6598358150000080,710.2000122069999850,493.9799804689999970,27.0625000000000000,27.8571605682000012,68.7900000000000062,-135.0000000000000000
0.0000000000000000,32.0000000000000000,252.7599945069999870,-226.7799682620000110,831.8399047850000440,-249.5599823000000010,710.7199707029999440,494.3799743650000090,27.3750000000000000,27.8571605682000012,68.7900000000000062,-135.0000000000000000
0.0000000000000000,32.0000000000000000,253.2399902340000040,-226.6399688719999970,831.8800659180000130,-249.7200317379999890,711.2000122069999850,494.9199829099999870,27.3750000000000000,27.8571605682000012,68.7900000000000062,-135.0000000000000000
0.0000000000000000,32.0000000000000000,252.9199981689999960,-227.0599517820000130,832.0599975589999520,-249.6800689700000080,710.2600708009999830,494.1199951169999730,27.3750000000000000,27.8259315491000016,68.7900000000000062,-135.0000000000000000
0.0000000000000000,32.0000000000000000,252.7999725340000050,-226.6199798579999930,831.7799072269999660,-249.4598999019999890,710.5998535160000520,494.1600952150000120,27.3750000000000000,27.8571605682000012,68.7900000000000062,-135.0000000000000000
0.0000000000000000,32.0000000000000000,252.9199981689999960,-226.6000366209999870,832.1400756839999520,-249.7599945069999870,710.5999145509999830,494.0998840330000230,27.3750000000000000,27.8571605682000012,68.7900000000000062,-135.0000000000000000
0.0000000000000000,33.0000000000000000,38.7599792480000005,3.8799993991899999,895.7999877930000130,-37.0200004578000019,580.7199707029999440,687.7998046879999940,27.0625000000000000,27.8571605682000012,88.6300000000000096,180.0000000000000000
0.0000000000000000,33.0000000000000000,38.6599693297999991,4.3600296974199999,895.3400878910000520,-35.8798866272000012,581.1000366209999580,687.4799804689999970,27.6875000000000000,27.8571605682000012,88.6300000000000096,180.0000000000000000
0.0000000000000000,33.0000000000000000,39.1600189209000007,4.2799692153900004,895.1799316410000520,-36.3797912598000010,580.9000244139999720,687.8200683589999460,27.3750000000000000,27.8571605682000012,88.6300000000000096,180.0000000000000000
0.0000000000000000,33.0000000000000000,38.5999717712000034,4.1799902916000002,895.5199584959999580,-37.0799636841000008,580.3599853519999660,687.2799682620000110,27.6875000000000000,27.8571605682000012,88.6300000000000096,180.0000000000000000
0.0000000000000000,33.0000000000000000,38.8200073241999988,3.9800004959100002,895.6399536129999880,-36.6400375365999977,580.1999511720000550,687.9199218749999990,27.3750000000000000,27.8571605682000012,88.6300000000000096,180.0000000000000000
0.0000000000000000,33.0000000000000000,38.5400009155000020,4.3399896621699998,895.2399291990000160,-37.0400123595999986,580.6599731449999800,687.9197998050000240,27.3750000000000000,27.8571605682000012,88.6300000000000096,180.0000000000000000
0.0000000000000000,33.0000000000000000,38.4200286864999967,4.0599904060399998,895.4398803709999580,-35.8999977112000010,581.2600097660000520,687.5998535160000520,27.6875000000000000,27.8571605682000012,88.6300000000000096,180.0000000000000000
0.0000000000000000,33.0000000000000000,38.4399909973000007,4.0000104904200002,895.6998901370000100,-36.0798912047999991,580.6998901370000110,687.5399169920000300,27.3750000000000000,27.8571605682000012,88.6300000000000096,180.0000000000000000
0.0000000000000000,33.0000000000000000,39.3600082397000008,3.8599798679399999,895.5598754879999880,-36.4999313353999994,580.6599731449999800,687.3399047850000440,27.6875000000000000,27.8883914948000004,88.6300000000000096,180.0000000000000000
0.0000000000000000,33.0000000000000000,38.2800483704000029,4.1599893569899997,895.6799926759999830,-36.3200416565000026,580.2398681639999720,688.1800537110000270,27.3750000000000000,27.8883914948000004,88.6300000000000096,180.0000000000000000
0.0000000000000000,34.0000000000000000,28.4399795532000006,23.5599803925000017,894.3999023439999960,-26.6800479889000002,566.6000366209999580,699.4799194339999520,27.6875000000000000,27.8883914948000004,88.6300000000000096,135.0000000000000000
0.0000000000000000,34.0000000000000000,29.1000118255999993,23.1800403595000013,894.3399658199999740,-25.9600181580000004,567.1400756839999530,699.1799926759999830,27.6875000000000000,27.8883914948000004,88.6300000000000096,135.0000000000000000
0.0000000000000000,34.0000000000000000,28.7400188446000015,23.4200000762999991,894.5799560550000240,-26.4000015258999987,566.7799072269999660,700.2598876949999740,27.3750000000000000,27.8883914948000004,88.6300000000000096,135.0000000000000000
0.0000000000000000,34.0000000000000000,28.3399963379000006,23.5199966431000007,894.7399902339999460,-25.6400165557999990,566.4600219730000380,699.5199584959999580,27.6875000000000000,27.8883914948000004,88.6300000000000096,135.0000000000000000
0.0000000000000000,34.0000000000000000,28.5600013733000004,23.4999866486000002,894.5200805660000460,-26.1399574279999989,567.0999145509999830,699.3798828120000050,27.3750000000000000,27.8883914948000004,88.6300000000000096,135.0000000000000000
0.0000000000000000,34.0000000000000000,28.2800292969000004,23.8400001525999983,894.2600097660000520,-25.8600635529000016,566.9999999999999990,700.4201660160000520,27.3750000000000000,27.8883914948000004,88.6300000000000096,135.0000000000000000
0.0000000000000000,34.0000000000000000,28.9399795532000006,23.6199893950999993,894.3800048829999690,-26.1200313567999984,566.5798950199999800,699.7801513670000300,27.3750000000000000,27.8883914948000004,88.6300000000000096,135.0000000000000000
0.0000000000000000,34.0000000000000000,28.8000507355000010,23.3200187682999989,894.2598876949999740,-26.0401172637999991,567.2199707029999440,699.1998291019999660,27.6875000000000000,27.8883914948000004,88.6300000000000096,135.0000000000000000
0.0000000000000000,34.0000000000000000,28.7200279236000000,23.4400062560999984,894.1599731449999800,-25.9600486755000013,567.0199584959999580,699.4002075199999800,27.3750000000000000,27.8883914948000004,88.6300000000000096,135.0000000000000000
0.0000000000000000,34.0000000000000000,29.0600376129000004,23.3999996185000007,894.2799682620000100,-25.1400279998999991,567.0399780269999600,698.7598266600000440,27.3750000000000000,27.8883914948000004,88.6300000000000096,135.0000000000000000
0.0000000000000000,35.0000000000000000,7.2999601364100002,29.3399963379000006,895.5199584959999580,-4.8200092315700003,562.2399902339999470,703.3599243160000460,27.3750000000000000,27.8883914948000004,88.6300000000000096,89.9999999999999999
0.0000000000000000,35.0000000000000000,7.2800197601300001,29.8400096893000004,894.9400024410000460,-4.8000097274800000,562.3200073240000160,703.5401611329999690,27.0625000000000000,27.8883914948000004,88.6300000000000096,89.9999999999999999
0.0000000000000000,35.0000000000000000,6.8600292205800004,29.5399799346999998,896.1399536129999880,-4.8800592422499998,562.3598632810000020,703.9199829100000440,27.6875000000000000,27.8883914948000004,88.6300000000000096,89.9999999999999999
0.0000000000000000,35.0000000000000000,7.1800303459199997,29.3200092316000003,895.5400390620000040,-4.5999903678900003,562.5800170899999550,703.9799804689999970,27.6875000000000000,27.8883914948000004,88.6300000000000096,89.9999999999999999
0.0000000000000000,35.0000000000000000,8.0400209426899991,29.0999603270999998,895.9799804689999960,-4.6600699424699998,562.1998291019999660,703.5398559569999850,27.3750000000000000,27.8883914948000004,88.6300000000000096,89.9999999999999999
0.0000000000000000,35.0000000000000000,7.8999700546299998,29.3800106049000007,895.6599731449999800,-5.0000596046399997,562.5199584959999580,702.8198852540000410,27.6875000000000000,27.8883914948000004,88.6300000000000096,89.9999999999999999
0.0000000000000000,35.0000000000000000,7.3000006675700000,29.4399890900000010,895.3999633790000410,-5.5199790000900002,562.3799438480000380,703.4599609379999940,27.3750000000000000,27.8883914948000004,88.6300000000000096,89.9999999999999999
0.0000000000000000,35.0000000000000000,7.0399684905999997,29.3800220490000008,895.3999633790000410,-5.5600285530100004,562.2598876949999740,703.4800415040000410,27.3750000000000000,27.8883914948000004,88.6300000000000096,89.9999999999999999
0.0000000000000000,35.0000000000000000,7.4999914169300004,29.7399997710999990,895.2600708009999830,-4.4200196266200002,562.7999877930000130,703.8200683589999460,27.6875000000000000,27.8883914948000004,88.6300000000000096,89.9999999999999999
0.0000000000000000,35.0000000000000000,7.8999900817900004,29.4399890900000010,896.0598754879999880,-5.3600301742600003,562.1000366209999580,703.1799316410000520,27.0625000000000000,27.8883914948000004,88.6300000000000096,89.9999999999999999
0.0000000000000000,36.0000000000000000,-11.6200017929000001,19.2600097655999995,895.4999999999999990,14.5799579619999999,571.0800170899999550,696.3599853519999660,27.6875000000000000,27.9196205139000000,88.6400000000000005,45.0000000000000000
0.0000000000000000,36.0000000000000000,-12.0000400542999994,19.7000198363999992,895.3200073240000160,14.5601091384999996,570.7200927730000320,696.3200073240000160,27.0625000000000000,27.9196205139000000,88.6300000000000096,45.0000000000000000
0.0000000000000000,36.0000000000000000,-11.9200000762999991,19.3400001525999983,895.4799804689999960,13.8800497054999994,570.8200073240000160,696.5598144529999440,27.6875000000000000,27.9196205139000000,88.6400000000000005,45.0000000000000000
0.0000000000000000,36.0000000000000000,-11.6999998092999995,18.8600101470999988,895.3798828120000040,14.4801168441999994,570.7799682620000110,696.0798339839999460,27.3750000000000000,27.8883914948000004,88.6300000000000096,45.0000000000000000
0.0000000000000000,36.0000000000000000,-11.7800006865999993,19.1799793242999996,895.3599853519999660,14.3600053787000004,570.3399658199999740,695.8599853519999660,27.6875000000000000,27.8883914948000004,88.6400000000000005,45.0000000000000000
0.0000000000000000,36.0000000000000000,-11.7000389098999999,19.1599788665999995,895.5200805660000460,13.6799497603999995,571.1200561519999600,696.1799316410000520,27.3750000000000000,27.8883914948000004,88.6300000000000096,45.0000000000000000
0.0000000000000000,36.0000000000000000,-11.6399822235000006,19.6399898529000012,895.2600097660000520,14.4399394988999994,570.4800415040000410,696.0399169920000300,27.6875000000000000,27.9196205139000000,88.6300000000000096,45.0000000000000000
0.0000000000000000,36.0000000000000000,-11.4599895476999993,19.1199893950999993,895.6800537110000270,13.6200695037999999,570.8599243160000460,696.0399780269999600,27.6875000000000000,27.9196205139000000,88.6300000000000096,45.0000000000000000
0.0000000000000000,36.0000000000000000,-11.6799993514999993,19.0800094603999994,895.5599975589999520,14.2400007247999998,571.2600097660000520,696.0998535160000520,27.6875000000000000,27.8883914948000004,88.6300000000000096,45.0000000000000000
0.0000000000000000,36.0000000000000000,-11.2999982834000008,19.0999698639000002,895.7399902339999460,14.0599718094000003,570.9400024410000460,696.6199951170000300,27.3750000000000000,27.8883914948000004,88.6300000000000096,45.0000000000000000
0.0000000000000000,37.0000000000000000,-15.8599815368999994,-0.3999899923800000,894.6800537110000270,19.1600284575999993,586.1799926759999830,682.8999633790000410,27.3750000000000000,27.9196205139000000,88.6400000000000005,0.0000000000000000
0.0000000000000000,37.0000000000000000,-16.6800003052000001,-0.5799999237060000,895.4599609379999940,19.4400501251000008,586.4598999019999600,683.4200439449999740,27.3750000000000000,27.9196205139000000,88.6400000000000005,0.0000000000000000
0.0000000000000000,37.0000000000000000,-16.3399868011000002,-1.0400199890099999,895.3401489259999830,19.3999576568999998,586.8800048829999690,683.3002319339999520,27.3750000000000000,27.9196205139000000,88.6400000000000005,0.0000000000000000
0.0000000000000000,37.0000000000000000,-16.2799911498999989,-1.2999899387400000,894.8400878910000520,19.0999794005999988,586.4401245120000110,683.0399780269999600,27.6875000000000000,27.9196205139000000,88.6400000000000005,0.0000000000000000
0.0000000000000000,37.0000000000000000,-16.7600116730000010,-0.7599999904630000,894.7600097660000520,19.4599990845000015,586.8400878910000520,682.8599853519999660,27.3750000000000000,27.9196205139000000,88.6400000000000005,0.0000000000000000
0.0000000000000000,37.0000000000000000,-16.4000225067000009,-0.5399999618530000,895.5999755860000270,19.7000465393000006,586.4799804689999970,683.3401489259999830,27.3750000000000000,27.9196205139000000,88.6400000000000005,0.0000000000000000
0.0000000000000000,37.0000000000000000,-17.1200313567999984,-0.8200199604030000,895.2600708009999830,19.8599586487000010,586.8000488279999440,682.9199218749999990,27.3750000000000000,27.9196205139000000,88.6400000000000005,0.0000000000000000
0.0000000000000000,37.0000000000000000,-16.6199798584000007,-1.1599899530400000,894.6598510740000160,19.0999298095999990,586.5600585939999970,683.5999145509999830,27.6875000000000000,27.9196205139000000,88.6400000000000005,0.0000000000000000
0.0000000000000000,37.0000000000000000,-16.4400005341000010,-0.7799800038340000,894.2598876949999740,18.9999599456999988,587.1199951170000300,683.6799316410000520,27.3750000000000000,27.9196205139000000,88.6400000000000005,0.0000000000000000
0.0000000000000000,37.0000000000000000,-15.9000082016000004,-1.2799899578100000,893.7999877930000130,19.1200523376000007,587.0399780269999600,683.4600830079999690,27.6875000000000000,27.9196205139000000,88.6400000000000005,0.0000000000000000
0.0000000000000000,38.0000000000000000,-5.8399887085000000,-20.1599998474000017,895.8599243160000460,8.5199995040900003,600.7999267579999690,672.2798461910000460,27.3750000000000000,27.9196205139000000,88.6300000000000096,-45.0000000000000000
0.0000000000000000,38.0000000000000000,-6.0600109100299999,-19.8599891663000001,895.0399780269999600,8.3799600601200002,600.6600341800000240,671.8200073240000160,27.3750000000000000,27.9196205139000000,88.6300000000000096,-45.0000000000000000
0.0000000000000000,38.0000000000000000,-5.9200081825300002,-20.0199890136999983,895.9199218749999990,9.1800174713100002,601.1400146480000320,671.2999267579999690,27.0625000000000000,27.9196205139000000,88.6400000000000005,-45.0000000000000000
0.0000000000000000,38.0000000000000000,-6.4600400924699999,-20.2800235748000013,895.6999511720000550,8.1999588012700002,600.2398681639999720,671.6401367189999970,27.0625000000000000,27.9196205139000000,88.6400000000000005,-45.0000000000000000
0.0000000000000000,38.0000000000000000,-5.9799895286600000,-20.2799797057999989,895.4799804689999960,7.6598892211900003,600.4600830079999690,671.7600708009999830,27.3750000000000000,27.9196205139000000,88.6400000000000005,-45.0000000000000000
0.0000000000000000,38.0000000000000000,-5.9400110244800004,-19.9199790955000004,895.7399902339999460,8.6000385284400007,600.8400268550000190,671.3800048829999690,27.6875000000000000,27.9196205139000000,88.6400000000000005,-45.0000000000000000
0.0000000000000000,38.0000000000000000,-6.1800298690800002,-19.9399986266999995,894.9400024410000460,8.7000398635899998,600.8999023439999970,671.0000610350000440,27.3750000000000000,27.9196205139000000,88.6300000000000096,-45.0000000000000000
0.0000000000000000,38.0000000000000000,-6.1400012970000004,-20.1400012970000013,895.2799072269999660,8.6800403594999995,600.9600830079999690,672.2598876949999740,27.3750000000000000,27.9196205139000000,88.6400000000000005,-45.0000000000000000
0.0000000000000000,38.0000000000000000,-6.1799697876000001,-19.6999874115000004,895.3599853519999660,8.3200597763099999,600.9200439449999740,672.1800537110000270,27.3750000000000000,27.9196205139000000,88.6400000000000005,-45.0000000000000000
0.0000000000000000,38.0000000000000000,-5.9799594879200004,-19.8599987029999987,895.1399536129999880,8.6799793243399996,600.7600097660000520,671.6800537110000270,27.3750000000000000,27.9196205139000000,88.6400000000000005,-45.0000000000000000
0.0000000000000000,39.0000000000000000,13.6599998473999999,-26.3599891663000001,895.5598754879999880,-11.5800313950000007,605.0599365230000320,667.6401367189999970,27.6875000000000000,27.9508514404000010,88.6300000000000096,-89.9999999999999999
0.0000000000000000,39.0000000000000000,14.0000400542999994,-26.6999702453999994,895.3800048829999690,-11.4399690627999995,605.3399047850000440,667.8599243160000460,27.6875000000000000,27.9508514404000010,88.6400000000000005,-89.9999999999999999
0.0000000000000000,39.0000000000000000,13.6000499725000008,-26.5399990081999988,894.8800048829999690,-12.1199989318999997,605.3399658199999740,667.9600830079999690,27.3750000000000000,27.9508514404000010,88.6400000000000005,-89.9999999999999999
0.0000000000000000,39.0000000000000000,13.7200117110999997,-26.3199634551999999,895.5600585939999960,-11.3399200438999994,605.3999633790000410,668.3999023439999970,27.6875000000000000,27.9508514404000010,88.6400000000000005,-89.9999999999999999
0.0000000000000000,39.0000000000000000,13.4599790573000000,-26.3800315856999994,894.9599609379999940,-11.8399171829000007,604.8400878910000520,668.0199584959999580,27.6875000000000000,27.9196205139000000,88.6400000000000005,-89.9999999999999999
0.0000000000000000,39.0000000000000000,14.1200103759999997,-26.2200183867999996,895.6399536129999880,-12.3401079177999993,605.7999877930000130,667.3999633790000410,27.6875000000000000,27.9196205139000000,88.6400000000000005,-89.9999999999999999
0.0000000000000000,39.0000000000000000,14.3800497054999994,-26.2800083160000000,895.2600097660000520,-11.9200410842999993,604.8599853519999660,668.3797607420000300,27.3750000000000000,27.9508514404000010,88.6400000000000005,-89.9999999999999999
0.0000000000000000,39.0000000000000000,14.3999996185000008,-26.4999904633000014,894.8999633790000410,-10.8399705887000000,605.3200073240000160,667.5601196290000410,27.3750000000000000,27.9508514404000010,88.6400000000000005,-89.9999999999999999
0.0000000000000000,39.0000000000000000,13.9999809264999992,-26.1800098418999987,895.5798950199999800,-11.1999292373999992,605.0398559569999860,667.9599609379999940,27.3750000000000000,27.9508514404000010,88.6400000000000005,-89.9999999999999999
0.0000000000000000,39.0000000000000000,14.0799903870000005,-26.3399791717999996,895.4599609379999940,-11.2200994491999992,605.3599243160000460,666.9199829100000440,27.3750000000000000,27.9508514404000010,88.6400000000000005,-89.9999999999999999
0.0000000000000000,40.0000000000000000,32.5999908447000024,-16.5999603270999998,895.1199951170000300,-29.8800010681000003,597.3399658199999740,674.5399169920000300,27.3750000000000000,27.9508514404000010,88.6400000000000005,-135.0000000000000000
0.0000000000000000,40.0000000000000000,31.4200096130000013,-17.2600097655999995,895.0199584959999580,-30.3000221252000017,597.4400024410000460,674.5599975589999520,27.3750000000000000,27.9508514404000010,88.6400000000000005,-135.0000000000000000
0.0000000000000000,40.0000000000000000,31.9599895477000011,-16.9599895477000011,895.1999511720000550,-30.1799259185999986,597.0599975589999520,674.6801147459999580,27.3750000000000000,27.9508514404000010,88.6400000000000005,-135.0000000000000000
0.0000000000000000,40.0000000000000000,32.4199981689000012,-16.7399806976000001,895.0599975589999520,-30.6400356293000016,597.3999023439999970,673.8999633790000410,27.3750000000000000,27.9508514404000010,88.6400000000000005,-135.0000000000000000
0.0000000000000000,40.0000000000000000,32.6399765015000014,-16.8200092316000003,895.8999633790000410,-30.6400489807000014,597.0800170899999550,675.1200561519999600,27.3750000000000000,27.9508514404000010,88.6400000000000005,-135.0000000000000000
0.0000000000000000,40.0000000000000000,32.8799781799000001,-16.5399894713999984,895.6198730470000550,-30.0399627685999988,597.1200561519999600,674.3800048829999690,27.6875000000000000,27.9508514404000010,88.6400000000000005,-135.0000000000000000
0.0000000000000000,40.0000000000000000,31.9600009918000012,-16.7200279236000000,895.2999877930000130,-30.2600631713999988,597.5198974610000270,675.0400390620000050,27.6875000000000000,27.9508514404000010,88.6400000000000005,-135.0000000000000000
0.0000000000000000,40.0000000000000000,32.3999977112000010,-16.5999889373999991,895.7600097660000520,-30.4200382233000006,597.5399169920000300,674.1600341800000240,27.3750000000000000,27.9508514404000010,88.6400000000000005,-135.0000000000000000
0.0000000000000000,40.0000000000000000,32.4600181579999969,-16.6399974823000001,895.4599609379999940,-30.4599456786999987,597.3999633790000410,673.8200073240000160,27.6875000000000000,27.9508514404000010,88.6400000000000005,-135.0000000000000000
0.0000000000000000,40.0000000000000000,32.1599884032999981,-16.6199989318999996,895.1200561519999600,-29.7800235748000013,597.1599121089999470,673.9400024410000460,27.3750000000000000,27.9508514404000010,88.6400000000000005,-135.0000000000000000
