Index,X Accel 1,Y Accel 1,Z Accel 1,X Accel 2,Y Accel 2,Z Accel2,Temp,Theta ,Phi,,,,,,,,
1.000,639.875,-3.320,-635.925,646.135,439.230,-455.480,26.750,-44.377,180.000
1.000,641.075,-3.175,-635.925,646.580,439.570,-455.595,27.062,-44.372,180.000
1.000,640.250,-3.210,-636.090,646.840,439.410,-455.965,26.750,-44.372,180.000
1.000,640.425,-3.635,-635.825,646.250,439.265,-456.060,26.750,-44.372,180.000
1.000,640.440,-3.345,-636.065,646.095,439.160,-455.875,26.437,-44.375,180.000
1.000,640.615,-2.850,-635.280,646.140,439.785,-455.770,26.750,-44.375,180.000
1.000,640.570,-3.335,-635.190,646.465,438.895,-455.625,27.062,-44.375,180.000
1.000,640.695,-2.770,-635.140,645.970,439.605,-455.660,26.750,-44.387,180.000
1.000,639.980,-3.300,-635.575,646.955,439.240,-455.890,26.750,-44.375,180.000
1.000,640.510,-2.995,-635.175,645.815,439.360,-456.205,27.062,-44.375,180.000
2.000,463.160,450.530,-632.115,467.030,761.325,-138.035,26.750,-44.375,135.000
2.000,463.180,451.030,-632.775,467.040,761.255,-137.315,26.437,-44.382,135.000
2.000,462.670,450.970,-631.915,466.840,761.590,-137.485,26.750,-44.385,135.000
2.000,463.360,451.355,-632.305,466.825,761.695,-137.445,26.437,-44.385,135.000
2.000,462.835,451.295,-632.990,467.315,761.025,-138.060,26.437,-44.385,135.000
2.000,462.750,450.980,-632.155,467.030,761.265,-137.505,27.062,-44.379,135.000
2.000,462.895,450.715,-632.425,467.195,761.615,-137.835,26.750,-44.375,135.000
2.000,463.230,451.255,-632.325,467.215,761.415,-136.900,26.750,-44.382,135.000
2.000,462.655,451.340,-632.365,467.155,761.715,-137.575,26.750,-44.382,135.000
2.000,462.770,451.270,-632.280,467.120,761.930,-137.455,26.750,-44.385,135.000
3.000,10.160,643.135,-637.740,11.460,901.575,2.245,27.062,-44.375,90.000
3.000,10.045,643.200,-637.595,11.280,901.715,2.510,26.750,-44.375,90.000
3.000,10.360,643.455,-637.365,11.150,902.070,2.550,26.750,-44.382,90.000
3.000,10.325,643.575,-637.850,11.395,901.795,2.160,26.437,-44.385,90.000
3.000,10.365,642.905,-637.985,11.205,901.350,2.705,26.437,-44.385,90.000
3.000,10.445,643.485,-637.990,11.520,902.535,2.055,26.750,-44.385,90.000
3.000,10.540,643.220,-637.270,10.745,901.885,2.410,26.750,-44.385,90.000
3.000,9.715,642.980,-637.305,10.670,901.935,1.685,26.437,-44.385,90.000
3.000,9.875,643.555,-637.600,11.290,901.885,2.285,26.750,-44.385,90.000
3.000,10.045,643.335,-637.730,10.940,901.755,2.580,26.750,-44.385,90.000
4.000,-446.615,463.495,-633.305,-448.440,771.820,-123.885,26.437,-44.375,45.000
4.000,-446.290,463.910,-634.000,-448.910,771.930,-123.655,26.437,-44.375,45.000
4.000,-445.410,463.610,-633.480,-449.210,771.655,-124.230,26.750,-44.375,45.000
4.000,-446.015,463.115,-633.940,-448.755,771.870,-124.180,26.437,-44.382,45.000
4.000,-446.285,463.515,-633.505,-448.835,771.680,-123.205,26.750,-44.395,45.000
4.000,-446.700,463.235,-634.210,-448.420,771.605,-123.705,26.437,-44.395,45.000
4.000,-445.810,463.500,-633.435,-448.915,771.295,-123.625,26.437,-44.387,45.000
4.000,-446.025,463.340,-633.690,-449.305,771.690,-123.890,26.750,-44.387,45.000
4.000,-445.875,463.080,-633.610,-449.085,771.945,-123.610,26.437,-44.384,45.000
4.000,-445.750,463.250,-634.070,-448.575,771.870,-123.795,26.750,-44.384,45.000
5.000,-647.260,8.545,-629.270,-643.790,450.605,-438.225,27.062,-44.384,0.000
5.000,-647.145,8.920,-628.855,-643.545,450.315,-439.275,26.750,-44.384,0.000
5.000,-646.810,8.855,-628.635,-643.705,450.575,-438.735,26.437,-44.384,0.000
5.000,-647.785,8.885,-628.230,-643.400,450.630,-438.940,26.437,-44.384,0.000
5.000,-647.340,9.230,-629.210,-643.720,450.605,-438.580,26.750,-44.384,0.000
5.000,-647.555,9.210,-629.220,-643.665,450.685,-438.800,26.750,-44.384,0.000
5.000,-646.555,8.925,-629.215,-643.345,451.190,-438.415,26.750,-44.379,0.000
5.000,-646.740,9.060,-628.885,-643.245,450.790,-438.545,26.437,-44.375,0.000
5.000,-647.070,8.655,-629.630,-643.790,450.910,-438.740,26.750,-44.375,0.000
5.000,-646.765,8.680,-628.600,-643.375,450.540,-438.370,26.750,-44.384,0.000
6.000,-459.300,-443.915,-633.865,-464.330,129.720,-757.570,26.437,-44.384,-45.000
6.000,-458.490,-443.580,-633.700,-464.055,129.885,-757.770,26.437,-44.384,-45.000
6.000,-459.105,-443.755,-632.780,-464.725,129.540,-757.090,26.437,-44.384,-45.000
6.000,-458.620,-443.990,-633.330,-464.230,129.590,-757.430,27.062,-44.384,-45.000
6.000,-458.880,-443.840,-632.940,-464.565,129.635,-757.410,26.437,-44.384,-45.000
6.000,-458.105,-443.780,-633.630,-464.310,129.445,-756.750,26.750,-44.379,-45.000
6.000,-458.520,-443.755,-633.590,-463.725,129.690,-757.610,26.437,-44.384,-45.000
6.000,-458.380,-444.025,-632.920,-463.975,129.910,-757.500,26.437,-44.384,-45.000
6.000,-458.330,-443.735,-633.425,-464.355,129.545,-756.915,26.437,-44.384,-45.000
6.000,-458.680,-443.650,-633.480,-464.715,130.005,-757.825,26.437,-44.364,-45.000
7.000,-5.680,-635.810,-636.790,-8.900,-9.875,-897.800,26.437,-44.385,-90.000
7.000,-6.135,-635.785,-636.005,-8.725,-9.565,-897.120,26.437,-44.385,-90.000
7.000,-6.090,-636.000,-636.810,-9.365,-9.790,-897.420,27.062,-44.392,-90.000
7.000,-5.960,-635.350,-636.550,-8.975,-10.045,-897.890,26.750,-44.387,-90.000
7.000,-5.950,-635.905,-636.535,-8.590,-9.985,-897.495,26.437,-44.387,-90.000
7.000,-6.080,-635.735,-636.345,-9.270,-9.785,-897.535,26.750,-44.387,-90.000
7.000,-5.630,-635.350,-636.905,-9.035,-9.840,-897.355,26.750,-44.395,-90.000
7.000,-6.200,-635.325,-637.165,-8.540,-9.905,-897.520,26.437,-44.395,-90.000
7.000,-5.740,-636.030,-636.825,-8.990,-9.910,-897.785,26.750,-44.385,-90.000
7.000,-6.595,-635.605,-636.750,-9.170,-9.955,-897.700,27.062,-44.385,-90.000
8.000,451.310,-454.895,-631.175,449.415,117.010,-773.825,26.750,-44.382,-135.000
8.000,451.105,-454.870,-631.210,449.250,117.035,-774.185,26.750,-44.382,-135.000
8.000,450.710,-454.915,-631.625,448.780,116.990,-773.790,26.750,-44.385,-135.000
8.000,451.345,-454.795,-631.490,449.125,116.790,-774.495,26.750,-44.387,-135.000
8.000,451.115,-455.125,-631.420,449.735,116.565,-773.675,26.437,-44.387,-135.000
8.000,451.000,-455.140,-631.915,448.660,116.995,-774.285,26.437,-44.395,-135.000
8.000,451.175,-454.980,-632.170,449.455,116.580,-774.345,26.437,-44.385,-135.000
8.000,451.005,-454.775,-631.620,449.145,116.905,-774.305,26.750,-44.385,-135.000
8.000,451.015,-454.930,-631.230,449.010,116.370,-774.090,26.750,-44.385,-135.000
8.000,450.740,-455.075,-631.115,449.015,117.100,-773.895,26.750,-44.377,-135.000
9.000,900.460,-5.250,7.220,902.380,-13.510,-4.045,26.437,0.720,180.000
9.000,900.565,-4.785,6.970,902.075,-13.520,-3.955,26.437,0.715,180.000
9.000,899.930,-5.045,6.970,903.035,-13.470,-4.045,26.437,0.715,180.000
9.000,900.500,-5.070,7.135,902.660,-13.665,-4.445,26.437,0.715,180.000
9.000,900.605,-5.115,5.925,902.395,-13.505,-4.425,26.750,0.715,180.000
9.000,900.400,-4.805,6.760,902.450,-13.540,-4.820,26.437,0.715,180.000
9.000,900.880,-5.440,6.600,902.445,-13.595,-3.215,26.437,0.715,180.000
9.000,900.660,-5.155,7.310,902.005,-13.595,-3.720,26.437,0.715,180.000
9.000,900.575,-5.130,7.325,902.410,-13.810,-4.125,26.437,0.715,180.000
9.000,900.655,-5.150,6.945,902.750,-13.725,-3.960,26.437,0.715,180.000
10.000,648.810,632.010,5.860,648.315,438.980,444.805,26.437,0.720,135.000
10.000,648.960,632.295,4.905,647.430,438.310,444.875,26.437,0.725,135.000
10.000,649.240,631.920,5.605,647.620,438.940,444.965,26.437,0.717,135.000
10.000,649.100,631.840,5.560,648.490,438.895,444.875,26.437,0.715,135.000
10.000,649.025,631.995,5.630,648.740,438.560,444.480,26.437,0.715,135.000
10.000,649.265,632.245,4.895,648.085,438.905,444.810,26.750,0.705,135.000
10.000,649.165,632.295,5.635,647.745,438.470,445.310,26.437,0.705,135.000
10.000,648.860,632.305,6.275,648.190,438.775,444.740,26.750,0.705,135.000
10.000,649.125,632.110,4.940,648.310,438.505,445.005,26.125,0.705,135.000
10.000,649.115,632.170,5.570,648.315,439.160,444.965,26.437,0.715,135.000
11.000,9.695,903.440,5.025,15.410,630.645,642.625,26.437,0.715,90.000
11.000,9.935,904.045,5.395,15.660,630.880,642.140,26.437,0.715,90.000
11.000,9.225,903.390,5.620,15.705,630.875,642.035,26.437,0.715,90.000
11.000,10.525,904.045,5.625,15.305,630.565,642.145,26.437,0.705,90.000
11.000,10.335,903.580,5.570,15.920,630.865,642.290,26.437,0.705,90.000
11.000,9.730,903.615,5.825,14.920,630.425,641.490,26.437,0.715,90.000
11.000,10.170,903.900,4.825,15.570,630.920,642.185,26.437,0.715,90.000
11.000,9.935,904.245,6.050,15.650,630.785,641.530,26.437,0.715,90.000
11.000,10.370,903.745,5.460,15.780,630.845,642.145,26.437,0.715,90.000
11.000,10.235,903.685,5.490,15.570,630.575,642.365,26.437,0.705,90.000
12.000,-634.540,645.415,4.805,-626.130,453.250,458.245,26.437,0.705,45.000
12.000,-634.135,645.775,4.880,-625.690,453.060,458.565,26.437,0.715,45.000
12.000,-634.330,645.215,5.090,-625.995,453.345,458.015,26.437,0.715,45.000
12.000,-633.860,645.580,5.265,-625.405,453.435,458.790,26.437,0.715,45.000
12.000,-634.650,645.445,5.115,-625.600,453.150,458.065,26.750,0.715,45.000
12.000,-634.395,645.870,4.565,-625.835,453.105,458.455,26.437,0.715,45.000
12.000,-633.795,645.820,5.195,-625.650,453.100,458.405,26.750,0.715,45.000
12.000,-634.370,645.305,4.675,-625.705,452.780,458.345,26.750,0.715,45.000
12.000,-634.730,645.575,4.890,-625.805,453.565,458.315,26.437,0.715,45.000
12.000,-634.285,645.725,5.200,-625.380,452.630,457.775,26.750,0.715,45.000
13.000,-898.505,10.300,3.635,-897.175,0.590,11.775,26.437,0.715,0.000
13.000,-897.970,10.275,3.230,-896.900,0.680,11.950,26.437,0.715,0.000
13.000,-898.390,10.385,3.460,-896.505,0.665,11.985,26.437,0.722,0.000
13.000,-898.490,10.555,3.570,-896.950,0.435,11.605,26.750,0.722,0.000
13.000,-898.480,10.710,3.015,-896.700,0.655,11.950,26.750,0.717,0.000
13.000,-898.660,10.750,3.695,-896.750,0.765,11.610,26.750,0.715,0.000
13.000,-898.315,10.235,3.745,-897.280,0.895,12.375,26.750,0.705,0.000
13.000,-898.675,10.425,3.510,-896.965,0.505,11.775,26.437,0.705,0.000
13.000,-898.080,10.860,3.450,-896.925,0.415,11.755,26.437,0.715,0.000
13.000,-898.220,10.730,3.740,-897.060,0.670,11.565,26.437,0.715,0.000
14.000,-649.275,-623.275,4.685,-642.955,-449.520,-433.730,26.437,0.717,-45.000
14.000,-649.105,-622.725,4.445,-643.115,-449.505,-434.135,26.437,0.725,-45.000
14.000,-649.300,-622.765,4.935,-643.300,-449.715,-433.520,26.437,0.715,-45.000
14.000,-649.355,-622.495,4.580,-642.710,-448.880,-433.620,26.437,0.715,-45.000
14.000,-648.950,-622.770,4.515,-642.655,-449.620,-433.770,26.437,0.712,-45.000
14.000,-649.520,-623.015,4.425,-642.830,-449.180,-434.025,26.437,0.720,-45.000
14.000,-649.185,-623.075,4.530,-643.130,-449.385,-433.570,26.437,0.720,-45.000
14.000,-648.645,-623.250,4.840,-643.375,-449.525,-433.880,26.750,0.725,-45.000
14.000,-649.165,-623.000,4.205,-642.765,-449.105,-433.515,26.437,0.725,-45.000
14.000,-649.265,-623.110,4.575,-643.165,-449.385,-433.565,26.125,0.725,-45.000
15.000,-8.695,-895.615,6.875,-9.205,-641.470,-632.155,26.437,0.717,-90.000
15.000,-8.015,-895.085,7.270,-9.335,-641.160,-632.410,26.437,0.725,-90.000
15.000,-7.790,-894.960,7.555,-9.720,-640.945,-632.180,26.750,0.725,-90.000
15.000,-8.100,-895.040,7.245,-9.720,-641.165,-631.990,26.437,0.717,-90.000
15.000,-8.160,-895.225,6.740,-10.165,-641.140,-632.430,26.437,0.717,-90.000
15.000,-8.380,-895.080,7.200,-10.130,-640.980,-632.185,26.437,0.717,-90.000
15.000,-8.715,-895.335,6.930,-9.150,-641.245,-632.370,26.437,0.717,-90.000
15.000,-8.425,-895.390,7.405,-9.660,-640.885,-632.080,26.437,0.710,-90.000
15.000,-8.100,-895.355,7.375,-9.195,-641.085,-631.800,26.437,0.720,-90.000
15.000,-8.485,-895.285,8.105,-9.230,-640.615,-632.215,26.437,0.725,-90.000
16.000,639.050,-633.910,8.175,633.055,-460.695,-446.295,26.437,0.715,-135.000
16.000,639.425,-633.780,7.255,633.125,-461.105,-446.795,26.437,0.725,-135.000
16.000,638.600,-633.920,8.330,633.355,-461.075,-446.825,26.125,0.715,-135.000
16.000,639.435,-634.405,7.825,633.215,-461.240,-446.020,26.437,0.725,-135.000
16.000,639.010,-633.955,7.830,633.215,-460.780,-446.650,26.125,0.725,-135.000
16.000,638.940,-633.875,7.755,633.170,-460.950,-446.565,26.437,0.725,-135.000
16.000,639.605,-634.065,8.180,633.465,-461.125,-446.675,26.437,0.717,-135.000
16.000,639.165,-634.245,8.045,633.205,-460.995,-446.660,26.437,0.717,-135.000
16.000,639.475,-634.015,8.035,632.990,-461.280,-446.690,26.437,0.717,-135.000
16.000,638.500,-633.970,8.080,632.985,-461.170,-446.910,26.437,0.715,-135.000
17.000,624.285,-2.210,643.050,633.515,-455.850,447.650,26.437,45.854,180.000
17.000,623.850,-1.805,644.265,633.860,-456.490,446.495,26.437,45.849,180.000
17.000,624.035,-2.025,643.920,633.880,-456.080,447.410,26.125,45.849,180.000
17.000,624.465,-2.165,644.125,633.700,-456.075,447.590,26.437,45.825,180.000
17.000,624.415,-1.615,643.615,634.120,-456.005,447.890,26.437,45.825,180.000
17.000,624.645,-1.980,643.335,633.620,-456.135,447.250,26.125,45.825,180.000
17.000,624.485,-1.580,643.530,634.115,-456.255,447.815,26.125,45.817,180.000
17.000,624.310,-1.785,643.325,634.330,-455.880,447.235,26.437,45.819,180.000
17.000,624.260,-2.330,643.075,633.585,-455.925,447.590,26.125,45.825,180.000
17.000,624.415,-2.025,643.090,633.820,-456.175,446.970,26.125,45.825,180.000
18.000,446.045,444.510,638.865,454.780,-137.570,764.380,26.125,45.822,135.000
18.000,445.515,444.435,639.760,454.370,-137.455,764.475,26.437,45.822,135.000
18.000,445.675,444.580,638.815,454.805,-137.560,764.560,26.437,45.825,135.000
18.000,445.735,444.310,639.180,454.385,-137.320,763.970,26.437,45.832,135.000
18.000,445.625,444.330,639.355,454.115,-137.085,764.225,26.750,45.834,135.000
18.000,445.080,444.085,639.390,454.015,-137.540,764.100,26.750,45.834,135.000
18.000,445.430,444.475,639.230,454.530,-137.365,764.545,26.437,45.834,135.000
18.000,446.120,444.520,639.830,454.865,-137.755,764.530,25.812,45.825,135.000
18.000,445.310,444.495,639.275,454.990,-137.495,763.960,26.125,45.830,135.000
18.000,445.365,444.615,638.975,454.730,-137.080,764.675,26.437,45.834,135.000
19.000,5.055,632.100,640.920,12.340,-6.080,892.915,26.437,45.817,90.000
19.000,5.335,631.735,640.815,12.215,-5.835,892.720,26.437,45.817,90.000
19.000,5.015,632.385,641.270,11.735,-5.370,893.135,26.125,45.794,90.000
19.000,5.150,632.405,640.550,11.590,-4.735,892.735,26.437,45.764,90.000
19.000,5.300,632.930,640.445,11.680,-4.485,892.630,26.750,45.755,90.000
19.000,5.440,633.950,639.670,12.090,-3.070,892.560,26.125,45.705,90.000
19.000,5.140,634.460,638.610,11.600,-2.030,892.495,26.437,45.654,90.000
19.000,5.025,635.780,637.685,11.745,-1.000,892.650,26.437,45.594,90.000
19.000,5.850,636.820,636.300,11.190,1.040,892.910,26.437,45.485,90.000
19.000,5.255,638.380,634.635,11.470,2.775,892.920,26.437,45.385,90.000
20.000,-449.120,461.225,623.915,-447.935,-117.945,766.445,26.437,44.965,45.000
20.000,-451.515,463.000,622.095,-448.770,-114.955,765.125,26.125,44.775,45.000
20.000,-453.175,464.495,619.160,-450.390,-112.280,764.545,26.437,44.555,45.000
20.000,-454.435,466.490,616.560,-452.735,-108.590,764.130,26.125,44.314,45.000
20.000,-457.160,468.830,612.500,-455.455,-104.810,763.075,26.437,44.044,45.000
20.000,-459.235,471.430,608.620,-457.590,-101.080,762.430,26.437,43.744,45.000
20.000,-461.955,473.865,604.590,-459.270,-95.965,761.470,26.437,43.425,45.000
20.000,-465.815,476.030,600.170,-463.525,-91.090,759.915,26.125,43.075,45.000
20.000,-466.065,478.080,598.790,-464.460,-88.600,760.810,26.437,42.705,45.000
20.000,-466.200,478.105,599.020,-464.060,-89.110,760.825,26.437,42.534,45.000
21.000,-670.105,6.915,595.560,-662.495,-422.095,432.150,26.437,42.547,0.000
21.000,-669.840,6.610,596.150,-662.455,-421.855,432.500,26.437,42.552,0.000
21.000,-670.150,7.330,595.385,-662.930,-421.915,433.050,26.437,42.545,0.000
21.000,-670.515,6.960,595.445,-663.225,-421.930,432.575,26.437,42.545,0.000
21.000,-670.110,7.360,596.235,-662.530,-422.280,432.270,26.437,42.535,0.000
21.000,-670.445,7.075,595.960,-662.845,-422.305,432.215,26.437,42.545,0.000
21.000,-670.355,7.190,595.655,-662.440,-422.150,433.030,26.125,42.545,0.000
21.000,-671.145,7.165,595.780,-663.235,-421.530,432.815,26.125,42.545,0.000
21.000,-670.505,6.780,595.725,-662.550,-421.900,432.450,26.437,42.545,0.000
21.000,-669.925,7.290,595.885,-663.330,-421.850,432.540,26.437,42.545,0.000
22.000,-473.130,-461.750,601.470,-476.700,-753.605,103.290,26.437,42.545,-45.000
22.000,-473.670,-461.920,601.285,-477.455,-753.140,103.440,26.437,42.545,-45.000
22.000,-473.155,-461.760,601.480,-477.735,-753.660,103.450,26.437,42.545,-45.000
22.000,-473.150,-461.905,601.620,-477.110,-753.425,103.470,26.750,42.545,-45.000
22.000,-473.115,-461.890,601.885,-477.180,-753.475,103.585,26.125,42.545,-45.000
22.000,-473.005,-461.930,601.580,-477.105,-753.090,102.950,26.125,42.545,-45.000
22.000,-473.250,-462.035,601.725,-477.360,-753.700,102.775,26.125,42.537,-45.000
22.000,-473.210,-461.405,601.585,-477.295,-753.625,102.915,26.125,42.535,-45.000
22.000,-473.555,-461.710,601.620,-476.880,-753.685,103.135,26.125,42.535,-45.000
22.000,-473.070,-461.560,601.980,-477.210,-753.330,103.075,26.437,42.535,-45.000
23.000,-6.880,-658.610,606.400,-4.005,-895.750,-39.430,26.437,42.545,-90.000
23.000,-6.400,-658.635,606.335,-3.325,-895.520,-39.015,26.437,42.545,-90.000
23.000,-6.270,-658.715,606.115,-3.670,-895.520,-39.590,26.437,42.545,-90.000
23.000,-6.825,-658.515,605.785,-3.040,-895.475,-39.320,26.437,42.545,-90.000
23.000,-6.115,-658.530,606.160,-3.815,-895.915,-39.330,26.125,42.542,-90.000
23.000,-6.880,-658.240,606.015,-4.040,-895.655,-39.925,26.437,42.535,-90.000
23.000,-6.175,-658.260,606.400,-3.390,-895.630,-39.540,26.437,42.535,-90.000
23.000,-6.705,-658.550,605.985,-3.720,-895.860,-38.990,26.437,42.535,-90.000
23.000,-6.100,-658.640,606.290,-3.555,-895.845,-38.965,26.437,42.540,-90.000
23.000,-6.025,-658.535,606.370,-3.510,-895.715,-39.480,26.125,42.545,-90.000
24.000,467.235,-467.825,602.755,473.525,-760.345,94.360,26.125,42.545,-135.000
24.000,467.090,-467.795,602.075,473.630,-760.030,94.275,26.437,42.537,-135.000
24.000,467.150,-467.720,602.550,473.465,-760.430,93.205,26.125,42.550,-135.000
24.000,467.485,-467.715,602.110,473.700,-760.285,93.845,26.437,42.550,-135.000
24.000,467.460,-467.650,602.730,473.910,-760.340,94.030,26.125,42.545,-135.000
24.000,467.640,-467.835,602.190,474.245,-760.025,93.990,26.437,42.545,-135.000
24.000,467.720,-467.920,602.575,473.620,-760.875,94.235,26.437,42.545,-135.000
24.000,466.870,-467.840,603.070,473.345,-760.280,93.670,26.437,42.527,-135.000
24.000,466.890,-468.375,602.965,473.500,-760.395,94.035,26.125,42.527,-135.000
24.000,467.265,-468.255,603.005,473.395,-760.300,94.300,25.812,42.525,-135.000
25.000,367.440,2.310,811.925,368.660,-579.650,578.420,26.437,66.264,180.000
25.000,367.790,1.835,811.835,368.425,-579.605,578.400,26.437,66.272,180.000
25.000,367.660,1.950,811.760,368.385,-579.660,578.100,26.437,66.275,180.000
25.000,367.890,1.625,812.285,368.395,-579.560,578.650,26.437,66.279,180.000
25.000,368.030,1.715,812.145,368.515,-579.425,579.045,26.437,66.294,180.000
25.000,367.705,2.130,812.115,368.835,-579.175,578.720,26.437,66.287,180.000
25.000,367.505,2.050,812.695,368.845,-579.405,578.620,25.812,66.287,180.000
25.000,368.060,1.815,811.875,369.055,-579.445,578.495,26.750,66.287,180.000
25.000,367.455,2.420,812.110,368.625,-579.525,578.645,26.125,66.285,180.000
25.000,367.910,1.405,811.750,369.005,-579.340,578.505,26.437,66.285,180.000
26.000,256.920,258.845,817.170,263.335,-396.025,761.165,26.437,66.285,135.000
26.000,256.525,258.770,816.965,262.680,-396.145,760.925,26.437,66.285,135.000
26.000,256.490,258.390,816.580,262.610,-396.150,761.220,26.437,66.270,135.000
26.000,256.355,258.790,817.210,263.415,-395.690,760.850,26.125,66.284,135.000
26.000,256.680,258.915,817.720,262.875,-395.840,761.030,26.125,66.284,135.000
26.000,256.800,258.825,817.010,263.150,-396.175,761.210,26.437,66.284,135.000
26.000,256.400,258.955,816.845,263.360,-396.115,761.300,26.750,66.289,135.000
26.000,256.315,258.920,817.045,263.875,-396.245,760.730,26.125,66.292,135.000
26.000,256.290,258.580,816.895,263.070,-395.955,761.365,26.437,66.294,135.000
26.000,256.325,258.350,816.870,262.680,-396.275,760.970,26.437,66.289,135.000
27.000,1.270,371.550,813.350,8.310,-320.910,832.925,26.437,66.275,90.000
27.000,0.865,371.560,812.950,7.430,-320.465,833.515,26.125,66.275,90.000
27.000,1.470,371.480,812.495,7.700,-320.745,833.595,26.437,66.275,90.000
27.000,0.955,371.440,812.640,7.395,-320.300,833.610,26.125,66.264,90.000
27.000,1.285,371.450,813.370,7.360,-320.570,833.615,26.437,66.264,90.000
27.000,0.735,371.810,812.900,7.560,-320.860,833.255,26.437,66.264,90.000
27.000,0.655,371.545,813.055,7.230,-320.690,833.750,25.812,66.264,90.000
27.000,0.965,371.425,812.705,7.605,-320.135,832.975,26.437,66.264,90.000
27.000,1.025,371.725,812.945,7.545,-320.875,833.405,26.750,66.264,90.000
27.000,1.590,371.920,813.150,6.990,-321.080,833.560,26.437,66.264,90.000
28.000,-258.545,265.980,810.940,-254.365,-394.860,760.715,26.437,66.254,45.000
28.000,-259.040,265.300,811.235,-253.635,-394.805,760.235,26.125,66.254,45.000
28.000,-258.240,265.600,811.295,-253.835,-394.650,760.605,26.437,66.262,45.000
28.000,-258.615,265.490,811.490,-254.375,-394.910,760.275,26.750,66.262,45.000
28.000,-258.645,265.645,811.480,-254.035,-394.935,760.460,26.437,66.264,45.000
28.000,-258.865,265.940,810.990,-254.120,-395.015,760.265,26.750,66.254,45.000
28.000,-258.735,265.985,811.300,-253.840,-395.340,760.425,26.437,66.254,45.000
28.000,-258.545,265.745,811.090,-254.045,-395.190,760.110,26.125,66.254,45.000
28.000,-258.665,265.680,810.495,-254.020,-394.800,759.975,26.125,66.254,45.000
28.000,-258.920,265.870,811.095,-253.720,-394.735,760.520,26.125,66.254,45.000
29.000,-369.030,5.525,812.100,-363.425,-572.645,587.305,26.437,66.262,0.000
29.000,-369.615,5.890,812.280,-363.360,-572.500,588.025,26.125,66.264,0.000
29.000,-368.525,5.460,811.995,-362.890,-572.510,587.205,26.437,66.264,0.000
29.000,-368.350,5.220,812.205,-363.065,-572.540,587.555,26.125,66.264,0.000
29.000,-369.675,6.030,812.350,-363.645,-573.035,587.475,26.750,66.264,0.000
29.000,-369.205,5.450,812.355,-363.835,-572.250,587.495,26.437,66.264,0.000
29.000,-368.575,5.885,812.260,-363.385,-572.720,587.210,26.125,66.264,0.000
29.000,-368.925,5.535,812.115,-362.980,-572.725,587.460,26.125,66.264,0.000
29.000,-368.700,5.785,812.485,-363.415,-572.285,587.470,26.125,66.264,0.000
29.000,-369.315,5.430,812.105,-363.655,-572.510,587.670,26.437,66.264,0.000
30.000,-263.605,-254.045,812.990,-259.060,-756.580,405.090,26.125,66.264,-45.000
30.000,-263.645,-253.700,813.340,-258.210,-756.660,404.910,26.125,66.264,-45.000
30.000,-263.775,-253.920,813.235,-258.965,-756.155,405.000,26.437,66.264,-45.000
30.000,-263.140,-254.310,812.685,-258.525,-756.490,404.125,26.437,66.264,-45.000
30.000,-263.390,-254.265,813.255,-258.175,-756.305,404.635,26.437,66.254,-45.000
30.000,-263.650,-253.970,812.935,-258.275,-756.145,404.705,26.437,66.254,-45.000
30.000,-263.475,-253.765,812.670,-259.225,-756.650,404.560,26.437,66.254,-45.000
30.000,-263.610,-253.695,813.285,-258.895,-756.420,404.920,26.125,66.254,-45.000
30.000,-263.615,-254.010,812.770,-258.595,-756.715,404.605,26.125,66.254,-45.000
30.000,-263.675,-254.015,812.735,-258.650,-756.620,404.780,26.125,66.264,-45.000
31.000,-3.065,-363.920,813.065,-1.330,-834.120,326.340,26.125,66.264,-90.000
31.000,-3.935,-363.715,813.090,-0.835,-834.060,326.745,26.125,66.264,-90.000
31.000,-3.590,-363.555,812.785,-0.980,-834.455,326.185,26.125,66.264,-90.000
31.000,-3.700,-363.835,812.150,-1.015,-834.020,326.700,26.125,66.264,-90.000
31.000,-3.790,-363.710,812.525,-0.365,-834.200,326.610,26.437,66.264,-90.000
31.000,-3.625,-363.565,812.625,-0.795,-834.205,326.645,26.437,66.264,-90.000
31.000,-3.600,-363.580,812.405,-0.535,-834.110,326.460,26.125,66.264,-90.000
31.000,-3.260,-363.350,812.670,-0.320,-834.610,326.055,26.125,66.270,-90.000
31.000,-4.025,-363.400,812.505,-0.505,-834.020,326.300,26.125,66.275,-90.000
31.000,-3.235,-363.250,812.125,0.045,-834.000,326.680,26.437,66.275,-90.000
32.000,257.560,-255.695,813.120,263.225,-760.255,400.805,26.437,66.275,-135.000
32.000,257.720,-256.060,812.995,263.030,-760.070,399.990,26.125,66.275,-135.000
32.000,257.730,-256.185,812.415,263.195,-760.250,400.170,26.437,66.264,-135.000
32.000,258.170,-255.770,813.280,263.705,-760.050,400.860,26.437,66.264,-135.000
32.000,257.840,-256.090,812.990,263.630,-760.315,400.580,26.125,66.279,-135.000
32.000,258.175,-256.230,812.800,263.260,-760.035,400.450,26.437,66.277,-135.000
32.000,257.955,-256.160,813.050,263.515,-760.170,400.520,26.437,66.277,-135.000
32.000,258.000,-256.270,812.635,263.530,-759.890,400.480,26.125,66.270,-135.000
32.000,258.320,-255.775,812.340,263.355,-760.405,400.500,26.125,66.264,-135.000
32.000,257.970,-256.120,812.625,262.820,-760.145,400.090,25.812,66.267,-135.000
33.000,53.590,3.800,889.340,55.990,-631.795,635.190,26.125,86.700,180.000
33.000,53.525,4.060,888.540,56.775,-631.820,635.225,26.125,86.675,180.000
33.000,53.975,4.205,888.870,56.165,-631.135,635.285,26.125,86.675,180.000
33.000,53.945,4.135,889.390,56.435,-631.875,634.535,26.125,86.694,180.000
33.000,53.820,4.265,888.875,56.375,-632.125,635.240,26.125,86.694,180.000
33.000,53.690,4.000,889.260,56.385,-631.640,635.440,26.125,86.694,180.000
33.000,53.935,4.315,889.675,57.180,-631.980,635.340,26.125,86.694,180.000
33.000,53.865,4.415,889.610,56.210,-631.975,635.135,26.125,86.694,180.000
33.000,53.715,4.485,889.625,55.995,-632.050,635.310,26.125,86.694,180.000
33.000,53.445,3.860,889.360,56.415,-631.690,635.215,26.125,86.694,180.000
34.000,38.500,42.290,888.315,40.725,-603.840,661.720,26.125,86.704,135.000
34.000,37.675,42.605,888.500,40.225,-604.205,662.135,26.125,86.697,135.000
34.000,37.960,42.415,887.815,40.325,-603.955,661.440,26.437,86.697,135.000
34.000,38.240,42.580,888.145,40.735,-604.180,661.790,26.125,86.684,135.000
34.000,37.840,42.535,887.840,41.330,-604.465,661.925,26.125,86.684,135.000
34.000,37.995,42.380,888.535,40.430,-604.010,662.120,26.437,86.684,135.000
34.000,38.205,42.645,887.835,40.620,-604.110,661.970,26.125,86.684,135.000
34.000,38.105,42.525,887.900,40.425,-604.155,661.840,26.437,86.675,135.000
34.000,38.345,42.010,887.905,40.600,-604.210,661.795,26.125,86.675,135.000
34.000,38.365,42.550,888.005,41.025,-603.745,662.075,26.125,86.675,135.000
35.000,-1.545,58.455,888.795,-0.640,-591.445,673.710,26.125,86.694,90.000
35.000,-1.270,58.820,888.870,-1.240,-591.360,674.040,26.437,86.694,90.000
35.000,-1.305,58.970,888.425,-0.360,-591.085,674.080,26.125,86.684,90.000
35.000,-0.820,58.460,888.370,-0.155,-591.365,674.035,26.125,86.684,90.000
35.000,-1.720,58.650,888.920,0.155,-591.015,674.120,26.125,86.684,90.000
35.000,-1.460,58.500,888.415,-0.660,-591.570,673.810,26.437,86.692,90.000
35.000,-1.400,58.715,888.155,-0.265,-591.170,674.085,26.125,86.694,90.000
35.000,-1.630,58.785,888.425,-0.580,-591.355,674.175,26.125,86.684,90.000
35.000,-1.230,58.635,888.575,-0.820,-591.025,674.045,26.437,86.677,90.000
35.000,-1.255,58.760,888.800,-0.055,-591.445,674.360,26.125,86.679,90.000
36.000,-41.125,43.320,887.785,-39.460,-602.530,663.220,26.437,86.684,45.000
36.000,-41.065,43.320,887.665,-40.085,-602.780,663.370,26.125,86.690,45.000
36.000,-41.150,42.970,887.390,-40.620,-602.800,663.105,26.437,86.692,45.000
36.000,-41.025,42.880,887.790,-39.770,-602.375,663.440,26.125,86.694,45.000
36.000,-41.360,43.070,887.370,-39.875,-602.460,662.800,26.125,86.694,45.000
36.000,-40.600,43.080,888.200,-40.315,-602.870,663.070,26.125,86.694,45.000
36.000,-41.085,43.040,887.720,-39.460,-602.710,663.230,26.125,86.694,45.000
36.000,-41.460,42.925,887.515,-40.125,-602.490,663.480,26.437,86.694,45.000
36.000,-40.910,43.105,887.710,-40.170,-602.380,663.135,26.437,86.694,45.000
36.000,-40.945,42.545,887.460,-39.955,-602.515,662.950,26.125,86.694,45.000
37.000,-55.970,3.395,887.690,-54.710,-630.740,634.680,26.437,86.694,0.000
37.000,-56.120,3.505,887.715,-54.005,-630.745,634.915,26.437,86.694,0.000
37.000,-55.680,3.495,888.045,-54.400,-630.870,634.810,26.437,86.694,0.000
37.000,-55.540,3.695,888.155,-54.370,-630.870,635.280,26.125,86.694,0.000
37.000,-55.620,3.245,887.370,-54.265,-630.500,634.785,26.125,86.694,0.000
37.000,-56.200,3.455,887.825,-54.065,-630.785,634.820,26.437,86.684,0.000
37.000,-55.110,3.705,887.955,-54.805,-630.825,634.840,26.125,86.677,0.000
37.000,-55.570,3.360,887.930,-54.535,-630.210,634.740,26.125,86.690,0.000
37.000,-56.060,3.365,888.085,-54.950,-630.335,634.935,26.125,86.694,0.000
37.000,-56.095,3.580,887.420,-54.665,-630.820,634.925,26.437,86.694,0.000
38.000,-42.070,-35.885,888.065,-37.935,-657.810,607.270,26.750,86.694,-45.000
38.000,-42.050,-36.255,888.770,-37.895,-657.880,607.730,26.125,86.694,-45.000
38.000,-41.910,-35.840,889.380,-37.915,-657.750,608.500,26.125,86.690,-45.000
38.000,-41.340,-35.830,888.695,-38.020,-657.615,607.905,26.437,86.684,-45.000
38.000,-41.650,-36.075,889.160,-37.395,-658.240,608.080,26.125,86.684,-45.000
38.000,-41.540,-35.950,888.955,-37.555,-657.510,608.365,26.125,86.694,-45.000
38.000,-41.015,-35.690,889.040,-37.570,-657.785,607.960,26.125,86.684,-45.000
38.000,-41.955,-35.895,888.970,-38.395,-657.450,607.810,26.125,86.684,-45.000
38.000,-42.060,-36.265,888.870,-37.765,-657.805,607.865,26.437,86.684,-45.000
38.000,-41.160,-35.660,889.160,-38.200,-657.450,608.105,25.812,86.675,-45.000
39.000,-2.420,-51.800,888.235,1.580,-669.270,596.405,26.437,86.694,-90.000
39.000,-2.205,-51.755,888.450,1.145,-669.420,596.320,26.125,86.654,-90.000
39.000,-2.205,-51.910,888.410,1.100,-669.425,596.230,26.437,86.665,-90.000
39.000,-2.150,-51.550,888.840,1.315,-669.825,596.310,26.750,86.694,-90.000
39.000,-2.800,-51.570,888.395,1.540,-669.910,596.570,26.437,86.694,-90.000
39.000,-2.250,-51.580,888.670,1.290,-669.855,596.570,25.812,86.694,-90.000
39.000,-2.405,-51.020,888.475,1.730,-669.940,596.165,26.125,86.684,-90.000
39.000,-2.695,-51.705,888.140,0.970,-669.740,596.150,26.125,86.690,-90.000
39.000,-2.375,-51.705,888.645,1.475,-669.750,595.915,26.125,86.684,-90.000
39.000,-2.475,-52.145,887.800,1.100,-669.285,596.605,26.125,86.694,-90.000
40.000,38.740,-34.585,887.690,40.870,-658.705,607.605,25.812,86.690,-135.000
40.000,38.430,-34.995,887.805,40.910,-659.115,607.380,26.125,86.690,-135.000
40.000,38.225,-34.675,887.660,41.320,-658.940,607.525,26.437,86.684,-135.000
40.000,38.615,-34.140,887.110,40.680,-658.900,607.635,26.125,86.684,-135.000
40.000,37.670,-34.390,887.180,41.485,-658.985,607.500,26.437,86.677,-135.000
40.000,38.760,-34.070,887.960,40.715,-658.980,607.485,26.125,86.682,-135.000
40.000,37.950,-34.720,887.085,40.250,-658.615,607.885,26.437,86.694,-135.000
40.000,38.220,-34.040,888.075,41.625,-658.575,607.455,26.125,86.694,-135.000
40.000,38.275,-34.515,887.455,40.665,-658.610,607.400,26.125,86.694,-135.000
40.000,38.935,-34.405,887.570,41.000,-658.960,607.740,26.125,86.684,-135.000
