Temp Iter,Index,X Accel 1,Y Accel 1,Z Accel 1,X Accel 2,Y Accel 2,Z Accel2, Temp_6g,Temp,Theta,Phi,,,,,,
0.0000000000000000,1.0000000000000000,907.7800292970000550,20.9601001740000008,-19.2400207519999995,-892.5201416019999660,-39.1800613403000000,1.1800897121400000,25.5000000000000000,25.7335205078000015,-1.0000000000000000,180.0000000000000000
0.0000000000000000,1.0000000000000000,907.6000366209999580,21.1599483490000004,-19.6599960327000005,-892.1999511720000550,-40.0399894713999984,1.2399799823800000,25.5000000000000000,25.7647514342999990,-1.0000000000000000,180.0000000000000000
0.0000000000000000,1.0000000000000000,907.5199584959999580,20.9399795532000006,-19.6600208282000004,-892.8798828120000040,-40.0199699401999993,1.4200098514599999,25.5000000000000000,25.7647514342999990,-0.9900000000000000,180.0000000000000000
0.0000000000000000,1.0000000000000000,907.3399047850000430,20.9200305939000017,-19.3400096893000004,-892.4600830079999690,-39.5400390625000000,0.9800099730489999,25.5000000000000000,25.7647514342999990,-1.0000000000000000,180.0000000000000000
0.0000000000000000,1.0000000000000000,907.6599731449999800,20.4399890900000010,-19.3599987029999987,-892.7200317379999880,-39.4200935364000031,1.3801298141500000,25.5000000000000000,25.7647514342999990,-1.0000000000000000,180.0000000000000000
0.0000000000000000,1.0000000000000000,907.3601074220000550,20.6000118255999993,-19.5600090026999993,-892.8399658199999740,-39.0399322510000033,1.5000699758500000,25.5000000000000000,25.7647514342999990,-1.0000000000000000,180.0000000000000000
0.0000000000000000,1.0000000000000000,907.4599609379999940,20.0799808501999983,-19.5000095366999986,-891.8999633790000410,-39.4599800109999989,1.5201797485399999,25.5000000000000000,25.7647514342999990,-1.0000000000000000,180.0000000000000000
0.0000000000000000,1.0000000000000000,906.9400024410000460,20.7200279236000000,-19.3800182342999996,-892.7200317379999880,-39.5000381469999979,0.9199499487880000,25.5000000000000000,25.7959804535000003,-1.0000000000000000,180.0000000000000000
0.0000000000000000,1.0000000000000000,907.4599609379999940,20.9200096130000013,-19.4799804688000009,-892.8200073240000160,-39.5600242614999970,0.7800498604770000,25.1875000000000000,25.7959804535000003,-1.0000000000000000,180.0000000000000000
0.0000000000000000,1.0000000000000000,907.6399536129999880,20.9400196074999982,-19.6399917602999991,-892.2199707029999440,-39.7399902343999969,1.7600600719499999,25.5000000000000000,25.7959804535000003,-1.0000000000000000,180.0000000000000000
0.0000000000000000,2.0000000000000000,639.4999389649999550,650.3999633790000410,-16.7200107574000007,-610.3599853519999660,-512.6199951170000300,404.9799804689999970,25.5000000000000000,25.8584403991999991,-1.0000000000000000,135.0000000000000000
0.0000000000000000,2.0000000000000000,639.8798828120000050,650.5999755860000270,-16.9199905396000005,-611.1200561519999600,-513.0399780269999600,406.3200988770000200,25.8125000000000000,25.8584403991999991,-1.0000000000000000,135.0000000000000000
0.0000000000000000,2.0000000000000000,639.6599731449999800,650.3599853519999660,-17.0200386047000016,-610.4799804689999970,-512.9398803709999580,405.4600219729999820,25.5000000000000000,25.8584403991999991,-1.0000000000000000,135.0000000000000000
0.0000000000000000,2.0000000000000000,639.4599609379999940,650.4999999999999990,-16.6199893950999993,-610.2599487300000190,-512.7199707029999440,405.0199584960000150,25.5000000000000000,25.8896713257000002,-1.0000000000000000,135.0000000000000000
0.0000000000000000,2.0000000000000000,639.8800048829999690,650.3999633790000410,-16.8200511932000012,-610.9001464839999460,-512.7597656250000000,404.5599060060000050,25.5000000000000000,25.8896713257000002,-1.0000000000000000,135.0000000000000000
0.0000000000000000,2.0000000000000000,639.6601562499999990,650.0999755860000270,-16.8199825286999989,-610.7202148439999970,-512.5198974610000270,404.2797241210000150,25.5000000000000000,25.8896713257000002,-1.0000000000000000,135.0000000000000000
0.0000000000000000,2.0000000000000000,639.8200073240000160,650.2799682620000110,-16.2999515533000014,-609.9998779300000240,-513.0800170899999550,404.9400024409999900,25.5000000000000000,25.8896713257000002,-1.0000000000000000,135.0000000000000000
0.0000000000000000,2.0000000000000000,639.6200561519999600,650.3599853519999660,-16.7000198363999992,-611.2003173829999690,-513.3600463870000110,404.4400939939999940,25.1875000000000000,25.9209003447999997,-1.0000000000000000,135.0000000000000000
0.0000000000000000,2.0000000000000000,639.7000122069999860,650.2199707029999440,-16.9000320435000013,-610.7200927730000320,-513.1000366209999580,405.2998657229999820,25.5000000000000000,25.9209003447999997,-1.0000000000000000,135.0000000000000000
0.0000000000000000,2.0000000000000000,639.3399658199999740,650.0400390620000050,-16.2599964141999997,-610.2398681639999720,-513.2198486329999690,404.7599182129999910,25.5000000000000000,25.9209003447999997,-1.0000000000000000,135.0000000000000000
0.0000000000000000,3.0000000000000000,1.5399796962700001,906.5199584959999580,-13.3200082778999995,33.2801971435999988,-690.5999755860000270,570.3601684569999860,25.8125000000000000,25.9833602904999985,-1.0000000000000000,89.9999999999999999
0.0000000000000000,3.0000000000000000,1.1399799585299999,906.4799804689999960,-13.1000099181999996,33.2800292968999969,-690.7799682620000110,570.6797485350000440,25.5000000000000000,25.9833602904999985,-1.0000000000000000,89.9999999999999999
0.0000000000000000,3.0000000000000000,1.2999799251599999,906.3399658199999740,-12.9600276947000008,32.8800163268999981,-690.7800903319999850,570.7200317379999880,25.5000000000000000,25.9833602904999985,-1.0000000000000000,89.9999999999999999
0.0000000000000000,3.0000000000000000,1.0999900102600000,906.4999999999999990,-13.4799900054999995,33.1800041198999977,-690.7400512699999800,569.4200439449999740,25.8125000000000000,25.9833602904999985,-1.0000000000000000,89.9999999999999999
0.0000000000000000,3.0000000000000000,0.9800099730489999,906.4400024410000460,-13.2599887848000009,33.1199836731000019,-690.0600585939999970,570.1400146480000320,25.8125000000000000,26.0145912169999995,-1.0000000000000000,89.9999999999999999
0.0000000000000000,3.0000000000000000,1.5600302219400000,906.0599975589999520,-13.8800182342999996,32.7600479126000010,-690.6799926759999830,570.7600097660000520,25.8125000000000000,26.0145912169999995,-1.0000000000000000,89.9999999999999999
0.0000000000000000,3.0000000000000000,1.4599797725699999,906.5799560550000240,-12.9600200653000002,33.6599998474000017,-691.0799560550000240,569.9002075199999800,25.8125000000000000,26.0145912169999995,-1.0000000000000000,89.9999999999999999
0.0000000000000000,3.0000000000000000,1.5799900293400000,906.3599853519999660,-13.2399797439999993,32.9399185181000007,-690.3399658199999740,571.2598266600000440,25.5000000000000000,26.0145912169999995,-1.0000000000000000,89.9999999999999999
0.0000000000000000,3.0000000000000000,1.0599800348299999,906.4400024410000460,-13.5600013733000004,32.6999397278000003,-690.8600463870000110,570.5999755860000270,25.1875000000000000,26.0145912169999995,-1.0000000000000000,89.9999999999999999
0.0000000000000000,3.0000000000000000,1.6600003242500001,906.5598754879999880,-13.1800117493000002,32.3199882506999998,-690.2000732420000300,570.3999023439999970,25.8125000000000000,26.0145912169999995,-1.0000000000000000,89.9999999999999999
0.0000000000000000,4.0000000000000000,-640.5999755860000270,631.1599731449999800,-12.4999876021999992,669.3599243160000460,-467.4199523930000160,384.9201049800000190,25.5000000000000000,26.0770511626999983,-1.0000000000000000,45.0000000000000000
0.0000000000000000,4.0000000000000000,-639.9600830079999690,631.1000366209999580,-12.3200292587000000,670.4800415040000410,-466.9598999020000170,384.2199096680000140,26.1250000000000000,26.0770511626999983,-1.0000000000000000,45.0000000000000000
0.0000000000000000,4.0000000000000000,-640.3599243160000460,631.0199584959999580,-12.9199895858999998,669.8600463870000110,-466.7400207520000200,384.1999816890000260,25.8125000000000000,26.0770511626999983,-1.0000000000000000,45.0000000000000000
0.0000000000000000,4.0000000000000000,-640.5399780269999600,630.9999999999999990,-12.4599800110000007,669.5999145509999830,-466.9799194340000090,384.0599060060000050,25.8125000000000000,26.0770511626999983,-1.0000000000000000,45.0000000000000000
0.0000000000000000,4.0000000000000000,-640.4400024410000460,630.9799194339999520,-12.2599983214999995,669.7398071290000410,-467.4000244139999720,384.9800415039999840,25.5000000000000000,26.1082801818999996,-1.0000000000000000,45.0000000000000000
0.0000000000000000,4.0000000000000000,-641.2200317379999880,631.2400512699999800,-12.1599998473999999,669.3198852540000410,-466.2599487300000190,384.2399597169999760,25.5000000000000000,26.1082801818999996,-1.0000000000000000,45.0000000000000000
0.0000000000000000,4.0000000000000000,-640.1599731449999800,631.3399658199999740,-11.7599802016999995,669.7399291990000160,-466.9799499509999800,384.8203125000000000,25.8125000000000000,26.1082801818999996,-1.0000000000000000,45.0000000000000000
0.0000000000000000,4.0000000000000000,-639.9400024410000460,630.9199829100000440,-11.4600105285999998,669.4000854490000160,-466.5599365229999760,384.7200317379999880,25.8125000000000000,26.1082801818999996,-1.0000000000000000,45.0000000000000000
0.0000000000000000,4.0000000000000000,-640.6400146480000320,630.8798828120000050,-12.5800275802999994,669.4999999999999990,-467.1799621580000230,383.8199157710000120,25.5000000000000000,26.1082801818999996,-1.0000000000000000,45.0000000000000000
0.0000000000000000,4.0000000000000000,-640.2000122069999860,631.2000122069999860,-12.4200305939000000,669.8599243160000460,-466.7599487300000190,383.7400207520000200,25.5000000000000000,26.1082801818999996,-1.0000000000000000,45.0000000000000000
0.0000000000000000,5.0000000000000000,-889.3800659180000130,-5.7399997711199999,-17.5200004577999984,901.7199707029999440,24.2400093078999994,-27.5999889373999991,25.8125000000000000,26.1707401275999984,-1.0000000000000000,0.0000000000000000
0.0000000000000000,5.0000000000000000,-889.5599975589999520,-6.1399779319799999,-17.5999794005999988,902.0198364259999830,23.8200263977000013,-27.2999820709000005,25.8125000000000000,26.1707401275999984,-1.0000000000000000,0.0000000000000000
0.0000000000000000,5.0000000000000000,-889.3800048829999690,-5.8999695777900003,-18.2400093078999994,901.9599609379999940,24.0399188995000017,-27.2000045776000014,25.8125000000000000,26.1707401275999984,-1.0000000000000000,0.0000000000000000
0.0000000000000000,5.0000000000000000,-889.2200317379999880,-5.2999801635699999,-17.6000213623000015,900.9999999999999990,23.9399795532000006,-27.5000381470000015,25.8125000000000000,26.1707401275999984,-1.0000000000000000,0.0000000000000000
0.0000000000000000,5.0000000000000000,-889.4398803709999580,-5.5400304794300004,-18.2200126647999987,901.8600463870000100,24.1801185608000004,-27.8800697327000009,25.8125000000000000,26.2019710540999995,-1.0000000000000000,0.0000000000000000
0.0000000000000000,5.0000000000000000,-889.2999877930000130,-5.8799805641200002,-16.7999916077000009,901.0597534180000130,23.9399185181000007,-25.9399147033999995,25.5000000000000000,26.2019710540999995,-1.0000000000000000,0.0000000000000000
0.0000000000000000,5.0000000000000000,-888.9599609379999940,-5.7400403022799997,-17.6199893950999993,900.9799194339999520,23.6600513457999995,-26.3999824523999997,25.8125000000000000,26.2019710540999995,-1.0000000000000000,0.0000000000000000
0.0000000000000000,5.0000000000000000,-889.1199951170000300,-5.9999899864200001,-17.7999992370999997,901.5598754879999880,23.5199432373000015,-26.7998886108000000,26.1250000000000000,26.2019710540999995,-1.0000000000000000,0.0000000000000000
0.0000000000000000,5.0000000000000000,-888.7799072269999660,-5.4999694824200001,-17.8400230407999984,901.0199584959999580,24.0199680328000014,-26.5600109099999990,25.8125000000000000,26.2019710540999995,-1.0000000000000000,0.0000000000000000
0.0000000000000000,5.0000000000000000,-889.4999999999999990,-5.7600402832000004,-17.8000087737999983,901.1599731449999800,24.4000511168999985,-27.4999771117999998,25.8125000000000000,26.2019710540999995,-1.0000000000000000,0.0000000000000000
0.0000000000000000,6.0000000000000000,-621.9400024410000460,-633.3200073240000160,-22.1999721526999991,617.7399291990000160,497.4400634770000230,-430.4199829099999870,26.1250000000000000,26.2644309997999983,-1.0000000000000000,-45.0000000000000000
0.0000000000000000,6.0000000000000000,-622.0800170899999550,-633.2600097660000520,-22.5400581359999990,618.9799804689999970,497.5400390620000050,-430.7400817870000080,26.1250000000000000,26.2644309997999983,-1.0000000000000000,-45.0000000000000000
0.0000000000000000,6.0000000000000000,-622.4200439449999740,-633.0599975589999520,-22.2599887848000009,617.6000366209999580,497.2400817870000080,-430.6199951169999730,26.1250000000000000,26.2644309997999983,-1.0000000000000000,-45.0000000000000000
0.0000000000000000,6.0000000000000000,-622.1199951170000300,-633.0999755860000270,-22.0199623108000004,617.9999999999999990,497.2999877930000130,-431.1000671389999750,25.5000000000000000,26.2644309997999983,-1.0000000000000000,-45.0000000000000000
0.0000000000000000,6.0000000000000000,-622.6199340819999860,-633.1599731449999800,-22.3800125122000004,617.6597900389999720,496.8199768069999890,-429.3999633789999840,26.1250000000000000,26.2644309997999983,-1.0000000000000000,-45.0000000000000000
0.0000000000000000,6.0000000000000000,-622.0799560550000240,-633.0999755860000270,-22.7199897765999985,618.0000610350000440,497.4198608400000120,-430.2600708009999830,25.8125000000000000,26.2956600189000014,-1.0000000000000000,-45.0000000000000000
0.0000000000000000,6.0000000000000000,-621.9400024410000460,-633.3999633790000410,-22.1200199126999983,618.1401367189999970,496.8999938960000120,-430.9601440430000130,25.8125000000000000,26.2956600189000014,-1.0000000000000000,-45.0000000000000000
0.0000000000000000,6.0000000000000000,-622.5599365230000320,-633.5199584959999580,-21.8999881744000007,618.9199218749999990,497.3400268550000190,-430.7398986819999890,25.8125000000000000,26.2956600189000014,-1.0000000000000000,-45.0000000000000000
0.0000000000000000,6.0000000000000000,-621.9998779300000240,-633.3399658199999740,-22.0999889373999991,618.5799560550000240,497.1000976560000020,-430.5000610349999870,26.1250000000000000,26.2956600189000014,-1.0000000000000000,-45.0000000000000000
0.0000000000000000,6.0000000000000000,-622.6200561519999600,-633.3399658199999740,-22.0799903869999987,618.8801269529999440,497.2600708009999830,-430.6600646969999950,26.1250000000000000,26.2956600189000014,-1.0000000000000000,-45.0000000000000000
0.0000000000000000,7.0000000000000000,15.4600191115999994,-890.6398925779999440,-24.2400112151999991,-24.0199794769000014,675.0399780269999600,-596.2399902339999470,25.8125000000000000,26.3581199646000002,-1.0000000000000000,-89.9999999999999999
0.0000000000000000,7.0000000000000000,15.2199716568000003,-890.2600097660000520,-24.5200099945000005,-24.5199432373000015,675.2800903319999850,-596.1799926759999830,25.8125000000000000,26.3581199646000002,-1.0000000000000000,-89.9999999999999999
0.0000000000000000,7.0000000000000000,15.9800300598000007,-890.4800415040000410,-25.0400257111000002,-23.8399600983000006,675.2399902339999460,-596.6800537110000270,25.8125000000000000,26.3581199646000002,-1.0000000000000000,-89.9999999999999999
0.0000000000000000,7.0000000000000000,15.9199981688999994,-890.6399536129999880,-24.5400085449000009,-23.5600090026999993,675.2199707029999440,-596.2799682620000110,26.1250000000000000,26.3581199646000002,-1.0000000000000000,-89.9999999999999999
0.0000000000000000,7.0000000000000000,16.0799980164000011,-890.7999877930000130,-24.7399597168000014,-23.9798068999999998,675.3800048829999690,-595.7396850589999520,26.1250000000000000,26.3581199646000002,-1.0000000000000000,-89.9999999999999999
0.0000000000000000,7.0000000000000000,15.7599897384999998,-890.9799804689999960,-24.2599792480000005,-23.5200481414999984,675.5800781249999990,-596.3800659180000130,25.8125000000000000,26.3581199646000002,-1.0000000000000000,-89.9999999999999999
0.0000000000000000,7.0000000000000000,15.4799499512000000,-890.7399902339999460,-24.7799606322999999,-23.3800220490000008,674.7199707029999440,-596.0000610350000440,26.1250000000000000,26.3893508911000012,-1.0000000000000000,-89.9999999999999999
0.0000000000000000,7.0000000000000000,16.1199817657000004,-890.5199584959999580,-24.3399696349999992,-23.6399402617999996,674.8200073240000160,-596.3800659180000130,25.8125000000000000,26.3893508911000012,-1.0000000000000000,-89.9999999999999999
0.0000000000000000,7.0000000000000000,16.0000095366999986,-890.3399658199999740,-24.7199916840000000,-22.9399681091000005,675.1799926759999830,-596.3599853519999660,25.8125000000000000,26.3893508911000012,-1.0000000000000000,-89.9999999999999999
0.0000000000000000,7.0000000000000000,15.5200195312000009,-890.4799804689999960,-24.6199798584000007,-24.0800380706999988,675.2799682620000110,-596.3201293949999800,25.8125000000000000,26.3893508911000012,-1.0000000000000000,-89.9999999999999999
0.0000000000000000,8.0000000000000000,659.9400634769999660,-615.7999877930000130,-24.5200099945000005,-657.9799804689999970,451.1400146479999760,-408.1199646000000030,25.8125000000000000,26.4205799102999990,-1.0000000000000000,-135.0000000000000000
0.0000000000000000,8.0000000000000000,659.2799682620000110,-615.9598999019999600,-23.8999919890999983,-658.1400146480000320,451.2400207520000200,-408.1399230960000180,26.1250000000000000,26.4205799102999990,-1.0000000000000000,-135.0000000000000000
0.0000000000000000,8.0000000000000000,659.4200439449999740,-615.8599853519999660,-24.3400001525999983,-656.7401123050000240,451.5999755860000270,-408.1200256349999900,26.1250000000000000,26.4518108368000000,-1.0000000000000000,-135.0000000000000000
0.0000000000000000,8.0000000000000000,659.8198852540000410,-615.6799926759999830,-24.3200092316000003,-657.9197998050000240,451.2198791499999970,-409.0399780270000170,26.1250000000000000,26.4518108368000000,-1.0000000000000000,-135.0000000000000000
0.0000000000000000,8.0000000000000000,659.5599365230000320,-615.3200073240000160,-24.3600101470999988,-657.4199218749999990,451.2799987789999810,-408.7999267580000260,26.1250000000000000,26.4518108368000000,-1.0000000000000000,-135.0000000000000000
0.0000000000000000,8.0000000000000000,659.9199829100000440,-615.9200439449999740,-24.1399898529000012,-658.1199340819999860,451.3200378419999760,-408.7200012210000180,26.1250000000000000,26.4518108368000000,-1.0000000000000000,-135.0000000000000000
0.0000000000000000,8.0000000000000000,659.2800903319999860,-616.0199584959999580,-24.3200092316000003,-658.1198120120000110,451.6399841310000050,-408.0198669430000100,25.8125000000000000,26.4518108368000000,-1.0000000000000000,-135.0000000000000000
0.0000000000000000,8.0000000000000000,659.2799682620000110,-615.4800415040000410,-24.1999988556000005,-657.4200439449999740,451.0799865719999950,-409.4600830080000260,26.1250000000000000,26.4518108368000000,-1.0000000000000000,-135.0000000000000000
0.0000000000000000,8.0000000000000000,659.7000122069999860,-615.5199584959999580,-24.2799892425999992,-658.0798950199999800,451.2799987789999810,-408.6000366210000150,26.1250000000000000,26.4518108368000000,-1.0000000000000000,-135.0000000000000000
0.0000000000000000,8.0000000000000000,660.0200805660000460,-615.7000122069999860,-25.0000095366999986,-657.7199707029999440,451.1399841310000050,-408.7200012210000180,25.8125000000000000,26.4518108368000000,-1.0000000000000000,-135.0000000000000000
0.0000000000000000,9.0000000000000000,832.0800781249999990,18.6200084685999982,366.9399414060000020,-821.4199218749999990,208.6200103760000100,291.5998840330000230,26.1250000000000000,26.5454998015999983,24.3699999999999974,180.0000000000000000
0.0000000000000000,9.0000000000000000,831.7199096680000130,18.9800281525000010,366.7200012210000180,-822.4799804689999970,208.4800720210000120,292.5799255370000080,26.1250000000000000,26.5454998015999983,24.3699999999999974,180.0000000000000000
0.0000000000000000,9.0000000000000000,832.1799926759999830,19.0599994658999989,367.3599853520000230,-822.5201416019999660,209.2399902340000040,292.4199829099999870,25.8125000000000000,26.5454998015999983,24.3699999999999974,180.0000000000000000
0.0000000000000000,9.0000000000000000,831.8800659180000130,19.1199989318999996,367.1399536129999880,-821.9197998050000240,208.5999603269999910,292.2199096680000140,26.1250000000000000,26.5454998015999983,24.3699999999999974,180.0000000000000000
0.0000000000000000,9.0000000000000000,832.0799560550000240,19.2600097655999995,366.9199829099999870,-821.8800048829999690,209.3400268549999910,291.8200073240000160,26.1250000000000000,26.5454998015999983,24.3699999999999974,180.0000000000000000
0.0000000000000000,9.0000000000000000,831.7399902339999460,18.9599876404000014,366.5599670409999930,-822.1801147459999580,208.5600280760000090,292.3400573729999790,26.4375000000000000,26.5767307280999994,24.3699999999999974,180.0000000000000000
0.0000000000000000,9.0000000000000000,831.9401245120000100,18.9400100707999996,366.5199890139999750,-821.7799682620000100,208.7799530030000030,292.2000427250000030,26.1250000000000000,26.5767307280999994,24.3699999999999974,180.0000000000000000
0.0000000000000000,9.0000000000000000,832.3200073240000160,18.8200073241999988,366.7200012210000180,-821.5198974610000270,208.4399566650000110,292.6200866699999780,26.1250000000000000,26.5454998015999983,24.3699999999999974,180.0000000000000000
0.0000000000000000,9.0000000000000000,832.1799926759999830,18.8399982452000003,366.5199890139999750,-821.8201293949999800,208.9599914549999940,291.9799499509999800,26.1250000000000000,26.5454998015999983,24.3699999999999974,180.0000000000000000
0.0000000000000000,9.0000000000000000,831.4799194339999520,18.8400096893000004,366.6199951169999730,-821.2199096680000130,208.3799591060000010,291.8200378419999760,26.1250000000000000,26.5767307280999994,24.3699999999999974,180.0000000000000000
0.0000000000000000,10.0000000000000000,585.9999389649999550,592.0599975589999520,367.9200744629999910,-562.7799682620000110,-223.6600189209999880,659.3800048829999690,26.1250000000000000,26.6079597473000007,24.3699999999999974,135.0000000000000000
0.0000000000000000,10.0000000000000000,585.4799194339999520,592.0800170899999550,367.6600341800000250,-562.6599731449999800,-223.6599578860000010,658.9000854490000160,26.4375000000000000,26.6079597473000007,24.3699999999999974,135.0000000000000000
0.0000000000000000,10.0000000000000000,585.3800048829999690,592.0999755860000270,368.1600036620000080,-562.4001464839999470,-224.1001281739999910,659.8999633790000410,26.1250000000000000,26.6079597473000007,24.3699999999999974,135.0000000000000000
0.0000000000000000,10.0000000000000000,585.4000244139999720,592.2000122069999860,368.0200195310000020,-562.7598876949999740,-223.3999938960000120,659.8599853519999660,26.1250000000000000,26.6079597473000007,24.3699999999999974,135.0000000000000000
0.0000000000000000,10.0000000000000000,585.8399658199999740,592.3400878910000520,367.6399841310000050,-562.8001098629999880,-223.7001190189999990,659.2601928709999580,26.1250000000000000,26.6079597473000007,24.3699999999999974,135.0000000000000000
0.0000000000000000,10.0000000000000000,585.3999633790000410,592.4999999999999990,368.0199584960000150,-562.4797363279999440,-223.4599609379999940,659.8800659180000130,26.1250000000000000,26.6391906738000017,24.3699999999999974,135.0000000000000000
0.0000000000000000,10.0000000000000000,585.7598876949999740,592.3999633790000410,368.2999572749999970,-562.1597900389999720,-223.8399353030000040,659.9199218749999990,25.8125000000000000,26.6391906738000017,24.3699999999999974,135.0000000000000000
0.0000000000000000,10.0000000000000000,585.7399291990000160,592.2999877930000130,368.4200439449999750,-562.5601196290000410,-223.5000305179999880,660.1400756839999520,26.1250000000000000,26.6391906738000017,24.3699999999999974,135.0000000000000000
0.0000000000000000,10.0000000000000000,585.3800048829999690,592.0199584959999580,367.8800353999999970,-562.9398803709999580,-223.5200500489999910,659.2999877930000130,25.8125000000000000,26.6391906738000017,24.3699999999999974,135.0000000000000000
0.0000000000000000,10.0000000000000000,586.0400390620000050,592.0199584959999580,368.1199951169999730,-561.7000122069999860,-223.7200012209999900,659.8599243160000460,26.1250000000000000,26.6391906738000017,24.3699999999999974,135.0000000000000000
0.0000000000000000,11.0000000000000000,2.1799998283400002,826.2199707029999440,371.0199584960000150,29.4200057983000000,-387.6999816890000260,805.7399902339999460,26.4375000000000000,26.6391906738000017,24.3699999999999974,89.9999999999999999
0.0000000000000000,11.0000000000000000,2.2800099849700000,826.2401123050000240,371.1799621580000230,30.3400020599000015,-387.2399902340000040,805.9398803709999580,26.4375000000000000,26.6704216002999992,24.3699999999999974,89.9999999999999999
0.0000000000000000,11.0000000000000000,2.0600001811999999,826.0200805660000460,370.8599853520000230,29.7199306487999983,-387.5199890139999750,806.2000732420000300,26.4375000000000000,26.6704216002999992,24.3699999999999974,89.9999999999999999
0.0000000000000000,11.0000000000000000,2.4599595069900002,826.3599853519999660,371.2399902340000040,30.2000179290999995,-387.7399902340000040,805.6799926759999830,25.8125000000000000,26.6704216002999992,24.3799999999999990,89.9999999999999999
0.0000000000000000,11.0000000000000000,1.9800002574900000,826.5199584959999580,370.8600158689999940,30.4400405883999987,-387.8199768069999890,806.0601196290000410,25.8125000000000000,26.6704216002999992,24.3699999999999974,89.9999999999999999
0.0000000000000000,11.0000000000000000,2.9400095939600002,826.0199584959999580,371.2800598140000260,29.6599922179999993,-387.8599548340000070,805.7799682620000100,26.1250000000000000,26.6704216002999992,24.3699999999999974,89.9999999999999999
0.0000000000000000,11.0000000000000000,2.8200104236599999,826.2999877930000130,371.2599792479999790,29.6599903106999996,-388.0800781250000000,806.1998901370000100,26.4375000000000000,26.6704216002999992,24.3699999999999974,89.9999999999999999
0.0000000000000000,11.0000000000000000,2.6800005435899998,825.9400024410000460,371.4999389650000120,30.3400287627999994,-387.9400329590000070,805.7998046879999940,26.4375000000000000,26.7016506195000005,24.3799999999999990,89.9999999999999999
0.0000000000000000,11.0000000000000000,2.7000198364300001,826.4999999999999990,370.9400329590000070,29.9400691985999998,-388.2400207520000200,806.4999999999999990,26.4375000000000000,26.7016506195000005,24.3799999999999990,89.9999999999999999
0.0000000000000000,11.0000000000000000,2.8999993801100001,826.5599975589999520,371.1999816890000260,29.9399795532000006,-388.5199279789999870,805.5200805660000460,26.4375000000000000,26.7016506195000005,24.3799999999999990,89.9999999999999999
0.0000000000000000,12.0000000000000000,-582.6599121089999470,574.9599609379999940,370.3199768069999890,608.1401367189999970,-176.8199005129999930,641.5999755860000270,26.7500000000000000,26.7016506195000005,24.3699999999999974,45.0000000000000000
0.0000000000000000,12.0000000000000000,-582.5599975589999520,574.4599609379999940,370.1999816890000260,609.8601684569999860,-176.5399169920000020,642.0399780269999600,26.1250000000000000,26.7328815460000015,24.3799999999999990,45.0000000000000000
0.0000000000000000,12.0000000000000000,-582.6799926759999830,574.1799926759999830,370.2000427250000030,608.2798461910000460,-176.3799591060000010,642.5200805660000460,26.1250000000000000,26.7328815460000015,24.3799999999999990,45.0000000000000000
0.0000000000000000,12.0000000000000000,-583.2600708009999830,574.4598999019999600,370.2799987789999810,609.5402221680000130,-176.8199310299999920,641.4798583980000320,26.1250000000000000,26.7328815460000015,24.3799999999999990,45.0000000000000000
0.0000000000000000,12.0000000000000000,-582.6999511720000550,574.6199951170000300,369.8999023439999970,608.2799072269999660,-176.6400146480000040,642.4801025389999720,26.4375000000000000,26.7328815460000015,24.3799999999999990,45.0000000000000000
0.0000000000000000,12.0000000000000000,-582.9799194339999520,574.7399291990000160,370.3398742680000160,608.3400268550000190,-176.6000976560000020,641.9799194339999520,26.1250000000000000,26.7328815460000015,24.3799999999999990,45.0000000000000000
0.0000000000000000,12.0000000000000000,-582.9400024410000460,574.2999877930000130,370.4199829099999870,609.0599365230000320,-176.4199523929999880,642.4401245120000110,26.1250000000000000,26.7328815460000015,24.3699999999999974,45.0000000000000000
0.0000000000000000,12.0000000000000000,-582.2999877930000130,574.7999877930000130,370.0199890139999750,608.4000854490000160,-176.7200622560000050,642.1598510740000160,26.4375000000000000,26.7328815460000015,24.3799999999999990,45.0000000000000000
0.0000000000000000,12.0000000000000000,-582.9199829100000440,574.6000366209999580,370.1800231930000110,608.9799804689999970,-176.5599823000000010,641.9199829100000440,26.4375000000000000,26.7641105651999993,24.3799999999999990,45.0000000000000000
0.0000000000000000,12.0000000000000000,-582.4800415040000410,574.7600097660000520,369.8600158689999940,609.0400390620000050,-176.5799560549999970,642.0999145509999830,26.4375000000000000,26.7641105651999993,24.3799999999999990,45.0000000000000000
0.0000000000000000,13.0000000000000000,-809.7799682620000100,-7.5200200080900004,366.6800231930000110,819.7401123050000240,270.9600219729999820,266.8999938960000120,26.4375000000000000,26.7641105651999993,24.3799999999999990,0.0000000000000000
0.0000000000000000,13.0000000000000000,-809.2000122069999850,-7.7800002098099998,367.0199890139999750,819.4398803709999580,270.6600036620000080,266.4598693849999900,26.4375000000000000,26.7641105651999993,24.3799999999999990,0.0000000000000000
0.0000000000000000,13.0000000000000000,-809.9800415040000410,-7.8399901390100002,367.0199584960000150,820.1201171879999940,271.4599914550000220,266.5799255370000080,26.1250000000000000,26.7953414917000003,24.3799999999999990,0.0000000000000000
0.0000000000000000,13.0000000000000000,-809.2400512699999800,-7.7800097465500002,366.9600219729999820,819.6000366209999580,270.9400634770000240,266.2598876949999750,26.4375000000000000,26.7953414917000003,24.3799999999999990,0.0000000000000000
0.0000000000000000,13.0000000000000000,-809.5199584959999580,-7.8400092124900000,367.0399780270000180,820.2798461910000460,271.0800781250000000,266.5400695800000220,26.4375000000000000,26.7953414917000003,24.3799999999999990,0.0000000000000000
0.0000000000000000,13.0000000000000000,-809.9598999019999600,-7.8999886512800002,366.7799377439999940,820.0999145509999830,271.4599304199999780,266.4799499509999800,26.4375000000000000,26.7953414917000003,24.3799999999999990,0.0000000000000000
0.0000000000000000,13.0000000000000000,-809.6599121089999460,-7.7800297737099999,366.6599426270000200,819.8601074220000550,271.3800353999999970,266.1000976560000020,26.4375000000000000,26.7953414917000003,24.3799999999999990,0.0000000000000000
0.0000000000000000,13.0000000000000000,-809.3200073240000160,-7.7600302696199996,366.6799926759999830,819.4598999019999600,271.0599975590000100,266.5399780270000180,26.4375000000000000,26.7953414917000003,24.3799999999999990,0.0000000000000000
0.0000000000000000,13.0000000000000000,-809.4000854490000160,-7.6199898719799997,367.0200195310000020,819.1599731449999800,270.9799499509999800,266.0000000000000000,26.4375000000000000,26.7953414917000003,24.3799999999999990,0.0000000000000000
0.0000000000000000,13.0000000000000000,-809.3600463870000100,-7.3600301742600003,366.7000427250000030,819.7598876949999740,271.2399902340000040,266.2599487300000190,26.4375000000000000,26.7953414917000003,24.3799999999999990,0.0000000000000000
0.0000000000000000,14.0000000000000000,-564.6199951170000300,-582.3999633790000410,361.8999023439999970,563.5800170899999550,700.2000122069999850,-105.1999588009999940,26.1250000000000000,26.8265705109000016,24.3799999999999990,-45.0000000000000000
0.0000000000000000,14.0000000000000000,-564.8800048829999690,-582.2200317379999880,362.2999572749999970,563.0399169920000300,699.6400146480000320,-105.5400085450000060,26.4375000000000000,26.8265705109000016,24.3799999999999990,-45.0000000000000000
0.0000000000000000,14.0000000000000000,-564.7799682620000110,-582.0199584959999580,361.7599487300000190,563.4799804689999970,699.7399291990000160,-105.1399841310000060,26.1250000000000000,26.8265705109000016,24.3799999999999990,-45.0000000000000000
0.0000000000000000,14.0000000000000000,-564.8798828120000050,-581.8599853519999660,362.1000366210000150,562.9999389649999550,699.9799804689999970,-105.6799697879999940,26.4375000000000000,26.8265705109000016,24.3799999999999990,-45.0000000000000000
0.0000000000000000,14.0000000000000000,-564.9400024410000460,-582.2000122069999860,361.8800048830000260,562.9400634769999660,700.3400878910000520,-105.3198699950000050,26.4375000000000000,26.8265705109000016,24.3699999999999974,-45.0000000000000000
0.0000000000000000,14.0000000000000000,-564.8800048829999690,-582.2399902339999470,362.0600585939999970,564.0599975589999530,700.4400024410000460,-106.0000305180000030,26.1250000000000000,26.8578014373999991,24.3799999999999990,-45.0000000000000000
0.0000000000000000,14.0000000000000000,-565.3200073240000160,-582.4799804689999970,362.0999450680000110,563.5199584959999580,699.9400024410000460,-105.3400039670000010,26.4375000000000000,26.8578014373999991,24.3799999999999990,-45.0000000000000000
0.0000000000000000,14.0000000000000000,-565.1199951170000300,-581.4999999999999990,361.8800048830000260,562.7799072269999660,700.4400024410000460,-105.6400833130000050,26.4375000000000000,26.8578014373999991,24.3799999999999990,-45.0000000000000000
0.0000000000000000,14.0000000000000000,-564.4600830079999690,-581.7399902339999470,362.0799255370000080,563.5400390620000050,700.1201171879999940,-105.5400161740000010,26.4375000000000000,26.8578014373999991,24.3799999999999990,-45.0000000000000000
0.0000000000000000,14.0000000000000000,-564.4400024410000460,-581.9799804689999970,361.6599426270000200,562.6600341800000250,700.0999755860000270,-105.8600006100000000,25.8125000000000000,26.8578014373999991,24.3799999999999990,-45.0000000000000000
0.0000000000000000,15.0000000000000000,17.5999984741000013,-813.8599853519999660,361.5000000000000000,-26.2599773407000008,864.8599243160000460,-251.7398986819999890,26.4375000000000000,26.8890304564999987,24.3799999999999990,-89.9999999999999999
0.0000000000000000,15.0000000000000000,17.8399906158000014,-813.8399047850000440,360.9199829099999870,-26.2600479126000010,864.9400024410000460,-251.6200408939999990,26.4375000000000000,26.8890304564999987,24.3699999999999974,-89.9999999999999999
0.0000000000000000,15.0000000000000000,17.6800022124999998,-813.9400024410000460,361.1600036620000080,-26.3800697327000009,864.7799682620000100,-251.5800170900000120,26.1250000000000000,26.8890304564999987,24.3799999999999990,-89.9999999999999999
0.0000000000000000,15.0000000000000000,17.6000118255999993,-813.5599975589999520,361.3199462889999720,-26.8800315856999994,864.8198852540000410,-251.4599914549999930,26.1250000000000000,26.8890304564999987,24.3799999999999990,-89.9999999999999999
0.0000000000000000,15.0000000000000000,17.3799877167000005,-813.6799926759999830,361.2399902340000040,-26.1599903106999996,865.0600585939999960,-251.0200195310000020,26.4375000000000000,26.8890304564999987,24.3799999999999990,-89.9999999999999999
0.0000000000000000,15.0000000000000000,17.6800098418999987,-814.2000122069999850,361.2999877930000140,-27.2000694275000008,865.1000366209999580,-251.0800170900000120,26.4375000000000000,26.8890304564999987,24.3699999999999974,-89.9999999999999999
0.0000000000000000,15.0000000000000000,17.6600017547999997,-813.8800048829999690,361.8599853520000230,-26.8000221252000017,865.1599731449999800,-251.9400329590000070,26.7500000000000000,26.8890304564999987,24.3799999999999990,-89.9999999999999999
0.0000000000000000,15.0000000000000000,17.2000102997000006,-813.5799560550000240,362.0799865719999950,-26.0799789428999986,865.2399902339999460,-251.7999877930000140,26.4375000000000000,26.8890304564999987,24.3799999999999990,-89.9999999999999999
0.0000000000000000,15.0000000000000000,18.1200408935999988,-813.8999633790000410,361.6399841310000050,-26.6399631499999998,864.5199584959999580,-252.1800384519999910,26.4375000000000000,26.8890304564999987,24.3799999999999990,-89.9999999999999999
0.0000000000000000,15.0000000000000000,17.4599685668999989,-813.6399536129999880,361.3599548340000070,-26.5600109099999990,865.1199951170000300,-251.4398651120000070,26.4375000000000000,26.8890304564999987,24.3799999999999990,-89.9999999999999999
0.0000000000000000,16.0000000000000000,603.5599975589999520,-563.7600097660000520,360.4598693849999900,-608.3799438480000380,658.0198974610000270,-82.9399108886999982,26.4375000000000000,26.9202613831000015,24.3799999999999990,-135.0000000000000000
0.0000000000000000,16.0000000000000000,604.0599975589999520,-563.4599609379999940,360.2600402830000230,-608.4998779300000240,658.5001220699999740,-82.5799789428999986,26.4375000000000000,26.9202613831000015,24.3799999999999990,-135.0000000000000000
0.0000000000000000,16.0000000000000000,603.1398925779999440,-563.9199829100000440,359.9400329590000070,-610.0599975589999520,658.4400024410000460,-83.6000213622999979,26.4375000000000000,26.9202613831000015,24.3799999999999990,-135.0000000000000000
0.0000000000000000,16.0000000000000000,603.2199707029999440,-563.9199829100000440,360.5000000000000000,-608.5401000980000380,658.0800781249999990,-83.0799713134999961,26.4375000000000000,26.9202613831000015,24.3799999999999990,-135.0000000000000000
0.0000000000000000,16.0000000000000000,603.5399780269999600,-563.9399414060000020,360.5400390620000050,-609.1400146480000320,658.2999877930000130,-82.6199798584000006,26.4375000000000000,26.9202613831000015,24.3799999999999990,-135.0000000000000000
0.0000000000000000,16.0000000000000000,603.2999267579999690,-563.9400024410000460,360.5399475099999900,-608.3799438480000380,657.8599853519999660,-83.0399627686000059,26.7500000000000000,26.9514904022000010,24.3799999999999990,-135.0000000000000000
0.0000000000000000,16.0000000000000000,603.4598388670000300,-564.0800170899999550,359.9199829099999870,-607.6798706050000190,658.1600341800000240,-82.6800155640000014,26.4375000000000000,26.9514904022000010,24.3799999999999990,-135.0000000000000000
0.0000000000000000,16.0000000000000000,603.5200195310000020,-564.2000122069999860,359.5400390620000050,-608.7998046879999940,658.7000122069999860,-83.3200149535999940,26.4375000000000000,26.9202613831000015,24.3799999999999990,-135.0000000000000000
0.0000000000000000,16.0000000000000000,603.4998779300000240,-564.0999755860000270,359.4799499509999800,-607.5399780269999600,658.2399902339999460,-82.1399078368999937,26.1250000000000000,26.9202613831000015,24.3799999999999990,-135.0000000000000000
0.0000000000000000,16.0000000000000000,603.1998901370000110,-564.0999755860000270,360.2400207520000200,-608.4600830079999690,658.4400024410000460,-82.9000091552999975,26.4375000000000000,26.9514904022000010,24.3699999999999974,-135.0000000000000000
0.0000000000000000,17.0000000000000000,637.7600097660000520,13.6000013351000000,643.6600341800000240,-625.3198852540000410,396.9599914550000220,502.9399414060000020,26.4375000000000000,27.0139503478999998,46.3099999999999951,180.0000000000000000
0.0000000000000000,17.0000000000000000,638.0400390620000050,13.5799798964999994,643.6400146480000320,-625.2399291990000160,397.0800170900000120,502.4999084469999950,26.4375000000000000,26.9827213286999985,46.3099999999999951,180.0000000000000000
0.0000000000000000,17.0000000000000000,637.3801269529999440,13.6799974441999996,643.7799072269999660,-625.1801147459999580,397.1000061039999870,503.6400146479999760,26.4375000000000000,27.0139503478999998,46.3099999999999951,180.0000000000000000
0.0000000000000000,17.0000000000000000,637.4400024410000460,13.6799688339000003,643.7200927730000320,-625.1800537110000270,397.2598876949999740,503.7800292969999980,26.4375000000000000,27.0139503478999998,46.3099999999999951,180.0000000000000000
0.0000000000000000,17.0000000000000000,638.0799560550000240,13.7599983214999995,644.0199584959999580,-625.1799926759999830,397.5399780270000170,502.9600219729999820,26.4375000000000000,27.0139503478999998,46.3099999999999951,180.0000000000000000
0.0000000000000000,17.0000000000000000,637.0400390620000050,13.3200092316000003,643.8000488279999440,-625.1400146480000320,397.2599182129999910,503.2800292969999980,26.1250000000000000,27.0139503478999998,46.3099999999999951,180.0000000000000000
0.0000000000000000,17.0000000000000000,638.0601196290000410,14.0000095367000004,643.6400146480000320,-624.5797729490000160,397.4999389650000120,503.1402282710000120,26.4375000000000000,27.0139503478999998,46.3099999999999951,180.0000000000000000
0.0000000000000000,17.0000000000000000,637.7400512699999800,14.0400104523000007,643.6199951170000300,-625.0399780269999600,397.2799987789999810,503.5400695800000220,26.4375000000000000,27.0139503478999998,46.3099999999999951,180.0000000000000000
0.0000000000000000,17.0000000000000000,637.1201171879999940,14.1799802780000004,643.4799194339999520,-624.5401611329999690,397.3800353999999970,503.5800170900000120,26.7500000000000000,27.0139503478999998,46.3099999999999951,180.0000000000000000
0.0000000000000000,17.0000000000000000,637.1599731449999800,13.9599695205999996,643.2399902339999460,-624.4199218749999990,397.2399597169999760,503.5800170900000120,26.4375000000000000,27.0139503478999998,46.3099999999999951,180.0000000000000000
0.0000000000000000,18.0000000000000000,446.2599182129999910,452.3999938960000120,645.9599609379999940,-429.4999084469999950,68.9400482177999975,782.4801635740000160,26.4375000000000000,27.0139503478999998,46.3099999999999951,135.0000000000000000
0.0000000000000000,18.0000000000000000,446.4399414060000020,452.4199523930000160,646.3800048829999690,-428.7799072270000230,69.0000152588000048,782.2998046879999940,26.4375000000000000,27.0139503478999998,46.3099999999999951,135.0000000000000000
0.0000000000000000,18.0000000000000000,446.0599975590000090,452.6000671389999750,646.0999755860000270,-429.6398620609999730,68.6599807739000027,781.4398803709999580,26.4375000000000000,27.0139503478999998,46.3099999999999951,135.0000000000000000
0.0000000000000000,18.0000000000000000,445.9599609379999940,452.6999816890000260,645.5598754879999880,-429.0200805659999900,68.4000244141000024,781.7999267579999690,27.0625000000000000,27.0451812744000008,46.3099999999999951,135.0000000000000000
0.0000000000000000,18.0000000000000000,446.0201416020000230,452.5999450680000100,646.1398925779999440,-429.3600158689999940,68.9799804687999937,781.5800781249999990,26.4375000000000000,27.0451812744000008,46.3099999999999951,135.0000000000000000
0.0000000000000000,18.0000000000000000,446.2399597169999760,452.5400390620000050,645.3800048829999690,-429.0999755860000270,68.8799819946000013,781.9599609379999940,26.7500000000000000,27.0451812744000008,46.3099999999999951,135.0000000000000000
0.0000000000000000,18.0000000000000000,446.4600219729999820,452.3599853520000230,646.0999755860000270,-429.0400695800000220,69.2600250243999937,781.7200317379999880,26.4375000000000000,27.0451812744000008,46.3099999999999951,135.0000000000000000
0.0000000000000000,18.0000000000000000,446.5399169919999730,452.8399047849999870,645.8200073240000160,-429.7401428219999950,69.0200195312000062,781.6800537110000270,26.4375000000000000,27.0451812744000008,46.3099999999999951,135.0000000000000000
0.0000000000000000,18.0000000000000000,445.6999511719999980,452.4600219729999820,645.8800048829999690,-428.9400634770000230,68.6400680542000003,781.7199707029999440,26.7500000000000000,27.0451812744000008,46.3099999999999951,135.0000000000000000
0.0000000000000000,18.0000000000000000,446.1399841310000050,452.5599365229999760,645.7600097660000520,-429.4999084469999950,68.4600448607999965,782.8600463870000100,26.4375000000000000,27.0451812744000008,46.3099999999999951,135.0000000000000000
0.0000000000000000,19.0000000000000000,4.0599703788800001,627.7999877930000130,650.2200317379999880,22.3800182342999996,-55.1200103760000033,892.3399658199999740,26.4375000000000000,27.0764102935999986,46.3099999999999951,89.9999999999999999
0.0000000000000000,19.0000000000000000,4.4400000572199998,627.8399658199999740,650.0999755860000270,21.8599891663000001,-55.0200004578000019,892.3999633790000410,26.4375000000000000,27.0764102935999986,46.3099999999999951,89.9999999999999999
0.0000000000000000,19.0000000000000000,3.8800201416000002,627.7000122069999860,650.5799560550000240,22.5000095366999986,-55.4199981689000012,892.6799926759999830,26.4375000000000000,27.0764102935999986,46.3099999999999951,89.9999999999999999
0.0000000000000000,19.0000000000000000,3.7599794864699998,627.8599243160000460,650.1599121089999460,22.2399768828999988,-55.7600288391000020,892.7398071290000410,26.4375000000000000,27.0764102935999986,46.3099999999999951,89.9999999999999999
0.0000000000000000,19.0000000000000000,4.0000095367400004,628.2199707029999440,650.3800048829999690,21.5998897551999995,-55.1599884032999980,892.3800048829999690,26.4375000000000000,27.0764102935999986,46.3099999999999951,89.9999999999999999
0.0000000000000000,19.0000000000000000,4.2199797630300004,627.6599731449999800,650.6400146480000320,21.8400363921999982,-55.2399978637999993,892.3400878910000520,26.7500000000000000,27.0764102935999986,46.3099999999999951,89.9999999999999999
0.0000000000000000,19.0000000000000000,4.0199799537700001,627.5399780269999600,650.9199829100000440,22.3200168609999991,-54.9400100707999996,892.3398437499999990,26.7500000000000000,27.0764102935999986,46.3099999999999951,89.9999999999999999
0.0000000000000000,19.0000000000000000,4.6799998283399997,627.6998901370000110,650.0599975589999520,21.9400596619000012,-55.5199775696000017,892.5397949220000550,26.7500000000000000,27.0764102935999986,46.3099999999999951,89.9999999999999999
0.0000000000000000,19.0000000000000000,4.8600296974199999,627.9400024410000460,650.0399169920000300,21.4599800109999990,-55.2400245667000007,892.0801391600000430,26.7500000000000000,27.0764102935999986,46.3099999999999951,89.9999999999999999
0.0000000000000000,19.0000000000000000,4.5199894905100004,627.7000122069999860,650.0399169920000300,22.4800090789999984,-55.0399703978999994,892.1400756839999520,26.7500000000000000,27.0764102935999986,46.3099999999999951,89.9999999999999999
0.0000000000000000,20.0000000000000000,-440.8998413090000090,437.3999938960000120,647.8800048829999690,463.1799926759999830,101.9200210569999990,763.2399902339999460,26.7500000000000000,27.1076412200999996,46.3099999999999951,45.0000000000000000
0.0000000000000000,20.0000000000000000,-440.4600830080000260,437.2599182129999910,647.0599975589999520,463.5599365229999760,102.1999588009999940,763.0598754879999880,26.7500000000000000,27.1076412200999996,46.3099999999999951,45.0000000000000000
0.0000000000000000,20.0000000000000000,-441.0999755860000270,437.0800170900000120,647.5799560550000240,463.9200744629999910,102.3600082399999990,763.3599243160000460,26.7500000000000000,27.1076412200999996,46.3099999999999951,45.0000000000000000
0.0000000000000000,20.0000000000000000,-440.5000305180000160,437.0000000000000000,647.1199951170000300,463.1198730469999980,101.7799987789999960,763.0201416019999660,26.7500000000000000,27.1076412200999996,46.3099999999999951,45.0000000000000000
0.0000000000000000,20.0000000000000000,-440.5000000000000000,437.1199951169999730,647.6599121089999460,463.4799499509999800,102.5199966429999990,763.5803222660000520,26.7500000000000000,27.1076412200999996,46.3099999999999951,45.0000000000000000
0.0000000000000000,20.0000000000000000,-440.4599914550000220,437.2600402830000230,647.3399658199999740,462.9401855469999980,102.2199859619999950,764.0200805660000460,26.7500000000000000,27.1076412200999996,46.3099999999999951,45.0000000000000000
0.0000000000000000,20.0000000000000000,-440.4600219729999820,437.1399536129999880,647.3399047850000440,463.3999023439999970,102.6400070189999950,763.4200439449999740,26.4375000000000000,27.1388702393000010,46.3099999999999951,45.0000000000000000
0.0000000000000000,20.0000000000000000,-440.7400207520000200,436.9799499509999800,647.4199829100000440,463.6601562500000000,102.2200012210000040,762.9998779300000240,26.4375000000000000,27.1388702393000010,46.3099999999999951,45.0000000000000000
0.0000000000000000,20.0000000000000000,-440.0600280759999800,436.4599914550000220,647.2399902339999460,463.5799560550000250,101.8799591060000010,763.9001464839999460,27.0625000000000000,27.1076412200999996,46.3099999999999951,45.0000000000000000
0.0000000000000000,20.0000000000000000,-440.7599487300000190,436.7199096680000130,646.9599609379999940,463.6400756840000090,102.0000305180000030,763.1998291019999660,26.7500000000000000,27.1076412200999996,46.3099999999999951,45.0000000000000000
0.0000000000000000,21.0000000000000000,-613.8399658199999740,-7.0800204277000001,644.9398803709999580,622.0399780269999600,442.2800292969999980,480.4599914550000220,26.7500000000000000,27.1076412200999996,46.3099999999999951,0.0000000000000000
0.0000000000000000,21.0000000000000000,-613.5198974610000270,-7.5199894905100004,644.9799194339999520,622.0600585939999970,442.6399536129999880,480.5999450680000100,26.7500000000000000,27.1076412200999996,46.3099999999999951,0.0000000000000000
0.0000000000000000,21.0000000000000000,-613.8799438480000380,-7.1200089454700004,645.0400390620000050,621.7600708009999830,442.3600158689999940,480.1000366210000150,26.7500000000000000,27.1388702393000010,46.3099999999999951,0.0000000000000000
0.0000000000000000,21.0000000000000000,-613.1199951170000300,-7.6399993896499998,644.5798950199999800,621.6199951170000300,442.5800170900000120,480.6200561520000170,26.7500000000000000,27.1388702393000010,46.3099999999999951,0.0000000000000000
0.0000000000000000,21.0000000000000000,-613.6799926759999830,-7.3799710273699999,645.0199584959999580,621.7800292970000550,442.3999633789999840,480.7600402830000230,26.7500000000000000,27.1388702393000010,46.3099999999999951,0.0000000000000000
0.0000000000000000,21.0000000000000000,-613.2199707029999440,-7.4999890327500003,645.2399291990000160,622.0598754879999880,443.0400695800000220,480.5200805659999900,26.4375000000000000,27.1388702393000010,46.3200000000000003,0.0000000000000000
0.0000000000000000,21.0000000000000000,-614.0999755860000270,-7.7400002479600003,645.4599609379999940,622.4999999999999990,442.6200256349999900,480.4999084469999950,26.7500000000000000,27.1388702393000010,46.3200000000000003,0.0000000000000000
0.0000000000000000,21.0000000000000000,-613.4398803709999580,-7.4399704933199997,644.7600097660000520,621.8800048829999690,443.0201416020000230,480.5800781250000000,26.7500000000000000,27.1388702393000010,46.3200000000000003,0.0000000000000000
0.0000000000000000,21.0000000000000000,-613.4998168949999800,-7.5200085640000003,645.0399780269999600,622.3000488279999440,442.4399414060000020,480.7000427250000020,26.4375000000000000,27.1388702393000010,46.3099999999999951,0.0000000000000000
0.0000000000000000,21.0000000000000000,-613.4999999999999990,-7.4199995994599996,645.5599365230000320,621.3798828120000050,442.5799865719999950,480.7599182129999910,26.7500000000000000,27.1701011657999984,46.3099999999999951,0.0000000000000000
0.0000000000000000,22.0000000000000000,-424.3399047849999870,-443.8399658199999740,641.4599609379999940,428.0398864750000030,770.8399047850000440,201.6400299070000130,26.7500000000000000,27.1701011657999984,46.3200000000000003,-45.0000000000000000
0.0000000000000000,22.0000000000000000,-424.3599853520000230,-443.3798828120000050,640.8399658199999740,427.8599853520000230,770.1199951170000300,201.2999572749999970,26.7500000000000000,27.1701011657999984,46.3099999999999951,-45.0000000000000000
0.0000000000000000,22.0000000000000000,-424.9599914550000220,-443.4399414060000020,641.0400390620000050,428.0399475099999900,770.5399780269999600,201.3399505620000130,26.4375000000000000,27.1701011657999984,46.3099999999999951,-45.0000000000000000
0.0000000000000000,22.0000000000000000,-424.2399902340000040,-443.9000244139999720,641.0599975589999520,429.0199890139999750,770.1199340819999850,201.5400543210000140,26.4375000000000000,27.1701011657999984,46.3099999999999951,-45.0000000000000000
0.0000000000000000,22.0000000000000000,-424.5000610349999870,-443.6799926759999830,641.2199707029999440,428.9800415039999840,771.0799560550000240,201.1800079349999920,26.7500000000000000,27.1701011657999984,46.3099999999999951,-45.0000000000000000
0.0000000000000000,22.0000000000000000,-424.5000000000000000,-443.3600769039999810,640.8999633790000410,428.9199829099999870,770.5599975589999520,201.5800170900000120,26.7500000000000000,27.1701011657999984,46.3200000000000003,-45.0000000000000000
0.0000000000000000,22.0000000000000000,-424.5801086430000160,-442.9799499509999800,640.6198730470000550,429.2800598140000260,770.4801635740000160,201.6799926760000120,26.7500000000000000,27.1701011657999984,46.3200000000000003,-45.0000000000000000
0.0000000000000000,22.0000000000000000,-424.5200195310000020,-443.1400146479999760,641.1000366209999580,428.8799438479999820,771.0001220699999740,201.7801361079999930,27.0625000000000000,27.2013301849000015,46.3099999999999951,-45.0000000000000000
0.0000000000000000,22.0000000000000000,-424.5799865719999950,-443.4400329590000060,641.7000122069999860,428.5000000000000000,770.5599975589999520,201.7999420170000060,26.7500000000000000,27.2013301849000015,46.3099999999999951,-45.0000000000000000
0.0000000000000000,22.0000000000000000,-424.6199646000000030,-443.2999572749999970,641.3399047850000440,428.2399902340000040,770.8399658199999740,201.7200775150000140,26.4375000000000000,27.1701011657999984,46.3099999999999951,-45.0000000000000000
0.0000000000000000,23.0000000000000000,18.1600399016999994,-619.8599853519999660,641.4000244139999720,-22.3399696349999992,896.3399658199999740,89.9799118042000003,26.7500000000000000,27.2013301849000015,46.3099999999999951,-89.9999999999999999
0.0000000000000000,23.0000000000000000,17.9400291442999986,-620.0399780269999600,641.3800048829999690,-23.1400089264000002,896.2598266600000430,90.2001419066999971,26.7500000000000000,27.2013301849000015,46.3099999999999951,-89.9999999999999999
0.0000000000000000,23.0000000000000000,18.3800106049000007,-620.0799560550000240,640.9599609379999940,-22.8399257660000003,896.3599243160000460,89.8800354004000041,26.7500000000000000,27.2013301849000015,46.3200000000000003,-89.9999999999999999
0.0000000000000000,23.0000000000000000,18.5399780272999983,-619.7999877930000130,641.4599609379999940,-23.4200878143000004,896.4599609379999940,89.8399887085000017,26.4375000000000000,27.2013301849000015,46.3099999999999951,-89.9999999999999999
0.0000000000000000,23.0000000000000000,17.9799842834000003,-619.8399658199999740,641.4200439449999740,-22.6599502563000001,896.6599731449999800,90.0400009155000020,27.0625000000000000,27.2013301849000015,46.3200000000000003,-89.9999999999999999
0.0000000000000000,23.0000000000000000,18.4399604797000016,-619.6199951170000300,641.1000366209999580,-23.0799598693999996,896.9999999999999990,89.8599472046000044,26.4375000000000000,27.2013301849000015,46.3099999999999951,-89.9999999999999999
0.0000000000000000,23.0000000000000000,17.6599807738999992,-619.7000122069999860,641.6799926759999830,-22.5600090026999993,896.6399536129999880,90.3399810790999992,26.7500000000000000,27.2013301849000015,46.3200000000000003,-89.9999999999999999
0.0000000000000000,23.0000000000000000,17.2799892425999992,-619.3599853519999660,641.1399536129999880,-22.7399635314999990,897.0199584959999580,89.4199752808000027,26.4375000000000000,27.2325611115000008,46.3200000000000003,-89.9999999999999999
0.0000000000000000,23.0000000000000000,18.7399806976000001,-619.7600097660000520,640.8600463870000110,-23.0599822998000015,896.5999145509999830,89.1799392700000055,27.0625000000000000,27.2325611115000008,46.3200000000000003,-89.9999999999999999
0.0000000000000000,23.0000000000000000,18.3799991608000006,-619.3599853519999660,640.9601440430000130,-22.8999729155999994,896.7600097660000520,90.0799560547000055,26.7500000000000000,27.2013301849000015,46.3200000000000003,-89.9999999999999999
0.0000000000000000,24.0000000000000000,463.0599365229999760,-428.5000610349999870,641.1800537110000270,-466.0399475099999900,738.6599121089999460,217.6399383540000090,26.7500000000000000,27.2325611115000008,46.3200000000000003,-135.0000000000000000
0.0000000000000000,24.0000000000000000,463.2398681639999720,-428.5800781250000000,642.1400146480000320,-466.0198669430000100,738.3399658199999740,218.6201477049999940,26.7500000000000000,27.2325611115000008,46.3200000000000003,-135.0000000000000000
0.0000000000000000,24.0000000000000000,462.7200622560000050,-428.5799865719999950,641.2199096680000130,-466.1600341800000250,738.5799560550000240,217.7599182129999920,26.7500000000000000,27.2325611115000008,46.3099999999999951,-135.0000000000000000
0.0000000000000000,24.0000000000000000,463.0599060060000050,-428.6800537110000270,641.1599731449999800,-466.3599243159999900,738.6000366209999580,217.7000732420000020,26.7500000000000000,27.2637901306000003,46.3200000000000003,-135.0000000000000000
0.0000000000000000,24.0000000000000000,462.1999206539999810,-428.8399658199999740,640.7598876949999740,-465.6999511719999980,738.8800659180000130,218.0199737549999950,26.7500000000000000,27.2637901306000003,46.3200000000000003,-135.0000000000000000
0.0000000000000000,24.0000000000000000,462.7199401859999730,-428.5399780270000170,640.9999999999999990,-465.9400329590000060,738.6399536129999880,218.3199920650000080,26.7500000000000000,27.2325611115000008,46.3099999999999951,-135.0000000000000000
0.0000000000000000,24.0000000000000000,462.7001037599999900,-428.5799865719999950,641.9600830079999690,-465.5200805659999900,739.1199951170000300,218.0999755859999990,26.7500000000000000,27.2325611115000008,46.3099999999999951,-135.0000000000000000
0.0000000000000000,24.0000000000000000,462.8800048830000260,-428.2200012210000180,641.4199829100000440,-465.8799438479999820,738.8198852540000410,217.7400360110000010,26.7500000000000000,27.2325611115000008,46.3200000000000003,-135.0000000000000000
0.0000000000000000,24.0000000000000000,463.6799621580000230,-428.2200012210000180,641.8399658199999740,-466.3399963379999910,738.7000732420000300,217.3598937989999910,26.4375000000000000,27.2325611115000008,46.3200000000000003,-135.0000000000000000
0.0000000000000000,24.0000000000000000,463.1400756840000090,-428.3200683590000040,642.0199584959999580,-466.6600646969999950,738.7600097660000520,217.3799133299999940,26.7500000000000000,27.2325611115000008,46.3099999999999951,-135.0000000000000000
0.0000000000000000,25.0000000000000000,348.6999206539999810,10.2199993134000007,830.8800048829999690,-335.3398437500000000,529.3199462889999720,643.3999633790000410,26.7500000000000000,27.2637901306000003,179.8900000000000150,180.0000000000000000
0.0000000000000000,25.0000000000000000,347.6799621580000230,10.4200401306000003,830.9000854490000160,-334.4399108889999750,529.3399047850000440,643.0200195310000020,26.7500000000000000,27.2637901306000003,179.8900000000000150,180.0000000000000000
0.0000000000000000,25.0000000000000000,347.8599853520000230,10.2799901962000000,831.2799682620000100,-333.7799987789999820,528.8399658199999740,643.6799316410000520,26.7500000000000000,27.2637901306000003,179.8900000000000150,180.0000000000000000
0.0000000000000000,25.0000000000000000,348.5600585939999970,10.5399999618999995,831.0399780269999600,-334.5801391599999870,528.9799194339999530,642.6599121089999460,27.0625000000000000,27.2637901306000003,179.8900000000000150,180.0000000000000000
0.0000000000000000,25.0000000000000000,348.4400329590000070,10.1600208282000004,831.6400756839999520,-334.8399658199999750,529.0599365230000330,643.4398803709999580,26.7500000000000000,27.2950210571000014,179.8900000000000150,180.0000000000000000
0.0000000000000000,25.0000000000000000,348.4399414060000020,10.4399995804000003,830.8800048829999690,-333.8999023439999970,529.3399658199999740,643.5599365230000320,26.7500000000000000,27.2950210571000014,179.8900000000000150,180.0000000000000000
0.0000000000000000,25.0000000000000000,348.3000183109999740,10.3200092316000003,830.7400512699999800,-334.3199462889999720,529.3599243160000460,643.9600830079999690,26.7500000000000000,27.2950210571000014,179.8900000000000150,180.0000000000000000
0.0000000000000000,25.0000000000000000,348.3799133300000220,10.3799800872999999,830.8399047850000440,-334.2999572749999970,528.5600585939999970,643.4200439449999740,27.0625000000000000,27.2950210571000014,179.8900000000000150,180.0000000000000000
0.0000000000000000,25.0000000000000000,347.7199401859999740,10.6600208282000004,830.8800048829999690,-335.0399475099999900,529.1599121089999470,644.1000366209999580,26.7500000000000000,27.2950210571000014,179.8900000000000150,180.0000000000000000
0.0000000000000000,25.0000000000000000,348.3800048830000260,10.5999898910999999,831.0400390620000040,-334.0800170900000120,528.8999633790000410,644.2598876949999740,26.7500000000000000,27.2950210571000014,179.8900000000000150,180.0000000000000000
0.0000000000000000,26.0000000000000000,244.3200073239999880,244.6800384519999910,832.6199951170000300,-230.2800292969999980,356.1399230960000180,789.9797973629999880,27.0625000000000000,27.3262500762999991,179.8900000000000150,135.0000000000000000
0.0000000000000000,26.0000000000000000,244.5000152590000080,244.5399932859999980,833.1998291019999660,-231.2800750730000060,356.4800415039999840,789.9799804689999970,27.0625000000000000,27.3262500762999991,179.8900000000000150,135.0000000000000000
0.0000000000000000,26.0000000000000000,244.2400360110000010,245.0600128170000000,832.9199218749999990,-230.4599151609999980,356.2199401859999740,791.0000610350000440,26.7500000000000000,27.3262500762999991,179.8900000000000150,135.0000000000000000
0.0000000000000000,26.0000000000000000,244.5800018310000040,245.2599487299999900,832.6399536129999880,-230.4199371340000080,356.2999877930000140,790.5598144529999440,26.4375000000000000,27.3262500762999991,179.8900000000000150,135.0000000000000000
0.0000000000000000,26.0000000000000000,244.9599609379999940,244.6399536129999890,832.7199707029999440,-231.0800018310000040,356.3798828120000050,790.4598999019999600,26.7500000000000000,27.3262500762999991,179.8900000000000150,135.0000000000000000
0.0000000000000000,26.0000000000000000,244.5599975590000100,245.1799926760000120,833.1400756839999520,-230.8199920650000080,356.1600036620000080,789.7198486329999690,27.0625000000000000,27.3262500762999991,179.8900000000000150,135.0000000000000000
0.0000000000000000,26.0000000000000000,244.9600067140000020,244.9199676510000070,832.8400878910000520,-230.6800689700000080,356.3999938960000120,790.8198852540000410,26.4375000000000000,27.3262500762999991,68.5400000000000062,135.0000000000000000
0.0000000000000000,26.0000000000000000,244.7199401860000020,245.1399688719999970,832.9199829100000440,-231.3800201420000060,356.0199890139999750,789.9201660160000520,26.7500000000000000,27.3262500762999991,179.8900000000000150,135.0000000000000000
0.0000000000000000,26.0000000000000000,244.4200286870000120,244.6799926760000120,832.8798828120000040,-231.1399993900000140,356.2000427250000030,790.5599975589999520,26.7500000000000000,27.3262500762999991,179.8900000000000150,135.0000000000000000
0.0000000000000000,26.0000000000000000,245.0400085450000060,244.5199737549999950,832.7999877930000130,-231.2000274659999940,356.0999450680000110,790.3798217769999600,27.0625000000000000,27.3262500762999991,179.8900000000000150,135.0000000000000000
0.0000000000000000,27.0000000000000000,5.8799901008599997,339.0600585939999970,832.4199218749999990,11.4799995421999998,289.8399658199999750,847.4401245120000100,27.0625000000000000,27.3262500762999991,179.8900000000000150,89.9999999999999999
0.0000000000000000,27.0000000000000000,5.9799704551700001,338.7200012210000180,832.6999511720000550,10.8799705504999995,289.6600341800000250,847.3999023439999960,27.0625000000000000,27.3262500762999991,68.5400000000000062,89.9999999999999999
0.0000000000000000,27.0000000000000000,5.2400193214400002,338.9199523930000170,832.4999999999999990,10.6599874496000009,289.8599243159999900,847.5397949220000550,26.7500000000000000,27.3262500762999991,68.5400000000000062,89.9999999999999999
0.0000000000000000,27.0000000000000000,5.8000092506399996,339.2000427250000030,832.7399902339999460,10.8600292205999995,289.7800292969999980,847.1199951170000300,26.7500000000000000,27.3262500762999991,68.5400000000000062,89.9999999999999999
0.0000000000000000,27.0000000000000000,5.7400193214400002,338.8000183109999740,832.1999511720000550,11.1199998856000004,289.5599975590000100,847.7001953120000040,26.7500000000000000,27.3262500762999991,68.5400000000000062,89.9999999999999999
0.0000000000000000,27.0000000000000000,5.7999596595799998,338.4599914550000220,831.9197998050000240,10.5399599075000001,289.8999023439999970,847.5200805660000460,26.7500000000000000,27.3262500762999991,179.8900000000000150,89.9999999999999999
0.0000000000000000,27.0000000000000000,5.8199996948199999,339.0000000000000000,831.8399658199999740,11.1399593353000004,289.9400634770000240,848.3999023439999960,26.7500000000000000,27.3574810028000002,68.5400000000000062,89.9999999999999999
0.0000000000000000,27.0000000000000000,6.1800308227500000,339.5000000000000000,832.2601318360000270,10.8600177764999994,289.4000244139999720,847.1397705079999690,26.7500000000000000,27.3574810028000002,68.5400000000000062,89.9999999999999999
0.0000000000000000,27.0000000000000000,5.9400000572199998,338.8599853520000230,832.4400024410000460,10.9201393126999999,289.3599853520000240,846.8798217769999600,27.0625000000000000,27.3262500762999991,68.5400000000000062,89.9999999999999999
0.0000000000000000,27.0000000000000000,5.9999790191700004,339.0000305180000170,832.2600097660000520,11.3800001143999996,289.8800659180000140,847.4797973629999880,26.7500000000000000,27.3262500762999991,68.5400000000000062,89.9999999999999999
0.0000000000000000,28.0000000000000000,-233.1400146480000040,233.9000091549999920,832.3999633790000410,242.4799041750000010,369.6199646000000030,783.9598999019999600,26.7500000000000000,27.3574810028000002,68.5400000000000062,45.0000000000000000
0.0000000000000000,28.0000000000000000,-232.8600463870000110,234.0199890140000030,832.6198730470000550,242.8799896239999890,370.1399536129999880,783.3798828120000040,26.7500000000000000,27.3574810028000002,68.5400000000000062,45.0000000000000000
0.0000000000000000,28.0000000000000000,-233.1200408939999990,233.6800079349999920,832.1599121089999460,242.9799957280000060,370.2799377439999940,784.0198364259999830,26.7500000000000000,27.3574810028000002,68.5400000000000062,45.0000000000000000
0.0000000000000000,28.0000000000000000,-233.1400299070000130,234.0599823000000010,832.5400390620000040,242.4800720210000120,369.9800415039999840,783.1799316410000520,26.7500000000000000,27.3574810028000002,68.5400000000000062,45.0000000000000000
0.0000000000000000,28.0000000000000000,-233.1799316409999960,234.1000213620000070,831.9200439449999740,242.3200073239999880,370.2799377439999940,783.1398925779999440,26.7500000000000000,27.3574810028000002,68.5400000000000062,45.0000000000000000
0.0000000000000000,28.0000000000000000,-233.0599823000000010,233.5800170900000120,832.5599975589999520,242.1399383540000090,370.4400024409999900,783.7801513670000300,27.0625000000000000,27.3574810028000002,68.5400000000000062,45.0000000000000000
0.0000000000000000,28.0000000000000000,-233.3200378420000050,233.5199890140000030,833.2800292970000550,242.6599578860000010,370.2200317379999880,784.0798950199999800,26.7500000000000000,27.3574810028000002,68.5400000000000062,45.0000000000000000
0.0000000000000000,28.0000000000000000,-233.5599823000000010,233.9399719239999910,832.4599609379999940,242.8800506590000050,370.2599487300000190,782.9799804689999970,26.7500000000000000,27.3574810028000002,68.5400000000000062,45.0000000000000000
0.0000000000000000,28.0000000000000000,-233.2400207519999920,233.9799499510000090,832.5598144529999440,243.1000213620000070,370.3399658199999750,783.7399291990000160,26.7500000000000000,27.3887100220000015,68.5400000000000062,45.0000000000000000
0.0000000000000000,28.0000000000000000,-233.2400207519999920,233.6000213620000070,832.7999267579999690,242.3600769040000100,369.7400207520000200,783.2199707029999440,26.7500000000000000,27.3887100220000015,68.5400000000000062,45.0000000000000000
0.0000000000000000,29.0000000000000000,-324.8399963379999910,-4.8400001525900000,831.3798828120000040,328.8998718259999800,555.0800781249999990,628.2000122069999860,26.7500000000000000,27.3887100220000015,68.5400000000000062,0.0000000000000000
0.0000000000000000,29.0000000000000000,-325.1999511719999980,-4.0200104713400000,831.3399658199999740,329.5202331539999820,554.6800537110000270,627.7597656249999990,26.7500000000000000,27.3887100220000015,68.5400000000000062,0.0000000000000000
0.0000000000000000,29.0000000000000000,-324.7600097659999960,-4.4999899864200001,832.1000366209999580,328.4997863770000200,555.3198242189999970,629.1199951170000300,26.7500000000000000,27.3887100220000015,68.5400000000000062,0.0000000000000000
0.0000000000000000,29.0000000000000000,-324.8799438479999820,-4.6599998474099999,830.8999633790000410,328.8999938960000120,554.8200683589999470,628.8999633790000410,26.7500000000000000,27.3887100220000015,68.5400000000000062,0.0000000000000000
0.0000000000000000,29.0000000000000000,-324.2000427250000030,-4.5200099945099996,832.1199951170000300,329.8199462889999720,554.8198852540000410,628.7999267579999690,27.0625000000000000,27.3887100220000015,68.5400000000000062,0.0000000000000000
0.0000000000000000,29.0000000000000000,-324.8800048830000260,-4.1599993705699996,831.6800537110000270,329.9202270509999830,555.1199951170000300,628.5999755860000270,27.3750000000000000,27.3887100220000015,68.5400000000000062,0.0000000000000000
0.0000000000000000,29.0000000000000000,-324.6400451659999930,-4.3199896812400000,831.3800659180000130,329.5801086430000170,554.7799072269999660,627.9800415040000410,26.7500000000000000,27.3887100220000015,68.5400000000000062,0.0000000000000000
0.0000000000000000,29.0000000000000000,-324.5600280759999800,-4.7000098228500002,831.1198730470000550,328.6800231930000110,554.9000854490000160,628.2800903319999860,26.7500000000000000,27.3887100220000015,68.5400000000000062,0.0000000000000000
0.0000000000000000,29.0000000000000000,-324.4799499509999800,-4.0400195121799998,831.5800781249999990,329.0999450680000110,554.4799194339999530,628.2999877930000130,26.7500000000000000,27.3887100220000015,68.5400000000000062,0.0000000000000000
0.0000000000000000,29.0000000000000000,-324.9800109860000240,-4.6200199127200001,831.7799682620000100,328.6199646000000030,554.5400390620000050,628.1400146480000320,26.7500000000000000,27.3887100220000015,68.5400000000000062,0.0000000000000000
0.0000000000000000,30.0000000000000000,-222.1600189209999880,-239.0999908450000080,830.1799316410000520,223.8800201420000060,728.9599609379999940,481.7599487300000190,27.0625000000000000,27.4199409484999989,68.5400000000000062,-45.0000000000000000
0.0000000000000000,30.0000000000000000,-221.9400024409999900,-239.8000183110000020,830.8798828120000040,224.2199707030000010,729.4799804689999970,482.3598632810000020,26.7500000000000000,27.4199409484999989,68.5400000000000062,-45.0000000000000000
0.0000000000000000,30.0000000000000000,-221.6599731450000090,-238.6600189209999880,830.4799804689999970,224.3199310299999920,729.3200073240000160,481.4199218750000000,26.7500000000000000,27.3887100220000015,68.5400000000000062,-45.0000000000000000
0.0000000000000000,30.0000000000000000,-221.5599517820000130,-239.1000366209999870,830.2400512699999800,225.2399902340000040,729.3198852540000410,481.8599853520000230,26.7500000000000000,27.3887100220000015,68.5400000000000062,-45.0000000000000000
0.0000000000000000,30.0000000000000000,-222.0599823000000010,-239.3799743650000090,830.8798828120000040,224.8800506590000050,729.3800048829999690,482.2600402830000230,26.7500000000000000,27.3887100220000015,68.5400000000000062,-45.0000000000000000
0.0000000000000000,30.0000000000000000,-221.6199798579999930,-239.4399871829999990,830.8800048829999690,224.1599121090000040,729.0199584959999580,481.2999572749999970,27.0625000000000000,27.3887100220000015,68.5400000000000062,-45.0000000000000000
0.0000000000000000,30.0000000000000000,-221.9999694820000110,-239.6200103760000100,830.8000488279999440,224.3599700929999870,729.5999755860000270,482.1999816890000260,27.0625000000000000,27.3887100220000015,68.5400000000000062,-45.0000000000000000
0.0000000000000000,30.0000000000000000,-222.0000305179999880,-239.3999481200000050,830.7799072269999660,224.4998779299999960,729.6800537110000270,481.5199584960000150,27.3750000000000000,27.4199409484999989,68.5400000000000062,-45.0000000000000000
0.0000000000000000,30.0000000000000000,-221.7599334720000000,-238.8400115970000000,830.7199707029999440,224.2801513670000020,729.4599609379999940,481.8599548340000060,27.3750000000000000,27.4199409484999989,68.5400000000000062,-45.0000000000000000
0.0000000000000000,30.0000000000000000,-222.1000213620000070,-239.1000213620000070,830.1999511720000550,224.7399902340000040,729.6400756839999520,481.7800598140000260,27.0625000000000000,27.4199409484999989,68.5400000000000062,-45.0000000000000000
0.0000000000000000,31.0000000000000000,15.6999988556000005,-333.5399780270000180,828.1998901370000100,-15.2599802016999995,795.9800415040000410,423.2599792479999790,27.0625000000000000,27.4199409484999989,68.5400000000000062,-89.9999999999999999
0.0000000000000000,31.0000000000000000,16.1600112914999983,-333.2799072270000230,828.0999755860000270,-14.3600034714000007,796.2600097660000520,423.3201904300000250,26.7500000000000000,27.4199409484999989,68.5400000000000062,-89.9999999999999999
0.0000000000000000,31.0000000000000000,15.8199968337999994,-333.5599975590000100,828.0799560550000240,-14.2599582672000000,795.9199829100000440,423.8599853520000230,26.7500000000000000,27.4199409484999989,68.5400000000000062,-89.9999999999999999
0.0000000000000000,31.0000000000000000,15.6200218200999998,-333.6399536129999880,828.6998901370000100,-14.5000009537000007,795.8599853519999660,422.8200378419999760,27.0625000000000000,27.4199409484999989,68.5400000000000062,-89.9999999999999999
0.0000000000000000,31.0000000000000000,15.9200105667000002,-333.5000000000000000,828.6399536129999880,-14.7201623917000006,795.9799804689999970,423.2001037599999900,27.0625000000000000,27.4511699677000003,68.5400000000000062,-89.9999999999999999
0.0000000000000000,31.0000000000000000,15.9199914931999995,-333.7200012210000180,828.3200073240000160,-14.6799402236999992,795.5599975589999520,423.4399414060000020,26.7500000000000000,27.4511699677000003,68.5400000000000062,-89.9999999999999999
0.0000000000000000,31.0000000000000000,15.9200391768999996,-333.6399841310000050,828.6399536129999880,-14.7399835587000005,795.4000854490000160,422.3398437500000000,27.0625000000000000,27.4199409484999989,68.5400000000000062,-89.9999999999999999
0.0000000000000000,31.0000000000000000,16.2199897765999985,-333.5799560550000250,828.3200073240000160,-15.3000011443999995,796.1600341800000240,422.9400024409999900,26.7500000000000000,27.4199409484999989,68.5400000000000062,-89.9999999999999999
0.0000000000000000,31.0000000000000000,15.7599897384999998,-333.3399658199999750,828.7400512699999800,-14.8199987410999991,795.7199707029999440,423.1000366210000150,26.7500000000000000,27.4511699677000003,68.5400000000000062,-89.9999999999999999
0.0000000000000000,31.0000000000000000,15.3199596405000005,-333.8399963379999910,828.5599975589999520,-14.7399692535000000,795.6399536129999880,423.1998291020000230,26.7500000000000000,27.4511699677000003,68.5400000000000062,-89.9999999999999999
0.0000000000000000,32.0000000000000000,255.3600006099999860,-229.1400299070000130,830.4598999019999600,-253.6600189209999880,711.0999755860000270,491.3800353999999970,27.0625000000000000,27.4511699677000003,68.5400000000000062,-135.0000000000000000
0.0000000000000000,32.0000000000000000,256.1600036620000080,-229.0999755859999990,830.3399658199999740,-252.6599426269999920,710.9400024410000460,491.2799072270000230,27.0625000000000000,27.4511699677000003,68.5400000000000062,-135.0000000000000000
0.0000000000000000,32.0000000000000000,255.5399627689999990,-229.2200012209999900,830.0600585939999970,-253.1599578860000010,711.4799804689999970,491.5999145509999830,27.0625000000000000,27.4511699677000003,68.5400000000000062,-135.0000000000000000
0.0000000000000000,32.0000000000000000,256.3399963379999910,-229.7600402829999950,830.2999877930000130,-252.5399780269999890,710.8599853519999660,491.3999023439999970,27.0625000000000000,27.4511699677000003,68.5400000000000062,-135.0000000000000000
0.0000000000000000,32.0000000000000000,255.5599975590000100,-229.2399902340000040,830.4599609379999940,-253.2800140379999900,711.2799682620000110,492.1799011229999790,26.7500000000000000,27.4511699677000003,68.5400000000000062,-135.0000000000000000
0.0000000000000000,32.0000000000000000,256.1399841310000050,-229.2599945069999870,829.8399658199999740,-253.1000213620000070,711.0800781249999990,491.6199951169999730,26.7500000000000000,27.4511699677000003,68.5400000000000062,-135.0000000000000000
0.0000000000000000,32.0000000000000000,256.1799926759999830,-229.4000396730000090,830.2800292970000550,-253.3000946040000090,711.2799682620000110,492.0599975590000090,27.0625000000000000,27.4511699677000003,68.5400000000000062,-135.0000000000000000
0.0000000000000000,32.0000000000000000,255.7199401860000020,-229.1999816889999970,830.1399536129999880,-253.6000518799999950,711.3201293949999800,491.0799560550000250,27.0625000000000000,27.4511699677000003,68.5400000000000062,-135.0000000000000000
0.0000000000000000,32.0000000000000000,255.4400329590000070,-229.5199890140000030,830.3399658199999740,-253.6598510739999880,711.6800537110000270,491.9998779300000250,26.7500000000000000,27.4511699677000003,68.5400000000000062,-135.0000000000000000
0.0000000000000000,32.0000000000000000,255.6399993900000140,-229.2200164790000090,830.3200683589999460,-252.9400787349999860,711.1799926759999830,491.6000366210000150,27.0625000000000000,27.4511699677000003,68.5400000000000062,-135.0000000000000000
0.0000000000000000,33.0000000000000000,41.4599685669000024,4.1999897956799996,895.2600708009999830,-40.1399879455999979,580.4798583980000320,687.7399902339999460,27.0625000000000000,27.4824008942000013,88.4500000000000028,180.0000000000000000
0.0000000000000000,33.0000000000000000,41.3999900817999986,4.2799997329700004,895.0400390620000040,-40.1399879455999979,580.2199707029999440,687.1600341800000240,27.0625000000000000,27.4824008942000013,88.4500000000000028,180.0000000000000000
0.0000000000000000,33.0000000000000000,41.9199905396000005,4.3199896812400000,894.9400024410000460,-39.7599525452000009,580.3200683589999470,687.5799560550000240,26.7500000000000000,27.4824008942000013,88.4500000000000028,180.0000000000000000
0.0000000000000000,33.0000000000000000,42.2599792480000005,4.3399701118499996,895.5999145509999830,-39.5599288940000022,581.0199584959999580,688.1398925779999440,26.7500000000000000,27.5136299133000008,88.4500000000000028,180.0000000000000000
0.0000000000000000,33.0000000000000000,41.6199684142999970,4.3399691581699997,894.9400634769999660,-39.6998901366999988,580.3599853519999660,688.0198974610000270,27.0625000000000000,27.5136299133000008,88.4500000000000028,180.0000000000000000
0.0000000000000000,33.0000000000000000,41.5200195311999991,4.4400196075400000,895.3000488279999440,-39.6999778747999983,580.3399658199999740,687.6000366209999580,27.0625000000000000,27.4824008942000013,88.4500000000000028,180.0000000000000000
0.0000000000000000,33.0000000000000000,42.3199691772000008,4.3800101280200003,895.1999511720000550,-39.5799713135000033,580.1599731449999800,688.7800903319999850,26.7500000000000000,27.4824008942000013,88.4500000000000028,180.0000000000000000
0.0000000000000000,33.0000000000000000,41.7199974059999974,4.0799698829700004,894.9799804689999960,-40.6400222778000000,580.1799926759999830,687.7399902339999460,26.7500000000000000,27.4824008942000013,88.4500000000000028,180.0000000000000000
0.0000000000000000,33.0000000000000000,41.9400367737000010,4.1599998474099999,895.5199584959999580,-39.1599998474000017,580.3399658199999740,687.8800048829999690,26.7500000000000000,27.4824008942000013,88.4500000000000028,180.0000000000000000
0.0000000000000000,33.0000000000000000,41.4800186156999970,4.2000198364300001,895.2400512699999800,-39.8998680114999970,580.0800170899999550,687.9599609379999940,27.0625000000000000,27.4824008942000013,88.4500000000000028,180.0000000000000000
0.0000000000000000,34.0000000000000000,30.7800292969000004,25.8400096893000004,894.8600463870000100,-28.0599842071999994,565.0399780269999600,700.6400146480000320,26.7500000000000000,27.5136299133000008,88.4600000000000079,135.0000000000000000
0.0000000000000000,34.0000000000000000,30.3199996947999999,25.7399806976000001,894.4400024410000460,-27.1999874115000004,565.1799926759999830,700.6599731449999800,27.0625000000000000,27.5136299133000008,88.4600000000000079,135.0000000000000000
0.0000000000000000,34.0000000000000000,30.8000068664999986,25.3000087737999983,894.6001586910000460,-27.8199920654000010,565.2799682620000110,700.5800781249999990,27.0625000000000000,27.4824008942000013,88.4500000000000028,135.0000000000000000
0.0000000000000000,34.0000000000000000,31.0800094603999994,25.7199993133999989,895.2598876949999740,-28.0999412536999990,565.1400146480000320,699.8999633790000410,27.0625000000000000,27.4824008942000013,88.4600000000000079,135.0000000000000000
0.0000000000000000,34.0000000000000000,30.9999961852999988,25.4599704741999986,894.2399902339999460,-27.6000595092999994,564.6799926759999830,700.8200073240000160,27.0625000000000000,27.4824008942000013,88.4600000000000079,135.0000000000000000
0.0000000000000000,34.0000000000000000,31.1200485228999994,25.9999790192000013,894.3200073240000160,-27.8599624633999987,564.8400268550000190,701.2799072269999660,27.0625000000000000,27.4824008942000013,88.4500000000000028,135.0000000000000000
0.0000000000000000,34.0000000000000000,30.9400062560999984,25.5799694060999982,894.7199707029999440,-28.1400184630999988,565.4999999999999990,699.6598510740000160,27.0625000000000000,27.5136299133000008,88.4600000000000079,135.0000000000000000
0.0000000000000000,34.0000000000000000,30.2799968718999999,25.0799903869999987,894.4000854490000160,-27.8599987029999987,565.6000366209999580,700.8200073240000160,27.0625000000000000,27.5136299133000008,88.4500000000000028,135.0000000000000000
0.0000000000000000,34.0000000000000000,30.6999778747999983,25.5800094603999994,894.8399658199999740,-27.9599514008000014,565.1199340819999860,700.6199340819999850,27.0625000000000000,27.5136299133000008,88.4500000000000028,135.0000000000000000
0.0000000000000000,34.0000000000000000,30.8800163269000016,25.6599903106999996,894.1000366209999580,-27.9001293182000012,565.4199218749999990,699.7999877930000130,27.0625000000000000,27.5136299133000008,88.4600000000000079,135.0000000000000000
0.0000000000000000,35.0000000000000000,7.3800191879300003,32.3000183105000005,895.5801391600000430,-3.9599394798300001,560.4199829100000440,704.6199951170000300,27.0625000000000000,27.5448608397999983,88.4600000000000079,89.9999999999999999
0.0000000000000000,35.0000000000000000,7.7400212287899999,32.6800079345999990,895.8800048829999690,-4.7200598716700002,560.5599975589999530,704.7999267579999690,27.0625000000000000,27.5136299133000008,88.4600000000000079,89.9999999999999999
0.0000000000000000,35.0000000000000000,7.6800193786599999,32.0399894713999984,895.1799316410000520,-4.8200302123999998,560.5999755860000270,705.4999999999999990,27.0625000000000000,27.5136299133000008,88.4600000000000079,89.9999999999999999
0.0000000000000000,35.0000000000000000,7.5399999618500004,32.0799789428999986,895.7000732420000300,-5.1999597549400001,560.4400024410000460,704.6799316410000520,27.0625000000000000,27.5136299133000008,88.4600000000000079,89.9999999999999999
0.0000000000000000,35.0000000000000000,7.5599989891100003,32.4200172424000001,895.7399902339999460,-5.5199799537700001,560.3800048829999690,705.2399291990000160,27.0625000000000000,27.5448608397999983,88.4600000000000079,89.9999999999999999
0.0000000000000000,35.0000000000000000,7.3600206375099999,32.5999908447000024,895.5998535160000520,-4.7399802207899997,560.7999267579999690,704.8797607420000300,27.0625000000000000,27.5448608397999983,88.4600000000000079,89.9999999999999999
0.0000000000000000,35.0000000000000000,7.8199706077600002,32.0399780273000019,896.0799560550000240,-4.3000001907299996,560.4799804689999970,705.2000122069999850,26.7500000000000000,27.5448608397999983,88.4600000000000079,89.9999999999999999
0.0000000000000000,35.0000000000000000,7.8600101470899997,32.3999900817999986,895.6000366209999580,-5.4202299117999999,560.6600341800000250,705.0599975589999520,27.0625000000000000,27.5448608397999983,88.4600000000000079,89.9999999999999999
0.0000000000000000,35.0000000000000000,7.4800095558199997,32.5999984740999977,895.3999633790000410,-4.8000388145399997,560.3999633790000410,705.5798950199999800,27.0625000000000000,27.5448608397999983,88.4600000000000079,89.9999999999999999
0.0000000000000000,35.0000000000000000,7.5799899101300001,32.4399795531999970,895.0999145509999830,-5.3999695777900003,560.3598022459999580,705.0399169920000300,27.0625000000000000,27.5448608397999983,88.4600000000000079,89.9999999999999999
0.0000000000000000,36.0000000000000000,-13.2200183867999996,21.1399784088000011,895.3599853519999660,15.8799791335999991,569.3999023439999970,697.0199584959999580,27.0625000000000000,27.5448608397999983,88.4600000000000079,45.0000000000000000
0.0000000000000000,36.0000000000000000,-13.5199718475000008,20.9999923706000011,895.8000488279999440,15.8399610518999996,569.9999389649999550,697.6400756839999520,26.7500000000000000,27.5448608397999983,88.4600000000000079,45.0000000000000000
0.0000000000000000,36.0000000000000000,-13.7200164794999999,20.9200191498000016,895.3599853519999660,16.6999607085999990,569.9199218749999990,697.2399902339999460,27.3750000000000000,27.5448608397999983,88.4600000000000079,45.0000000000000000
0.0000000000000000,36.0000000000000000,-13.5199909209999998,20.9000186919999997,895.4799804689999960,16.7600193023999999,569.7400512699999800,697.4998779300000240,27.0625000000000000,27.5448608397999983,88.4600000000000079,45.0000000000000000
0.0000000000000000,36.0000000000000000,-13.8199577332000008,20.7600212096999996,895.3399658199999740,15.6800708771000003,569.8400268550000190,696.9799194339999520,27.0625000000000000,27.5448608397999983,88.4600000000000079,45.0000000000000000
0.0000000000000000,36.0000000000000000,-13.3400201796999997,20.6400184630999988,895.7999877930000130,16.6400794983000004,569.5799560550000250,697.4199218749999990,27.3750000000000000,27.5448608397999983,88.4600000000000079,45.0000000000000000
0.0000000000000000,36.0000000000000000,-13.2399692535000000,20.6800308227999991,895.3198852540000410,15.7997608184999993,569.7999877930000130,697.2399902339999460,27.0625000000000000,27.5448608397999983,88.4600000000000079,45.0000000000000000
0.0000000000000000,36.0000000000000000,-13.9600191115999994,20.8199996947999999,895.3399658199999740,16.0399894713999984,569.7000732420000300,697.7399291990000160,27.0625000000000000,27.5448608397999983,88.4600000000000079,45.0000000000000000
0.0000000000000000,36.0000000000000000,-13.9000072478999996,20.7999820709000005,895.8798828120000040,16.5399684905999997,569.4999389649999550,697.2600708009999830,27.3750000000000000,27.5448608397999983,88.4600000000000079,45.0000000000000000
0.0000000000000000,36.0000000000000000,-13.2199993134000007,21.1199779509999992,895.3399658199999740,15.6399469375999995,569.2600097660000520,697.1600341800000240,27.0625000000000000,27.5760898589999996,88.4600000000000079,45.0000000000000000
0.0000000000000000,37.0000000000000000,-18.9000015258999987,-1.3399999141700001,895.1799926759999830,22.1600112914999982,587.1600952149999550,683.1599731449999800,27.0625000000000000,27.5760898589999996,88.4600000000000079,0.0000000000000000
0.0000000000000000,37.0000000000000000,-19.3400173186999993,-1.0799999237100000,894.6599731449999800,22.1599254608000002,586.8200073240000160,683.3399658199999740,26.7500000000000000,27.5760898589999996,88.4600000000000079,0.0000000000000000
0.0000000000000000,37.0000000000000000,-19.2799987793000014,-1.1399999856900000,895.0599975589999520,21.8799991608000006,587.0600585939999970,682.8000488279999440,27.0625000000000000,27.5760898589999996,88.4600000000000079,0.0000000000000000
0.0000000000000000,37.0000000000000000,-19.2199993133999989,-1.1800299882900001,894.8600463870000100,22.1599807738999992,587.1199951170000300,683.4998168949999800,27.0625000000000000,27.5760898589999996,88.4600000000000079,0.0000000000000000
0.0000000000000000,37.0000000000000000,-19.4000110626000008,-1.0799899101299999,895.1599731449999800,22.3800506591999983,587.1801147459999580,682.7399291990000160,27.0625000000000000,27.5760898589999996,88.4600000000000079,0.0000000000000000
0.0000000000000000,37.0000000000000000,-19.3400115966999984,-1.0200099945100001,894.5798950199999800,21.8001804352000015,586.7199707029999440,683.2201538089999520,27.3750000000000000,27.5760898589999996,88.4600000000000079,0.0000000000000000
0.0000000000000000,37.0000000000000000,-19.9399757384999994,-1.2800199985500000,895.2799682620000100,22.4599685668999989,586.6800537110000270,682.5000610350000440,27.3750000000000000,27.5760898589999996,88.4600000000000079,0.0000000000000000
0.0000000000000000,37.0000000000000000,-19.5799999237000008,-1.6800097227099999,894.3401489259999830,22.0599021911999991,586.7199707029999440,683.6199951170000300,27.3750000000000000,27.5760898589999996,88.4600000000000079,0.0000000000000000
0.0000000000000000,37.0000000000000000,-19.0000133513999998,-0.9599999785420000,894.4998779300000240,21.8199539185000013,586.7400512699999800,683.2401123050000240,27.0625000000000000,27.5760898589999996,88.4600000000000079,0.0000000000000000
0.0000000000000000,37.0000000000000000,-19.5399990081999988,-1.0799800157499999,894.8200073240000160,23.1600875853999994,587.1799316410000520,683.1599731449999800,27.0625000000000000,27.5760898589999996,88.4600000000000079,0.0000000000000000
0.0000000000000000,38.0000000000000000,-7.9800195693999996,-21.6200084685999982,895.3999023439999960,9.6599502563499993,602.4199218749999990,670.3800048829999690,27.0625000000000000,27.5760898589999996,88.4600000000000079,-45.0000000000000000
0.0000000000000000,38.0000000000000000,-7.9800095558199997,-21.9799976348999983,895.5999755860000270,10.0800189971999998,602.8000488279999440,671.0799560550000240,27.0625000000000000,27.5760898589999996,88.4600000000000079,-45.0000000000000000
0.0000000000000000,38.0000000000000000,-8.4799709320099996,-21.8199806213000009,894.9600830079999690,10.1399488448999993,601.9400634769999660,670.4400024410000460,27.0625000000000000,27.5760898589999996,88.4600000000000079,-45.0000000000000000
0.0000000000000000,38.0000000000000000,-8.0799894332900006,-21.7000122070000003,895.8200073240000160,10.0599899292000003,602.3599853519999660,670.6799926759999830,27.0625000000000000,27.5760898589999996,88.4600000000000079,-45.0000000000000000
0.0000000000000000,38.0000000000000000,-8.5800199508699997,-22.1400089264000002,895.4199829100000430,10.5600109100000008,602.4199829100000440,669.9000854490000160,27.3750000000000000,27.5760898589999996,88.4600000000000079,-45.0000000000000000
0.0000000000000000,38.0000000000000000,-7.7800388336199999,-21.7599678039999986,895.5599975589999520,10.0800390243999995,602.5798950199999800,671.0800781249999990,27.0625000000000000,27.5760898589999996,88.4600000000000079,-45.0000000000000000
0.0000000000000000,38.0000000000000000,-8.0599794387799992,-22.2599792480000005,895.6799316410000520,9.9000110626200008,602.3200073240000160,670.1400146480000320,27.0625000000000000,27.5760898589999996,88.4600000000000079,-45.0000000000000000
0.0000000000000000,38.0000000000000000,-7.8599700927700002,-21.6599903106999996,895.4199829100000430,9.2798986434900001,602.7799682620000110,671.0200805660000460,27.0625000000000000,27.5760898589999996,88.4600000000000079,-45.0000000000000000
0.0000000000000000,38.0000000000000000,-7.9000182151800002,-22.1800098418999987,895.8599853519999660,10.2199611663999992,602.3599243160000460,670.3801269529999440,27.3750000000000000,27.5760898589999996,88.4600000000000079,-45.0000000000000000
0.0000000000000000,38.0000000000000000,-7.6400198936499999,-21.8399791717999996,895.4199218749999990,10.9000091552999994,602.4199829100000440,670.1998291019999660,27.0625000000000000,27.5760898589999996,88.4600000000000079,-45.0000000000000000
0.0000000000000000,39.0000000000000000,13.7799997330000004,-29.0999984741000013,894.9999999999999990,-12.3400411606000002,607.2600097660000520,666.1599731449999800,27.0625000000000000,27.6073207855000007,88.4600000000000079,-89.9999999999999999
0.0000000000000000,39.0000000000000000,14.1999816894999995,-29.1399993895999998,895.1600341800000240,-12.2800512313999999,607.1400146480000320,665.1998901370000110,27.0625000000000000,27.6073207855000007,88.4600000000000079,-89.9999999999999999
0.0000000000000000,39.0000000000000000,13.8200130462999997,-28.9200096130000013,894.9999999999999990,-11.9400396346999997,606.8999633790000410,666.6199951170000300,27.0625000000000000,27.6073207855000007,88.4600000000000079,-89.9999999999999999
0.0000000000000000,39.0000000000000000,13.4999704360999999,-29.0199985504000004,894.5999755860000270,-12.3000612259000004,607.1800537110000270,665.7199707029999440,27.0625000000000000,27.5760898589999996,88.4600000000000079,-89.9999999999999999
0.0000000000000000,39.0000000000000000,14.2599601745999998,-29.0399799346999998,895.6398925779999440,-11.8799972533999991,606.7799682620000110,665.0398559569999860,27.3750000000000000,27.5760898589999996,88.4600000000000079,-89.9999999999999999
0.0000000000000000,39.0000000000000000,14.1799707413000000,-28.9199695587000001,895.1799926759999830,-11.9199810028000002,607.1199951170000300,665.7399902339999460,27.0625000000000000,27.5760898589999996,88.4600000000000079,-89.9999999999999999
0.0000000000000000,39.0000000000000000,13.7199897766000003,-29.3399887085000017,895.4200439449999740,-12.0001192092999993,607.0999755860000270,665.0399780269999600,26.7500000000000000,27.5760898589999996,88.4600000000000079,-89.9999999999999999
0.0000000000000000,39.0000000000000000,13.9800205231000003,-29.3599987029999987,894.8999633790000410,-12.2200279236000000,607.0198974610000270,665.8600463870000110,27.0625000000000000,27.6073207855000007,88.4600000000000079,-89.9999999999999999
0.0000000000000000,39.0000000000000000,14.6999988556000005,-29.1399898529000012,894.4799804689999960,-11.7399778365999996,607.4999389649999550,665.8999023439999970,27.0625000000000000,27.6073207855000007,88.4600000000000079,-89.9999999999999999
0.0000000000000000,39.0000000000000000,14.2400007247999998,-29.1799983977999986,894.6999511720000550,-12.3000926971000002,607.5599365230000320,665.7798461910000460,27.0625000000000000,27.6073207855000007,88.4600000000000079,-89.9999999999999999
0.0000000000000000,40.0000000000000000,34.8000106811999998,-18.4599800109999990,895.0799560550000240,-32.1399879455999979,598.5400390620000050,672.4199218749999990,27.3750000000000000,27.6073207855000007,88.4600000000000079,-135.0000000000000000
0.0000000000000000,40.0000000000000000,34.5799903870000022,-19.0399799346999998,894.5198974610000270,-32.9799804688000009,598.6199951170000300,672.8801269529999440,27.0625000000000000,27.6385498046999984,88.4600000000000079,-135.0000000000000000
0.0000000000000000,40.0000000000000000,34.7600250244000008,-18.6600112914999983,894.9998779300000240,-32.4800300598000007,598.7600097660000520,672.1799926759999830,27.0625000000000000,27.6385498046999984,88.4600000000000079,-135.0000000000000000
0.0000000000000000,40.0000000000000000,34.5000076294000024,-18.6999893188000001,895.3200073240000160,-32.2800788878999967,598.8199462889999720,672.4599609379999940,27.3750000000000000,27.6073207855000007,88.4600000000000079,-135.0000000000000000
0.0000000000000000,40.0000000000000000,34.6199798584000007,-18.2999687195000007,895.3200073240000160,-32.4599571227999988,598.0800170899999550,673.6400146480000320,27.0625000000000000,27.6073207855000007,88.4600000000000079,-135.0000000000000000
0.0000000000000000,40.0000000000000000,34.0399932860999996,-18.4599895477000011,894.9199218749999990,-32.6599617003999967,598.7999877930000130,672.8200073240000160,27.0625000000000000,27.6385498046999984,88.4600000000000079,-135.0000000000000000
0.0000000000000000,40.0000000000000000,34.5600204468000029,-18.9799976348999983,895.4199829100000430,-32.8201408385999968,598.3798828120000050,672.9001464839999460,27.0625000000000000,27.6385498046999984,88.4600000000000079,-135.0000000000000000
0.0000000000000000,40.0000000000000000,34.7000007628999967,-18.6799793242999996,894.8800048829999690,-32.6800498962000034,598.5999755860000270,672.9598999019999600,27.3750000000000000,27.6073207855000007,88.4600000000000079,-135.0000000000000000
0.0000000000000000,40.0000000000000000,34.5000000000000000,-18.7999992370999997,894.5800781249999990,-32.0200767517000031,598.5800170899999550,672.4197998050000240,27.0625000000000000,27.6073207855000007,88.4600000000000079,-135.0000000000000000
0.0000000000000000,40.0000000000000000,34.1199836731000019,-18.6199913025000008,895.3999633790000410,-32.6999740600999971,599.0200805660000460,672.9600830079999690,27.3750000000000000,27.6385498046999984,88.4600000000000079,-135.0000000000000000
