Temp Iter,Index,X Accel 1,Y Accel 1,Z Accel 1,X Accel 2,Y Accel 2,Z Accel2, Temp_6g,Temp,Theta,Phi,,,,,,
0.0000000000000000,1.0000000000000000,908.7999877930000130,20.5799808501999983,-5.4999799728400003,-892.6599121089999460,24.2800083160000000,13.1399993895999998,27.0625000000000000,27.3262500762999991,-0.1300000000000000,180.0000000000000000
0.0000000000000000,1.0000000000000000,907.9799194339999520,21.1599903106999996,-6.1200199127200001,-892.6599731449999800,24.6599998474000017,13.8599901199000008,27.0625000000000000,27.3262500762999991,-0.1300000000000000,180.0000000000000000
0.0000000000000000,1.0000000000000000,909.1599731449999800,21.0399990081999988,-5.8600506782500004,-892.4998168949999800,24.6000156403000005,14.1399726868000002,27.0625000000000000,27.3262500762999991,-0.1300000000000000,180.0000000000000000
0.0000000000000000,1.0000000000000000,908.4398803709999580,21.2200393677000001,-5.7999992370599998,-892.4201660160000520,24.5199584960999992,13.7999887466000004,27.3750000000000000,27.3262500762999991,-0.1300000000000000,180.0000000000000000
0.0000000000000000,1.0000000000000000,908.0400390620000040,21.1000003814999992,-5.7400403022799997,-892.1599121089999460,24.3200187682999989,13.3800697327000009,26.7500000000000000,27.3262500762999991,-0.1300000000000000,180.0000000000000000
0.0000000000000000,1.0000000000000000,907.8399047850000430,21.0199794769000014,-5.4000005721999997,-892.1799926759999830,24.8200283050999992,13.8800115584999997,27.3750000000000000,27.3262500762999991,-0.1300000000000000,180.0000000000000000
0.0000000000000000,1.0000000000000000,908.6799926759999830,20.4799900054999995,-5.7600097656200004,-892.5399780269999600,24.7399902344000004,13.6799411773999999,27.3750000000000000,27.3262500762999991,-0.1300000000000000,180.0000000000000000
0.0000000000000000,1.0000000000000000,908.7399902339999460,20.7999897002999994,-5.2399797439600002,-892.4598388670000300,24.6399803161999990,13.7999486922999992,27.0625000000000000,27.3574810028000002,-0.1300000000000000,180.0000000000000000
0.0000000000000000,1.0000000000000000,908.4398193360000270,21.0000095366999986,-6.0200090408299998,-892.6600341800000240,24.5400581359999990,14.1200313568000002,27.0625000000000000,27.3574810028000002,-0.1300000000000000,180.0000000000000000
0.0000000000000000,1.0000000000000000,908.3399658199999740,20.9799976348999983,-5.9999685287500002,-892.5198974610000270,24.7600479126000010,14.1000585556000004,27.3750000000000000,27.3574810028000002,-0.1300000000000000,180.0000000000000000
0.0000000000000000,2.0000000000000000,639.8800048829999690,650.9400024410000460,-2.4999599456800001,-626.8399658199999740,40.1799468994000008,634.8599243160000460,27.0625000000000000,27.4199409484999989,-0.1300000000000000,135.0000000000000000
0.0000000000000000,2.0000000000000000,639.5599975589999520,651.0800170899999550,-2.7800204753900002,-626.5999755860000270,40.1399688720999989,635.8997802730000320,27.3750000000000000,27.4199409484999989,-0.1300000000000000,135.0000000000000000
0.0000000000000000,2.0000000000000000,639.6199951170000300,650.6599731449999800,-2.7200100421900002,-626.2199707029999440,40.1400146483999975,635.4400634769999660,27.3750000000000000,27.4199409484999989,-0.1300000000000000,135.0000000000000000
0.0000000000000000,2.0000000000000000,639.4199218749999990,650.5599975589999520,-2.2599999904599999,-626.6799926759999830,40.0599784850999967,635.3399658199999740,27.3750000000000000,27.4511699677000003,-0.1300000000000000,135.0000000000000000
0.0000000000000000,2.0000000000000000,639.2199707029999440,650.6600341800000240,-2.2199602127100002,-626.3999633790000410,40.3799972533999991,635.7800292970000550,27.6875000000000000,27.4511699677000003,-0.1300000000000000,135.0000000000000000
0.0000000000000000,2.0000000000000000,640.1599731449999800,650.9999999999999990,-2.3200104236599999,-626.6199340819999860,40.4000167847000000,635.5200805660000460,27.3750000000000000,27.4824008942000013,-0.1300000000000000,135.0000000000000000
0.0000000000000000,2.0000000000000000,638.9599609379999940,650.5999755860000270,-2.6599996089900002,-627.3601074220000550,40.5600090026999993,636.2999267579999690,27.0625000000000000,27.4824008942000013,-0.1300000000000000,135.0000000000000000
0.0000000000000000,2.0000000000000000,639.7799682620000110,650.8399658199999740,-2.7199501991299999,-625.7600097660000520,40.8199882506999998,635.6801147459999580,27.0625000000000000,27.4824008942000013,-0.1300000000000000,135.0000000000000000
0.0000000000000000,2.0000000000000000,639.5799560550000240,650.6400146480000320,-2.1399998664900002,-626.4400024410000460,39.9999885559000034,635.3399658199999740,27.3750000000000000,27.4824008942000013,-0.1300000000000000,135.0000000000000000
0.0000000000000000,2.0000000000000000,639.5399169920000300,651.1799926759999830,-2.8399996757500001,-627.2800903319999860,40.5800476073999974,636.4801025389999720,27.0625000000000000,27.4824008942000013,-0.1300000000000000,135.0000000000000000
0.0000000000000000,3.0000000000000000,0.9400099515910000,907.4999999999999990,1.2399899959600000,15.0400419235000005,29.0199699401999993,891.4398803709999580,27.6875000000000000,27.5136299133000008,-0.1300000000000000,89.9999999999999999
0.0000000000000000,3.0000000000000000,0.6599799990650000,907.5400390620000040,1.4600100517300001,14.0800495148000007,29.0199623108000004,892.2198486329999690,27.3750000000000000,27.5136299133000008,-0.1300000000000000,89.9999999999999999
0.0000000000000000,3.0000000000000000,0.3199599683280000,907.5999755860000270,1.3400099277499999,14.2199811935000007,29.3399677276999995,892.2802124019999600,27.3750000000000000,27.5448608397999983,-0.1300000000000000,89.9999999999999999
0.0000000000000000,3.0000000000000000,1.0999900102600000,907.2999877930000130,0.9199999570850000,14.3200311660999997,29.0000629425000014,891.9199829100000430,27.3750000000000000,27.5448608397999983,-0.1300000000000000,89.9999999999999999
0.0000000000000000,3.0000000000000000,0.9799900054930000,907.6399536129999880,0.8600099682810000,15.1799716949000007,29.2600193023999999,892.1599731449999800,27.3750000000000000,27.5448608397999983,-0.1300000000000000,89.9999999999999999
0.0000000000000000,3.0000000000000000,0.3399899899960000,907.3599853519999660,0.9400200247760000,14.6800985336000007,29.0999603270999998,891.9800415040000410,27.3750000000000000,27.5448608397999983,-0.1300000000000000,89.9999999999999999
0.0000000000000000,3.0000000000000000,0.7599899768830000,907.2999877930000130,0.8799700140950000,14.5999689101999994,29.1600093841999985,892.0200805660000460,27.3750000000000000,27.5448608397999983,-0.1300000000000000,89.9999999999999999
0.0000000000000000,3.0000000000000000,0.7600098848340000,907.1799926759999830,0.6600000858310000,14.7999792099000000,28.9399414061999991,892.1198730470000550,27.3750000000000000,27.5760898589999996,-0.1300000000000000,89.9999999999999999
0.0000000000000000,3.0000000000000000,1.4800297021900000,907.3599853519999660,0.8799899816510000,14.3000679016000003,29.4400081634999999,892.0600585939999960,27.0625000000000000,27.5760898589999996,-0.1300000000000000,89.9999999999999999
0.0000000000000000,3.0000000000000000,1.2199898958199999,907.3999023439999960,0.7400299906730000,14.0200300217000002,28.9999866486000002,892.0602416990000160,27.3750000000000000,27.5760898589999996,-0.1300000000000000,89.9999999999999999
0.0000000000000000,4.0000000000000000,-640.8999633790000410,632.0999755860000270,1.3599900007200001,650.1600341800000240,-2.2199902534499998,626.0999755860000270,27.3750000000000000,27.6073207855000007,-0.1300000000000000,45.0000000000000000
0.0000000000000000,4.0000000000000000,-640.8599853519999660,631.6799926759999830,1.7600100040400000,649.8000488279999440,-1.7000302076300000,625.4799804689999970,27.3750000000000000,27.6073207855000007,-0.1300000000000000,45.0000000000000000
0.0000000000000000,4.0000000000000000,-640.8999633790000410,631.5199584959999580,1.7400000095399999,649.3600463870000110,-2.2599599361400000,625.7800903319999860,27.3750000000000000,27.6073207855000007,-0.1300000000000000,45.0000000000000000
0.0000000000000000,4.0000000000000000,-641.2400512699999800,632.2199707029999440,1.8400101661699999,649.3798828120000050,-1.8600001335100000,626.4398803709999580,27.3750000000000000,27.6073207855000007,-0.1300000000000000,45.0000000000000000
0.0000000000000000,4.0000000000000000,-640.6199340819999860,631.5799560550000240,2.4200100898699999,649.4598999019999600,-1.7999999523200001,625.8197631839999520,27.3750000000000000,27.6073207855000007,-0.1300000000000000,45.0000000000000000
0.0000000000000000,4.0000000000000000,-640.7198486329999690,631.3800048829999690,1.8399698734300001,649.6799926759999830,-1.9000298976900001,625.7000732420000300,27.3750000000000000,27.6385498046999984,-0.1300000000000000,45.0000000000000000
0.0000000000000000,4.0000000000000000,-640.3399658199999740,631.3999633790000410,1.7000002861000001,649.7999267579999690,-1.7999899387400000,625.9199218749999990,27.3750000000000000,27.6385498046999984,-0.1300000000000000,45.0000000000000000
0.0000000000000000,4.0000000000000000,-641.0599975589999520,631.5799560550000240,1.6399999856900000,649.6801147459999580,-2.1000101566299998,626.1199951170000300,27.3750000000000000,27.6385498046999984,-0.1300000000000000,45.0000000000000000
0.0000000000000000,4.0000000000000000,-641.0601196290000410,631.3800048829999690,2.1000096797899999,650.3201904300000240,-2.0599300861400001,626.0398559569999860,27.6875000000000000,27.6385498046999984,-0.1300000000000000,45.0000000000000000
0.0000000000000000,4.0000000000000000,-640.5799560550000240,631.3200073240000160,1.6800000667599999,649.2798461910000460,-2.3400502204900002,625.7000732420000300,27.0625000000000000,27.6385498046999984,-0.1300000000000000,45.0000000000000000
0.0000000000000000,5.0000000000000000,-889.6602172850000430,-6.0200095176700001,-3.9800000190699998,902.0000610350000430,-35.9199714661000016,-13.5000982285000006,27.6875000000000000,27.6697807311999995,-0.1300000000000000,0.0000000000000000
0.0000000000000000,5.0000000000000000,-889.8599853519999660,-6.2199907302900002,-3.7400500774399998,901.8200073240000160,-35.3399696350000027,-13.4599800110000007,27.3750000000000000,27.6697807311999995,-0.1300000000000000,0.0000000000000000
0.0000000000000000,5.0000000000000000,-889.7200317379999880,-6.4999699592600004,-3.7000002860999999,901.2799682620000100,-35.7400093079000029,-13.7800512313999999,27.6875000000000000,27.7010097504000008,-0.1300000000000000,0.0000000000000000
0.0000000000000000,5.0000000000000000,-890.0198974610000270,-6.4799900054900004,-4.0599699020399997,901.3200073240000160,-35.5999908447000024,-13.2600202560000007,27.6875000000000000,27.6697807311999995,-0.1300000000000000,0.0000000000000000
0.0000000000000000,5.0000000000000000,-889.6599121089999460,-6.0400090217600004,-3.9599895477299998,901.8801269529999440,-35.7600479126000010,-12.5599889754999996,27.3750000000000000,27.6697807311999995,-0.1300000000000000,0.0000000000000000
0.0000000000000000,5.0000000000000000,-889.9001464839999460,-6.3199911117600003,-3.9600100517299999,901.2800292970000550,-35.9199790954999969,-13.3998565674000005,27.3750000000000000,27.7010097504000008,-0.1300000000000000,0.0000000000000000
0.0000000000000000,5.0000000000000000,-889.9799194339999520,-6.3799805641200002,-3.4200100898699999,901.2199707029999440,-35.8600196837999974,-13.7999811171999997,27.3750000000000000,27.7010097504000008,-0.1300000000000000,0.0000000000000000
0.0000000000000000,5.0000000000000000,-890.0599975589999520,-6.0799789428700004,-3.7999899387400000,901.4197998050000240,-35.8399391174000001,-13.6399316788000000,27.3750000000000000,27.7010097504000008,-0.1300000000000000,0.0000000000000000
0.0000000000000000,5.0000000000000000,-889.9400024410000460,-6.1199998855600004,-3.3799998760199998,901.0998535160000520,-35.9000473022000008,-13.3801221847999994,27.3750000000000000,27.7010097504000008,-0.1300000000000000,0.0000000000000000
0.0000000000000000,5.0000000000000000,-889.5399780269999600,-6.4000201225300000,-3.3199901580800000,901.6400756839999520,-36.3600273131999998,-13.3599700927999994,27.6875000000000000,27.7010097504000008,-0.1300000000000000,0.0000000000000000
0.0000000000000000,6.0000000000000000,-622.1799316410000520,-634.3599853519999660,-8.1200008392300003,623.7399291990000160,-51.2599487304999996,-644.4999999999999990,27.3750000000000000,27.7322406768999983,-0.1300000000000000,-45.0000000000000000
0.0000000000000000,6.0000000000000000,-622.0999755860000270,-634.1000366209999580,-8.7599897384599998,625.1801147459999580,-51.3199806212999973,-644.5001220699999740,27.6875000000000000,27.7322406768999983,-0.1300000000000000,-45.0000000000000000
0.0000000000000000,6.0000000000000000,-621.9400024410000460,-633.6199340819999860,-7.9999890327500003,624.5799560550000240,-51.8799781799000001,-644.9599609379999940,27.6875000000000000,27.7634716033999993,-0.1300000000000000,-45.0000000000000000
0.0000000000000000,6.0000000000000000,-622.0599975589999520,-634.0800781249999990,-8.1199798584000007,624.4398803709999580,-51.2799797058000024,-644.6397705079999690,27.6875000000000000,27.7634716033999993,-0.1300000000000000,-45.0000000000000000
0.0000000000000000,6.0000000000000000,-622.4998779300000240,-634.3800048829999690,-8.0600214004499993,624.3800659180000130,-51.7599983214999994,-644.5198974610000270,27.3750000000000000,27.7322406768999983,-0.1300000000000000,-45.0000000000000000
0.0000000000000000,6.0000000000000000,-622.1998291019999660,-634.1599731449999800,-8.0200195312500000,624.1799926759999830,-51.2999877929999996,-644.6400146480000320,27.6875000000000000,27.7322406768999983,-0.1300000000000000,-45.0000000000000000
0.0000000000000000,6.0000000000000000,-621.9799194339999520,-633.6600341800000240,-8.3799915313700009,624.2999877930000130,-52.0199890136999982,-644.2799682620000110,27.6875000000000000,27.7634716033999993,-0.1300000000000000,-45.0000000000000000
0.0000000000000000,6.0000000000000000,-621.9200439449999740,-633.8800048829999690,-7.8599901199300000,624.6000366209999580,-51.2399406433000024,-643.9798583980000320,27.6875000000000000,27.7634716033999993,-0.1300000000000000,-45.0000000000000000
0.0000000000000000,6.0000000000000000,-622.3399658199999740,-634.5199584959999580,-7.9800186157199997,624.3800048829999690,-51.5400085448999974,-644.4998779300000240,27.3750000000000000,27.7634716033999993,-0.1300000000000000,-45.0000000000000000
0.0000000000000000,6.0000000000000000,-622.3800659180000130,-634.2600097660000520,-7.6600303649899999,624.3400878910000520,-51.7200660705999979,-643.9599609379999940,27.3750000000000000,27.7947006226000006,-0.1300000000000000,-45.0000000000000000
0.0000000000000000,7.0000000000000000,15.7000102997000006,-891.3200073240000160,-11.8000192641999995,-6.4400897026099999,-41.5000381469999979,-893.6999511720000550,27.6875000000000000,27.7947006226000006,-0.1300000000000000,-89.9999999999999999
0.0000000000000000,7.0000000000000000,16.1599903106999996,-891.0399169920000300,-11.3999891280999996,-5.9998502731299999,-41.5799903870000022,-894.3599853519999660,27.6875000000000000,27.7947006226000006,-0.1300000000000000,-89.9999999999999999
0.0000000000000000,7.0000000000000000,15.4800195693999996,-891.2600097660000520,-10.2600202560000007,-6.6599698066700004,-41.8400382996000033,-894.1800537110000270,27.6875000000000000,27.7947006226000006,-0.1300000000000000,-89.9999999999999999
0.0000000000000000,7.0000000000000000,15.7800092697000007,-891.1399536129999880,-11.0999584198000001,-6.3799395561200001,-41.4800491332999996,-894.2400512699999800,27.6875000000000000,27.7947006226000006,-0.1300000000000000,-89.9999999999999999
0.0000000000000000,7.0000000000000000,15.8600397110000006,-890.9199829100000430,-11.1599884032999999,-6.2000513076799999,-41.4399032593000029,-893.8400878910000520,27.6875000000000000,27.8259315491000016,-0.1300000000000000,-89.9999999999999999
0.0000000000000000,7.0000000000000000,15.7600107193000003,-891.1999511720000550,-10.6799707413000000,-6.1399784088100002,-41.5399894713999984,-894.2999877930000130,27.3750000000000000,27.8259315491000016,-0.1300000000000000,-89.9999999999999999
0.0000000000000000,7.0000000000000000,16.1199989318999996,-891.4999999999999990,-10.8200387955000004,-7.0800104141200002,-41.0000610351999981,-894.2198486329999690,27.3750000000000000,27.8259315491000016,-0.1300000000000000,-89.9999999999999999
0.0000000000000000,7.0000000000000000,15.3599786758000007,-891.1999511720000550,-10.9999818802000000,-6.1200084686300000,-41.6399841308999967,-893.1999511720000550,27.6875000000000000,27.8259315491000016,-0.1300000000000000,-89.9999999999999999
0.0000000000000000,7.0000000000000000,15.9200010299999999,-890.9599609379999940,-11.0599994659000007,-6.7999897003200003,-40.9200172424000001,-894.1599121089999460,27.6875000000000000,27.8259315491000016,-0.1300000000000000,-89.9999999999999999
0.0000000000000000,7.0000000000000000,15.4800109862999999,-890.8999633790000410,-11.0399713516000002,-6.6600084304799996,-41.6000175475999967,-894.0998535160000520,27.6875000000000000,27.8259315491000016,-0.1300000000000000,-89.9999999999999999
0.0000000000000000,8.0000000000000000,660.3800048829999690,-615.3999633790000410,-11.0400304794000004,-648.0199584959999580,-11.0000276566000004,-618.5201416019999660,27.6875000000000000,27.8571605682000012,-0.1300000000000000,-135.0000000000000000
0.0000000000000000,8.0000000000000000,660.2999877930000130,-615.2600097660000520,-10.8999786377000003,-648.4400024410000460,-10.7600584030000004,-618.3400878910000520,27.6875000000000000,27.8571605682000012,-0.1300000000000000,-135.0000000000000000
0.0000000000000000,8.0000000000000000,660.0199584959999580,-615.5199584959999580,-10.4399785994999998,-647.8399047850000440,-10.4600191115999994,-618.4799804689999970,27.6875000000000000,27.8571605682000012,-0.1300000000000000,-135.0000000000000000
0.0000000000000000,8.0000000000000000,659.9398803709999580,-615.4999999999999990,-10.9600191115999994,-648.0999755860000270,-10.3600196837999992,-619.0199584959999580,27.3750000000000000,27.8571605682000012,-0.1300000000000000,-135.0000000000000000
0.0000000000000000,8.0000000000000000,660.2400512699999800,-615.4799194339999520,-10.6399908066000002,-648.0999755860000270,-10.9400482177999994,-618.5600585939999970,28.0000000000000000,27.8571605682000012,-0.1300000000000000,-135.0000000000000000
0.0000000000000000,8.0000000000000000,660.0399780269999600,-615.2999877930000130,-10.7999696731999997,-647.5799560550000240,-10.4999704360999999,-618.4599609379999940,27.6875000000000000,27.8571605682000012,-0.1300000000000000,-135.0000000000000000
0.0000000000000000,8.0000000000000000,660.2798461910000460,-615.6199951170000300,-10.8599700927999994,-648.2598876949999740,-10.6399888992000005,-618.4799804689999970,27.6875000000000000,27.8571605682000012,-0.1300000000000000,-135.0000000000000000
0.0000000000000000,8.0000000000000000,659.9999999999999990,-615.5599975589999520,-10.9000091552999994,-648.1600341800000240,-10.5800600052000000,-618.3599853519999660,27.3750000000000000,27.8571605682000012,-0.1300000000000000,-135.0000000000000000
0.0000000000000000,8.0000000000000000,659.9398803709999580,-615.4400024410000460,-10.6999788284000008,-647.0999755860000270,-10.4799890518000005,-618.3600463870000110,27.6875000000000000,27.8571605682000012,-0.1300000000000000,-135.0000000000000000
0.0000000000000000,8.0000000000000000,660.2399902339999460,-615.4599609379999940,-10.0199499129999996,-648.5798950199999800,-10.0000391006000004,-619.6599731449999800,27.6875000000000000,27.8883914948000004,-0.1300000000000000,-135.0000000000000000
0.0000000000000000,9.0000000000000000,832.6200561519999600,19.0200195311999991,366.3800048830000260,-806.0198974610000270,390.3000183109999740,-4.3399996757499997,27.6875000000000000,27.9196205139000000,24.3399999999999998,180.0000000000000000
0.0000000000000000,9.0000000000000000,832.8200073240000160,18.9199905396000005,366.4999389650000120,-804.7600097660000520,390.7200012210000180,-4.0399494171099999,27.3750000000000000,27.9196205139000000,24.3399999999999998,180.0000000000000000
0.0000000000000000,9.0000000000000000,832.8198852540000410,18.8800201415999993,366.8800353999999970,-805.4998168949999800,389.8999023439999970,-4.7999987602200003,27.3750000000000000,27.9196205139000000,24.3399999999999998,180.0000000000000000
0.0000000000000000,9.0000000000000000,832.9799194339999520,19.1399993895999998,367.2399597169999760,-805.3800048829999690,390.0600585939999970,-4.5799293518099997,27.6875000000000000,27.9196205139000000,24.3399999999999998,180.0000000000000000
0.0000000000000000,9.0000000000000000,832.9800415040000410,19.0399990081999988,366.7400207520000200,-805.2199707029999440,390.1799621580000230,-4.9000205993700003,27.6875000000000000,27.9508514404000010,24.3399999999999998,180.0000000000000000
0.0000000000000000,9.0000000000000000,833.1199951170000300,18.8799991608000006,366.8000183109999740,-805.0600585939999970,390.5800170900000120,-4.6599497795099998,27.6875000000000000,27.9508514404000010,24.3399999999999998,180.0000000000000000
0.0000000000000000,9.0000000000000000,832.4599609379999940,19.2200393677000001,366.2599182129999910,-805.4599609379999940,390.8399047849999870,-4.8599691391000004,27.6875000000000000,27.9508514404000010,24.3399999999999998,180.0000000000000000
0.0000000000000000,9.0000000000000000,832.3200073240000160,19.1199893950999993,366.4999389650000120,-805.3399658199999740,390.8200378419999760,-4.6200189590500003,28.0000000000000000,27.9508514404000010,24.3399999999999998,180.0000000000000000
0.0000000000000000,9.0000000000000000,833.3999633790000410,19.2599792480000005,367.5199584960000150,-805.6199951170000300,390.1000061039999870,-4.9199895858799998,27.3750000000000000,27.9508514404000010,24.3399999999999998,180.0000000000000000
0.0000000000000000,9.0000000000000000,832.6398925779999440,19.1800098418999987,366.3799438479999820,-805.1599121089999460,390.1799621580000230,-5.4800610542300001,27.6875000000000000,27.9508514404000010,24.3399999999999998,180.0000000000000000
0.0000000000000000,10.0000000000000000,585.6599731449999800,593.1400146480000320,367.8599853520000230,-553.5199584959999580,407.0200195310000020,570.3400878910000520,27.6875000000000000,27.9820804595999988,24.3399999999999998,135.0000000000000000
0.0000000000000000,10.0000000000000000,586.1999511720000550,593.0399169920000300,367.6999816890000260,-552.6798095699999740,406.4599914550000220,570.7799682620000110,28.0000000000000000,27.9820804595999988,24.3399999999999998,135.0000000000000000
0.0000000000000000,10.0000000000000000,585.5599975589999520,592.7799682620000110,368.2799377439999940,-552.8400268550000190,406.5400695800000220,569.8999633790000410,27.6875000000000000,27.9820804595999988,24.3399999999999998,135.0000000000000000
0.0000000000000000,10.0000000000000000,585.9599609379999940,592.5999145509999830,368.0199584960000150,-553.5800170899999550,406.7801208500000030,571.2200927730000320,27.6875000000000000,27.9820804595999988,24.3399999999999998,135.0000000000000000
0.0000000000000000,10.0000000000000000,585.1799926759999830,592.9799804689999970,367.7400817870000080,-552.7399291990000160,406.3200683590000040,570.6199340819999860,28.0000000000000000,27.9820804595999988,24.3399999999999998,135.0000000000000000
0.0000000000000000,10.0000000000000000,585.8599243160000460,592.7399902339999470,367.8799438479999820,-553.2399291990000160,406.4599609379999940,570.7399902339999470,27.6875000000000000,27.9820804595999988,24.3499999999999979,135.0000000000000000
0.0000000000000000,10.0000000000000000,585.5800781249999990,592.8200073240000160,368.6799621580000230,-553.3399047850000440,406.4599609379999940,570.2598876949999740,27.6875000000000000,27.9820804595999988,24.3399999999999998,135.0000000000000000
0.0000000000000000,10.0000000000000000,585.8999633790000410,592.7199707029999440,368.4399414060000020,-552.3798828120000050,406.7199401859999740,570.6998901370000110,28.0000000000000000,27.9820804595999988,24.3399999999999998,135.0000000000000000
0.0000000000000000,10.0000000000000000,586.3200683589999470,593.0000610350000440,368.2799987789999810,-553.6400146480000320,406.3599853520000230,570.1400146480000320,27.3750000000000000,27.9820804595999988,24.3399999999999998,135.0000000000000000
0.0000000000000000,10.0000000000000000,585.7999877930000130,592.6000366209999580,368.0399169919999730,-552.8398437499999990,406.6199646000000030,570.4999389649999550,27.6875000000000000,28.0133113860999998,24.3399999999999998,135.0000000000000000
0.0000000000000000,11.0000000000000000,2.9800102710699998,826.4799804689999970,371.4600219729999820,27.9999351501000006,397.8799438479999820,798.6998901370000100,27.6875000000000000,28.0133113860999998,24.3399999999999998,89.9999999999999999
0.0000000000000000,11.0000000000000000,3.1800003051800001,827.2200317379999880,372.2799987789999810,28.4599704741999986,397.7000427250000030,798.8400878910000520,27.6875000000000000,28.0133113860999998,24.3399999999999998,89.9999999999999999
0.0000000000000000,11.0000000000000000,3.1399998664900002,826.6599731449999800,372.0799560550000250,28.3600082397000008,397.9400329590000070,798.3399047850000440,27.6875000000000000,28.0133113860999998,24.3499999999999979,89.9999999999999999
0.0000000000000000,11.0000000000000000,3.3999998569500001,827.4400024410000460,371.6399230960000180,28.1199893950999993,398.2800292969999980,797.8399047850000440,27.6875000000000000,28.0133113860999998,24.3499999999999979,89.9999999999999999
0.0000000000000000,11.0000000000000000,3.1399998664900002,827.4599609379999940,371.6799926759999830,27.3999595641999995,397.9999389650000120,799.2199707029999440,27.6875000000000000,28.0133113860999998,24.3399999999999998,89.9999999999999999
0.0000000000000000,11.0000000000000000,3.1200096607200001,826.9599609379999940,372.0399475099999900,27.8598976134999994,397.9801025389999720,798.4799194339999520,28.0000000000000000,28.0133113860999998,24.3399999999999998,89.9999999999999999
0.0000000000000000,11.0000000000000000,2.9000396728500002,827.4599609379999940,371.8400573729999790,28.6799926758000012,398.1999206539999810,798.9199218749999990,27.6875000000000000,28.0445404053000011,24.3399999999999998,89.9999999999999999
0.0000000000000000,11.0000000000000000,3.4600100517299999,826.8200073240000160,371.7801208500000030,27.7599411011000008,397.7599487300000190,798.7799682620000100,28.0000000000000000,28.0445404053000011,24.3399999999999998,89.9999999999999999
0.0000000000000000,11.0000000000000000,3.4200091362000000,826.7999877930000130,372.0199890139999750,27.8599987029999987,398.2199401859999740,798.1399536129999880,27.6875000000000000,28.0445404053000011,24.3399999999999998,89.9999999999999999
0.0000000000000000,11.0000000000000000,2.8999996185299999,827.0799560550000240,371.9799804689999970,28.9200267792000005,397.6199951169999730,798.6997680660000460,27.6875000000000000,28.0445404053000011,24.3499999999999979,89.9999999999999999
0.0000000000000000,12.0000000000000000,-582.7399902339999470,574.9999999999999990,371.1399536129999880,606.6199340819999860,365.0799865719999950,550.3800048829999690,28.0000000000000000,28.0445404053000011,24.3499999999999979,45.0000000000000000
0.0000000000000000,12.0000000000000000,-583.1799926759999830,574.8000488279999440,370.9400024409999900,606.8398437499999990,364.9599609379999940,550.1799316410000520,27.6875000000000000,28.0445404053000011,24.3499999999999979,45.0000000000000000
0.0000000000000000,12.0000000000000000,-582.9800415040000410,575.0599975589999520,371.0399780270000170,606.5599975589999520,364.9600219729999820,549.9999999999999990,28.0000000000000000,28.0445404053000011,24.3499999999999979,45.0000000000000000
0.0000000000000000,12.0000000000000000,-582.9600219730000380,574.9999999999999990,371.7799987789999810,606.4398803709999580,365.1400451659999930,550.3198852540000410,27.6875000000000000,28.0757713317999986,24.3499999999999979,45.0000000000000000
0.0000000000000000,12.0000000000000000,-583.2399902339999470,575.2999877930000130,371.0800170900000120,606.8599853519999660,364.8399658199999750,550.3798828120000050,27.3750000000000000,28.0757713317999986,24.3399999999999998,45.0000000000000000
0.0000000000000000,12.0000000000000000,-583.0399169920000300,575.0800170899999550,371.2599792479999790,606.2600097660000520,364.7800292969999980,550.2399291990000160,28.0000000000000000,28.0445404053000011,24.3499999999999979,45.0000000000000000
0.0000000000000000,12.0000000000000000,-582.9400024410000460,575.0199584959999580,370.9598693849999900,606.6199951170000300,364.9199523930000160,550.8599243160000460,28.0000000000000000,28.0445404053000011,24.3499999999999979,45.0000000000000000
0.0000000000000000,12.0000000000000000,-583.1401367189999970,574.8800048829999690,371.1999816890000260,606.2000122069999860,364.6600341800000250,550.2800903319999860,27.6875000000000000,28.0757713317999986,24.3499999999999979,45.0000000000000000
0.0000000000000000,12.0000000000000000,-583.1599731449999800,574.9199829100000440,371.4400024409999900,606.3599243160000460,364.5398864750000030,551.4599609379999940,27.6875000000000000,28.0757713317999986,24.3499999999999979,45.0000000000000000
0.0000000000000000,12.0000000000000000,-583.2400512699999800,575.1400146480000320,370.8400268550000190,606.2800903319999860,364.7600402830000230,550.3800048829999690,27.6875000000000000,28.0757713317999986,24.3399999999999998,45.0000000000000000
0.0000000000000000,13.0000000000000000,-809.3200073240000160,-7.4600100517300003,368.3199462889999720,834.0598754879999880,339.0801086430000170,-28.0200481414999984,27.6875000000000000,28.0757713317999986,24.3499999999999979,0.0000000000000000
0.0000000000000000,13.0000000000000000,-809.8800659180000130,-7.9199991226200002,367.5599975590000100,834.7401123050000240,339.5000000000000000,-26.9800281525000010,28.0000000000000000,28.0757713317999986,24.3499999999999979,0.0000000000000000
0.0000000000000000,13.0000000000000000,-809.4799804689999970,-8.1799697875999993,367.9600219729999820,834.7799682620000100,339.0799560550000250,-27.8200244904000016,27.6875000000000000,28.0757713317999986,24.3499999999999979,0.0000000000000000
0.0000000000000000,13.0000000000000000,-809.4599609379999940,-7.7200102806100004,368.0600585939999970,834.8599243160000460,339.0999145509999830,-27.7200183867999996,27.6875000000000000,28.0757713317999986,24.3499999999999979,0.0000000000000000
0.0000000000000000,13.0000000000000000,-809.0399780269999600,-7.8199992179900004,368.1199646000000030,834.8798217769999600,338.9199523930000170,-27.0799388884999992,27.6875000000000000,28.0757713317999986,24.3499999999999979,0.0000000000000000
0.0000000000000000,13.0000000000000000,-809.9200439449999740,-8.1600008010899998,367.9000244139999720,834.8801879879999880,338.8599548340000070,-28.0200061797999993,27.6875000000000000,28.0757713317999986,24.3499999999999979,0.0000000000000000
0.0000000000000000,13.0000000000000000,-809.5200805660000460,-7.8199801444999997,367.7999877930000140,834.6199951170000300,338.9799804689999970,-27.0599899292000003,27.6875000000000000,28.1070003509999999,24.3499999999999979,0.0000000000000000
0.0000000000000000,13.0000000000000000,-809.1799316410000520,-7.8600006103500002,368.3999938960000120,834.7999877930000130,338.8800353999999970,-27.5400600432999987,27.6875000000000000,28.1070003509999999,24.3499999999999979,0.0000000000000000
0.0000000000000000,13.0000000000000000,-809.7199707029999440,-7.8000006675700000,367.6800231930000110,834.2199707029999440,338.9200744629999910,-27.7999916077000009,27.6875000000000000,28.1070003509999999,24.3499999999999979,0.0000000000000000
0.0000000000000000,13.0000000000000000,-809.6200561519999600,-7.9800195693999996,367.8599853520000230,834.2198486329999690,339.0599670409999930,-27.9399795532000006,27.6875000000000000,28.1070003509999999,24.3499999999999979,0.0000000000000000
0.0000000000000000,14.0000000000000000,-563.9799804689999970,-582.9599609379999940,362.7999877930000140,587.3998413089999520,320.2399291990000160,-600.6800537110000270,27.6875000000000000,28.1070003509999999,24.3499999999999979,-45.0000000000000000
0.0000000000000000,14.0000000000000000,-564.4798583980000320,-582.5599975589999520,362.3800048830000260,587.7801513670000300,320.8800353999999970,-599.8997802730000320,27.6875000000000000,28.1070003509999999,24.3499999999999979,-45.0000000000000000
0.0000000000000000,14.0000000000000000,-564.8200073240000160,-582.9599609379999940,362.6799621580000230,587.5399780269999600,320.5600585939999970,-600.6002197269999660,28.0000000000000000,28.1070003509999999,24.3499999999999979,-45.0000000000000000
0.0000000000000000,14.0000000000000000,-564.4999389649999550,-582.2199096680000130,362.3999633789999840,587.5601196290000410,320.8800353999999970,-600.4400024410000460,28.0000000000000000,28.1070003509999999,24.3499999999999979,-45.0000000000000000
0.0000000000000000,14.0000000000000000,-564.7399902339999470,-582.4199218749999990,362.2400817870000080,587.6999511720000550,320.6400451659999930,-599.7599487300000190,27.6875000000000000,28.1070003509999999,24.3499999999999979,-45.0000000000000000
0.0000000000000000,14.0000000000000000,-564.8800048829999690,-582.5599975589999520,363.1399841310000050,587.8399047850000440,320.7999877930000140,-600.8399047850000440,28.0000000000000000,28.1070003509999999,24.3499999999999979,-45.0000000000000000
0.0000000000000000,14.0000000000000000,-564.7800292970000550,-582.5199584959999580,363.0599670409999930,588.1800537110000270,321.0399780270000180,-600.2600097660000520,27.6875000000000000,28.1382312775000010,24.3499999999999979,-45.0000000000000000
0.0000000000000000,14.0000000000000000,-564.6400146480000320,-582.4400024410000460,362.7199401859999740,587.5399780269999600,320.5799560550000250,-600.4400024410000460,27.6875000000000000,28.1382312775000010,24.3499999999999979,-45.0000000000000000
0.0000000000000000,14.0000000000000000,-564.5400390620000050,-582.6199951170000300,362.8599548340000070,587.0799560550000250,320.9199523930000170,-599.7399902339999470,27.6875000000000000,28.1382312775000010,24.3499999999999979,-45.0000000000000000
0.0000000000000000,14.0000000000000000,-564.5399780269999600,-582.6599731449999800,362.5600280759999800,587.7200317379999880,320.8800048830000260,-600.5400390620000050,28.0000000000000000,28.1382312775000010,24.3499999999999979,-45.0000000000000000
0.0000000000000000,15.0000000000000000,17.4199905396000005,-814.4799804689999970,361.6400756840000100,2.4999699592600000,332.0199890139999750,-832.9599609379999940,28.0000000000000000,28.1382312775000010,24.3499999999999979,-89.9999999999999999
0.0000000000000000,15.0000000000000000,17.9400310515999983,-814.2199096680000130,361.8199462889999720,2.3999900817900000,331.9000244139999720,-832.4999999999999990,28.0000000000000000,28.1382312775000010,24.3499999999999979,-89.9999999999999999
0.0000000000000000,15.0000000000000000,18.2599697112999983,-813.9598999019999600,361.7998657229999820,3.3600096702600002,332.1399841310000050,-832.9800415040000410,27.6875000000000000,28.1382312775000010,24.3499999999999979,-89.9999999999999999
0.0000000000000000,15.0000000000000000,18.2400112151999991,-814.0399780269999600,361.3999938960000120,2.6400401592299998,331.7600402830000230,-832.7399902339999460,28.0000000000000000,28.1382312775000010,24.3499999999999979,-89.9999999999999999
0.0000000000000000,15.0000000000000000,17.8599395751999985,-814.1399536129999880,361.6199951169999730,2.9000399112699999,331.9599914550000220,-832.8200073240000160,27.6875000000000000,28.1382312775000010,24.3499999999999979,-89.9999999999999999
0.0000000000000000,15.0000000000000000,18.1800365448000001,-814.2799682620000100,361.5199279789999870,3.3999698162100000,331.9400329590000070,-832.2799682620000100,27.6875000000000000,28.1382312775000010,24.3499999999999979,-89.9999999999999999
0.0000000000000000,15.0000000000000000,18.8600120543999985,-814.1399536129999880,361.7598876949999750,2.7199695110300000,331.3000183109999740,-833.5001220699999740,27.6875000000000000,28.1382312775000010,24.3499999999999979,-89.9999999999999999
0.0000000000000000,15.0000000000000000,18.4000320435000013,-814.2199707029999440,361.3799133300000220,2.5600204467799998,331.4400024409999900,-832.7999877930000130,27.6875000000000000,28.1382312775000010,24.3499999999999979,-89.9999999999999999
0.0000000000000000,15.0000000000000000,18.3600196838000009,-814.4398193360000270,361.5600585939999970,2.8600091934199998,331.7999877930000140,-832.9598999019999600,28.0000000000000000,28.1382312775000010,24.3499999999999979,-89.9999999999999999
0.0000000000000000,15.0000000000000000,18.2800102234000015,-813.9599609379999940,362.0200195310000020,3.3600001335099998,331.8599853520000230,-832.6199951170000300,27.6875000000000000,28.1694602966000005,24.3499999999999979,-89.9999999999999999
0.0000000000000000,16.0000000000000000,603.8999633790000410,-563.7999877930000130,360.9599914550000220,-579.2600708009999830,359.7599487300000190,-579.8800659180000130,28.0000000000000000,28.1382312775000010,24.3499999999999979,-135.0000000000000000
0.0000000000000000,16.0000000000000000,604.4400024410000460,-564.0999755860000270,360.6600036620000080,-580.0602416990000160,359.4401550289999810,-580.2200927730000320,28.0000000000000000,28.1694602966000005,24.3499999999999979,-135.0000000000000000
0.0000000000000000,16.0000000000000000,604.5799560550000240,-564.0199584959999580,361.2398681639999720,-578.9598388670000300,359.0199890139999750,-579.8599853519999660,28.0000000000000000,28.1694602966000005,24.3499999999999979,-135.0000000000000000
0.0000000000000000,16.0000000000000000,604.6599731449999800,-564.5800170899999550,360.7599792479999790,-579.6598510740000160,359.2399597169999760,-580.0400390620000050,28.0000000000000000,28.1694602966000005,24.3499999999999979,-135.0000000000000000
0.0000000000000000,16.0000000000000000,604.2999267579999690,-563.8400268550000190,360.3999938960000120,-579.3599853519999660,359.0400390620000050,-579.7999267579999690,28.3125000000000000,28.1694602966000005,24.3499999999999979,-135.0000000000000000
0.0000000000000000,16.0000000000000000,604.3400878910000520,-564.3399047850000440,360.4800720210000120,-579.7398681639999720,359.4599914550000220,-579.7800292970000550,28.0000000000000000,28.1694602966000005,24.3499999999999979,-135.0000000000000000
0.0000000000000000,16.0000000000000000,604.1599731449999800,-564.0200195310000020,360.5000000000000000,-579.4200439449999740,359.6200561520000180,-580.0600585939999970,27.3750000000000000,28.1694602966000005,24.3499999999999979,-135.0000000000000000
0.0000000000000000,16.0000000000000000,604.4999389649999550,-563.9799194339999530,360.4199523930000160,-579.6199951170000300,358.8800353999999970,-580.1801147459999580,28.0000000000000000,28.1694602966000005,24.3499999999999979,-135.0000000000000000
0.0000000000000000,16.0000000000000000,604.6199951170000300,-564.3999633790000410,360.6399841310000050,-579.4000854490000160,359.4600219729999820,-579.8600463870000110,28.0000000000000000,28.1694602966000005,24.3499999999999979,-135.0000000000000000
0.0000000000000000,16.0000000000000000,604.2400512699999800,-563.9400024410000460,360.7200317379999880,-579.4199218749999990,359.3400573729999790,-580.3200073240000160,28.0000000000000000,28.1694602966000005,24.3499999999999979,-135.0000000000000000
0.0000000000000000,17.0000000000000000,636.8200683589999460,13.6199779509999992,645.4799194339999520,-602.5800781249999990,663.6600341800000240,-13.1799488068000006,28.0000000000000000,28.2006912231000015,46.4299999999999997,180.0000000000000000
0.0000000000000000,17.0000000000000000,636.8999023439999970,13.5399694443000005,645.5199584959999580,-602.1400146480000320,663.5199584959999580,-12.1599988936999992,27.6875000000000000,28.2006912231000015,46.4299999999999997,180.0000000000000000
0.0000000000000000,17.0000000000000000,637.1799926759999830,13.8400192261000008,645.7000122069999860,-602.7399291990000160,663.6799926759999830,-12.9200191497999999,28.0000000000000000,28.2006912231000015,46.4299999999999997,180.0000000000000000
0.0000000000000000,17.0000000000000000,636.5199584959999580,13.8399801254000003,645.7600097660000520,-602.7598876949999740,663.5199584959999580,-13.0199985504000004,28.0000000000000000,28.2319202422999993,46.4299999999999997,180.0000000000000000
0.0000000000000000,17.0000000000000000,637.1000366209999580,13.5799798964999994,645.7600097660000520,-602.1199340819999860,663.6800537110000270,-13.2000102997000006,27.6875000000000000,28.2319202422999993,46.4299999999999997,180.0000000000000000
0.0000000000000000,17.0000000000000000,637.0999145509999830,13.4800291060999999,645.9200439449999740,-602.9999999999999990,663.5000610350000440,-13.0999870299999994,28.0000000000000000,28.2006912231000015,46.4299999999999997,180.0000000000000000
0.0000000000000000,17.0000000000000000,637.0799560550000240,13.5799903870000005,645.6799926759999830,-601.9399414060000020,663.6599731449999800,-12.7399997711000008,28.0000000000000000,28.2006912231000015,46.4299999999999997,180.0000000000000000
0.0000000000000000,17.0000000000000000,636.8199462889999720,13.7199802398999999,645.6199340819999860,-602.7000122069999860,663.6800537110000270,-12.4799718856999995,28.0000000000000000,28.2319202422999993,46.4299999999999997,180.0000000000000000
0.0000000000000000,17.0000000000000000,637.4400024410000460,13.5599899292000003,645.4799804689999970,-602.5400390620000050,663.6799926759999830,-13.0597620009999993,28.0000000000000000,28.2006912231000015,46.4299999999999997,180.0000000000000000
0.0000000000000000,17.0000000000000000,636.8599853519999660,13.3200273514000003,645.4398803709999580,-602.4200439449999740,663.7999877930000130,-13.4599218368999995,28.3125000000000000,28.2006912231000015,46.4299999999999997,180.0000000000000000
0.0000000000000000,18.0000000000000000,446.4400024409999900,451.3599853520000230,648.5799560550000240,-409.7200012210000180,674.0399780269999600,423.1399536129999880,28.0000000000000000,28.2319202422999993,46.4299999999999997,135.0000000000000000
0.0000000000000000,18.0000000000000000,446.3999938960000120,451.2799072270000230,648.9599609379999940,-409.2200012210000180,673.7799682620000110,422.3999938960000120,27.6875000000000000,28.2319202422999993,46.4299999999999997,135.0000000000000000
0.0000000000000000,18.0000000000000000,446.5200805659999900,450.8800048830000260,649.0999755860000270,-410.2199096680000130,673.9199829100000440,421.9999084469999950,28.0000000000000000,28.2319202422999993,46.4299999999999997,135.0000000000000000
0.0000000000000000,18.0000000000000000,445.9800415039999840,451.2599792479999790,648.3599853519999660,-409.7398376460000120,673.7001342769999600,421.9800720210000120,28.0000000000000000,28.2319202422999993,46.4299999999999997,135.0000000000000000
0.0000000000000000,18.0000000000000000,446.5599365229999760,451.5000305180000160,648.4598999019999600,-409.4600830080000260,673.6998901370000110,423.0399475099999900,27.6875000000000000,28.2319202422999993,46.4299999999999997,135.0000000000000000
0.0000000000000000,18.0000000000000000,446.9799194340000090,451.1799926759999830,648.9200439449999740,-410.0400390620000050,673.8200073240000160,422.7398986819999890,28.0000000000000000,28.2319202422999993,46.4409999999999954,135.0000000000000000
0.0000000000000000,18.0000000000000000,446.0801086430000160,451.3800048830000260,648.6200561519999600,-409.5799560550000250,674.1400146480000320,422.6999206539999810,28.3125000000000000,28.2319202422999993,46.4299999999999997,135.0000000000000000
0.0000000000000000,18.0000000000000000,446.2398986819999890,451.5000000000000000,647.6999511720000550,-408.8199768069999890,673.5799560550000240,422.5200805659999900,28.0000000000000000,28.2319202422999993,46.4299999999999997,135.0000000000000000
0.0000000000000000,18.0000000000000000,446.6799926759999830,451.0999450680000100,648.6600341800000240,-409.6200561520000170,673.6799926759999830,422.6599426270000200,27.6875000000000000,28.2319202422999993,46.4299999999999997,135.0000000000000000
0.0000000000000000,18.0000000000000000,446.4798583979999760,451.5399780270000170,648.4999999999999990,-409.6999206539999810,673.7399291990000160,422.8198852539999840,27.6875000000000000,28.2319202422999993,46.4299999999999997,135.0000000000000000
0.0000000000000000,19.0000000000000000,3.8599596023600000,626.5799560550000240,652.9598999019999600,34.8800735474000021,666.6599731449999800,598.3198242189999970,28.0000000000000000,28.2631511688000003,46.4299999999999997,89.9999999999999999
0.0000000000000000,19.0000000000000000,4.7400398254400002,626.2799072269999660,653.0400390620000050,35.4200172424000001,666.0798339839999460,599.4199829100000440,28.0000000000000000,28.2631511688000003,46.4299999999999997,89.9999999999999999
0.0000000000000000,19.0000000000000000,4.7199802398699999,626.0399780269999600,653.7399902339999460,35.2600593566999976,666.5800781249999990,598.8600463870000110,27.6875000000000000,28.2631511688000003,46.4299999999999997,89.9999999999999999
0.0000000000000000,19.0000000000000000,4.3200411796599996,626.0000610350000440,652.7800903319999860,34.9400596619000012,667.0198974610000270,598.5399780269999600,28.0000000000000000,28.2631511688000003,46.4409999999999954,89.9999999999999999
0.0000000000000000,19.0000000000000000,4.0599799156199996,626.2800292970000550,652.8800048829999690,35.4399261475000031,667.0599975589999520,599.1000366209999580,28.0000000000000000,28.2631511688000003,46.4409999999999954,89.9999999999999999
0.0000000000000000,19.0000000000000000,4.3399796485900000,626.0401611329999690,652.9199829100000440,34.5000534058000028,666.6998901370000110,598.6401367189999970,28.0000000000000000,28.2631511688000003,46.4409999999999954,89.9999999999999999
0.0000000000000000,19.0000000000000000,4.5599799156199996,626.0599975589999520,652.6799926759999830,35.2199516295999970,666.7399291990000160,598.8800048829999690,28.3125000000000000,28.2631511688000003,46.4409999999999954,89.9999999999999999
0.0000000000000000,19.0000000000000000,3.9800100326500001,625.7799682620000110,653.0799560550000240,35.0800781250000000,667.1599731449999800,598.6201171879999940,28.0000000000000000,28.2631511688000003,46.4409999999999954,89.9999999999999999
0.0000000000000000,19.0000000000000000,4.5200395584099997,626.1400146480000320,653.0200195310000020,35.7400093079000029,667.1199340819999850,598.3798828120000050,28.0000000000000000,28.2631511688000003,46.4409999999999954,89.9999999999999999
0.0000000000000000,19.0000000000000000,4.5199694633499998,626.0199584959999580,653.1799926759999830,36.0199394225999967,666.8999633790000410,598.8999633790000410,28.0000000000000000,28.2631511688000003,46.4409999999999954,89.9999999999999999
0.0000000000000000,20.0000000000000000,-438.8999633789999840,435.3800353999999970,649.5800781249999990,474.3599853520000230,645.5999755860000270,402.1199646000000030,28.0000000000000000,28.2631511688000003,46.4409999999999954,45.0000000000000000
0.0000000000000000,20.0000000000000000,-439.3799133300000220,436.0399475099999900,649.7000122069999860,474.1799621580000230,646.0799560550000240,402.0200805659999900,28.3125000000000000,28.2943801880000016,46.4409999999999954,45.0000000000000000
0.0000000000000000,20.0000000000000000,-438.7999267580000260,435.5800170900000120,649.6398925779999440,473.8799438479999820,646.0999145509999830,402.0397949219999980,28.0000000000000000,28.2943801880000016,46.4409999999999954,45.0000000000000000
0.0000000000000000,20.0000000000000000,-439.1400146479999760,435.9599914550000220,649.6199951170000300,474.0200195310000020,645.5399780269999600,401.7000732419999730,28.0000000000000000,28.2943801880000016,46.4409999999999954,45.0000000000000000
0.0000000000000000,20.0000000000000000,-438.9799804689999970,435.7999572749999970,649.8600463870000110,474.9598999020000170,645.8599853519999660,402.0597839359999740,27.6875000000000000,28.2631511688000003,46.4409999999999954,45.0000000000000000
0.0000000000000000,20.0000000000000000,-439.0800170900000120,435.7999877930000130,649.6800537110000270,474.3399963379999910,645.6599121089999460,401.9600219729999820,28.0000000000000000,28.2631511688000003,46.4409999999999954,45.0000000000000000
0.0000000000000000,20.0000000000000000,-439.6200256349999900,435.0799865719999950,649.7000122069999860,474.6799621580000230,645.5999145509999830,401.9400024409999900,27.6875000000000000,28.2631511688000003,46.4409999999999954,45.0000000000000000
0.0000000000000000,20.0000000000000000,-438.8199768069999890,435.5200195310000020,649.7999877930000130,474.0799255370000080,646.1400756839999520,401.1399841310000050,27.6875000000000000,28.2631511688000003,46.4409999999999954,45.0000000000000000
0.0000000000000000,20.0000000000000000,-439.2200622560000050,435.5199890139999750,649.0798950199999800,473.9800415039999840,645.8200683589999460,402.7999572749999970,28.3125000000000000,28.2631511688000003,46.4409999999999954,45.0000000000000000
0.0000000000000000,20.0000000000000000,-438.7799377439999940,435.6200561520000170,649.6799316410000520,474.1600341800000250,645.4598999019999600,401.7399902340000040,28.0000000000000000,28.2631511688000003,46.4409999999999954,45.0000000000000000
0.0000000000000000,21.0000000000000000,-612.9999389649999550,-8.0799999237100000,647.2598876949999740,652.5599365230000320,621.0800170899999550,-39.3800506592000019,28.0000000000000000,28.2943801880000016,46.4409999999999954,0.0000000000000000
0.0000000000000000,21.0000000000000000,-612.3800048829999690,-8.3000402450599999,647.3400878910000520,651.5201416019999660,620.7600097660000520,-39.7199707031000031,27.6875000000000000,28.2943801880000016,46.4409999999999954,0.0000000000000000
0.0000000000000000,21.0000000000000000,-612.2999877930000130,-8.2600097656199996,647.7199707029999440,651.9598999019999600,621.2200927730000320,-39.2598838806000003,28.0000000000000000,28.2943801880000016,46.4409999999999954,0.0000000000000000
0.0000000000000000,21.0000000000000000,-612.4199218749999990,-8.0400199890100001,647.4598999019999600,651.3400878910000520,620.6800537110000270,-39.5599708557000014,28.3125000000000000,28.2943801880000016,46.4409999999999954,0.0000000000000000
0.0000000000000000,21.0000000000000000,-612.5199584959999580,-7.8800201416000002,647.0798950199999800,652.3798217769999600,620.8799438480000380,-38.7399673461999967,28.0000000000000000,28.2943801880000016,46.4409999999999954,0.0000000000000000
0.0000000000000000,21.0000000000000000,-611.9400024410000460,-8.4200115203900001,647.4199829100000440,651.8400878910000520,621.2799072269999660,-39.5000267029000014,28.0000000000000000,28.2943801880000016,46.4409999999999954,0.0000000000000000
0.0000000000000000,21.0000000000000000,-612.3200073240000160,-7.6999998092700004,647.2600097660000520,652.1798095699999740,620.7399902339999460,-38.7999114989999967,28.0000000000000000,28.2943801880000016,46.4409999999999954,0.0000000000000000
0.0000000000000000,21.0000000000000000,-611.9200439449999740,-8.2400093078599994,647.5399169920000300,652.1198120120000110,621.0198974610000270,-38.6799812316999976,28.0000000000000000,28.2943801880000016,46.4409999999999954,0.0000000000000000
0.0000000000000000,21.0000000000000000,-612.3599853519999660,-8.2200002670300005,647.5599365230000320,651.8800048829999690,621.2000732420000300,-39.4199905396000005,28.0000000000000000,28.2943801880000016,46.4409999999999954,0.0000000000000000
0.0000000000000000,21.0000000000000000,-612.8200073240000160,-8.0000104904199993,647.4199829100000440,651.8599243160000460,621.1199951170000300,-39.1799507141000020,28.0000000000000000,28.2943801880000016,46.4409999999999954,0.0000000000000000
0.0000000000000000,22.0000000000000000,-423.1599426270000200,-443.2200317379999880,643.4400634769999660,458.7200317379999880,613.2400512699999800,-470.4799194340000090,28.0000000000000000,28.3256111144999991,46.4409999999999954,-45.0000000000000000
0.0000000000000000,22.0000000000000000,-422.9200744629999910,-442.6799926759999830,644.2799682620000110,458.7799072270000230,612.9999999999999990,-469.9800415039999840,28.0000000000000000,28.3256111144999991,46.4409999999999954,-45.0000000000000000
0.0000000000000000,22.0000000000000000,-423.6799011229999790,-442.5599365229999760,643.7799682620000110,458.9000244139999720,613.0198974610000270,-470.5199890139999750,28.0000000000000000,28.3256111144999991,46.4409999999999954,-45.0000000000000000
0.0000000000000000,22.0000000000000000,-422.7599792479999790,-443.1399536129999880,643.3198852540000410,458.5599365229999760,612.7600097660000520,-470.2200012210000180,28.0000000000000000,28.3256111144999991,46.4409999999999954,-45.0000000000000000
0.0000000000000000,22.0000000000000000,-423.2200012210000180,-442.7200622560000050,644.1198730470000550,458.2799377439999940,613.2600708009999830,-470.0000305180000160,28.0000000000000000,28.3256111144999991,46.4409999999999954,-45.0000000000000000
0.0000000000000000,22.0000000000000000,-423.0599365229999760,-442.8000183109999730,643.6599121089999460,458.3400573729999790,613.2799682620000110,-470.5600585939999970,28.3125000000000000,28.3256111144999991,46.4409999999999954,-45.0000000000000000
0.0000000000000000,22.0000000000000000,-423.2000732419999730,-442.8399963379999910,644.1599121089999460,457.9200439449999740,613.1400146480000320,-469.9799194340000090,28.0000000000000000,28.3256111144999991,46.4409999999999954,-45.0000000000000000
0.0000000000000000,22.0000000000000000,-423.1600036620000080,-443.1399230960000180,644.0399780269999600,458.3800353999999970,613.0599975589999520,-469.5799560550000250,28.0000000000000000,28.3256111144999991,46.4409999999999954,-45.0000000000000000
0.0000000000000000,22.0000000000000000,-423.4199829099999870,-442.8600769039999810,643.3399047850000440,457.8399658199999740,613.4799804689999970,-469.8799438479999820,27.6875000000000000,28.3256111144999991,46.4409999999999954,-45.0000000000000000
0.0000000000000000,22.0000000000000000,-423.2398986819999890,-443.2200012210000180,643.9400024410000460,458.1400146479999760,613.4600830079999690,-470.3999938960000120,28.0000000000000000,28.3256111144999991,46.4409999999999954,-45.0000000000000000
0.0000000000000000,23.0000000000000000,19.0999870300000012,-618.7600097660000520,643.2000122069999860,16.1800308227999991,617.0199584959999580,-652.8600463870000110,28.0000000000000000,28.3256111144999991,46.4409999999999954,-89.9999999999999999
0.0000000000000000,23.0000000000000000,19.2999877929999997,-618.8599853519999660,643.5998535160000520,16.2600402831999986,617.2199707029999440,-651.8998413089999520,28.0000000000000000,28.3256111144999991,46.4409999999999954,-89.9999999999999999
0.0000000000000000,23.0000000000000000,18.9799709320000005,-618.6400146480000320,643.2199707029999440,15.6600513457999995,617.2800903319999860,-652.8000488279999440,28.0000000000000000,28.3256111144999991,46.4409999999999954,-89.9999999999999999
0.0000000000000000,23.0000000000000000,18.9799957275000004,-618.4800415040000410,642.7000122069999860,16.2199268341000007,617.0399169920000300,-652.4399414060000020,28.0000000000000000,28.3256111144999991,46.4409999999999954,-89.9999999999999999
0.0000000000000000,23.0000000000000000,18.9199714661000016,-619.0599365230000320,642.9398803709999580,15.8400201796999997,616.9199829100000440,-652.5399169920000300,28.0000000000000000,28.3256111144999991,46.4409999999999954,-89.9999999999999999
0.0000000000000000,23.0000000000000000,19.0399703978999994,-618.3999023439999970,643.0399780269999600,15.4600133896000003,617.3399658199999740,-651.6998901370000110,28.3125000000000000,28.3256111144999991,46.4409999999999954,-89.9999999999999999
0.0000000000000000,23.0000000000000000,19.1400012970000013,-618.6000366209999580,643.3800048829999690,15.5000009537000007,617.2399291990000160,-652.2200927730000320,28.0000000000000000,28.3256111144999991,46.4409999999999954,-89.9999999999999999
0.0000000000000000,23.0000000000000000,18.8399791717999996,-618.2600097660000520,643.3599853519999660,15.4599456787000005,617.1599121089999460,-651.9799194339999520,28.0000000000000000,28.3256111144999991,46.4409999999999954,-89.9999999999999999
0.0000000000000000,23.0000000000000000,19.1599807738999992,-618.5600585939999970,643.3399658199999740,16.3999805449999982,617.2000122069999860,-652.6799926759999830,28.0000000000000000,28.3568401337000004,46.4409999999999954,-89.9999999999999999
0.0000000000000000,23.0000000000000000,19.5200080872000008,-618.5799560550000240,643.4799804689999970,16.7399883269999989,617.1799926759999830,-652.2400512699999800,28.0000000000000000,28.3568401337000004,46.4409999999999954,-89.9999999999999999
0.0000000000000000,24.0000000000000000,463.2599792479999790,-427.7199401859999730,643.2400512699999800,-429.5600280759999800,638.9197998050000240,-459.3199768069999890,28.0000000000000000,28.3568401337000004,46.4409999999999954,-135.0000000000000000
0.0000000000000000,24.0000000000000000,463.2599792479999790,-427.8000183109999730,643.9199829100000440,-430.1600036620000080,639.0600585939999970,-458.8800964359999730,28.3125000000000000,28.3568401337000004,46.4409999999999954,-135.0000000000000000
0.0000000000000000,24.0000000000000000,462.9199829099999870,-427.8999938960000120,644.0400390620000050,-429.3198852539999840,639.2199707029999440,-459.6800231930000100,28.3125000000000000,28.3568401337000004,46.4409999999999954,-135.0000000000000000
0.0000000000000000,24.0000000000000000,462.9999084469999950,-427.5599975590000100,643.7000122069999860,-429.5399780270000170,639.2199707029999440,-459.1600341800000250,28.0000000000000000,28.3568401337000004,46.4409999999999954,-135.0000000000000000
0.0000000000000000,24.0000000000000000,463.0000000000000000,-428.0198974610000270,643.5200805660000460,-429.9799804689999970,639.1400146480000320,-458.8798828120000050,28.0000000000000000,28.3568401337000004,46.4409999999999954,-135.0000000000000000
0.0000000000000000,24.0000000000000000,463.0999450680000100,-427.7599182129999910,643.7400512699999800,-430.1201171879999940,638.9199829100000440,-458.8399658199999740,27.6875000000000000,28.3568401337000004,46.4409999999999954,-135.0000000000000000
0.0000000000000000,24.0000000000000000,463.1599426270000200,-427.5399780270000170,643.7799072269999660,-429.8201599120000080,638.8599853519999660,-458.8599243159999900,28.0000000000000000,28.3256111144999991,46.4409999999999954,-135.0000000000000000
0.0000000000000000,24.0000000000000000,462.9000244139999720,-427.4999389650000120,643.4799194339999520,-429.7399597169999760,639.1799926759999830,-459.3399963379999910,28.0000000000000000,28.3256111144999991,46.4409999999999954,-135.0000000000000000
0.0000000000000000,24.0000000000000000,463.2600708009999830,-427.6400146479999760,643.9799804689999970,-429.5601196289999840,639.4799804689999970,-458.8201599120000080,28.3125000000000000,28.3568401337000004,46.4409999999999954,-135.0000000000000000
0.0000000000000000,24.0000000000000000,462.5400390620000050,-427.7999877930000130,643.8800659180000130,-428.9798278810000050,639.0799560550000240,-459.1000366210000150,28.0000000000000000,28.3568401337000004,46.4409999999999954,-135.0000000000000000
0.0000000000000000,25.0000000000000000,347.2200012210000180,9.5999794006299997,832.0999145509999830,-304.6199340819999860,841.3200073240000160,-25.7199668883999983,28.0000000000000000,28.3880710602000015,68.6300000000000096,180.0000000000000000
0.0000000000000000,25.0000000000000000,347.5199584960000150,10.1600008011000007,832.3000488279999440,-304.9999389650000120,841.0200805660000460,-25.8200073241999988,28.0000000000000000,28.3880710602000015,68.6300000000000096,180.0000000000000000
0.0000000000000000,25.0000000000000000,347.8800353999999970,9.9400005340599993,832.6198730470000550,-305.2599487300000190,841.4398803709999580,-25.0200481414999984,28.3125000000000000,28.3880710602000015,68.6300000000000096,180.0000000000000000
0.0000000000000000,25.0000000000000000,347.0599060060000050,9.5799903869600005,831.8999633790000410,-305.2199707030000010,841.3600463870000100,-25.7799301147000008,27.6875000000000000,28.3880710602000015,68.6300000000000096,180.0000000000000000
0.0000000000000000,25.0000000000000000,347.8400268550000190,9.8399991989100002,832.6199951170000300,-304.4799804689999970,841.3800048829999690,-25.6000099182000014,28.0000000000000000,28.3880710602000015,68.6300000000000096,180.0000000000000000
0.0000000000000000,25.0000000000000000,347.6798400879999910,9.7999591827400003,831.7600097660000520,-304.6399841310000050,841.3599243160000460,-26.0600013733000004,28.0000000000000000,28.3880710602000015,68.6300000000000096,180.0000000000000000
0.0000000000000000,25.0000000000000000,347.3800353999999970,9.8000183105499996,832.0198974610000270,-304.9000549319999890,841.1999511720000550,-24.9399623870999996,28.0000000000000000,28.3880710602000015,68.6300000000000096,180.0000000000000000
0.0000000000000000,25.0000000000000000,347.4199829099999870,9.8600282669099997,832.0799560550000240,-304.6999511719999980,841.1399536129999880,-25.2399806976000001,28.0000000000000000,28.3880710602000015,68.6300000000000096,180.0000000000000000
0.0000000000000000,25.0000000000000000,347.3200378419999760,9.7399902343800004,832.2000732420000300,-304.6799621580000230,841.0199584959999580,-24.6199970245000017,28.3125000000000000,28.3880710602000015,68.6300000000000096,180.0000000000000000
0.0000000000000000,25.0000000000000000,346.9799499509999800,9.7999696731599997,832.7399902339999460,-304.8399963379999910,841.2399902339999460,-25.3800086974999992,28.0000000000000000,28.3880710602000015,68.6300000000000096,180.0000000000000000
0.0000000000000000,26.0000000000000000,244.5999755859999990,243.3399963379999920,833.7999267579999690,-201.2999572749999970,847.3399658199999740,207.8200988769999920,28.0000000000000000,28.3880710602000015,68.6300000000000096,135.0000000000000000
0.0000000000000000,26.0000000000000000,243.8199768069999890,243.4399871829999990,834.2399902339999460,-200.6198730469999980,846.6600341800000240,207.8599548340000070,28.3125000000000000,28.3880710602000015,68.6400000000000005,135.0000000000000000
0.0000000000000000,26.0000000000000000,244.3800353999999970,243.5199737549999950,834.5399169920000300,-200.7399597170000050,847.1399536129999880,207.1199188230000060,28.0000000000000000,28.3880710602000015,68.6300000000000096,135.0000000000000000
0.0000000000000000,26.0000000000000000,244.2799530030000030,243.9399719239999910,834.6599731449999800,-201.0400085450000060,846.6399536129999880,208.1600189209999880,28.0000000000000000,28.3880710602000015,68.6300000000000096,135.0000000000000000
0.0000000000000000,26.0000000000000000,243.9599609379999940,243.7199707030000010,834.7399291990000160,-200.9800109859999960,847.2600097660000520,207.6999206540000100,28.3125000000000000,28.3880710602000015,68.6300000000000096,135.0000000000000000
0.0000000000000000,26.0000000000000000,244.2799377439999940,243.6199798579999930,834.2400512699999800,-199.8800353999999970,846.5599975589999520,207.6000366209999870,28.0000000000000000,28.3880710602000015,68.6400000000000005,135.0000000000000000
0.0000000000000000,26.0000000000000000,244.4400176999999980,243.6799621579999950,834.6399536129999880,-200.0800170900000120,846.5399780269999600,208.2999877930000140,28.3125000000000000,28.3880710602000015,68.6400000000000005,135.0000000000000000
0.0000000000000000,26.0000000000000000,243.7799987790000100,243.8599700929999870,834.4999999999999990,-200.3200683590000040,846.7399902339999460,207.7999877930000140,28.3125000000000000,28.3880710602000015,68.6300000000000096,135.0000000000000000
0.0000000000000000,26.0000000000000000,244.2999725340000050,243.5200195310000020,834.2799682620000100,-200.0000000000000000,846.6200561519999600,207.7999725340000050,28.0000000000000000,28.3880710602000015,68.6400000000000005,135.0000000000000000
0.0000000000000000,26.0000000000000000,244.1199951170000020,243.4200134280000040,834.3200073240000160,-200.2200317379999890,846.6999511720000550,207.4800872799999920,28.0000000000000000,28.3880710602000015,68.6400000000000005,135.0000000000000000
0.0000000000000000,27.0000000000000000,6.8599796295199997,337.1999511719999980,834.7400512699999800,38.3999595642000031,842.5799560550000240,300.6199951169999730,28.0000000000000000,28.4193000793000010,68.6400000000000005,89.9999999999999999
0.0000000000000000,27.0000000000000000,6.6599903106699996,337.2599792479999790,834.5199584959999580,38.1399307251000010,842.9599609379999940,300.0799560550000250,28.3125000000000000,28.4193000793000010,68.6400000000000005,89.9999999999999999
0.0000000000000000,27.0000000000000000,6.6600103378300002,337.2599792479999790,834.3399658199999740,37.7199020385999972,842.4600830079999690,300.6600341800000250,27.6875000000000000,28.4193000793000010,68.6400000000000005,89.9999999999999999
0.0000000000000000,27.0000000000000000,6.7800402641300002,337.2200317379999880,834.7399291990000160,38.5400733947999967,842.6599731449999800,300.5399475099999900,27.6875000000000000,28.4193000793000010,68.6400000000000005,89.9999999999999999
0.0000000000000000,27.0000000000000000,6.0600194931000004,337.2999877930000140,834.1799926759999830,38.7999801635999972,843.1999511720000550,300.0598754879999880,28.0000000000000000,28.3880710602000015,68.6400000000000005,89.9999999999999999
0.0000000000000000,27.0000000000000000,7.3400192260699999,337.1600036620000080,834.6799926759999830,38.0200462341000005,842.8200073240000160,300.3200683590000040,28.0000000000000000,28.3880710602000015,68.6400000000000005,89.9999999999999999
0.0000000000000000,27.0000000000000000,6.6599907875099999,337.3600463870000110,834.4000854490000160,38.3199996948000034,842.6999511720000550,300.5199279789999870,27.6875000000000000,28.3880710602000015,68.6400000000000005,89.9999999999999999
0.0000000000000000,27.0000000000000000,6.2600102424599999,337.2799987789999820,834.4199829100000440,38.2400703429999993,842.5198974610000270,300.8999328610000240,28.0000000000000000,28.3880710602000015,68.6400000000000005,89.9999999999999999
0.0000000000000000,27.0000000000000000,6.9600000381499996,336.9199523930000170,834.7799682620000100,37.8600006104000002,842.6800537110000270,300.6799621580000230,28.3125000000000000,28.4193000793000010,68.6400000000000005,89.9999999999999999
0.0000000000000000,27.0000000000000000,6.6799793243399996,336.8599548340000070,834.1399536129999880,38.1000175475999967,842.5799560550000240,300.5599060060000050,28.0000000000000000,28.4193000793000010,68.6400000000000005,89.9999999999999999
0.0000000000000000,28.0000000000000000,-231.4000091549999920,232.8199768069999890,833.8999023439999970,274.5400390620000050,829.0400390620000040,196.2399902340000040,28.0000000000000000,28.4193000793000010,68.6400000000000005,45.0000000000000000
0.0000000000000000,28.0000000000000000,-232.0199584959999870,232.8400115970000000,834.6600341800000240,274.6200256349999900,829.4199829100000440,197.2199554439999930,28.0000000000000000,28.4193000793000010,68.6400000000000005,45.0000000000000000
0.0000000000000000,28.0000000000000000,-231.9399719239999910,232.2600402829999950,834.0199584959999580,274.6600036620000080,829.4599609379999940,196.9799346920000000,28.0000000000000000,28.4193000793000010,68.6400000000000005,45.0000000000000000
0.0000000000000000,28.0000000000000000,-231.6800079349999920,232.0999603269999910,834.5600585939999970,275.0400390620000050,829.2999877930000130,196.8199768069999890,28.0000000000000000,28.4193000793000010,68.6400000000000005,45.0000000000000000
0.0000000000000000,28.0000000000000000,-231.5599823000000010,232.6399383540000090,834.4799804689999970,273.8999938960000120,829.4199829100000440,197.3999328609999960,28.0000000000000000,28.4193000793000010,68.6400000000000005,45.0000000000000000
0.0000000000000000,28.0000000000000000,-232.0200195310000020,232.5600280760000090,834.3599853519999660,274.9199829099999870,828.8800048829999690,197.6799926760000120,28.0000000000000000,28.4193000793000010,68.6400000000000005,45.0000000000000000
0.0000000000000000,28.0000000000000000,-231.8199157710000120,232.7199707030000010,834.3599853519999660,274.7200012210000180,829.4199829100000440,197.0199584959999870,28.3125000000000000,28.4193000793000010,68.6400000000000005,45.0000000000000000
0.0000000000000000,28.0000000000000000,-231.5600128170000000,232.7799682620000110,834.5400390620000040,274.8400268550000190,829.3399658199999740,197.3600158689999940,28.3125000000000000,28.4505310059000003,68.6400000000000005,45.0000000000000000
0.0000000000000000,28.0000000000000000,-231.7600402829999950,232.4199981689999960,834.2399902339999460,275.2799682620000110,829.0598754879999880,196.9799194340000100,27.6875000000000000,28.4193000793000010,68.6400000000000005,45.0000000000000000
0.0000000000000000,28.0000000000000000,-231.0599975590000100,232.5799560549999960,834.3800048829999690,275.0000610349999870,829.4799804689999970,196.9799957280000060,28.3125000000000000,28.4193000793000010,68.6400000000000005,45.0000000000000000
0.0000000000000000,29.0000000000000000,-322.2799987789999820,-4.8800201416000002,833.2600097660000520,366.7400207520000200,818.6799926759999830,-40.7600364684999974,28.0000000000000000,28.4505310059000003,68.6400000000000005,0.0000000000000000
0.0000000000000000,29.0000000000000000,-322.4600219729999820,-4.8800096511800000,833.3000488279999440,366.5999450680000110,818.5999755860000270,-41.0400199890000010,28.0000000000000000,28.4193000793000010,68.6400000000000005,0.0000000000000000
0.0000000000000000,29.0000000000000000,-322.2599487300000190,-4.3799901008599997,833.5599975589999520,366.2597961430000160,818.7400512699999800,-41.4200363158999991,28.0000000000000000,28.4193000793000010,68.6400000000000005,0.0000000000000000
0.0000000000000000,29.0000000000000000,-322.2199401859999740,-4.7999997139000001,833.4400024410000460,367.2799377439999940,818.9199829100000440,-40.7000274657999981,28.0000000000000000,28.4193000793000010,68.6400000000000005,0.0000000000000000
0.0000000000000000,29.0000000000000000,-321.5399780270000180,-4.6400198936499999,833.4199829100000440,367.3799438479999820,818.9199829100000440,-40.3199386597000000,28.3125000000000000,28.4193000793000010,68.6400000000000005,0.0000000000000000
0.0000000000000000,29.0000000000000000,-322.0199890139999750,-5.1400098800700000,833.2399902339999460,366.1999206539999810,818.9400024410000460,-41.4800224303999982,28.3125000000000000,28.4505310059000003,68.6400000000000005,0.0000000000000000
0.0000000000000000,29.0000000000000000,-322.5399780270000180,-4.9400100707999996,833.6598510740000160,366.9999084469999950,818.5999755860000270,-41.6400566100999967,28.0000000000000000,28.4505310059000003,68.6400000000000005,0.0000000000000000
0.0000000000000000,29.0000000000000000,-321.8200378419999760,-4.9800000190700002,833.6399536129999880,366.7999877930000140,818.8200073240000160,-40.7598800658999991,28.3125000000000000,28.4505310059000003,68.6400000000000005,0.0000000000000000
0.0000000000000000,29.0000000000000000,-321.9800415039999840,-4.5199999809299998,833.4799804689999970,366.9400024409999900,819.2199707029999440,-41.4400520324999988,27.6875000000000000,28.4505310059000003,68.6400000000000005,0.0000000000000000
0.0000000000000000,29.0000000000000000,-321.8600463870000110,-4.9999899864200001,833.4999999999999990,367.2400207520000200,818.8399658199999740,-40.5800094603999994,28.3125000000000000,28.4505310059000003,68.6400000000000005,0.0000000000000000
0.0000000000000000,30.0000000000000000,-220.1200408939999990,-238.4800109859999960,831.8200073240000160,263.4799499509999800,812.6000366209999580,-273.6600036620000080,28.0000000000000000,28.4505310059000003,68.6400000000000005,-45.0000000000000000
0.0000000000000000,30.0000000000000000,-219.9800109859999960,-238.4799804689999970,832.2999877930000130,262.0400695800000220,812.6200561519999600,-273.2400207520000210,28.0000000000000000,28.4505310059000003,68.6400000000000005,-45.0000000000000000
0.0000000000000000,30.0000000000000000,-219.7400207519999920,-238.5600128170000000,831.8601074220000550,262.8600463870000110,812.3800048829999690,-273.8399963379999910,28.0000000000000000,28.4505310059000003,68.6400000000000005,-45.0000000000000000
0.0000000000000000,30.0000000000000000,-220.1999816889999970,-238.1600189209999880,832.2999267579999690,262.7600402830000230,812.5399780269999600,-272.3199157710000120,28.3125000000000000,28.4505310059000003,68.6400000000000005,-45.0000000000000000
0.0000000000000000,30.0000000000000000,-219.8999786379999930,-237.7999725340000050,832.2399902339999460,263.1000061039999880,812.6399536129999880,-273.0200195310000020,28.0000000000000000,28.4505310059000003,68.6400000000000005,-45.0000000000000000
0.0000000000000000,30.0000000000000000,-220.2399597170000050,-238.5400390620000050,832.2799682620000100,263.4000244139999720,812.5999755860000270,-273.0799865719999950,28.0000000000000000,28.4505310059000003,68.6400000000000005,-45.0000000000000000
0.0000000000000000,30.0000000000000000,-220.1599731450000090,-237.7999877930000140,831.6599731449999800,264.1800842289999880,812.3599853519999660,-273.2200317379999880,28.3125000000000000,28.4505310059000003,68.6400000000000005,-45.0000000000000000
0.0000000000000000,30.0000000000000000,-220.0199890140000030,-238.2400360110000010,832.1599731449999800,264.0199584960000150,812.0999755860000270,-273.9000244139999720,28.0000000000000000,28.4505310059000003,68.6400000000000005,-45.0000000000000000
0.0000000000000000,30.0000000000000000,-220.0599975590000100,-238.1000366209999870,832.1999511720000550,263.8800048830000260,811.8399047850000440,-273.3198852539999850,28.3125000000000000,28.4505310059000003,68.6400000000000005,-45.0000000000000000
0.0000000000000000,30.0000000000000000,-219.9600219730000100,-238.5399780269999890,831.5999755860000270,262.8999633789999850,812.0999755860000270,-273.1999206539999820,28.6250000000000000,28.4505310059000003,68.6400000000000005,-45.0000000000000000
0.0000000000000000,31.0000000000000000,16.6800212859999988,-331.9200439449999750,830.2399902339999460,25.7400112151999991,817.3200073240000160,-368.3399658199999750,28.3125000000000000,28.4505310059000003,68.6400000000000005,-89.9999999999999999
0.0000000000000000,31.0000000000000000,16.5000305175999990,-331.7399597169999760,829.6799316410000520,24.8799991608000006,817.6599731449999800,-367.7599792479999790,28.0000000000000000,28.4505310059000003,68.6400000000000005,-89.9999999999999999
0.0000000000000000,31.0000000000000000,16.9399700164999984,-332.0399475099999900,829.9199218749999990,25.1600189209000007,816.9400024410000460,-367.8599548340000070,28.3125000000000000,28.4505310059000003,68.6400000000000005,-89.9999999999999999
0.0000000000000000,31.0000000000000000,16.6800003052000001,-331.5800170900000120,829.8200073240000160,25.4200286865000002,817.7200317379999880,-367.6399841310000050,28.3125000000000000,28.4505310059000003,68.6400000000000005,-89.9999999999999999
0.0000000000000000,31.0000000000000000,16.4800128936999997,-332.3999938960000120,830.3000488279999440,24.9599094390999987,816.8599853519999660,-368.3399658199999750,28.0000000000000000,28.4505310059000003,68.6400000000000005,-89.9999999999999999
0.0000000000000000,31.0000000000000000,16.5199794769000014,-332.2399902340000040,829.6200561519999600,25.8199405669999997,817.1199951170000300,-368.1600036620000080,28.3125000000000000,28.4505310059000003,68.6400000000000005,-89.9999999999999999
0.0000000000000000,31.0000000000000000,16.6400222778000000,-332.1000366210000150,830.2798461910000460,25.0999412536999990,816.9599609379999940,-367.8999633789999840,28.0000000000000000,28.4505310059000003,68.6400000000000005,-89.9999999999999999
0.0000000000000000,31.0000000000000000,16.8599662780999999,-331.9799804689999970,829.9201660160000520,24.9599628447999997,817.2000122069999850,-367.7599487300000190,28.3125000000000000,28.4505310059000003,68.6400000000000005,-89.9999999999999999
0.0000000000000000,31.0000000000000000,16.6999893188000001,-331.9400329590000070,829.9799804689999970,25.1999874115000004,817.2600708009999830,-368.1399230960000180,28.3125000000000000,28.4817600249999998,68.6400000000000005,-89.9999999999999999
0.0000000000000000,31.0000000000000000,16.8799877167000005,-332.2799682620000110,829.6799926759999830,25.1999702453999994,816.8601684569999850,-367.8999938960000120,28.0000000000000000,28.4817600249999998,68.6400000000000005,-89.9999999999999999
0.0000000000000000,32.0000000000000000,255.9799499510000090,-228.5999755859999990,832.0598754879999880,-213.7800598139999970,828.1399536129999880,-262.7000122069999860,28.3125000000000000,28.4505310059000003,68.6400000000000005,-135.0000000000000000
0.0000000000000000,32.0000000000000000,255.4799804689999970,-228.5399932859999980,832.0199584959999580,-213.7600402829999950,827.6799926759999830,-262.7199401859999740,28.3125000000000000,28.4505310059000003,68.6400000000000005,-135.0000000000000000
0.0000000000000000,32.0000000000000000,255.4199523929999880,-228.6799774170000030,831.7799682620000100,-213.0799560549999960,827.9400634769999660,-262.9800415039999850,28.0000000000000000,28.4817600249999998,68.6400000000000005,-135.0000000000000000
0.0000000000000000,32.0000000000000000,255.6399383540000090,-228.6199493409999940,832.0599975589999520,-214.3199920650000080,827.9398803709999580,-262.4800109860000250,28.0000000000000000,28.4817600249999998,68.6400000000000005,-135.0000000000000000
0.0000000000000000,32.0000000000000000,255.9199523929999880,-228.3400115970000000,831.6799926759999830,-213.4599914549999940,828.3599853519999660,-262.6599731449999810,28.3125000000000000,28.4817600249999998,68.6400000000000005,-135.0000000000000000
0.0000000000000000,32.0000000000000000,255.4599761960000130,-228.2799987790000100,831.7598876949999740,-213.3799896239999890,828.0599975589999520,-262.9200134280000040,28.3125000000000000,28.4817600249999998,68.6400000000000005,-135.0000000000000000
0.0000000000000000,32.0000000000000000,255.4399108890000030,-228.2599945069999870,831.8798828120000040,-213.5400543210000140,828.1199951170000300,-262.6200256349999900,28.0000000000000000,28.4817600249999998,68.6400000000000005,-135.0000000000000000
0.0000000000000000,32.0000000000000000,255.7199554439999930,-228.0599975590000100,832.4400634769999660,-213.3399810790000120,827.8800659180000130,-263.1600036620000080,28.0000000000000000,28.4817600249999998,68.6400000000000005,-135.0000000000000000
0.0000000000000000,32.0000000000000000,255.9399414060000020,-228.1600494379999870,831.7000732420000300,-212.6600494379999870,827.6799926759999830,-262.4599304199999780,28.0000000000000000,28.4817600249999998,68.6400000000000005,-135.0000000000000000
0.0000000000000000,32.0000000000000000,255.4599914549999930,-228.5000000000000000,832.2000732420000300,-213.7999877930000140,827.8599853519999660,-262.0799255370000080,28.3125000000000000,28.4817600249999998,68.6400000000000005,-135.0000000000000000
0.0000000000000000,33.0000000000000000,41.6599960327000005,4.0799994468699996,896.1799926759999830,3.4000194072699998,894.2600097660000520,-33.0399780273000019,28.3125000000000000,28.4817600249999998,88.4900000000000090,180.0000000000000000
0.0000000000000000,33.0000000000000000,42.2199707031000031,4.0200090408299998,896.0399780269999600,4.0800404548599998,894.7600708009999830,-33.4401397704999965,28.0000000000000000,28.5129909515000008,88.4900000000000090,180.0000000000000000
0.0000000000000000,33.0000000000000000,41.5799980163999976,4.6200003623999999,896.5399169920000300,3.5799801349600000,895.0199584959999580,-32.8799934386999979,28.0000000000000000,28.5129909515000008,88.4900000000000090,180.0000000000000000
0.0000000000000000,33.0000000000000000,41.6599731445000003,3.9600100517299999,896.5799560550000240,3.6999201774600001,895.0200805660000460,-33.7600364684999974,28.0000000000000000,28.5129909515000008,88.4900000000000090,180.0000000000000000
0.0000000000000000,33.0000000000000000,41.8800086975000027,4.1400198936499999,896.8599853519999660,3.9400603771200000,894.5399780269999600,-33.4400291442999986,28.0000000000000000,28.4817600249999998,88.4900000000000090,180.0000000000000000
0.0000000000000000,33.0000000000000000,42.0799789428999986,4.1399898529100003,896.5601196290000410,3.5800499916100001,894.9998779300000240,-33.0600280761999983,28.0000000000000000,28.4817600249999998,88.4900000000000090,180.0000000000000000
0.0000000000000000,33.0000000000000000,42.4399909973000007,4.0399799346899998,896.5200805660000460,4.3599805831899996,894.8200073240000160,-33.0399780273000019,28.0000000000000000,28.4817600249999998,88.4900000000000090,180.0000000000000000
0.0000000000000000,33.0000000000000000,42.2000198364000027,4.0200095176700001,896.1799926759999830,4.1400299072299997,894.8398437499999990,-33.5399322510000033,28.3125000000000000,28.4817600249999998,88.4900000000000090,180.0000000000000000
0.0000000000000000,33.0000000000000000,42.0000076294000024,4.1199994087200000,896.3599243160000460,3.3799495696999999,895.0199584959999580,-33.5399055481000019,28.0000000000000000,28.4817600249999998,88.4900000000000090,180.0000000000000000
0.0000000000000000,33.0000000000000000,42.0600090026999993,3.8799996376000001,896.5598754879999880,3.2399804592099999,895.0399780269999600,-33.7199935913000033,28.3125000000000000,28.4817600249999998,88.4900000000000090,180.0000000000000000
0.0000000000000000,34.0000000000000000,30.8599815369000012,25.2800083160000000,895.2999267579999690,15.2199926376000008,895.4400024410000460,-13.0599889754999996,28.0000000000000000,28.5129909515000008,88.4900000000000090,135.0000000000000000
0.0000000000000000,34.0000000000000000,31.4400386810000007,24.7799873352000013,896.0198974610000270,14.4799203873000000,895.2999877930000130,-13.3399705887000000,28.0000000000000000,28.5129909515000008,88.4900000000000090,135.0000000000000000
0.0000000000000000,34.0000000000000000,31.4199886321999990,24.9000282288000001,896.1998901370000100,14.8000679016000003,895.4599609379999940,-13.3000297546000006,28.0000000000000000,28.5129909515000008,88.4900000000000090,135.0000000000000000
0.0000000000000000,34.0000000000000000,30.8800182342999996,25.1000003814999992,895.7600097660000520,14.4600200653000002,895.8599853519999660,-13.5599479674999994,28.3125000000000000,28.5129909515000008,88.4900000000000090,135.0000000000000000
0.0000000000000000,34.0000000000000000,31.3800277710000017,24.5399894713999984,895.6799926759999830,15.1600294113000000,895.5198974610000270,-13.6799497603999995,28.0000000000000000,28.5129909515000008,88.4900000000000090,135.0000000000000000
0.0000000000000000,34.0000000000000000,31.0599727630999993,25.3399906158000014,895.5199584959999580,15.4999675750999994,896.1399536129999880,-13.1199874877999996,28.3125000000000000,28.4817600249999998,88.4900000000000090,135.0000000000000000
0.0000000000000000,34.0000000000000000,30.8599605560000007,25.0799999237000008,896.3999023439999960,14.5998792648000002,896.0000610350000430,-13.3400106429999994,28.0000000000000000,28.4817600249999998,88.4900000000000090,135.0000000000000000
0.0000000000000000,34.0000000000000000,31.2800312042000001,25.3600215911999989,895.7001342769999600,14.4400091171000007,894.9199829100000430,-13.3199110030999996,28.0000000000000000,28.5129909515000008,88.4900000000000090,135.0000000000000000
0.0000000000000000,34.0000000000000000,31.1599998474000017,24.6399993895999998,895.5200805660000460,15.7200298308999997,895.9799804689999960,-12.9399499893000005,28.0000000000000000,28.5129909515000008,88.4900000000000090,135.0000000000000000
0.0000000000000000,34.0000000000000000,31.3000087737999983,25.0000000000000000,895.9998779300000240,15.8400287627999994,895.7999877930000130,-13.1600093842000003,28.3125000000000000,28.5129909515000008,88.4900000000000090,135.0000000000000000
0.0000000000000000,35.0000000000000000,8.6800289154100003,31.7800083160000000,896.2999877930000130,36.5200691223000007,895.5600585939999960,-6.6399803161599999,28.0000000000000000,28.5129909515000008,88.4900000000000090,89.9999999999999999
0.0000000000000000,35.0000000000000000,8.8400506973299997,31.8799991608000006,897.4600830079999690,36.6599807739000027,895.3800048829999690,-7.4199895858799998,28.0000000000000000,28.5129909515000008,88.4900000000000090,89.9999999999999999
0.0000000000000000,35.0000000000000000,8.2400083541899995,31.5999889373999991,897.3599243160000460,37.5198936462000034,895.2199707029999440,-7.6799798011800000,28.3125000000000000,28.5129909515000008,88.4900000000000090,89.9999999999999999
0.0000000000000000,35.0000000000000000,8.1600008010899998,31.6800403595000013,896.6799926759999830,37.0199813843000029,895.7000732420000300,-7.0400609970100003,28.0000000000000000,28.5129909515000008,88.4900000000000090,89.9999999999999999
0.0000000000000000,35.0000000000000000,8.2599887847900000,31.5000095366999986,896.9199829100000430,37.5999374390000014,895.8798828120000040,-7.3400211334199996,28.0000000000000000,28.5129909515000008,88.4900000000000090,89.9999999999999999
0.0000000000000000,35.0000000000000000,8.1399993896500007,31.8200187682999988,896.5199584959999580,37.0999908447000024,895.5798950199999800,-7.3399801254300003,28.0000000000000000,28.5129909515000008,88.4900000000000090,89.9999999999999999
0.0000000000000000,35.0000000000000000,8.8000087738000001,31.9599876404000014,896.3399658199999740,36.9400100707999996,895.5800781249999990,-7.1600093841600003,28.0000000000000000,28.5129909515000008,88.4900000000000090,89.9999999999999999
0.0000000000000000,35.0000000000000000,8.5800008773799998,32.2999687195000007,896.6399536129999880,36.8800163268999981,895.3999023439999960,-7.2400498390200001,28.0000000000000000,28.5129909515000008,88.4900000000000090,89.9999999999999999
0.0000000000000000,35.0000000000000000,8.5199909210199998,31.3199996947999999,897.0198364259999830,36.8799591064000012,895.2799682620000100,-6.9200496673599998,28.3125000000000000,28.5129909515000008,88.4900000000000090,89.9999999999999999
0.0000000000000000,35.0000000000000000,8.3800306320200004,31.7000122070000003,897.2799682620000100,37.2800102233999979,894.8999633790000410,-6.9600305557300004,28.3125000000000000,28.5129909515000008,88.4900000000000090,89.9999999999999999
0.0000000000000000,36.0000000000000000,-12.5399885177999994,20.2200012206999986,896.6600341800000240,56.7199745177999972,894.1799926759999830,-18.2599601745999997,28.0000000000000000,28.5129909515000008,88.4900000000000090,45.0000000000000000
0.0000000000000000,36.0000000000000000,-12.6599493026999994,20.3599891663000001,896.4999999999999990,56.9199142455999975,894.6200561519999600,-17.7000007629000002,28.3125000000000000,28.5129909515000008,88.4900000000000090,45.0000000000000000
0.0000000000000000,36.0000000000000000,-13.1199989318999997,20.5400028229000000,896.7799682620000100,56.9599800109999989,894.3999633790000410,-17.3599891663000001,28.3125000000000000,28.5129909515000008,88.4900000000000090,45.0000000000000000
0.0000000000000000,36.0000000000000000,-12.3600006104000002,20.3400096893000004,896.2199707029999440,56.8199844359999986,894.4200439449999740,-17.6399803161999991,28.3125000000000000,28.5129909515000008,88.4900000000000090,45.0000000000000000
0.0000000000000000,36.0000000000000000,-12.2799806594999996,20.4799976348999983,896.8399047850000430,57.4401245116999987,894.5598754879999880,-17.8599491119000007,28.0000000000000000,28.5442199706999986,88.4900000000000090,45.0000000000000000
0.0000000000000000,36.0000000000000000,-12.3600177764999994,20.1599998474000017,896.9799804689999960,56.8000640869000008,894.6999511720000550,-17.9000186919999997,28.0000000000000000,28.5442199706999986,88.4900000000000090,45.0000000000000000
0.0000000000000000,36.0000000000000000,-11.9200010299999999,20.5399990081999988,896.4999999999999990,57.5600662231000015,894.3800048829999690,-18.2600822449000013,28.3125000000000000,28.5129909515000008,88.4900000000000090,45.0000000000000000
0.0000000000000000,36.0000000000000000,-12.1999902724999991,20.1000003814999992,896.3200073240000160,56.2199287414999986,894.4799194339999520,-18.1600074768000006,28.0000000000000000,28.5129909515000008,88.4900000000000090,45.0000000000000000
0.0000000000000000,36.0000000000000000,-11.9799804687999991,20.3999805449999982,896.3399047850000430,57.2199211121000033,894.6599121089999460,-18.4599685668999989,28.3125000000000000,28.5129909515000008,88.4900000000000090,45.0000000000000000
0.0000000000000000,36.0000000000000000,-12.3799715042000002,20.2199897765999985,896.3800048829999690,56.5600090026999993,894.3999023439999960,-17.4999599456999988,28.0000000000000000,28.5129909515000008,88.4900000000000090,45.0000000000000000
0.0000000000000000,37.0000000000000000,-17.9400119780999994,-1.5400098562200000,896.4400024410000460,62.3198699950999994,893.3599853519999660,-38.8199882506999998,28.3125000000000000,28.5442199706999986,88.4999999999999999,0.0000000000000000
0.0000000000000000,37.0000000000000000,-18.0999488831000015,-1.0199999809300000,896.0798950199999800,62.3400268554999996,893.2199096680000130,-38.7999954224000021,28.0000000000000000,28.5442199706999986,88.4999999999999999,0.0000000000000000
0.0000000000000000,37.0000000000000000,-17.6000099182000014,-1.0599700212500001,896.4400024410000460,62.4199676514000003,893.4999999999999990,-39.1199607849000017,28.0000000000000000,28.5129909515000008,88.4999999999999999,0.0000000000000000
0.0000000000000000,37.0000000000000000,-18.0600013733000004,-1.3600000143099999,895.8198852540000410,62.5399894713999984,893.5999755860000270,-38.7799110412999965,28.0000000000000000,28.5129909515000008,88.4999999999999999,0.0000000000000000
0.0000000000000000,37.0000000000000000,-18.1599903106999996,-1.6799999475500000,895.7199707029999440,62.7000083922999991,893.4799804689999960,-38.4600486754999977,28.0000000000000000,28.5129909515000008,88.4999999999999999,0.0000000000000000
0.0000000000000000,37.0000000000000000,-17.7200222015000008,-1.0999900102600000,895.7399902339999460,63.2401046753000031,893.5999755860000270,-38.7799606323000034,28.0000000000000000,28.5129909515000008,88.4999999999999999,0.0000000000000000
0.0000000000000000,37.0000000000000000,-17.7399997710999990,-0.9199999570850000,895.8800048829999690,62.2201156615999977,893.5999755860000270,-38.8398971558000028,28.0000000000000000,28.5129909515000008,88.4999999999999999,0.0000000000000000
0.0000000000000000,37.0000000000000000,-17.8799915314000017,-1.3999898433700000,896.2800292970000550,62.5200614928999982,892.9199218749999990,-38.9799461364999970,28.3125000000000000,28.5129909515000008,88.4999999999999999,0.0000000000000000
0.0000000000000000,37.0000000000000000,-18.1199893950999993,-0.8799799680710000,896.4199829100000430,62.6800270080999979,893.3200073240000160,-39.1800079345999990,28.0000000000000000,28.5129909515000008,88.4999999999999999,0.0000000000000000
0.0000000000000000,37.0000000000000000,-18.5600051880000016,-0.9799999594690000,896.2000732420000300,62.6400260925000012,893.6399536129999880,-39.2999687195000007,28.3125000000000000,28.5442199706999986,88.4999999999999999,0.0000000000000000
0.0000000000000000,38.0000000000000000,-6.2999701499900000,-21.6800098418999987,896.1599731449999800,51.8200378418000014,892.8800048829999690,-59.3200569153000003,28.0000000000000000,28.5442199706999986,88.4999999999999999,-45.0000000000000000
0.0000000000000000,38.0000000000000000,-6.4800291061399999,-21.8999996185000008,896.8800659180000130,51.7199516295999970,892.4998779300000240,-59.6199989318999996,28.3125000000000000,28.5442199706999986,88.4999999999999999,-45.0000000000000000
0.0000000000000000,38.0000000000000000,-6.2199692726100002,-22.1399993895999998,896.6999511720000550,52.1799392699999984,892.8200073240000160,-58.8999557495000019,28.3125000000000000,28.5442199706999986,88.4999999999999999,-45.0000000000000000
0.0000000000000000,38.0000000000000000,-6.4999594688400002,-21.8599967956999990,896.8999023439999960,51.5600471496999972,892.7799682620000100,-58.8599586487000010,28.3125000000000000,28.5442199706999986,88.4999999999999999,-45.0000000000000000
0.0000000000000000,38.0000000000000000,-6.3400092124900000,-21.6000099182000014,896.8399658199999740,52.4799613953000019,892.4400024410000460,-59.4400482177999975,28.0000000000000000,28.5442199706999986,88.4999999999999999,-45.0000000000000000
0.0000000000000000,38.0000000000000000,-7.0599594116200004,-21.8800296783000014,896.8599853519999660,51.6400070190000022,892.4599609379999940,-58.9000167847000000,28.3125000000000000,28.5442199706999986,88.4999999999999999,-45.0000000000000000
0.0000000000000000,38.0000000000000000,-6.5400090217600004,-21.8600101470999988,896.9799804689999960,51.5199508667000003,892.6599121089999460,-59.5200920105000008,28.0000000000000000,28.5442199706999986,88.4999999999999999,-45.0000000000000000
0.0000000000000000,38.0000000000000000,-7.1599802970899997,-21.8000221252000017,896.5800781249999990,52.4800720214999998,892.7600097660000520,-59.6399650573999977,28.3125000000000000,28.5442199706999986,88.4999999999999999,-45.0000000000000000
0.0000000000000000,38.0000000000000000,-7.1199588775600002,-22.1399993895999998,896.8201293949999800,52.5800666809000034,892.2600708009999830,-58.8199005127000020,28.3125000000000000,28.5442199706999986,88.4999999999999999,-45.0000000000000000
0.0000000000000000,38.0000000000000000,-6.6599993705699996,-22.0200195311999991,896.9398803709999580,52.3399505614999967,892.5399169920000300,-58.9199981689000012,28.0000000000000000,28.5442199706999986,88.4999999999999999,-45.0000000000000000
0.0000000000000000,39.0000000000000000,14.6799793242999996,-28.8999996185000007,895.7999267579999690,29.5999603270999998,892.7199096680000130,-65.9599685669000024,28.0000000000000000,28.5442199706999986,88.4999999999999999,-89.9999999999999999
0.0000000000000000,39.0000000000000000,14.3999719620000004,-28.8799896240000002,895.8399658199999740,30.1400814056000001,892.7999267579999690,-66.0000152588000048,28.0000000000000000,28.5442199706999986,88.4999999999999999,-89.9999999999999999
0.0000000000000000,39.0000000000000000,14.5199995040999994,-28.9399700164999984,896.3798217769999600,30.6200580596999998,893.1999511720000550,-65.8799362183000028,28.3125000000000000,28.5442199706999986,88.4999999999999999,-89.9999999999999999
0.0000000000000000,39.0000000000000000,14.6200094223000008,-29.2600002289000009,896.3399658199999740,30.1199607849000017,893.1199951170000300,-66.2000274658000051,28.0000000000000000,28.5442199706999986,88.4999999999999999,-89.9999999999999999
0.0000000000000000,39.0000000000000000,15.0199975966999997,-28.7799797057999988,896.2199707029999440,29.7399997710999990,892.6599121089999460,-66.0799713134999962,28.0000000000000000,28.5442199706999986,88.4999999999999999,-89.9999999999999999
0.0000000000000000,39.0000000000000000,14.5199804306000004,-28.8000087737999983,895.9199829100000430,30.1999340057000012,892.8399658199999740,-66.2999801635999972,28.3125000000000000,28.5442199706999986,88.4999999999999999,-89.9999999999999999
0.0000000000000000,39.0000000000000000,14.1800022124999998,-28.9200019835999988,896.2399902339999460,30.4800090789999984,893.3200073240000160,-65.9799728394000055,28.3125000000000000,28.5442199706999986,88.4999999999999999,-89.9999999999999999
0.0000000000000000,39.0000000000000000,14.3800201415999993,-28.6999988556000005,896.1799926759999830,29.6999797821000015,893.0198974610000270,-66.0199966431000007,28.6250000000000000,28.5442199706999986,88.4999999999999999,-89.9999999999999999
0.0000000000000000,39.0000000000000000,14.8999996185000008,-28.6599922179999993,895.7199707029999440,30.3600196838000009,893.0599975589999520,-66.6799621581999986,28.3125000000000000,28.5442199706999986,88.4999999999999999,-89.9999999999999999
0.0000000000000000,39.0000000000000000,14.5400304794000004,-28.4800090789999984,896.4400634769999660,30.3601207733000002,892.9799804689999960,-66.1598892212000038,28.3125000000000000,28.5442199706999986,88.4999999999999999,-89.9999999999999999
0.0000000000000000,40.0000000000000000,35.2800216675000015,-18.6400184630999988,896.1800537110000270,10.0199604034000007,893.9199829100000430,-55.7000122070000003,28.3125000000000000,28.5754508971999996,88.4999999999999999,-135.0000000000000000
0.0000000000000000,40.0000000000000000,35.2199897766000020,-18.6199989318999996,895.6799316410000520,9.9999799728400003,894.0799560550000240,-55.9398994446000017,28.0000000000000000,28.5754508971999996,88.4999999999999999,-135.0000000000000000
0.0000000000000000,40.0000000000000000,35.0599975586000028,-18.5000000000000000,895.7399291990000160,10.5199909209999998,893.9400024410000460,-55.6200561523000018,28.0000000000000000,28.5442199706999986,88.4900000000000090,-135.0000000000000000
0.0000000000000000,40.0000000000000000,34.8199996948000034,-18.4399890900000010,896.2399902339999460,10.6399803162000008,893.4799804689999960,-55.3199806212999973,28.3125000000000000,28.5442199706999986,88.4900000000000090,-135.0000000000000000
0.0000000000000000,40.0000000000000000,35.0399894713999984,-18.5199794769000014,896.0000610350000430,10.8399314879999995,893.8398437499999990,-55.0999488830999979,28.3125000000000000,28.5754508971999996,88.4900000000000090,-135.0000000000000000
0.0000000000000000,40.0000000000000000,35.0399932860999996,-18.5199890136999983,896.0199584959999580,10.4800090790000002,893.7600708009999830,-55.4999694823999974,28.3125000000000000,28.5754508971999996,88.4999999999999999,-135.0000000000000000
0.0000000000000000,40.0000000000000000,35.2200279236000000,-18.1600093841999985,896.0599975589999520,10.0200109481999995,893.4799804689999960,-55.7400093079000029,28.3125000000000000,28.5442199706999986,88.4999999999999999,-135.0000000000000000
0.0000000000000000,40.0000000000000000,34.8400230407999984,-18.3400001525999983,895.4400024410000460,9.7999992370599998,893.7600097660000520,-55.7199707031000031,28.3125000000000000,28.5442199706999986,88.4900000000000090,-135.0000000000000000
0.0000000000000000,40.0000000000000000,34.8799705504999977,-18.4399986266999996,896.0199584959999580,10.6400299072000006,893.6001586910000460,-55.7800102233999979,28.3125000000000000,28.5442199706999986,88.4900000000000090,-135.0000000000000000
0.0000000000000000,40.0000000000000000,35.1000213622999979,-18.4999904633000014,896.1200561519999600,10.4800195693999996,893.4400024410000460,-56.0200576781999970,28.3125000000000000,28.5754508971999996,88.4900000000000090,-135.0000000000000000
