Index,X Accel 1,Y Accel 1,Z Accel 1,X Accel 2,Y Accel 2,Z Accel2,Temp,Theta ,Phi,,,,,,,,
1.000,643.455,-13.090,-636.045,633.500,449.485,-453.760,26.125,-45.154,180.000
1.000,643.080,-12.775,-635.960,634.260,450.045,-453.795,26.125,-45.154,180.000
1.000,643.605,-12.285,-635.715,633.230,449.815,-453.420,26.125,-45.152,180.000
1.000,643.375,-12.275,-636.090,633.475,450.150,-453.505,26.125,-45.165,180.000
1.000,643.430,-12.815,-636.175,633.815,449.710,-453.085,26.125,-45.165,180.000
1.000,643.260,-12.660,-635.935,633.685,449.550,-453.840,26.125,-45.165,180.000
1.000,643.445,-12.745,-635.760,633.280,449.615,-454.025,26.125,-45.147,180.000
1.000,643.010,-12.535,-635.465,633.935,449.685,-453.430,26.125,-45.147,180.000
1.000,643.745,-12.930,-635.690,633.285,450.065,-453.805,26.125,-45.152,180.000
1.000,643.455,-12.470,-636.650,633.435,449.815,-453.225,25.812,-45.150,180.000
2.000,462.135,438.165,-644.345,454.220,764.760,-140.360,26.125,-45.154,135.000
2.000,461.695,438.255,-644.150,453.515,765.050,-140.420,25.812,-45.154,135.000
2.000,462.110,438.190,-644.525,453.590,765.170,-140.525,26.125,-45.154,135.000
2.000,461.885,438.085,-643.445,454.400,765.320,-140.960,26.125,-45.154,135.000
2.000,461.890,437.885,-644.160,454.315,764.960,-140.435,26.125,-45.154,135.000
2.000,461.335,438.155,-643.965,454.280,765.345,-141.605,25.812,-45.154,135.000
2.000,462.430,438.355,-644.395,453.960,764.875,-140.400,26.125,-45.147,135.000
2.000,462.000,438.275,-644.360,454.315,764.825,-140.775,26.125,-45.147,135.000
2.000,462.295,437.980,-643.835,454.130,764.375,-140.510,26.125,-45.145,135.000
2.000,461.435,438.365,-643.490,454.180,765.250,-141.070,26.125,-45.145,135.000
3.000,15.920,627.325,-657.515,3.035,898.905,-6.685,25.812,-45.145,90.000
3.000,16.030,627.240,-657.110,2.820,899.005,-6.580,26.125,-45.145,90.000
3.000,15.725,626.930,-657.755,3.255,899.045,-6.475,26.125,-45.145,90.000
3.000,15.115,627.330,-657.500,2.985,898.920,-6.865,26.437,-45.145,90.000
3.000,15.515,626.910,-656.990,2.835,898.540,-6.510,26.125,-45.145,90.000
3.000,16.010,627.080,-656.885,3.030,898.750,-6.355,26.125,-45.145,90.000
3.000,15.915,626.950,-657.210,3.895,898.780,-6.460,26.125,-45.159,90.000
3.000,16.025,626.765,-657.840,3.170,899.215,-5.985,26.125,-45.155,90.000
3.000,15.545,627.040,-657.170,2.870,899.020,-6.280,26.125,-45.155,90.000
3.000,15.265,626.635,-657.520,3.260,898.830,-5.980,26.125,-45.155,90.000
4.000,-433.215,450.175,-652.755,-445.800,769.540,-134.240,26.125,-45.155,45.000
4.000,-432.505,450.785,-653.055,-445.870,769.695,-134.200,26.437,-45.155,45.000
4.000,-433.100,450.030,-652.870,-445.140,769.825,-134.610,26.125,-45.155,45.000
4.000,-433.040,450.510,-652.890,-445.800,769.115,-134.625,26.125,-45.155,45.000
4.000,-432.765,450.065,-652.720,-445.660,770.015,-134.305,26.125,-45.155,45.000
4.000,-433.045,450.190,-653.185,-445.810,769.495,-134.765,26.125,-45.155,45.000
4.000,-432.765,450.205,-653.190,-446.145,769.765,-134.560,26.125,-45.155,45.000
4.000,-433.515,449.975,-653.380,-445.955,769.600,-134.125,26.125,-45.165,45.000
4.000,-432.940,449.915,-653.380,-445.980,769.775,-134.340,26.125,-45.165,45.000
4.000,-432.315,449.495,-653.125,-446.650,769.655,-134.615,26.125,-45.150,45.000
5.000,-630.725,6.440,-643.345,-632.195,455.415,-446.445,26.125,-45.139,0.000
5.000,-630.570,6.370,-643.175,-632.635,455.750,-445.650,26.125,-45.137,0.000
5.000,-630.515,6.380,-643.220,-632.585,455.805,-446.130,26.125,-45.134,0.000
5.000,-630.910,6.040,-643.510,-632.805,455.600,-445.740,26.125,-45.134,0.000
5.000,-630.745,6.085,-643.865,-632.600,455.235,-445.870,26.125,-45.134,0.000
5.000,-630.825,6.140,-644.310,-632.620,455.700,-446.510,26.125,-45.134,0.000
5.000,-631.100,6.025,-643.280,-631.845,455.665,-446.255,26.125,-45.134,0.000
5.000,-630.720,6.635,-643.720,-632.560,455.765,-446.190,26.125,-45.134,0.000
5.000,-630.860,6.520,-643.745,-632.175,455.820,-446.545,25.812,-45.145,0.000
5.000,-630.995,6.200,-643.505,-631.810,456.325,-445.790,26.125,-45.159,0.000
6.000,-445.880,-444.690,-641.175,-452.585,137.005,-764.355,26.125,-45.152,-45.000
6.000,-445.345,-444.300,-641.540,-453.015,137.330,-763.705,26.125,-45.154,-45.000
6.000,-445.435,-444.940,-640.615,-452.965,137.630,-764.365,26.125,-45.154,-45.000
6.000,-445.825,-444.540,-641.685,-452.590,137.435,-764.365,26.125,-45.144,-45.000
6.000,-445.380,-444.525,-640.965,-452.680,137.685,-764.095,26.125,-45.154,-45.000
6.000,-445.760,-444.165,-641.045,-452.845,137.195,-764.455,26.125,-45.154,-45.000
6.000,-445.340,-444.225,-640.955,-453.060,137.095,-764.450,26.125,-45.154,-45.000
6.000,-445.910,-444.775,-641.205,-452.365,137.250,-764.300,25.812,-45.154,-45.000
6.000,-445.805,-444.930,-641.030,-452.945,137.340,-764.135,26.125,-45.154,-45.000
6.000,-445.545,-444.565,-641.250,-452.530,137.190,-764.390,26.125,-45.154,-45.000
7.000,0.740,-633.975,-636.955,-4.095,4.900,-897.460,26.437,-45.154,-90.000
7.000,0.865,-633.730,-636.265,-3.685,4.625,-897.715,26.125,-45.144,-90.000
7.000,0.375,-633.740,-636.360,-3.120,4.400,-897.540,26.125,-45.159,-90.000
7.000,1.195,-633.780,-636.640,-3.435,4.250,-897.210,26.125,-45.159,-90.000
7.000,1.270,-633.915,-636.020,-3.445,4.445,-897.485,26.125,-45.144,-90.000
7.000,0.330,-634.085,-636.375,-3.230,4.525,-897.965,26.125,-45.144,-90.000
7.000,0.795,-633.695,-636.855,-3.325,4.605,-898.495,26.437,-45.142,-90.000
7.000,0.540,-633.770,-637.350,-2.835,4.500,-897.160,26.437,-45.135,-90.000
7.000,0.890,-633.685,-636.720,-3.565,4.670,-897.615,26.125,-45.135,-90.000
7.000,0.850,-633.460,-636.470,-3.305,4.710,-896.785,25.812,-45.144,-90.000
8.000,452.040,-457.830,-629.310,448.085,133.250,-767.735,26.437,-45.144,-135.000
8.000,451.695,-457.845,-629.615,447.265,133.520,-767.650,26.125,-45.144,-135.000
8.000,451.605,-457.515,-629.185,447.890,133.355,-767.535,26.125,-45.147,-135.000
8.000,452.415,-457.960,-629.780,447.505,133.330,-768.195,26.125,-45.135,-135.000
8.000,452.335,-457.365,-629.870,448.110,133.115,-767.715,25.812,-45.142,-135.000
8.000,451.915,-457.230,-629.455,448.100,133.740,-767.515,25.812,-45.145,-135.000
8.000,452.315,-456.975,-629.190,448.065,133.645,-767.920,26.125,-45.145,-135.000
8.000,451.720,-457.685,-629.335,447.890,133.325,-767.680,26.125,-45.145,-135.000
8.000,451.775,-457.960,-628.840,447.495,133.000,-768.410,25.812,-45.145,-135.000
8.000,452.040,-457.925,-629.565,446.970,133.260,-767.765,26.125,-45.150,-135.000
9.000,901.390,-0.410,1.975,898.410,0.335,-4.895,26.125,-0.065,180.000
9.000,901.660,-0.195,2.310,898.575,-0.030,-5.320,26.125,-0.074,180.000
9.000,901.700,0.010,1.720,898.515,-0.025,-4.775,25.812,-0.074,180.000
9.000,901.505,-0.680,1.535,898.425,0.500,-4.970,26.125,-0.084,180.000
9.000,901.815,-0.585,1.835,898.425,0.250,-5.150,26.125,-0.095,180.000
9.000,901.775,-0.375,1.825,898.495,0.270,-5.200,26.125,-0.095,180.000
9.000,901.805,-0.480,2.100,898.215,-0.105,-5.775,26.125,-0.095,180.000
9.000,901.600,-0.500,1.160,898.100,0.445,-4.575,25.812,-0.105,180.000
9.000,901.995,-0.365,1.910,898.390,-0.160,-5.050,26.125,-0.105,180.000
9.000,901.575,-0.755,1.845,898.725,0.580,-5.130,26.125,-0.105,180.000
10.000,651.815,633.715,-12.385,638.130,447.155,439.215,26.125,-0.105,135.000
10.000,651.855,633.050,-12.105,638.220,447.580,439.510,26.125,-0.115,135.000
10.000,652.535,633.685,-12.885,638.115,448.140,439.365,26.125,-0.115,135.000
10.000,651.765,633.640,-12.775,638.465,448.025,439.260,26.125,-0.115,135.000
10.000,652.405,634.060,-12.560,638.265,447.920,439.595,26.125,-0.125,135.000
10.000,652.310,633.585,-12.665,638.060,448.145,439.405,26.125,-0.135,135.000
10.000,651.920,633.380,-12.460,638.075,448.160,439.230,25.812,-0.135,135.000
10.000,652.030,633.415,-13.035,638.525,448.100,440.225,26.125,-0.135,135.000
10.000,652.050,633.210,-12.805,638.165,448.495,439.415,25.812,-0.135,135.000
10.000,652.250,633.690,-12.575,638.445,448.155,439.140,26.125,-0.155,135.000
11.000,12.180,905.165,-24.340,4.595,634.065,633.125,26.125,-0.155,90.000
11.000,12.245,905.480,-24.010,3.990,633.585,632.515,26.437,-0.175,90.000
11.000,12.400,906.115,-24.545,3.915,633.890,632.630,25.812,-0.175,90.000
11.000,12.370,906.230,-24.520,4.110,634.245,632.385,26.125,-0.175,90.000
11.000,11.855,906.255,-23.780,3.960,633.910,632.550,26.125,-0.175,90.000
11.000,12.155,905.820,-24.425,4.345,634.455,633.090,26.125,-0.175,90.000
11.000,12.180,905.895,-24.390,4.380,634.045,632.575,25.812,-0.185,90.000
11.000,11.650,906.625,-24.270,4.385,634.195,632.720,25.812,-0.195,90.000
11.000,12.195,905.870,-24.905,3.750,634.280,632.330,26.125,-0.195,90.000
11.000,11.840,905.450,-24.820,4.125,634.320,632.810,25.812,-0.195,90.000
12.000,-631.180,647.525,-28.540,-632.810,453.240,443.050,26.125,-0.214,45.000
12.000,-631.230,648.070,-28.180,-633.710,452.695,442.590,25.812,-0.214,45.000
12.000,-631.185,647.430,-27.920,-632.945,453.105,442.390,26.125,-0.207,45.000
12.000,-631.985,647.580,-27.845,-632.685,452.825,443.095,25.812,-0.205,45.000
12.000,-631.720,647.820,-28.810,-633.300,453.300,442.570,26.125,-0.225,45.000
12.000,-632.485,647.080,-28.275,-633.615,452.670,441.895,26.125,-0.217,45.000
12.000,-631.975,647.255,-28.170,-632.445,452.640,442.775,26.125,-0.214,45.000
12.000,-631.615,647.500,-28.360,-633.315,452.925,442.545,25.812,-0.214,45.000
12.000,-631.375,647.525,-28.200,-633.450,453.065,442.655,26.125,-0.225,45.000
12.000,-631.720,647.660,-28.280,-632.765,452.645,443.200,26.125,-0.225,45.000
13.000,-897.545,18.005,-20.925,-898.920,5.805,-2.385,26.125,-0.225,0.000
13.000,-897.295,17.805,-20.775,-898.335,6.330,-2.620,26.125,-0.225,0.000
13.000,-897.125,17.960,-20.555,-899.495,6.195,-2.260,26.125,-0.225,0.000
13.000,-896.745,17.770,-21.330,-898.260,6.525,-2.320,25.812,-0.220,0.000
13.000,-897.355,17.970,-20.650,-897.875,6.390,-2.015,25.812,-0.217,0.000
13.000,-898.120,17.990,-20.940,-898.145,6.470,-2.590,25.812,-0.225,0.000
13.000,-897.345,17.855,-20.515,-898.070,6.450,-3.070,26.125,-0.225,0.000
13.000,-896.855,17.940,-21.050,-898.240,6.510,-2.480,26.125,-0.225,0.000
13.000,-897.295,17.840,-21.205,-898.325,6.560,-2.675,25.812,-0.225,0.000
13.000,-897.195,18.065,-21.110,-897.660,6.185,-2.485,26.125,-0.214,0.000
14.000,-648.030,-619.105,-6.800,-640.245,-442.655,-455.025,26.125,-0.225,-45.000
14.000,-647.565,-619.720,-7.405,-640.540,-443.140,-454.635,26.125,-0.225,-45.000
14.000,-647.660,-619.725,-7.205,-640.225,-442.580,-454.330,26.125,-0.225,-45.000
14.000,-647.635,-619.480,-7.715,-640.130,-442.865,-454.815,26.125,-0.225,-45.000
14.000,-647.365,-619.780,-6.855,-641.025,-442.940,-455.095,26.125,-0.225,-45.000
14.000,-647.015,-619.560,-7.320,-640.725,-442.930,-454.315,26.125,-0.225,-45.000
14.000,-647.210,-619.370,-6.615,-640.195,-442.780,-454.265,26.125,-0.225,-45.000
14.000,-647.270,-619.715,-7.520,-640.160,-442.935,-454.500,25.812,-0.225,-45.000
14.000,-647.320,-619.740,-7.330,-640.065,-442.960,-454.040,26.125,-0.225,-45.000
14.000,-647.250,-619.480,-7.145,-640.535,-443.600,-454.615,25.812,-0.225,-45.000
15.000,-6.700,-893.295,3.790,-4.565,-629.990,-647.520,26.125,-0.225,-90.000
15.000,-6.690,-893.480,2.990,-4.070,-629.610,-647.460,26.125,-0.225,-90.000
15.000,-6.165,-893.685,3.145,-3.385,-629.970,-647.260,26.125,-0.225,-90.000
15.000,-6.620,-893.130,3.135,-3.595,-629.960,-647.200,26.125,-0.225,-90.000
15.000,-6.370,-893.160,3.255,-3.565,-629.820,-647.550,26.437,-0.225,-90.000
15.000,-6.225,-893.625,3.645,-3.580,-629.605,-647.345,26.125,-0.235,-90.000
15.000,-6.520,-892.835,3.855,-3.510,-629.940,-647.270,26.125,-0.235,-90.000
15.000,-6.415,-893.310,2.965,-4.265,-629.700,-647.540,26.125,-0.235,-90.000
15.000,-6.590,-892.920,3.040,-4.560,-629.600,-647.480,25.812,-0.235,-90.000
15.000,-6.825,-893.040,3.265,-4.145,-629.340,-647.470,26.125,-0.235,-90.000
16.000,638.150,-635.395,6.605,633.620,-449.195,-457.370,25.812,-0.214,-135.000
16.000,638.745,-635.510,6.810,633.930,-448.910,-458.170,26.125,-0.214,-135.000
16.000,638.925,-636.060,6.930,633.805,-449.585,-457.025,25.812,-0.214,-135.000
16.000,638.305,-635.475,6.920,634.035,-448.960,-457.815,26.125,-0.230,-135.000
16.000,638.335,-636.085,6.905,633.795,-449.495,-457.880,26.125,-0.225,-135.000
16.000,638.640,-635.745,7.690,633.525,-449.520,-457.800,25.812,-0.225,-135.000
16.000,638.375,-636.275,6.875,633.000,-448.915,-457.515,26.125,-0.225,-135.000
16.000,638.645,-635.945,7.145,633.595,-448.975,-458.065,25.812,-0.225,-135.000
16.000,639.000,-635.895,7.140,634.335,-449.455,-457.545,26.125,-0.225,-135.000
16.000,639.000,-636.390,6.675,633.520,-449.350,-458.315,25.812,-0.232,-135.000
17.000,634.650,13.845,636.735,639.185,-447.540,441.570,25.812,44.815,180.000
17.000,634.355,13.700,636.155,639.145,-447.525,442.115,26.125,44.825,180.000
17.000,633.690,14.055,635.895,639.270,-447.995,441.910,26.125,44.825,180.000
17.000,634.485,14.035,636.335,640.530,-447.135,442.320,25.812,44.825,180.000
17.000,634.080,14.155,636.385,639.470,-448.170,442.670,26.125,44.825,180.000
17.000,634.715,14.345,636.235,639.140,-447.595,441.935,25.812,44.825,180.000
17.000,634.260,14.205,635.940,639.295,-447.585,441.280,25.812,44.825,180.000
17.000,634.880,13.940,636.435,639.945,-447.880,441.995,25.812,44.825,180.000
17.000,634.320,13.940,636.470,639.545,-447.980,442.185,26.125,44.825,180.000
17.000,634.105,13.585,636.210,639.335,-447.820,441.555,26.437,44.825,180.000
18.000,451.515,465.255,623.815,454.905,-132.770,756.190,25.812,44.834,135.000
18.000,451.930,465.090,623.835,455.225,-132.230,756.675,25.812,44.834,135.000
18.000,451.460,464.910,623.745,455.905,-132.275,756.740,26.125,44.834,135.000
18.000,450.885,465.010,623.290,456.000,-132.080,757.155,26.125,44.834,135.000
18.000,451.110,464.730,623.530,455.490,-132.350,756.890,25.812,44.827,135.000
18.000,451.185,465.155,624.080,455.675,-132.335,756.505,25.812,44.827,135.000
18.000,450.995,464.680,623.495,455.725,-132.650,756.835,25.812,44.827,135.000
18.000,451.185,465.055,623.875,455.895,-132.195,757.215,26.125,44.825,135.000
18.000,450.755,465.230,623.700,455.295,-132.280,756.705,25.812,44.825,135.000
18.000,451.330,465.225,623.095,455.540,-132.440,755.670,26.125,44.822,135.000
19.000,1.470,653.945,619.880,1.960,0.470,891.265,25.812,44.815,90.000
19.000,1.325,653.580,620.545,1.215,0.760,891.470,25.812,44.825,90.000
19.000,1.340,653.725,620.495,1.400,0.820,890.595,25.812,44.834,90.000
19.000,1.290,653.760,620.170,1.410,0.565,890.820,25.812,44.834,90.000
19.000,1.725,653.760,620.185,1.310,0.670,890.795,26.125,44.825,90.000
19.000,1.170,654.015,620.450,1.635,0.535,890.010,26.125,44.825,90.000
19.000,1.300,653.375,620.340,2.745,0.835,891.550,25.812,44.825,90.000
19.000,1.275,654.070,620.130,1.425,1.125,890.245,25.812,44.817,90.000
19.000,2.120,653.690,620.430,1.280,0.730,891.545,25.812,44.822,90.000
19.000,1.085,653.695,620.755,1.170,1.025,890.695,26.125,44.822,90.000
20.000,-451.255,470.850,611.140,-455.010,-131.795,758.075,25.812,44.827,45.000
20.000,-450.370,470.790,611.100,-454.955,-131.775,758.225,26.125,44.834,45.000
20.000,-450.760,470.350,611.100,-455.115,-132.285,757.730,25.812,44.827,45.000
20.000,-450.835,470.335,611.760,-454.720,-132.525,758.105,25.812,44.827,45.000
20.000,-450.615,470.430,610.875,-455.465,-132.545,758.365,26.125,44.827,45.000
20.000,-450.285,470.635,611.490,-454.995,-132.060,758.460,25.812,44.827,45.000
20.000,-450.575,470.850,611.610,-454.450,-132.465,757.395,25.812,44.827,45.000
20.000,-450.895,470.475,610.980,-455.135,-132.035,758.285,26.125,44.825,45.000
20.000,-450.645,470.655,611.520,-454.980,-132.095,758.205,25.812,44.825,45.000
20.000,-450.975,470.645,611.110,-455.665,-132.310,758.500,25.812,44.825,45.000
21.000,-645.430,16.225,617.835,-641.660,-448.450,441.000,25.812,44.814,0.000
21.000,-645.040,16.270,617.495,-640.920,-448.395,441.525,26.125,44.825,0.000
21.000,-644.945,15.830,617.570,-640.495,-448.375,441.020,26.125,44.825,0.000
21.000,-645.135,16.230,617.355,-640.905,-448.770,440.575,25.812,44.825,0.000
21.000,-645.010,16.200,617.905,-640.195,-448.800,441.370,26.125,44.825,0.000
21.000,-645.725,16.250,617.175,-641.250,-448.290,441.625,26.125,44.834,0.000
21.000,-645.155,16.535,617.245,-641.480,-448.295,441.060,26.125,44.827,0.000
21.000,-644.710,16.695,617.800,-640.765,-448.045,441.430,26.125,44.827,0.000
21.000,-645.255,16.375,617.910,-641.405,-448.780,440.530,25.812,44.827,0.000
21.000,-644.510,16.340,617.695,-641.405,-448.490,440.905,26.125,44.827,0.000
22.000,-459.855,-433.980,628.325,-458.450,-766.690,122.875,26.125,44.827,-45.000
22.000,-459.390,-434.105,628.360,-458.585,-766.410,121.995,26.125,44.815,-45.000
22.000,-459.900,-434.435,627.965,-458.740,-766.805,122.065,26.125,44.815,-45.000
22.000,-460.095,-434.195,628.370,-458.230,-766.435,122.215,26.125,44.815,-45.000
22.000,-460.250,-434.175,628.160,-458.395,-766.905,122.420,25.812,44.822,-45.000
22.000,-459.675,-434.320,628.200,-458.840,-766.915,122.320,25.812,44.824,-45.000
22.000,-460.175,-433.705,628.320,-458.260,-766.630,121.605,26.125,44.839,-45.000
22.000,-459.530,-433.405,628.415,-458.860,-766.665,122.135,25.812,44.837,-45.000
22.000,-460.135,-433.880,628.290,-459.220,-766.860,123.040,26.125,44.837,-45.000
22.000,-459.625,-433.880,628.445,-459.535,-766.865,122.395,26.125,44.842,-45.000
23.000,-8.070,-622.130,639.915,-0.435,-900.030,-11.170,26.125,44.842,-90.000
23.000,-8.190,-622.915,639.795,-0.765,-900.315,-11.380,25.812,44.837,-90.000
23.000,-8.100,-622.600,639.540,-0.895,-900.270,-11.475,25.812,44.837,-90.000
23.000,-8.245,-622.415,639.975,-0.545,-900.470,-11.265,26.125,44.837,-90.000
23.000,-7.980,-622.650,639.205,-0.845,-900.560,-11.235,25.500,44.830,-90.000
23.000,-7.885,-622.485,639.545,-0.605,-900.705,-10.340,26.125,44.825,-90.000
23.000,-8.030,-622.695,639.380,-0.800,-900.670,-10.970,26.125,44.825,-90.000
23.000,-8.030,-622.510,639.930,-0.790,-900.440,-11.315,26.437,44.822,-90.000
23.000,-7.980,-622.400,640.035,-0.830,-900.595,-11.640,26.125,44.815,-90.000
23.000,-7.540,-622.580,639.905,-0.730,-900.245,-10.900,25.812,44.815,-90.000
24.000,444.855,-441.475,636.280,453.615,-769.295,120.330,25.812,44.815,-135.000
24.000,444.390,-442.085,636.070,453.220,-769.465,120.020,25.812,44.825,-135.000
24.000,444.240,-441.660,636.170,453.870,-768.965,120.445,26.437,44.825,-135.000
24.000,445.190,-442.275,636.510,452.935,-768.880,120.570,25.812,44.825,-135.000
24.000,444.760,-441.935,635.640,453.675,-769.010,120.600,26.125,44.827,-135.000
24.000,444.620,-441.885,635.705,453.985,-769.150,120.730,26.125,44.827,-135.000
24.000,444.765,-441.740,636.220,452.655,-769.575,120.425,26.125,44.825,-135.000
24.000,444.625,-441.480,636.190,452.975,-768.895,119.895,25.812,44.825,-135.000
24.000,444.475,-441.730,636.325,452.850,-769.530,120.045,26.125,44.819,-135.000
24.000,444.750,-441.390,636.340,453.570,-769.435,119.860,26.125,44.819,-135.000
25.000,373.940,19.950,811.310,370.375,-580.020,574.175,26.125,65.657,180.000
25.000,374.070,19.270,810.960,370.955,-580.370,575.260,26.125,65.665,180.000
25.000,373.570,19.070,811.125,370.510,-579.710,573.945,25.812,65.665,180.000
25.000,373.750,19.590,811.090,371.155,-579.260,573.820,25.812,65.667,180.000
25.000,374.380,19.710,811.075,370.385,-579.755,574.000,25.812,65.669,180.000
25.000,374.005,19.845,810.955,370.595,-579.790,573.955,25.812,65.665,180.000
25.000,373.760,20.050,811.220,370.345,-579.675,574.275,25.812,65.654,180.000
25.000,373.590,19.205,810.890,370.160,-579.580,573.475,25.812,65.654,180.000
25.000,374.040,19.245,810.735,370.745,-579.745,574.135,26.125,65.654,180.000
25.000,373.885,19.340,811.030,370.745,-579.850,574.740,25.812,65.654,180.000
26.000,258.670,280.490,810.570,265.145,-397.460,755.465,26.125,65.664,135.000
26.000,259.035,280.230,810.615,264.885,-397.745,755.270,25.500,65.664,135.000
26.000,258.815,280.530,810.805,265.930,-397.995,755.480,26.125,65.664,135.000
26.000,258.420,279.835,810.305,265.225,-397.860,755.735,25.812,65.664,135.000
26.000,258.695,280.110,810.395,265.935,-397.675,755.935,26.125,65.664,135.000
26.000,257.990,279.960,810.210,265.135,-397.505,755.845,26.125,65.662,135.000
26.000,258.490,280.490,810.480,265.815,-397.510,755.530,26.125,65.654,135.000
26.000,258.210,279.600,810.385,265.870,-397.395,755.610,25.812,65.664,135.000
26.000,258.935,280.555,810.815,265.070,-397.280,755.500,26.125,65.682,135.000
26.000,259.210,280.210,810.420,265.860,-397.545,755.550,25.812,65.677,135.000
27.000,-4.295,393.640,802.700,-3.525,-320.700,832.035,25.812,65.675,90.000
27.000,-4.090,394.080,802.650,-3.355,-320.190,831.845,25.812,65.675,90.000
27.000,-4.040,394.455,802.405,-2.870,-320.220,831.340,26.125,65.684,90.000
27.000,-4.635,393.545,802.230,-3.175,-320.360,831.095,26.125,65.680,90.000
27.000,-4.505,393.975,802.775,-2.795,-320.830,831.455,25.812,65.675,90.000
27.000,-3.805,393.960,801.800,-3.290,-320.290,831.815,25.812,65.675,90.000
27.000,-4.260,393.845,802.375,-3.325,-320.645,831.850,25.812,65.684,90.000
27.000,-4.185,393.945,802.630,-2.975,-320.215,831.695,25.812,65.675,90.000
27.000,-4.180,393.865,802.530,-2.850,-320.415,831.590,26.125,65.694,90.000
27.000,-3.840,393.820,802.120,-2.735,-319.670,832.015,25.812,65.690,90.000
28.000,-271.010,283.255,801.365,-263.065,-396.805,758.585,25.812,65.684,45.000
28.000,-271.795,283.735,801.740,-263.930,-396.205,758.640,26.437,65.684,45.000
28.000,-271.520,283.610,800.915,-263.200,-396.680,758.465,25.812,65.677,45.000
28.000,-271.495,283.720,801.060,-263.475,-396.475,759.575,25.812,65.677,45.000
28.000,-271.125,283.555,800.820,-263.780,-396.660,758.825,26.125,65.675,45.000
28.000,-270.880,283.270,801.025,-263.125,-396.500,759.250,26.125,65.675,45.000
28.000,-271.405,283.450,800.720,-263.385,-396.630,758.915,26.125,65.675,45.000
28.000,-271.155,283.870,801.145,-263.625,-396.770,758.755,25.812,65.675,45.000
28.000,-271.040,284.010,801.485,-263.780,-396.035,758.375,25.500,65.675,45.000
28.000,-271.955,283.855,801.040,-263.225,-396.820,758.305,25.812,65.667,45.000
29.000,-383.020,17.760,804.500,-371.075,-583.370,568.380,25.812,65.654,0.000
29.000,-382.420,17.670,804.475,-371.520,-583.820,567.945,25.812,65.654,0.000
29.000,-382.560,17.720,803.770,-370.705,-584.120,569.220,25.812,65.662,0.000
29.000,-383.945,18.375,804.420,-372.590,-583.960,568.505,25.812,65.667,0.000
29.000,-382.080,17.290,804.890,-370.620,-584.315,568.475,26.125,65.667,0.000
29.000,-383.105,17.620,804.335,-371.600,-584.425,569.445,26.125,65.654,0.000
29.000,-382.660,17.515,804.515,-371.625,-584.195,569.455,25.812,65.660,0.000
29.000,-382.685,17.810,804.355,-371.035,-584.095,569.530,25.812,65.662,0.000
29.000,-382.840,17.665,803.790,-371.490,-583.875,569.150,26.125,65.657,0.000
29.000,-383.355,17.580,804.650,-370.880,-583.640,569.945,25.812,65.654,0.000
30.000,-272.455,-248.145,809.395,-266.205,-767.705,385.995,26.125,65.665,-45.000
30.000,-272.140,-248.050,808.945,-267.120,-767.455,386.315,26.125,65.665,-45.000
30.000,-272.475,-248.190,808.655,-266.955,-767.160,385.380,26.125,65.654,-45.000
30.000,-272.285,-247.970,809.175,-266.665,-767.460,384.945,26.125,65.672,-45.000
30.000,-272.005,-248.500,809.495,-266.975,-767.520,385.425,25.812,65.675,-45.000
30.000,-272.465,-248.105,809.130,-266.900,-767.705,385.645,25.812,65.675,-45.000
30.000,-272.290,-248.230,809.205,-266.745,-767.400,385.085,25.812,65.675,-45.000
30.000,-272.395,-248.110,809.350,-267.550,-767.315,386.000,25.812,65.675,-45.000
30.000,-272.170,-248.420,809.445,-266.380,-767.730,385.935,25.812,65.669,-45.000
30.000,-272.460,-248.245,809.390,-266.705,-767.510,385.615,25.812,65.665,-45.000
31.000,-4.290,-358.515,814.125,0.795,-844.545,309.775,25.812,65.675,-90.000
31.000,-4.495,-358.555,813.890,1.195,-844.390,309.715,25.812,65.675,-90.000
31.000,-3.840,-358.600,813.510,1.375,-844.720,308.650,25.812,65.675,-90.000
31.000,-3.990,-358.730,813.265,1.365,-844.755,310.000,25.812,65.675,-90.000
31.000,-4.355,-358.930,813.130,1.225,-845.060,310.460,26.125,65.675,-90.000
31.000,-3.340,-358.555,813.130,0.845,-844.355,309.470,26.125,65.675,-90.000
31.000,-4.405,-359.030,813.480,0.985,-844.495,309.905,26.125,65.675,-90.000
31.000,-4.375,-358.235,813.755,1.390,-844.505,309.805,26.125,65.675,-90.000
31.000,-4.055,-358.665,813.600,0.610,-844.250,309.705,25.500,65.675,-90.000
31.000,-4.415,-358.565,814.275,1.295,-844.335,309.610,26.125,65.675,-90.000
32.000,260.945,-249.370,814.965,266.090,-766.170,388.460,25.812,65.682,-135.000
32.000,260.670,-249.350,814.860,266.225,-766.370,388.750,26.125,65.675,-135.000
32.000,261.250,-249.115,814.210,265.810,-765.775,388.695,25.812,65.675,-135.000
32.000,260.440,-249.445,813.985,266.475,-766.345,388.565,26.125,65.675,-135.000
32.000,260.435,-248.995,815.020,266.065,-766.090,388.875,25.812,65.682,-135.000
32.000,261.430,-249.235,814.285,266.210,-765.815,388.780,25.812,65.684,-135.000
32.000,260.730,-249.255,814.110,265.590,-765.905,388.865,26.125,65.684,-135.000
32.000,260.200,-249.005,814.400,265.990,-765.885,388.720,26.125,65.684,-135.000
32.000,260.725,-248.895,814.535,266.805,-765.925,388.765,25.812,65.684,-135.000
32.000,260.150,-249.380,814.810,266.385,-765.665,388.935,26.125,65.684,-135.000
33.000,58.945,24.185,887.125,63.485,-631.570,634.595,25.812,86.164,180.000
33.000,59.655,24.350,887.935,63.575,-631.980,634.900,26.125,86.164,180.000
33.000,58.935,23.900,887.400,63.270,-631.740,634.235,25.812,86.164,180.000
33.000,58.725,23.830,887.445,62.700,-631.695,634.795,26.125,86.175,180.000
33.000,58.905,23.930,887.510,63.595,-631.890,634.635,25.500,86.164,180.000
33.000,59.075,23.755,886.860,62.830,-632.080,634.580,25.812,86.157,180.000
33.000,58.430,24.270,887.190,62.595,-631.520,634.470,25.500,86.162,180.000
33.000,59.005,23.905,887.835,63.180,-631.485,634.540,25.812,86.162,180.000
33.000,59.115,24.055,887.270,63.530,-631.750,634.865,25.812,86.175,180.000
33.000,58.750,23.625,887.885,63.355,-631.605,634.975,26.125,86.169,180.000
34.000,37.630,66.415,886.555,42.250,-601.725,664.260,26.125,86.182,135.000
34.000,37.065,66.825,885.510,42.655,-602.130,663.970,25.812,86.182,135.000
34.000,37.395,66.460,885.630,41.780,-602.100,664.560,26.125,86.184,135.000
34.000,37.190,66.225,885.550,42.140,-602.455,664.040,25.812,86.184,135.000
34.000,37.665,66.930,886.105,42.600,-601.750,664.735,25.812,86.175,135.000
34.000,37.365,67.135,886.030,42.450,-602.380,664.910,26.125,86.194,135.000
34.000,36.715,66.830,885.890,41.760,-602.350,663.995,25.812,86.184,135.000
34.000,37.955,66.435,886.340,41.685,-602.065,664.295,25.812,86.184,135.000
34.000,37.225,66.565,886.185,42.445,-601.985,664.860,25.812,86.184,135.000
34.000,36.965,66.840,886.655,42.400,-602.305,664.450,26.125,86.184,135.000
35.000,-8.215,83.275,885.335,-5.085,-589.765,676.440,26.125,86.194,90.000
35.000,-8.550,83.050,885.630,-4.480,-589.525,676.820,25.500,86.194,90.000
35.000,-8.620,83.200,885.605,-4.650,-589.615,677.065,25.812,86.194,90.000
35.000,-8.560,83.475,884.775,-4.485,-589.800,677.080,25.812,86.194,90.000
35.000,-8.730,82.720,885.580,-4.580,-590.050,676.530,25.812,86.194,90.000
35.000,-8.720,83.720,884.815,-4.855,-590.010,677.025,25.812,86.189,90.000
35.000,-8.400,83.345,885.130,-4.350,-589.645,676.715,25.500,86.194,90.000
35.000,-8.245,82.755,885.265,-4.195,-589.530,676.130,25.812,86.184,90.000
35.000,-8.445,82.865,885.220,-4.620,-589.810,676.650,25.812,86.184,90.000
35.000,-8.255,83.565,884.910,-4.825,-589.225,676.350,25.812,86.175,90.000
36.000,-53.540,60.840,884.285,-49.890,-605.180,661.785,25.812,86.175,45.000
36.000,-53.580,61.145,884.255,-51.175,-604.865,661.905,25.812,86.175,45.000
36.000,-53.635,61.255,883.775,-50.245,-605.575,661.780,25.812,86.167,45.000
36.000,-53.760,61.105,884.150,-51.430,-605.030,661.505,26.125,86.175,45.000
36.000,-53.195,60.990,884.090,-50.540,-605.495,661.590,25.812,86.175,45.000
36.000,-53.830,61.025,883.535,-49.735,-605.170,661.230,25.500,86.175,45.000
36.000,-53.615,61.080,883.680,-49.555,-605.180,662.240,25.812,86.169,45.000
36.000,-54.070,61.425,883.845,-51.275,-604.755,661.370,25.812,86.167,45.000
36.000,-53.620,61.525,884.000,-50.800,-605.355,662.015,25.812,86.175,45.000
36.000,-54.250,61.125,883.140,-49.845,-604.895,661.050,25.812,86.169,45.000
37.000,-71.775,14.385,886.745,-65.370,-638.945,628.905,25.812,86.154,0.000
37.000,-71.280,14.580,886.640,-65.890,-638.380,628.840,25.812,86.175,0.000
37.000,-70.860,14.440,886.850,-65.840,-639.265,627.575,25.812,86.175,0.000
37.000,-70.650,14.400,886.905,-66.525,-638.660,628.455,25.812,86.175,0.000
37.000,-71.300,14.245,886.335,-65.585,-639.095,628.230,25.812,86.182,0.000
37.000,-71.385,14.480,886.435,-66.045,-638.825,628.525,25.812,86.184,0.000
37.000,-70.955,14.480,887.355,-66.095,-639.230,627.880,25.812,86.184,0.000
37.000,-71.520,14.335,886.385,-65.775,-639.300,628.055,25.812,86.184,0.000
37.000,-71.200,14.390,886.745,-65.245,-639.025,628.390,26.125,86.184,0.000
37.000,-70.720,14.745,886.430,-66.115,-639.145,628.815,26.125,86.184,0.000
38.000,-47.295,-29.590,887.455,-44.180,-669.885,598.170,25.812,86.175,-45.000
38.000,-47.555,-29.655,887.705,-43.910,-669.525,598.005,26.125,86.175,-45.000
38.000,-48.020,-29.690,887.750,-43.335,-669.790,598.390,26.125,86.182,-45.000
38.000,-47.410,-29.815,888.100,-43.375,-669.485,597.340,25.812,86.190,-45.000
38.000,-47.575,-29.550,887.410,-42.720,-669.040,598.180,26.125,86.187,-45.000
38.000,-47.765,-29.445,888.020,-43.720,-669.240,597.750,25.812,86.184,-45.000
38.000,-47.325,-29.300,887.550,-43.305,-669.685,598.270,25.500,86.184,-45.000
38.000,-47.915,-30.295,887.565,-43.515,-669.525,598.110,26.125,86.194,-45.000
38.000,-47.870,-29.685,887.310,-43.550,-669.275,598.895,25.812,86.184,-45.000
38.000,-47.655,-29.740,886.875,-43.485,-669.160,598.375,26.125,86.175,-45.000
39.000,-2.060,-45.235,887.860,3.320,-680.765,584.590,25.812,86.194,-90.000
39.000,-2.330,-45.260,888.050,3.455,-681.875,584.905,25.812,86.192,-90.000
39.000,-2.410,-45.020,888.505,3.705,-681.025,585.065,25.812,86.175,-90.000
39.000,-2.640,-44.615,888.110,4.150,-680.975,585.455,25.812,86.184,-90.000
39.000,-2.705,-45.095,888.445,4.425,-680.865,584.965,25.812,86.184,-90.000
39.000,-2.205,-45.320,888.110,3.425,-681.055,585.615,26.125,86.184,-90.000
39.000,-2.490,-45.080,888.225,3.780,-680.975,584.770,25.812,86.164,-90.000
39.000,-2.350,-45.630,888.450,3.580,-681.085,585.675,25.812,86.184,-90.000
39.000,-2.235,-45.135,888.270,3.440,-681.140,585.290,25.812,86.172,-90.000
39.000,-1.965,-45.385,888.695,3.995,-681.025,584.985,25.812,86.175,-90.000
40.000,41.000,-24.225,886.520,46.130,-666.185,600.200,25.812,86.169,-135.000
40.000,41.030,-23.925,886.670,46.730,-666.195,599.585,25.812,86.175,-135.000
40.000,41.320,-24.160,886.350,45.695,-666.095,600.115,25.500,86.167,-135.000
40.000,41.595,-24.215,886.725,46.855,-666.250,599.990,25.812,86.175,-135.000
40.000,41.050,-23.730,887.330,45.535,-665.785,600.160,26.125,86.154,-135.000
40.000,40.790,-24.400,886.955,45.910,-665.390,600.280,25.812,86.154,-135.000
40.000,41.445,-23.920,886.605,46.170,-666.315,599.575,25.812,86.179,-135.000
40.000,41.695,-24.590,887.185,45.610,-666.335,599.350,25.812,86.179,-135.000
40.000,41.180,-24.240,887.095,46.565,-665.885,600.060,25.812,86.187,-135.000
40.000,40.680,-23.810,887.270,46.250,-666.085,600.305,26.125,86.184,-135.000
