Index,X Accel 1,Y Accel 1,Z Accel 1,X Accel 2,Y Accel 2,Z Accel2,Temp,Theta ,Phi,,,,,,,,
1.000,654.665,-11.255,-624.395,645.190,442.020,-445.005,25.500,-43.854,180.000
1.000,654.825,-10.985,-624.260,645.785,442.715,-444.635,25.187,-43.854,180.000
1.000,654.765,-11.295,-624.050,645.000,442.405,-444.820,25.187,-43.854,180.000
1.000,655.005,-11.840,-624.690,645.705,442.645,-444.515,25.187,-43.854,180.000
1.000,654.910,-11.395,-624.785,645.940,442.290,-444.640,25.187,-43.854,180.000
1.000,654.975,-10.815,-624.350,645.260,442.515,-445.190,25.500,-43.844,180.000
1.000,654.735,-11.685,-624.705,644.885,442.710,-444.845,25.187,-43.852,180.000
1.000,655.030,-11.045,-624.635,645.145,442.605,-445.365,25.187,-43.872,180.000
1.000,654.300,-11.395,-624.940,645.900,442.840,-445.065,25.187,-43.880,180.000
1.000,654.690,-11.675,-625.025,645.355,442.540,-444.695,25.500,-43.877,180.000
2.000,468.160,448.320,-632.205,459.505,764.365,-123.540,25.187,-43.872,135.000
2.000,467.670,448.315,-632.450,460.190,764.115,-123.500,25.187,-43.872,135.000
2.000,467.710,448.355,-632.110,459.980,764.120,-123.795,25.187,-43.872,135.000
2.000,468.240,448.715,-632.525,459.820,764.020,-124.085,25.187,-43.872,135.000
2.000,467.700,448.425,-632.290,458.945,763.805,-124.425,25.187,-43.872,135.000
2.000,468.050,448.410,-632.475,459.740,764.370,-123.675,25.187,-43.867,135.000
2.000,467.805,447.930,-632.330,458.880,763.675,-123.675,24.875,-43.882,135.000
2.000,468.630,448.160,-632.115,459.505,763.945,-124.390,25.500,-43.885,135.000
2.000,468.125,448.440,-631.800,459.595,764.205,-124.775,25.187,-43.882,135.000
2.000,467.680,448.440,-631.965,459.875,763.560,-123.295,25.500,-43.885,135.000
3.000,12.615,638.730,-644.915,-0.160,898.810,11.080,25.187,-43.860,90.000
3.000,13.240,638.555,-645.705,0.290,898.635,10.700,25.500,-43.860,90.000
3.000,13.055,638.430,-645.475,1.030,899.270,10.600,24.875,-43.860,90.000
3.000,12.590,638.525,-644.835,1.085,898.545,10.705,25.187,-43.860,90.000
3.000,12.530,638.570,-645.275,0.270,898.860,10.570,25.187,-43.860,90.000
3.000,12.910,639.010,-644.765,0.900,898.765,10.605,25.187,-43.860,90.000
3.000,13.140,638.850,-645.370,-0.200,899.310,11.220,24.875,-43.869,90.000
3.000,13.175,638.405,-645.460,0.445,899.280,10.810,25.187,-43.867,90.000
3.000,13.310,638.675,-644.820,0.185,899.075,10.850,24.875,-43.867,90.000
3.000,13.800,638.940,-644.660,0.305,899.270,10.345,25.187,-43.867,90.000
4.000,-443.520,455.875,-641.785,-457.285,764.305,-121.225,25.187,-43.864,45.000
4.000,-443.590,455.450,-641.440,-457.725,764.550,-121.895,25.187,-43.864,45.000
4.000,-443.905,455.835,-641.645,-456.990,764.645,-121.210,25.187,-43.864,45.000
4.000,-443.855,455.015,-641.520,-457.805,764.725,-121.640,24.875,-43.864,45.000
4.000,-443.895,455.340,-641.435,-456.720,764.615,-121.520,25.500,-43.864,45.000
4.000,-444.255,455.725,-642.150,-457.165,764.405,-121.765,24.875,-43.864,45.000
4.000,-443.230,455.410,-641.995,-456.995,764.315,-121.800,25.187,-43.864,45.000
4.000,-444.165,455.555,-641.465,-457.230,764.695,-121.365,25.187,-43.864,45.000
4.000,-443.185,455.545,-642.105,-457.970,764.465,-121.720,25.187,-43.864,45.000
4.000,-443.480,455.550,-641.500,-458.020,764.725,-121.660,25.187,-43.864,45.000
5.000,-642.355,1.465,-631.730,-645.270,443.965,-442.305,25.187,-43.875,0.000
5.000,-642.235,1.045,-632.465,-645.365,444.290,-441.675,24.875,-43.875,0.000
5.000,-642.480,1.190,-631.685,-645.235,444.205,-442.410,25.500,-43.875,0.000
5.000,-642.580,1.100,-631.875,-644.680,443.550,-442.320,25.187,-43.867,0.000
5.000,-642.045,1.110,-632.085,-644.765,443.680,-441.865,25.187,-43.867,0.000
5.000,-641.585,1.155,-632.155,-646.050,443.905,-442.205,25.187,-43.864,0.000
5.000,-642.440,1.085,-632.095,-645.605,444.105,-441.525,25.187,-43.864,0.000
5.000,-642.220,1.560,-631.735,-645.910,443.770,-442.470,25.500,-43.864,0.000
5.000,-642.385,1.450,-632.260,-644.550,444.320,-441.445,25.187,-43.864,0.000
5.000,-642.270,1.380,-632.610,-645.110,444.155,-442.215,25.187,-43.864,0.000
6.000,-450.680,-457.015,-628.235,-459.505,122.630,-762.000,25.187,-43.864,-45.000
6.000,-450.730,-456.390,-628.510,-459.575,122.690,-762.415,25.187,-43.864,-45.000
6.000,-450.595,-457.250,-628.975,-459.440,122.755,-761.945,25.187,-43.864,-45.000
6.000,-450.070,-457.060,-628.375,-459.455,122.850,-762.235,25.187,-43.864,-45.000
6.000,-450.575,-456.595,-628.795,-459.610,122.490,-762.095,25.187,-43.864,-45.000
6.000,-450.795,-457.145,-628.435,-459.355,122.525,-762.150,25.500,-43.864,-45.000
6.000,-450.240,-456.780,-627.735,-459.755,122.830,-761.900,25.500,-43.864,-45.000
6.000,-450.595,-456.805,-627.890,-459.290,122.535,-762.100,25.187,-43.864,-45.000
6.000,-450.440,-457.240,-628.120,-458.705,122.795,-762.750,25.187,-43.864,-45.000
6.000,-450.400,-456.635,-628.420,-459.505,122.745,-762.205,25.500,-43.864,-45.000
7.000,4.270,-646.600,-624.615,-1.565,-12.550,-899.490,25.187,-43.854,-90.000
7.000,4.255,-646.715,-624.855,-2.640,-12.490,-899.120,25.187,-43.864,-90.000
7.000,3.715,-646.480,-624.810,-1.360,-12.505,-899.855,25.187,-43.864,-90.000
7.000,3.545,-646.895,-624.845,-1.825,-12.470,-899.115,25.187,-43.864,-90.000
7.000,4.140,-646.075,-624.085,-1.410,-12.240,-898.560,25.187,-43.857,-90.000
7.000,3.605,-646.280,-624.715,-2.000,-12.700,-899.420,24.875,-43.854,-90.000
7.000,4.365,-646.815,-624.475,-2.040,-12.410,-899.600,25.187,-43.854,-90.000
7.000,3.400,-646.470,-624.690,-1.625,-12.695,-898.695,25.187,-43.854,-90.000
7.000,4.045,-646.025,-624.645,-1.005,-12.415,-898.455,25.187,-43.854,-90.000
7.000,3.410,-646.275,-624.425,-2.260,-12.540,-899.440,25.500,-43.854,-90.000
8.000,461.915,-463.775,-618.210,457.835,121.125,-764.535,25.500,-43.882,-135.000
8.000,461.990,-464.000,-617.940,458.780,120.585,-764.025,25.187,-43.875,-135.000
8.000,462.020,-464.045,-617.755,458.450,120.735,-764.445,25.187,-43.865,-135.000
8.000,461.860,-463.935,-617.730,458.895,120.830,-764.405,25.187,-43.852,-135.000
8.000,461.830,-463.770,-617.990,458.305,120.780,-764.175,25.187,-43.852,-135.000
8.000,462.395,-463.810,-617.570,458.915,120.865,-764.360,25.187,-43.854,-135.000
8.000,462.125,-463.990,-617.840,458.785,120.570,-764.270,25.500,-43.854,-135.000
8.000,462.515,-463.685,-618.030,457.875,120.730,-763.830,25.187,-43.854,-135.000
8.000,462.760,-464.045,-618.070,458.905,120.670,-764.430,25.187,-43.867,-135.000
8.000,461.715,-464.110,-617.940,457.770,120.745,-764.365,25.500,-43.867,-135.000
9.000,901.945,2.185,-14.865,897.140,14.725,-14.085,25.187,-0.735,180.000
9.000,901.390,0.945,-18.315,896.435,17.235,-16.690,25.187,-0.895,180.000
9.000,901.475,2.030,-22.925,896.665,20.095,-20.210,25.500,-1.115,180.000
9.000,901.945,2.235,-26.800,896.745,23.205,-22.870,25.500,-1.365,180.000
9.000,902.320,1.425,-32.405,896.350,26.650,-26.660,25.187,-1.685,180.000
9.000,901.565,1.715,-37.735,896.760,30.265,-30.090,25.187,-1.944,180.000
9.000,901.030,2.120,-42.860,896.420,33.905,-34.720,25.187,-2.265,180.000
9.000,901.595,2.255,-45.935,897.885,36.755,-36.005,25.187,-2.605,180.000
9.000,900.735,2.205,-45.225,897.000,36.065,-35.640,25.187,-2.784,180.000
9.000,901.195,2.530,-45.210,897.085,35.930,-35.985,25.187,-2.779,180.000
10.000,647.155,634.485,-56.850,634.615,480.990,409.035,24.875,-2.764,135.000
10.000,647.360,634.775,-57.105,634.435,481.200,409.305,25.187,-2.764,135.000
10.000,646.865,635.100,-57.350,634.710,480.920,409.795,25.187,-2.757,135.000
10.000,647.870,634.470,-56.930,634.470,480.845,408.955,25.187,-2.740,135.000
10.000,647.555,634.475,-56.995,634.230,480.600,409.095,25.187,-2.742,135.000
10.000,647.550,634.615,-57.355,634.995,481.265,410.015,25.500,-2.745,135.000
10.000,647.275,634.295,-57.100,634.775,481.260,409.215,25.500,-2.745,135.000
10.000,647.115,635.055,-56.720,634.275,480.665,410.100,25.187,-2.745,135.000
10.000,647.050,634.865,-57.010,634.420,481.120,409.790,25.500,-2.734,135.000
10.000,647.730,634.955,-56.895,635.130,480.885,409.400,25.500,-2.734,135.000
11.000,7.605,903.295,-67.645,-0.715,665.510,600.685,25.187,-2.742,90.000
11.000,6.555,903.390,-67.565,-0.575,665.135,600.185,24.875,-2.734,90.000
11.000,7.255,903.110,-67.920,-1.350,664.860,600.430,24.875,-2.740,90.000
11.000,7.535,903.240,-67.880,-0.725,665.090,600.655,25.187,-2.745,90.000
11.000,6.940,903.375,-67.975,-1.270,665.500,600.515,25.187,-2.724,90.000
11.000,7.390,903.080,-67.315,-0.840,664.900,600.195,25.500,-2.722,90.000
11.000,7.310,903.110,-67.430,-0.785,664.590,600.930,25.500,-2.724,90.000
11.000,7.765,903.765,-67.230,-1.010,664.895,600.540,25.500,-2.724,90.000
11.000,7.710,903.805,-67.700,-0.200,665.110,600.575,25.187,-2.724,90.000
11.000,7.115,903.595,-67.630,-1.135,665.125,600.865,25.500,-2.724,90.000
12.000,-635.235,641.985,-70.880,-634.030,480.095,407.700,25.187,-2.724,45.000
12.000,-635.890,642.290,-70.335,-635.310,479.815,408.290,25.500,-2.724,45.000
12.000,-635.855,642.260,-70.105,-634.805,479.775,407.790,25.500,-2.724,45.000
12.000,-635.250,642.060,-70.355,-634.200,479.870,408.365,25.500,-2.724,45.000
12.000,-635.800,642.040,-70.485,-634.850,480.610,408.095,25.500,-2.724,45.000
12.000,-635.440,642.130,-70.470,-634.975,480.740,408.050,25.500,-2.724,45.000
12.000,-635.890,642.095,-70.590,-634.350,480.370,407.865,25.187,-2.724,45.000
12.000,-635.550,641.580,-70.215,-634.235,480.400,408.450,25.500,-2.724,45.000
12.000,-636.020,641.855,-69.930,-634.970,480.100,408.580,25.500,-2.724,45.000
12.000,-635.925,641.780,-70.500,-634.120,480.255,409.310,25.187,-2.724,45.000
13.000,-895.600,9.290,-63.725,-896.025,32.860,-38.140,25.187,-2.734,0.000
13.000,-895.885,10.320,-64.290,-895.895,33.520,-37.620,25.500,-2.724,0.000
13.000,-895.420,8.950,-63.660,-896.160,32.765,-38.330,25.187,-2.724,0.000
13.000,-895.655,9.495,-63.490,-897.030,32.620,-38.220,25.500,-2.734,0.000
13.000,-894.890,9.620,-62.645,-896.110,32.445,-36.935,25.500,-2.734,0.000
13.000,-895.755,9.485,-62.290,-895.775,32.230,-37.115,25.187,-2.675,0.000
13.000,-895.325,9.530,-62.635,-895.925,32.225,-37.810,25.500,-2.664,0.000
13.000,-895.300,9.430,-63.020,-895.925,32.250,-37.150,25.187,-2.664,0.000
13.000,-895.290,9.475,-62.960,-896.050,32.100,-38.020,25.500,-2.655,0.000
13.000,-895.275,10.025,-62.520,-896.320,32.070,-36.850,25.500,-2.655,0.000
14.000,-643.640,-623.760,-48.640,-635.705,-415.260,-485.140,25.500,-2.655,-45.000
14.000,-643.250,-623.590,-48.960,-636.485,-415.440,-485.450,25.500,-2.655,-45.000
14.000,-643.770,-623.865,-48.840,-636.225,-415.280,-485.865,25.500,-2.664,-45.000
14.000,-643.970,-623.760,-48.735,-636.445,-415.310,-485.510,25.187,-2.675,-45.000
14.000,-643.625,-623.845,-48.085,-635.590,-415.295,-485.490,25.500,-2.675,-45.000
14.000,-644.145,-623.480,-48.260,-635.535,-414.880,-484.725,25.500,-2.664,-45.000
14.000,-643.730,-623.910,-48.450,-636.220,-415.125,-485.255,25.500,-2.664,-45.000
14.000,-643.575,-623.505,-48.750,-636.135,-415.370,-485.930,25.187,-2.657,-45.000
14.000,-643.745,-623.755,-48.840,-635.455,-415.185,-485.005,25.500,-2.662,-45.000
14.000,-643.675,-623.620,-48.285,-636.360,-415.205,-484.765,25.500,-2.655,-45.000
15.000,-1.875,-892.910,-38.375,-0.025,-599.320,-676.185,25.500,-2.655,-90.000
15.000,-1.945,-893.295,-38.495,-0.335,-599.570,-676.675,25.187,-2.655,-90.000
15.000,-2.780,-893.090,-37.775,0.145,-599.770,-676.140,25.500,-2.655,-90.000
15.000,-2.195,-892.975,-37.930,-0.515,-599.710,-676.260,25.500,-2.655,-90.000
15.000,-2.770,-892.785,-38.505,-0.110,-599.440,-675.870,25.500,-2.655,-90.000
15.000,-3.170,-892.920,-38.720,-0.090,-599.810,-676.250,25.500,-2.655,-90.000
15.000,-2.435,-893.325,-38.170,-0.135,-599.605,-676.730,25.187,-2.645,-90.000
15.000,-2.335,-893.860,-38.220,-0.540,-599.470,-675.945,25.500,-2.645,-90.000
15.000,-2.280,-893.380,-38.270,-0.240,-599.665,-676.235,25.187,-2.645,-90.000
15.000,-2.830,-892.485,-38.260,-0.370,-600.145,-676.110,25.500,-2.650,-90.000
16.000,641.125,-632.280,-35.210,636.570,-416.750,-484.060,25.500,-2.655,-135.000
16.000,641.085,-632.250,-34.625,636.825,-416.600,-484.185,25.187,-2.655,-135.000
16.000,641.370,-632.440,-35.695,636.610,-416.470,-484.520,25.187,-2.655,-135.000
16.000,640.940,-632.765,-35.630,636.170,-416.840,-484.095,25.500,-2.655,-135.000
16.000,640.650,-632.790,-35.575,636.560,-416.670,-484.855,25.500,-2.655,-135.000
16.000,641.090,-632.440,-35.300,636.215,-416.820,-485.030,25.187,-2.655,-135.000
16.000,640.780,-631.980,-35.535,636.970,-416.500,-484.160,25.500,-2.655,-135.000
16.000,641.120,-632.700,-35.520,636.965,-416.980,-484.890,25.187,-2.655,-135.000
16.000,641.140,-632.385,-36.110,636.575,-416.775,-484.705,25.812,-2.655,-135.000
16.000,640.745,-632.125,-36.910,637.145,-415.200,-485.620,25.187,-2.655,-135.000
17.000,902.365,2.900,27.810,898.710,-16.045,14.910,25.500,1.805,180.000
17.000,902.255,3.410,27.560,899.000,-16.145,15.170,25.500,1.794,180.000
17.000,902.555,3.285,27.515,898.625,-15.705,14.390,25.812,1.794,180.000
17.000,901.660,2.920,27.965,899.020,-16.240,15.205,25.812,1.794,180.000
17.000,901.660,2.810,28.100,898.840,-16.165,14.940,25.187,1.794,180.000
17.000,902.040,2.960,27.035,898.200,-15.975,15.245,25.500,1.794,180.000
17.000,901.895,3.040,27.420,898.965,-16.250,14.960,25.500,1.794,180.000
17.000,902.040,3.220,26.945,898.820,-15.610,14.515,25.187,1.794,180.000
17.000,901.485,2.770,27.555,898.675,-16.125,14.525,25.500,1.794,180.000
17.000,901.610,2.660,27.340,899.050,-15.885,15.535,25.500,1.794,180.000
18.000,648.470,636.850,14.640,635.535,430.245,460.655,25.500,1.794,135.000
18.000,648.520,636.380,14.955,636.340,430.290,460.905,25.500,1.794,135.000
18.000,648.480,636.525,14.230,635.935,430.680,460.420,25.500,1.789,135.000
18.000,648.220,636.535,14.240,636.675,430.360,460.850,25.500,1.794,135.000
18.000,648.115,636.080,14.290,636.390,430.245,460.460,25.500,1.794,135.000
18.000,648.085,636.830,14.365,635.500,430.225,460.700,25.187,1.794,135.000
18.000,648.030,636.605,14.080,635.825,430.800,461.350,24.875,1.794,135.000
18.000,648.375,636.260,14.280,636.520,430.380,460.635,25.187,1.785,135.000
18.000,647.660,636.485,15.015,635.915,430.310,460.340,25.187,1.785,135.000
18.000,648.340,636.675,14.480,635.870,430.540,460.840,25.187,1.785,135.000
19.000,6.330,904.865,5.025,-0.450,614.265,651.425,25.187,1.797,90.000
19.000,6.510,905.560,4.975,-0.035,614.180,651.715,25.187,1.797,90.000
19.000,7.075,905.265,5.365,-0.515,614.080,650.955,25.187,1.775,90.000
19.000,6.505,904.920,4.520,-0.355,614.120,652.495,25.500,1.775,90.000
19.000,6.815,906.025,4.380,0.450,613.980,651.285,25.187,1.782,90.000
19.000,6.870,905.300,5.275,-0.225,614.355,652.170,25.500,1.795,90.000
19.000,6.650,905.630,5.090,-0.750,614.310,651.630,25.500,1.795,90.000
19.000,7.365,905.290,4.305,-0.470,614.120,651.970,25.187,1.795,90.000
19.000,6.850,905.075,4.935,-0.670,614.345,651.820,25.500,1.787,90.000
19.000,6.930,905.410,5.195,-0.240,614.255,651.050,25.187,1.784,90.000
20.000,-636.495,643.275,1.995,-636.610,429.055,458.845,25.187,1.784,45.000
20.000,-635.800,643.180,1.910,-636.580,428.970,458.605,25.187,1.784,45.000
20.000,-636.185,642.865,1.890,-636.465,429.430,458.815,25.500,1.784,45.000
20.000,-636.675,643.290,2.180,-637.010,429.050,458.745,25.500,1.784,45.000
20.000,-635.920,643.460,2.680,-636.605,429.285,459.400,25.500,1.784,45.000
20.000,-636.405,643.200,3.030,-636.475,429.235,459.315,25.500,1.784,45.000
20.000,-636.100,643.340,1.490,-636.560,429.810,459.320,25.187,1.784,45.000
20.000,-636.325,643.630,2.130,-636.485,428.805,459.725,25.187,1.784,45.000
20.000,-636.270,643.190,2.095,-637.050,429.305,458.555,25.500,1.784,45.000
20.000,-636.235,643.510,2.540,-636.650,429.215,459.185,25.187,1.784,45.000
21.000,-896.540,10.600,8.970,-898.780,-18.205,12.665,25.500,1.775,0.000
21.000,-896.910,11.470,8.425,-898.215,-18.005,11.480,25.500,1.775,0.000
21.000,-896.220,11.310,8.910,-897.485,-17.945,12.410,25.500,1.775,0.000
21.000,-896.945,11.140,9.215,-897.635,-18.205,12.280,25.500,1.775,0.000
21.000,-897.080,10.580,8.955,-898.315,-18.265,12.425,25.187,1.775,0.000
21.000,-896.905,10.835,8.935,-898.570,-18.540,11.915,25.500,1.775,0.000
21.000,-896.625,11.505,8.800,-897.530,-18.025,12.180,25.812,1.775,0.000
21.000,-896.545,10.960,9.330,-898.395,-18.275,11.880,25.500,1.775,0.000
21.000,-896.600,11.065,8.730,-898.325,-17.740,13.155,25.500,1.775,0.000
21.000,-897.445,11.405,8.480,-898.390,-18.175,12.810,25.187,1.775,0.000
22.000,-644.375,-623.175,20.630,-637.245,-465.675,-435.920,25.500,1.775,-45.000
22.000,-644.475,-623.045,20.720,-636.120,-465.810,-436.075,25.187,1.764,-45.000
22.000,-644.470,-622.985,20.710,-637.240,-465.360,-435.745,25.187,1.764,-45.000
22.000,-644.430,-623.420,20.445,-636.910,-465.915,-436.280,25.500,1.764,-45.000
22.000,-644.580,-623.220,20.415,-637.030,-466.225,-436.065,25.187,1.755,-45.000
22.000,-644.285,-622.790,20.055,-637.225,-465.740,-435.635,25.500,1.770,-45.000
22.000,-643.935,-623.095,20.255,-637.325,-465.460,-436.465,25.500,1.767,-45.000
22.000,-644.010,-623.180,20.125,-637.025,-465.550,-436.055,24.875,1.765,-45.000
22.000,-644.510,-622.855,20.130,-636.595,-465.470,-435.570,25.187,1.765,-45.000
22.000,-644.810,-622.655,20.205,-636.360,-465.525,-436.305,25.187,1.757,-45.000
23.000,-2.515,-893.170,30.880,-0.390,-648.485,-629.450,25.187,1.742,-90.000
23.000,-2.975,-893.650,30.300,-0.185,-648.655,-628.555,25.187,1.705,-90.000
23.000,-2.930,-893.340,30.285,-0.530,-648.050,-629.515,25.187,1.695,-90.000
23.000,-2.260,-893.795,29.490,-0.825,-647.525,-629.645,25.500,1.655,-90.000
23.000,-2.705,-893.490,28.625,0.070,-646.505,-630.430,25.500,1.625,-90.000
23.000,-1.840,-893.615,27.935,-0.990,-645.945,-631.340,25.500,1.585,-90.000
23.000,-2.485,-893.570,26.945,-0.560,-645.780,-631.800,25.500,1.525,-90.000
23.000,-2.615,-893.930,25.450,-1.165,-644.510,-632.405,25.500,1.474,-90.000
23.000,-2.395,-893.420,24.210,-0.655,-643.560,-633.480,25.500,1.375,-90.000
23.000,-2.430,-894.035,23.460,-1.075,-642.685,-634.720,25.500,1.294,-90.000
24.000,643.280,-633.515,21.855,637.545,-458.040,-444.870,25.500,1.064,-135.000
24.000,642.310,-633.170,20.755,636.865,-456.565,-445.620,25.500,0.945,-135.000
24.000,642.715,-633.695,19.435,638.575,-455.635,-446.935,25.500,0.845,-135.000
24.000,642.070,-633.035,17.345,637.475,-454.630,-449.430,25.500,0.745,-135.000
24.000,642.225,-633.200,14.960,637.695,-452.945,-449.280,25.500,0.645,-135.000
24.000,641.320,-633.325,13.535,637.445,-451.945,-451.080,25.187,0.545,-135.000
24.000,641.830,-633.340,11.905,636.970,-450.745,-452.080,25.500,0.425,-135.000
24.000,641.150,-633.585,9.325,637.115,-449.585,-454.045,25.187,0.315,-135.000
24.000,641.375,-633.840,8.235,637.635,-447.955,-454.990,25.500,0.195,-135.000
24.000,640.450,-633.730,6.170,636.800,-446.270,-455.780,25.187,0.074,-135.000
25.000,636.010,16.235,634.350,641.185,-444.135,442.580,24.875,44.934,180.000
25.000,637.065,16.540,634.210,640.885,-444.170,442.530,25.500,44.927,180.000
25.000,636.220,16.910,634.475,640.940,-444.100,442.060,25.500,44.924,180.000
25.000,636.825,16.915,633.185,642.110,-444.310,442.470,25.500,44.924,180.000
25.000,637.055,16.440,634.140,641.655,-443.655,442.700,25.500,44.924,180.000
25.000,636.980,16.660,634.255,641.670,-444.080,442.770,25.812,44.924,180.000
25.000,637.090,16.600,633.690,641.130,-444.045,441.885,25.187,44.924,180.000
25.000,637.165,16.565,634.105,641.410,-444.050,443.050,25.187,44.924,180.000
25.000,636.965,16.590,633.800,641.975,-444.085,442.330,25.187,44.924,180.000
25.000,636.570,16.255,633.660,641.445,-443.830,442.705,25.500,44.915,180.000
26.000,450.225,467.545,621.125,454.240,-129.425,757.610,25.187,44.895,135.000
26.000,450.810,467.705,621.745,455.325,-128.775,756.565,25.500,44.895,135.000
26.000,450.680,467.155,621.340,455.675,-128.910,757.225,25.500,44.895,135.000
26.000,450.890,466.870,621.480,455.170,-128.890,757.120,25.500,44.887,135.000
26.000,450.625,467.175,621.445,455.155,-129.175,757.145,25.187,44.885,135.000
26.000,450.685,467.380,621.895,454.750,-128.870,757.285,25.500,44.885,135.000
26.000,451.090,467.705,621.645,455.570,-128.795,757.515,25.187,44.885,135.000
26.000,451.030,467.595,621.740,455.950,-129.315,757.065,25.500,44.885,135.000
26.000,450.810,467.605,621.560,455.600,-129.090,757.550,25.500,44.885,135.000
26.000,450.595,467.710,621.490,455.330,-129.205,757.215,25.500,44.885,135.000
27.000,-2.290,655.160,618.520,-1.970,3.505,892.045,25.500,44.875,90.000
27.000,-2.385,655.165,618.575,-2.175,3.640,892.100,25.500,44.875,90.000
27.000,-2.045,655.340,618.045,-2.220,3.435,891.610,25.187,44.865,90.000
27.000,-2.410,655.025,618.215,-1.995,3.520,891.430,25.187,44.865,90.000
27.000,-2.210,655.100,618.380,-2.330,3.410,891.385,25.500,44.865,90.000
27.000,-2.665,655.070,618.195,-1.955,3.760,890.935,25.500,44.865,90.000
27.000,-2.005,655.410,617.975,-2.515,3.855,891.710,25.500,44.865,90.000
27.000,-2.100,654.945,618.725,-1.915,3.695,890.865,25.187,44.854,90.000
27.000,-1.670,655.760,618.105,-1.930,3.780,890.945,25.500,44.854,90.000
27.000,-2.245,655.250,618.395,-1.860,3.740,891.260,25.812,44.854,90.000
28.000,-454.645,468.985,609.445,-459.680,-131.435,755.280,25.812,44.845,45.000
28.000,-455.385,468.680,608.440,-459.970,-131.770,754.775,25.500,44.845,45.000
28.000,-455.765,468.740,608.525,-459.090,-131.760,755.025,25.500,44.845,45.000
28.000,-455.885,469.050,608.065,-460.035,-131.615,756.070,25.812,44.845,45.000
28.000,-455.600,468.835,608.870,-459.740,-131.225,755.510,25.500,44.845,45.000
28.000,-454.775,469.050,608.495,-459.705,-131.780,755.450,25.500,44.849,45.000
28.000,-455.070,468.975,608.790,-459.915,-131.115,755.785,25.500,44.847,45.000
28.000,-455.650,468.520,609.610,-459.630,-131.575,755.820,25.500,44.852,45.000
28.000,-455.220,469.295,609.315,-459.275,-131.590,755.360,25.500,44.852,45.000
28.000,-455.770,469.630,609.335,-459.460,-131.165,755.460,25.500,44.854,45.000
29.000,-647.430,12.015,615.320,-643.305,-449.620,436.435,25.187,44.854,0.000
29.000,-646.835,12.145,615.490,-643.050,-449.610,437.235,25.500,44.854,0.000
29.000,-646.695,12.290,615.385,-644.070,-449.975,436.355,25.812,44.854,0.000
29.000,-647.065,12.105,615.670,-643.005,-448.870,437.000,25.500,44.854,0.000
29.000,-646.965,12.070,615.095,-643.325,-449.700,437.165,25.812,44.854,0.000
29.000,-646.920,12.305,615.150,-643.585,-449.215,436.615,25.500,44.854,0.000
29.000,-647.665,11.805,615.250,-643.090,-449.185,437.155,25.812,44.854,0.000
29.000,-646.245,12.115,615.275,-643.350,-449.375,437.115,25.187,44.854,0.000
29.000,-647.490,11.830,615.015,-643.670,-449.920,437.200,25.500,44.854,0.000
29.000,-647.465,12.010,615.365,-642.960,-449.500,436.630,25.187,44.854,0.000
30.000,-459.900,-438.255,626.830,-457.695,-767.720,118.650,25.187,44.854,-45.000
30.000,-459.355,-438.060,626.300,-457.835,-767.580,118.550,25.500,44.854,-45.000
30.000,-459.380,-438.030,626.490,-458.020,-767.450,118.290,25.500,44.854,-45.000
30.000,-459.740,-438.380,626.275,-458.185,-767.445,119.160,25.500,44.854,-45.000
30.000,-458.940,-438.455,626.875,-457.900,-767.265,117.520,25.500,44.854,-45.000
30.000,-459.320,-438.125,626.285,-458.190,-767.685,118.440,25.500,44.845,-45.000
30.000,-459.885,-438.265,626.495,-457.465,-767.355,117.870,25.187,44.845,-45.000
30.000,-460.060,-438.170,625.505,-457.805,-767.240,117.810,25.500,44.845,-45.000
30.000,-459.705,-438.145,626.655,-457.675,-767.340,118.250,25.500,44.852,-45.000
30.000,-459.620,-437.415,626.140,-457.355,-767.650,118.020,25.187,44.854,-45.000
31.000,-6.115,-625.185,637.210,1.990,-900.330,-13.740,25.500,44.854,-90.000
31.000,-5.210,-625.405,637.610,0.640,-900.340,-14.810,25.500,44.854,-90.000
31.000,-5.565,-625.415,637.535,1.640,-900.735,-14.700,25.500,44.865,-90.000
31.000,-5.525,-625.205,637.970,1.815,-900.530,-14.930,25.500,44.865,-90.000
31.000,-5.795,-624.750,637.505,2.045,-900.140,-13.715,25.500,44.875,-90.000
31.000,-5.970,-625.095,637.465,1.210,-900.570,-15.210,25.500,44.875,-90.000
31.000,-5.545,-625.175,638.165,1.885,-900.160,-14.575,25.500,44.854,-90.000
31.000,-5.160,-625.860,637.665,1.415,-900.095,-14.025,25.500,44.854,-90.000
31.000,-5.405,-625.940,637.695,1.400,-901.050,-14.425,25.500,44.854,-90.000
31.000,-5.455,-625.470,637.310,1.780,-900.680,-14.415,25.500,44.854,-90.000
32.000,447.525,-441.870,633.655,456.945,-767.440,118.970,25.500,44.854,-135.000
32.000,447.920,-441.980,633.845,456.870,-767.460,118.770,25.500,44.845,-135.000
32.000,447.910,-441.935,633.935,456.325,-767.455,118.600,25.500,44.854,-135.000
32.000,448.015,-441.725,633.320,456.895,-767.255,118.680,25.500,44.845,-135.000
32.000,448.085,-442.010,634.320,457.005,-767.205,118.750,25.500,44.845,-135.000
32.000,447.645,-441.860,634.265,457.250,-767.385,119.940,25.500,44.845,-135.000
32.000,448.155,-441.685,634.355,456.715,-767.145,118.485,25.500,44.845,-135.000
32.000,448.280,-441.750,634.395,457.245,-767.335,118.620,25.187,44.845,-135.000
32.000,448.000,-442.005,634.210,456.455,-767.150,118.380,25.500,44.845,-135.000
32.000,448.115,-442.100,633.745,456.130,-767.105,118.550,25.500,44.845,-135.000
33.000,560.200,15.525,701.140,561.550,-494.545,491.800,25.500,52.844,180.000
33.000,554.015,15.880,710.230,554.630,-502.440,498.455,25.812,51.604,180.000
33.000,352.785,20.675,805.420,351.324,-574.570,570.995,25.500,52.165,180.000
33.000,375.830,21.105,810.060,371.825,-577.790,575.085,25.187,65.724,180.000
33.000,376.945,21.450,809.175,373.810,-577.065,575.000,25.500,65.754,180.000
33.000,377.055,21.625,809.120,373.330,-577.075,574.440,25.812,65.745,180.000
33.000,376.675,21.245,809.615,373.475,-577.260,574.860,25.500,65.735,180.000
33.000,376.835,21.415,809.500,374.570,-577.255,575.210,25.812,65.735,180.000
33.000,376.545,21.490,809.835,373.985,-577.640,574.695,25.500,65.735,180.000
33.000,377.340,21.500,809.885,373.920,-577.375,574.670,25.500,65.735,180.000
34.000,259.625,281.940,809.385,266.795,-395.250,756.250,25.500,65.724,135.000
34.000,259.095,282.020,809.360,266.260,-395.815,756.190,25.500,65.724,135.000
34.000,259.810,281.810,809.620,266.890,-395.440,756.235,25.500,65.715,135.000
34.000,259.855,281.860,809.120,266.615,-395.130,756.650,25.500,65.720,135.000
34.000,259.870,282.025,809.255,266.505,-395.160,757.100,25.187,65.724,135.000
34.000,259.965,281.910,809.350,266.680,-395.240,755.950,25.500,65.724,135.000
34.000,260.280,282.110,809.555,266.615,-395.415,756.445,25.500,65.715,135.000
34.000,260.125,282.395,809.570,266.350,-395.255,756.485,25.500,65.715,135.000
34.000,259.765,282.210,809.615,266.505,-395.090,756.160,25.500,65.715,135.000
34.000,259.685,282.100,809.130,266.265,-395.360,756.005,25.500,65.705,135.000
35.000,-6.540,396.695,801.245,-5.325,-317.260,833.190,25.812,65.715,90.000
35.000,-5.930,396.170,800.765,-5.595,-317.380,832.805,25.500,65.675,90.000
35.000,-6.210,396.705,800.920,-5.325,-317.460,832.565,25.812,65.669,90.000
35.000,-6.235,396.940,800.745,-4.540,-317.025,833.460,25.500,65.675,90.000
35.000,-6.355,396.750,800.990,-5.125,-317.300,833.130,25.500,65.654,90.000
35.000,-6.430,396.915,800.775,-5.610,-316.965,832.185,25.500,65.654,90.000
35.000,-6.135,396.675,801.360,-5.845,-316.930,832.490,25.500,65.654,90.000
35.000,-6.125,396.740,800.670,-4.900,-317.485,832.740,25.812,65.654,90.000
35.000,-6.225,396.470,800.575,-5.575,-316.805,832.525,25.500,65.654,90.000
35.000,-6.020,396.525,801.290,-5.760,-317.540,833.120,25.812,65.654,90.000
36.000,-274.875,284.025,799.760,-268.010,-395.395,758.645,25.812,65.654,45.000
36.000,-275.245,283.655,799.205,-268.160,-394.915,757.980,25.500,65.644,45.000
36.000,-274.875,283.510,799.385,-268.305,-395.475,758.135,25.500,65.644,45.000
36.000,-275.565,283.730,799.035,-268.195,-394.555,757.455,25.500,65.644,45.000
36.000,-275.695,283.660,799.755,-268.350,-395.330,757.395,25.500,65.614,45.000
36.000,-275.475,284.005,799.610,-268.400,-394.835,758.370,25.500,65.614,45.000
36.000,-275.400,284.020,799.310,-268.380,-395.055,758.000,25.500,65.605,45.000
36.000,-275.635,283.770,799.050,-268.425,-394.585,757.880,25.500,65.605,45.000
36.000,-275.915,284.490,798.870,-268.715,-394.480,758.520,25.812,65.605,45.000
36.000,-275.770,284.200,798.640,-268.145,-394.580,758.105,25.500,65.595,45.000
37.000,-386.875,15.785,802.810,-376.430,-583.540,566.445,25.500,65.595,0.000
37.000,-386.635,15.685,802.810,-376.815,-583.645,566.330,25.500,65.595,0.000
37.000,-387.040,15.645,802.585,-375.440,-584.015,565.765,25.500,65.595,0.000
37.000,-386.745,15.675,802.935,-376.035,-583.890,566.280,25.500,65.584,0.000
37.000,-386.375,15.335,802.815,-376.505,-584.090,566.790,25.500,65.592,0.000
37.000,-386.885,15.185,803.050,-375.860,-583.835,567.070,25.500,65.595,0.000
37.000,-386.895,15.370,802.450,-376.505,-584.005,566.835,25.187,65.584,0.000
37.000,-387.010,15.515,802.680,-376.135,-583.900,566.600,25.500,65.699,0.000
37.000,-387.065,15.800,802.510,-376.600,-583.835,565.970,25.812,65.604,0.000
37.000,-386.735,15.770,802.355,-375.860,-583.840,565.830,25.812,65.604,0.000
38.000,-275.020,-251.990,807.515,-269.300,-768.390,381.650,25.500,65.604,-45.000
38.000,-274.465,-251.720,807.765,-269.045,-768.895,382.460,25.500,65.604,-45.000
38.000,-275.010,-251.950,807.575,-268.980,-768.475,382.420,25.812,65.604,-45.000
38.000,-274.655,-251.775,807.665,-269.105,-768.755,381.725,25.812,65.604,-45.000
38.000,-274.560,-251.885,807.910,-269.410,-768.505,381.910,25.812,65.597,-45.000
38.000,-274.690,-251.940,807.760,-269.785,-768.440,381.275,25.500,65.597,-45.000
38.000,-275.010,-251.870,808.060,-268.665,-768.895,381.775,25.500,65.595,-45.000
38.000,-274.340,-251.795,807.380,-268.975,-768.915,382.285,25.500,65.595,-45.000
38.000,-274.650,-252.445,807.470,-269.155,-769.250,382.335,25.500,65.595,-45.000
38.000,-274.215,-252.480,807.085,-268.935,-768.415,382.255,25.500,65.595,-45.000
39.000,-3.230,-363.135,812.525,2.580,-846.495,304.515,25.812,65.597,-90.000
39.000,-3.790,-363.410,812.290,2.605,-846.320,305.565,25.500,65.597,-90.000
39.000,-3.115,-363.225,812.435,1.770,-846.060,305.410,25.500,65.602,-90.000
39.000,-3.575,-362.715,812.290,3.005,-846.490,304.655,25.500,65.604,-90.000
39.000,-3.420,-362.965,812.225,2.440,-845.805,304.345,25.500,65.589,-90.000
39.000,-3.115,-363.150,812.175,2.205,-846.225,305.940,25.500,65.595,-90.000
39.000,-2.700,-363.280,812.095,1.935,-846.420,305.630,25.812,65.595,-90.000
39.000,-3.425,-363.455,812.375,2.365,-846.115,305.260,25.812,65.595,-90.000
39.000,-2.615,-363.265,812.055,1.975,-846.215,305.490,25.500,65.595,-90.000
39.000,-3.870,-363.320,812.205,2.810,-846.325,305.390,25.500,65.595,-90.000
40.000,265.055,-251.910,812.175,270.225,-766.635,385.365,25.812,65.595,-135.000
40.000,264.885,-252.445,812.735,269.905,-766.210,385.115,25.500,65.595,-135.000
40.000,264.530,-251.975,812.370,269.420,-766.485,385.635,25.500,65.595,-135.000
40.000,264.915,-251.770,812.850,269.845,-766.450,385.970,25.500,65.595,-135.000
40.000,264.725,-252.350,812.785,270.235,-766.555,385.990,25.500,65.595,-135.000
40.000,265.085,-252.335,812.260,269.970,-766.380,385.625,25.500,65.587,-135.000
40.000,264.855,-251.830,812.690,270.390,-766.395,386.105,25.812,65.614,-135.000
40.000,264.595,-252.560,812.550,270.370,-766.095,385.190,25.812,65.604,-135.000
40.000,264.860,-251.525,812.630,269.640,-766.455,386.485,26.125,65.604,-135.000
40.000,264.715,-252.130,812.575,269.970,-766.805,385.315,25.812,65.600,-135.000
41.000,61.400,24.430,887.555,65.140,-631.085,635.625,25.812,86.322,180.000
41.000,61.135,24.725,887.105,65.075,-630.805,635.435,25.500,86.322,180.000
41.000,60.730,24.610,887.225,64.790,-630.695,635.865,25.812,86.317,180.000
41.000,61.290,24.770,887.370,65.570,-630.870,635.940,25.500,86.324,180.000
41.000,61.775,24.935,887.490,65.135,-630.570,635.345,25.812,86.324,180.000
41.000,60.770,24.490,887.610,64.830,-630.880,635.455,25.500,86.324,180.000
41.000,61.610,24.730,887.310,66.170,-631.005,635.640,25.500,86.315,180.000
41.000,60.965,24.600,887.760,64.760,-630.920,635.395,25.500,86.315,180.000
41.000,61.125,24.795,887.515,65.560,-630.780,634.960,25.500,86.315,180.000
41.000,60.980,24.960,886.720,64.845,-630.905,635.585,25.812,86.315,180.000
42.000,38.720,66.665,886.150,42.915,-602.135,664.940,25.500,86.317,135.000
42.000,38.665,66.605,886.295,43.495,-602.215,664.450,25.500,86.324,135.000
42.000,38.730,67.205,885.720,43.610,-602.330,664.290,25.500,86.324,135.000
42.000,38.515,66.320,886.475,43.185,-601.810,664.440,25.500,86.315,135.000
42.000,38.600,66.820,886.580,43.540,-602.095,664.865,25.500,86.315,135.000
42.000,38.615,66.650,885.845,43.580,-601.785,664.640,25.500,86.315,135.000
42.000,38.345,66.490,885.825,43.710,-602.105,664.445,25.812,86.307,135.000
42.000,38.290,66.695,885.965,43.255,-602.110,664.265,25.812,86.307,135.000
42.000,38.725,67.010,885.875,44.060,-602.150,665.030,25.500,86.307,135.000
42.000,38.895,66.715,885.760,43.420,-602.045,664.220,25.812,86.307,135.000
43.000,-8.995,84.075,885.295,-4.595,-589.255,677.230,25.812,86.305,90.000
43.000,-9.095,84.195,885.095,-5.095,-588.775,677.575,25.812,86.305,90.000
43.000,-8.575,84.110,885.660,-4.765,-589.605,677.530,25.500,86.305,90.000
43.000,-8.655,83.970,885.400,-5.150,-589.490,678.430,25.500,86.305,90.000
43.000,-9.220,84.180,885.205,-4.925,-589.295,677.070,25.812,86.305,90.000
43.000,-8.480,83.215,885.320,-5.065,-589.170,677.200,25.500,86.305,90.000
43.000,-8.750,83.595,884.740,-5.700,-589.005,678.005,25.812,86.312,90.000
43.000,-8.965,83.940,885.495,-5.870,-589.155,678.190,25.500,86.324,90.000
43.000,-8.865,83.975,885.410,-5.015,-589.175,677.680,25.500,86.317,90.000
43.000,-8.970,83.580,885.475,-5.150,-589.210,677.615,25.500,86.315,90.000
44.000,-55.980,60.920,883.865,-52.385,-605.100,662.210,25.500,86.284,45.000
44.000,-55.440,61.125,883.685,-51.715,-604.645,662.120,25.500,86.305,45.000
44.000,-55.615,61.625,883.930,-51.790,-605.030,661.985,25.187,86.285,45.000
44.000,-55.250,61.235,883.555,-51.375,-605.105,661.880,25.812,86.322,45.000
44.000,-55.495,61.040,884.005,-51.430,-605.380,661.470,25.187,86.305,45.000
44.000,-55.575,61.255,883.415,-51.745,-604.635,661.995,25.812,86.297,45.000
44.000,-55.135,61.125,883.940,-51.600,-604.885,661.600,25.812,86.302,45.000
44.000,-55.645,61.280,883.915,-52.185,-604.895,662.485,25.812,86.302,45.000
44.000,-55.690,61.460,884.125,-52.205,-605.865,661.775,25.812,86.294,45.000
44.000,-55.605,61.165,883.615,-51.325,-605.695,662.315,25.500,86.294,45.000
45.000,-72.480,14.385,886.280,-67.105,-638.775,628.710,25.812,86.305,0.000
45.000,-72.225,14.265,886.505,-67.180,-638.840,628.025,25.500,86.305,0.000
45.000,-71.675,14.395,886.635,-67.280,-638.770,628.440,25.500,86.285,0.000
45.000,-71.715,14.425,886.575,-67.220,-638.730,628.600,25.500,86.290,0.000
45.000,-72.215,14.480,887.100,-67.635,-638.610,628.760,25.187,86.290,0.000
45.000,-71.890,14.430,886.790,-67.655,-638.990,628.470,25.812,86.312,0.000
45.000,-72.245,14.130,886.740,-67.235,-638.595,627.890,25.500,86.307,0.000
45.000,-71.855,14.920,886.930,-67.075,-638.690,628.625,25.187,86.304,0.000
45.000,-72.505,14.455,887.225,-67.900,-639.040,628.785,25.500,86.297,0.000
45.000,-72.615,14.255,886.565,-67.525,-638.545,629.130,25.500,86.302,0.000
46.000,-49.010,-29.970,887.560,-45.335,-669.430,598.150,25.500,86.304,-45.000
46.000,-48.785,-30.225,887.360,-44.620,-670.040,598.295,25.812,86.302,-45.000
46.000,-49.020,-29.975,887.820,-44.410,-669.625,598.210,25.500,86.295,-45.000
46.000,-48.960,-30.295,887.885,-44.865,-669.755,597.795,25.812,86.312,-45.000
46.000,-48.285,-29.995,887.815,-44.690,-669.610,598.320,25.500,86.307,-45.000
46.000,-48.745,-30.215,887.995,-44.125,-669.175,598.790,25.500,86.304,-45.000
46.000,-48.525,-30.360,887.425,-44.230,-669.395,597.875,25.500,86.304,-45.000
46.000,-48.680,-30.520,887.575,-45.275,-669.960,597.645,25.500,86.304,-45.000
46.000,-48.810,-30.265,887.430,-44.205,-669.795,598.520,25.500,86.304,-45.000
46.000,-49.125,-30.160,887.235,-44.685,-669.940,598.330,25.812,86.304,-45.000
47.000,-2.395,-47.175,888.235,3.920,-682.440,584.245,25.187,86.315,-90.000
47.000,-2.295,-46.990,888.375,4.200,-682.125,584.240,25.812,86.315,-90.000
47.000,-2.360,-47.275,887.855,3.305,-681.935,584.140,25.812,86.304,-90.000
47.000,-2.575,-47.250,888.450,3.290,-682.395,584.170,25.812,86.319,-90.000
47.000,-2.250,-47.200,888.055,3.505,-682.170,583.875,25.500,86.317,-90.000
47.000,-2.355,-47.280,888.305,3.525,-682.305,584.565,25.500,86.305,-90.000
47.000,-2.670,-47.825,887.990,4.155,-682.420,584.015,25.500,86.305,-90.000
47.000,-2.335,-47.425,887.615,4.335,-682.345,583.350,25.500,86.305,-90.000
47.000,-2.235,-47.190,887.935,3.910,-682.405,584.165,25.500,86.305,-90.000
47.000,-2.445,-47.425,887.610,3.725,-682.200,583.265,25.812,86.305,-90.000
48.000,42.260,-26.390,886.915,47.200,-667.065,598.955,25.500,86.315,-135.000
48.000,42.225,-25.980,887.270,47.520,-667.020,599.005,25.812,86.305,-135.000
48.000,42.095,-25.955,887.060,47.270,-667.600,599.505,25.812,86.305,-135.000
48.000,42.335,-26.190,887.075,47.525,-667.115,598.595,25.500,86.305,-135.000
48.000,41.565,-25.620,886.535,46.735,-667.115,598.600,25.812,86.297,-135.000
48.000,41.810,-26.030,886.645,47.190,-667.350,599.500,25.812,86.294,-135.000
48.000,42.370,-26.165,887.045,47.285,-667.090,598.820,25.500,86.294,-135.000
48.000,42.510,-26.075,887.050,46.300,-667.630,599.100,25.500,86.302,-135.000
48.000,41.990,-26.020,886.805,47.090,-666.930,599.335,25.812,86.315,-135.000
48.000,42.055,-25.980,887.215,46.460,-667.450,599.185,25.500,86.315,-135.000
