Index,X Accel 1,Y Accel 1,Z Accel 1,X Accel 2,Y Accel 2,Z Accel2,Temp,Theta ,Phi,,,,,,,,
1.000,649.460,-13.840,-629.735,639.975,444.480,-450.605,26.750,-44.607,180.000
1.000,650.145,-14.490,-629.720,639.860,444.480,-450.345,26.437,-44.595,180.000
1.000,649.510,-14.540,-629.655,640.310,444.115,-450.735,26.437,-44.597,180.000
1.000,649.920,-13.800,-629.970,640.460,444.240,-450.510,26.437,-44.597,180.000
1.000,649.495,-14.890,-629.660,640.470,444.180,-450.925,26.437,-44.604,180.000
1.000,649.760,-14.470,-630.085,640.520,444.270,-451.065,26.437,-44.595,180.000
1.000,649.465,-14.175,-630.125,640.280,444.255,-450.555,26.750,-44.595,180.000
1.000,649.325,-14.275,-630.055,640.530,444.245,-450.050,26.750,-44.595,180.000
1.000,649.795,-13.780,-629.745,640.300,444.135,-450.720,26.750,-44.595,180.000
1.000,649.470,-14.230,-630.035,639.575,444.900,-450.840,26.437,-44.595,180.000
2.000,467.140,441.820,-638.185,457.970,763.660,-132.600,26.125,-44.597,135.000
2.000,466.900,442.175,-638.565,458.265,764.090,-133.045,26.750,-44.604,135.000
2.000,466.810,442.300,-638.505,458.645,763.905,-132.885,26.750,-44.604,135.000
2.000,466.610,442.060,-637.555,458.615,763.720,-133.460,26.750,-44.604,135.000
2.000,466.940,442.015,-637.720,458.665,763.210,-133.240,26.750,-44.604,135.000
2.000,467.030,441.935,-638.345,458.125,763.195,-133.245,26.750,-44.595,135.000
2.000,466.505,442.100,-638.620,458.380,763.830,-133.115,26.437,-44.610,135.000
2.000,466.550,441.985,-638.220,457.720,763.355,-133.095,26.750,-44.607,135.000
2.000,466.625,442.230,-638.100,458.235,763.290,-133.080,26.437,-44.614,135.000
2.000,467.250,442.345,-638.055,457.700,763.560,-133.045,26.437,-44.607,135.000
3.000,16.070,633.405,-650.805,2.825,898.885,2.975,26.437,-44.607,90.000
3.000,15.485,633.215,-651.435,2.465,898.845,2.565,26.437,-44.607,90.000
3.000,15.810,633.410,-651.115,2.815,899.080,1.745,26.750,-44.607,90.000
3.000,15.990,633.340,-651.050,2.710,899.225,2.685,26.437,-44.605,90.000
3.000,16.000,633.300,-651.175,2.830,898.980,2.740,26.437,-44.607,90.000
3.000,15.890,632.865,-651.405,3.255,898.550,2.050,26.750,-44.605,90.000
3.000,15.815,633.215,-651.265,2.435,898.700,3.335,26.437,-44.605,90.000
3.000,16.135,632.915,-651.190,3.110,898.800,2.325,26.437,-44.699,90.000
3.000,15.625,633.170,-651.200,2.935,898.940,2.590,26.437,-44.595,90.000
3.000,15.390,633.680,-650.900,2.805,898.815,2.115,26.437,-44.699,90.000
4.000,-437.170,454.575,-647.210,-450.540,768.335,-127.300,26.437,-44.614,45.000
4.000,-436.700,454.185,-646.760,-450.535,768.375,-127.260,26.437,-44.614,45.000
4.000,-437.035,454.660,-646.705,-450.710,768.420,-127.165,26.750,-44.614,45.000
4.000,-436.565,454.370,-647.405,-450.320,767.940,-126.980,26.750,-44.610,45.000
4.000,-436.770,454.365,-647.250,-450.175,767.910,-127.350,26.750,-44.612,45.000
4.000,-436.550,454.650,-647.100,-450.325,768.635,-126.720,26.437,-44.604,45.000
4.000,-436.695,454.955,-647.495,-450.330,768.140,-126.670,26.437,-44.604,45.000
4.000,-437.040,454.785,-647.380,-451.170,767.695,-126.740,26.750,-44.604,45.000
4.000,-436.850,454.760,-647.065,-450.085,768.030,-126.670,26.750,-44.604,45.000
4.000,-436.715,454.300,-647.240,-450.150,768.125,-126.900,26.437,-44.604,45.000
5.000,-637.060,5.980,-637.220,-638.680,451.180,-442.420,26.750,-44.604,0.000
5.000,-636.775,6.450,-637.640,-638.860,451.405,-442.385,26.750,-44.597,0.000
5.000,-637.495,5.895,-637.300,-639.355,451.410,-442.480,26.750,-44.699,0.000
5.000,-637.030,5.950,-637.380,-639.040,450.805,-442.210,26.437,-44.604,0.000
5.000,-636.705,5.840,-637.365,-639.290,451.525,-442.370,26.125,-44.604,0.000
5.000,-637.110,5.475,-637.120,-639.140,451.285,-442.025,26.437,-44.604,0.000
5.000,-636.950,5.330,-637.790,-638.795,451.195,-442.555,26.125,-44.604,0.000
5.000,-637.110,6.835,-638.080,-639.240,451.780,-442.125,26.437,-44.597,0.000
5.000,-637.565,5.865,-637.540,-638.750,451.755,-442.655,26.125,-44.699,0.000
5.000,-637.110,6.180,-638.140,-638.515,451.200,-442.420,26.437,-44.597,0.000
6.000,-449.260,-449.595,-634.410,-457.045,130.780,-763.405,26.437,-44.604,-45.000
6.000,-449.915,-449.550,-635.165,-457.240,130.215,-763.175,26.437,-44.604,-45.000
6.000,-449.685,-449.045,-633.875,-457.535,130.350,-762.955,26.437,-44.604,-45.000
6.000,-449.330,-449.360,-633.795,-457.060,130.430,-762.915,26.437,-44.614,-45.000
6.000,-450.140,-449.430,-634.405,-456.545,130.625,-763.225,26.750,-44.607,-45.000
6.000,-449.715,-449.560,-634.535,-457.610,130.175,-763.580,26.437,-44.604,-45.000
6.000,-450.090,-449.705,-634.510,-457.745,130.350,-763.160,26.750,-44.604,-45.000
6.000,-449.635,-449.875,-634.050,-457.475,130.450,-763.280,26.437,-44.614,-45.000
6.000,-450.100,-449.380,-634.500,-457.545,130.615,-762.970,26.437,-44.607,-45.000
6.000,-450.125,-449.190,-634.735,-456.915,130.940,-762.850,26.750,-44.607,-45.000
7.000,0.980,-640.565,-631.010,-3.300,-4.505,-898.330,26.437,-44.604,-90.000
7.000,0.915,-640.295,-630.540,-3.430,-4.580,-898.640,26.750,-44.604,-90.000
7.000,0.655,-640.485,-630.600,-3.175,-4.150,-897.870,26.437,-44.604,-90.000
7.000,1.030,-640.095,-631.005,-3.480,-4.430,-898.550,26.750,-44.604,-90.000
7.000,0.815,-640.950,-630.275,-3.400,-4.320,-898.455,26.750,-44.604,-90.000
7.000,1.370,-640.320,-630.545,-2.960,-4.160,-898.455,26.437,-44.604,-90.000
7.000,1.050,-640.130,-631.220,-3.190,-3.955,-898.375,26.437,-44.604,-90.000
7.000,0.975,-640.175,-630.560,-3.260,-4.615,-898.220,26.437,-44.604,-90.000
7.000,1.130,-640.205,-630.735,-3.255,-4.240,-898.175,26.750,-44.614,-90.000
7.000,1.720,-640.155,-629.380,-3.610,-4.265,-898.405,26.437,-44.614,-90.000
8.000,456.650,-461.980,-623.640,453.385,126.125,-766.110,26.750,-44.622,-135.000
8.000,456.780,-461.870,-623.565,452.705,126.020,-766.410,26.750,-44.620,-135.000
8.000,456.775,-461.595,-623.675,452.535,126.350,-767.100,26.750,-44.604,-135.000
8.000,457.045,-461.540,-623.565,452.590,126.230,-766.890,26.437,-44.604,-135.000
8.000,456.365,-461.720,-623.780,453.270,126.275,-766.620,26.750,-44.604,-135.000
8.000,456.805,-462.110,-623.095,453.100,126.320,-766.625,26.437,-44.615,-135.000
8.000,456.780,-461.495,-623.905,452.980,125.875,-766.625,26.437,-44.597,-135.000
8.000,456.235,-461.445,-623.995,453.035,126.120,-766.630,26.437,-44.597,-135.000
8.000,456.420,-461.920,-624.170,452.925,125.935,-766.175,26.437,-44.597,-135.000
8.000,455.850,-461.860,-624.005,452.995,126.500,-766.635,26.437,-44.595,-135.000
9.000,901.170,0.450,5.360,898.370,-1.665,-1.415,26.437,0.165,180.000
9.000,902.610,0.630,4.360,898.400,-1.310,-1.870,26.437,0.134,180.000
9.000,901.650,0.320,4.055,898.510,-1.265,-3.685,26.437,0.095,180.000
9.000,902.020,0.285,2.575,899.145,0.075,-4.150,26.437,0.025,180.000
9.000,901.955,0.270,0.620,898.160,1.765,-5.070,26.437,-0.045,180.000
9.000,901.780,0.360,-1.700,898.555,3.580,-6.980,26.437,-0.145,180.000
9.000,902.470,-0.135,-3.645,897.650,4.650,-8.285,26.125,-0.305,180.000
9.000,902.550,0.130,-6.620,897.635,7.005,-9.555,26.437,-0.424,180.000
9.000,902.370,-0.545,-9.190,897.670,8.450,-12.340,26.437,-0.595,180.000
9.000,902.270,-0.345,-11.540,896.490,11.000,-14.145,26.125,-0.755,180.000
10.000,651.855,632.655,-31.900,637.960,462.405,425.105,26.125,-1.185,135.000
10.000,650.900,632.970,-35.090,637.585,464.205,423.630,26.125,-1.394,135.000
10.000,651.375,632.875,-38.315,638.085,466.060,421.415,26.437,-1.595,135.000
10.000,651.485,632.830,-40.490,637.345,468.165,418.925,26.437,-1.765,135.000
10.000,650.295,632.555,-42.970,637.635,470.530,417.080,26.437,-1.955,135.000
10.000,651.045,632.370,-46.555,637.200,471.895,414.825,26.750,-2.125,135.000
10.000,650.710,632.735,-49.045,637.420,474.085,413.180,26.125,-2.284,135.000
10.000,649.855,632.240,-51.965,636.865,475.725,411.395,26.125,-2.475,135.000
10.000,650.215,632.435,-54.130,637.375,477.260,409.565,26.437,-2.635,135.000
10.000,649.850,632.585,-56.675,636.810,478.975,407.960,26.437,-2.805,135.000
11.000,11.650,903.190,-73.250,3.360,668.910,596.485,26.125,-3.154,90.000
11.000,11.205,902.905,-75.570,3.950,670.780,594.530,26.125,-3.324,90.000
11.000,11.500,902.645,-78.570,4.060,672.045,592.750,26.437,-3.484,90.000
11.000,11.320,902.710,-81.090,3.525,673.630,591.370,26.125,-3.645,90.000
11.000,11.315,902.295,-82.940,2.870,675.595,589.205,26.437,-3.814,90.000
11.000,11.335,901.490,-86.135,3.400,676.635,587.820,26.437,-3.924,90.000
11.000,10.630,902.125,-87.520,3.750,678.320,585.525,26.125,-4.085,90.000
11.000,10.465,901.405,-90.390,3.415,679.530,584.770,26.125,-4.244,90.000
11.000,11.230,901.380,-91.915,3.870,681.050,583.230,26.437,-4.385,90.000
11.000,10.560,900.830,-94.435,3.790,682.770,581.220,26.437,-4.525,90.000
12.000,-629.510,644.030,-101.410,-628.335,504.690,387.765,26.125,-4.855,45.000
12.000,-629.905,643.420,-103.935,-628.145,505.400,386.470,26.437,-4.994,45.000
12.000,-629.175,643.605,-105.640,-627.870,506.525,384.515,26.125,-5.105,45.000
12.000,-628.910,643.655,-107.750,-627.790,508.290,383.425,26.125,-5.265,45.000
12.000,-628.135,643.595,-109.935,-627.650,509.420,381.660,26.437,-5.394,45.000
12.000,-628.540,642.720,-111.245,-628.450,510.740,379.975,26.437,-5.505,45.000
12.000,-628.585,642.560,-113.280,-626.665,511.910,378.895,26.437,-5.625,45.000
12.000,-628.750,643.050,-115.525,-627.100,513.535,377.375,26.437,-5.765,45.000
12.000,-627.600,642.340,-117.310,-626.810,514.465,376.390,26.125,-5.865,45.000
12.000,-627.825,642.625,-118.620,-626.415,515.665,375.360,26.125,-5.984,45.000
13.000,-890.730,14.535,-116.530,-889.620,74.485,-70.330,26.437,-6.234,0.000
13.000,-890.060,14.120,-118.120,-890.150,75.685,-71.025,26.125,-6.305,0.000
13.000,-890.250,15.015,-119.910,-889.180,76.510,-72.065,26.125,-6.414,0.000
13.000,-889.745,14.670,-121.690,-889.930,77.505,-73.170,26.125,-6.535,0.000
13.000,-888.860,14.960,-122.555,-889.785,78.845,-74.065,25.812,-6.644,0.000
13.000,-889.575,14.155,-124.750,-889.405,80.255,-75.540,26.437,-6.734,0.000
13.000,-888.735,14.745,-126.310,-889.360,80.835,-77.075,26.437,-6.835,0.000
13.000,-888.570,14.455,-127.535,-889.395,82.420,-77.655,26.125,-6.934,0.000
13.000,-887.680,14.530,-128.795,-888.735,83.715,-78.375,26.125,-7.035,0.000
13.000,-888.205,14.525,-130.610,-888.605,84.640,-80.600,26.125,-7.144,0.000
14.000,-640.280,-618.080,-121.475,-634.940,-358.770,-530.530,26.437,-7.344,-45.000
14.000,-639.475,-617.875,-122.685,-634.245,-357.685,-531.800,26.125,-7.455,-45.000
14.000,-639.670,-618.100,-124.115,-634.675,-356.215,-531.915,26.437,-7.525,-45.000
14.000,-639.950,-617.420,-125.035,-634.690,-355.390,-533.065,26.437,-7.625,-45.000
14.000,-640.290,-617.565,-126.345,-634.300,-354.710,-533.885,26.125,-7.705,-45.000
14.000,-639.995,-617.175,-127.435,-634.600,-353.780,-534.975,26.437,-7.775,-45.000
14.000,-639.565,-617.485,-128.655,-634.665,-352.675,-535.540,26.125,-7.855,-45.000
14.000,-639.085,-617.575,-129.695,-634.300,-351.985,-537.040,26.437,-7.934,-45.000
14.000,-639.280,-617.280,-131.270,-633.785,-351.160,-537.370,26.437,-7.994,-45.000
14.000,-638.945,-617.525,-132.610,-633.420,-350.255,-538.305,26.437,-8.074,-45.000
15.000,-4.640,-886.590,-124.745,-2.830,-531.865,-731.435,26.437,-8.274,-90.000
15.000,-4.470,-886.985,-125.165,-3.565,-531.045,-731.545,26.437,-8.375,-90.000
15.000,-4.400,-886.550,-127.135,-2.855,-530.355,-732.845,25.812,-8.424,-90.000
15.000,-4.690,-885.845,-127.360,-3.285,-529.845,-732.890,25.812,-8.494,-90.000
15.000,-5.185,-886.010,-129.480,-3.070,-528.405,-733.810,26.437,-8.574,-90.000
15.000,-4.775,-886.475,-129.865,-2.995,-527.685,-734.520,26.437,-8.635,-90.000
15.000,-4.575,-885.770,-131.385,-3.275,-526.420,-734.845,26.125,-8.715,-90.000
15.000,-4.480,-885.280,-131.875,-3.435,-525.690,-734.690,26.125,-8.774,-90.000
15.000,-4.400,-885.565,-133.450,-2.740,-525.165,-735.505,26.437,-8.854,-90.000
15.000,-4.640,-885.495,-133.865,-3.085,-524.250,-736.390,26.437,-8.904,-90.000
16.000,629.315,-632.940,-128.650,625.640,-344.630,-550.425,26.125,-9.045,-135.000
16.000,628.460,-632.485,-130.020,625.790,-344.035,-551.040,26.125,-9.114,-135.000
16.000,628.855,-632.130,-130.625,625.935,-343.035,-551.815,26.437,-9.164,-135.000
16.000,628.395,-632.655,-131.445,625.460,-342.795,-552.175,26.125,-9.204,-135.000
16.000,628.275,-632.230,-132.645,625.190,-341.775,-552.640,26.437,-9.264,-135.000
16.000,628.215,-632.445,-133.205,624.965,-341.045,-553.140,26.125,-9.335,-135.000
16.000,627.785,-632.460,-133.770,624.920,-340.590,-554.120,25.812,-9.364,-135.000
16.000,628.345,-632.235,-134.175,624.660,-340.165,-554.040,26.437,-9.424,-135.000
16.000,628.270,-632.355,-135.260,624.715,-339.025,-554.460,26.437,-9.484,-135.000
16.000,628.140,-632.580,-136.295,624.805,-338.285,-555.210,26.125,-9.534,-135.000
