Temp Iter,Index,X Accel 1,Y Accel 1,Z Accel 1,X Accel 2,Y Accel 2,Z Accel2, Temp_6g,Temp,Theta,Phi,,,,,,
1.000,1.000,897.130,4.915,-62.035,891.035,32.390,-42.495,169.875,156.119,-1.935,180.000
1.000,1.000,896.705,4.505,-62.250,892.140,32.590,-42.110,170.500,156.119,-1.935,180.000
1.000,1.000,897.065,4.910,-62.005,891.685,32.470,-42.510,169.875,156.181,-1.935,180.000
1.000,1.000,897.155,4.775,-62.245,891.970,32.755,-42.225,170.187,156.181,-1.935,180.000
1.000,1.000,897.035,4.475,-62.230,891.475,32.220,-42.010,170.187,156.150,-1.935,180.000
1.000,1.000,896.455,4.795,-61.965,891.590,32.960,-41.655,169.875,156.181,-1.935,180.000
1.000,1.000,897.560,4.630,-61.200,891.285,32.655,-42.780,170.500,156.181,-1.935,180.000
1.000,1.000,897.120,4.305,-62.905,891.130,32.815,-42.540,170.187,156.212,-1.935,180.000
1.000,1.000,896.950,4.225,-62.060,891.840,32.835,-41.985,170.187,156.212,-1.945,180.000
1.000,1.000,896.935,4.765,-61.895,891.310,32.635,-42.590,170.187,156.212,-1.945,180.000
1.000,2.000,638.360,633.390,-66.210,630.035,472.065,408.665,169.875,156.306,-1.945,135.000
1.000,2.000,637.265,633.990,-65.945,630.290,471.755,409.120,170.187,156.337,-1.945,135.000
1.000,2.000,637.820,633.335,-65.475,629.550,472.080,408.860,170.187,156.337,-1.945,135.000
1.000,2.000,637.375,633.730,-66.380,630.505,471.650,409.625,170.187,156.337,-1.945,135.000
1.000,2.000,637.730,633.440,-66.495,629.570,472.195,408.080,170.187,156.337,-1.945,135.000
1.000,2.000,637.030,633.550,-65.835,630.380,472.770,409.345,169.875,156.369,-1.945,135.000
1.000,2.000,638.240,633.610,-65.865,630.410,472.600,409.180,170.500,156.369,-1.945,135.000
1.000,2.000,636.740,633.330,-66.265,630.195,472.305,408.545,170.187,156.369,-1.945,135.000
1.000,2.000,637.495,633.585,-65.925,630.165,472.220,408.895,170.187,156.369,-1.945,135.000
1.000,2.000,637.360,634.055,-65.900,630.475,471.685,408.600,170.187,156.400,-1.945,135.000
1.000,3.000,0.045,898.135,-48.825,-0.435,643.775,614.170,170.187,156.462,-1.945,90.000
1.000,3.000,0.055,897.845,-48.440,0.090,644.155,613.730,170.187,156.494,-1.945,90.000
1.000,3.000,0.430,898.145,-48.715,0.270,644.460,614.445,170.187,156.494,-1.945,90.000
1.000,3.000,-0.580,898.095,-49.085,0.475,643.940,613.350,170.812,156.525,-1.945,90.000
1.000,3.000,-0.310,897.220,-48.475,-0.400,643.905,613.395,170.187,156.525,-1.945,90.000
1.000,3.000,0.260,897.905,-48.030,0.345,644.330,614.200,170.500,156.525,-1.945,90.000
1.000,3.000,-0.845,897.595,-48.070,0.270,643.945,613.395,170.500,156.525,-1.945,90.000
1.000,3.000,-0.170,897.925,-47.985,0.140,644.360,614.355,170.187,156.525,-1.945,90.000
1.000,3.000,-0.830,897.845,-47.860,0.040,644.090,614.520,170.187,156.525,-1.945,90.000
1.000,3.000,-0.445,898.055,-48.250,0.075,644.360,614.640,170.187,156.556,-1.945,90.000
1.000,4.000,-645.620,629.785,-20.540,-642.825,445.665,437.270,170.812,156.650,-1.945,45.000
1.000,4.000,-645.825,629.895,-20.965,-642.235,445.655,436.345,170.500,156.650,-1.945,45.000
1.000,4.000,-645.960,629.395,-21.380,-642.620,445.795,437.395,170.500,156.650,-1.945,45.000
1.000,4.000,-645.540,629.780,-21.680,-642.585,445.655,437.190,170.812,156.650,-1.945,45.000
1.000,4.000,-646.220,629.730,-20.875,-641.910,445.430,436.855,170.812,156.681,-1.945,45.000
1.000,4.000,-646.535,629.365,-21.545,-642.850,445.470,436.570,170.500,156.681,-1.945,45.000
1.000,4.000,-645.890,629.730,-21.245,-642.410,445.535,436.665,170.500,156.681,-1.945,45.000
1.000,4.000,-646.585,629.680,-20.695,-641.990,445.690,437.225,170.500,156.681,-1.945,45.000
1.000,4.000,-645.945,629.620,-21.240,-642.125,445.745,436.510,170.812,156.681,-1.945,45.000
1.000,4.000,-645.325,629.360,-22.025,-641.795,445.530,437.400,170.500,156.712,-1.945,45.000
1.000,5.000,-898.250,-4.075,-0.680,-899.170,-7.625,-2.890,170.812,156.806,-1.945,0.000
1.000,5.000,-898.000,-4.570,-1.045,-900.010,-7.300,-2.335,170.812,156.806,-1.945,0.000
1.000,5.000,-898.120,-5.110,-0.630,-899.200,-7.090,-2.555,171.125,156.806,-1.945,0.000
1.000,5.000,-897.855,-4.570,-1.590,-899.515,-6.835,-2.065,171.437,156.806,-1.945,0.000
1.000,5.000,-897.495,-5.175,-0.800,-899.680,-7.240,-2.445,171.125,156.837,-1.945,0.000
1.000,5.000,-897.950,-4.915,-0.340,-900.195,-7.160,-3.100,170.812,156.837,-1.945,0.000
1.000,5.000,-897.550,-4.865,-0.245,-899.400,-7.025,-2.660,170.500,156.837,-1.945,0.000
1.000,5.000,-897.395,-4.755,-1.755,-898.840,-7.030,-2.790,170.812,156.806,-1.945,0.000
1.000,5.000,-897.570,-4.605,-1.220,-899.610,-6.540,-2.325,170.812,156.837,-1.945,0.000
1.000,5.000,-898.195,-4.965,-1.085,-899.190,-7.250,-2.420,170.500,156.837,-1.945,0.000
1.000,6.000,-636.665,-637.410,0.100,-639.265,-447.380,-454.535,171.125,156.931,-1.945,-45.000
1.000,6.000,-637.180,-637.220,0.325,-638.965,-447.510,-453.840,170.812,156.931,-1.945,-45.000
1.000,6.000,-636.925,-637.145,0.290,-639.235,-447.530,-453.610,170.812,156.962,-1.945,-45.000
1.000,6.000,-636.840,-637.505,0.395,-638.785,-447.490,-453.755,171.125,156.962,-1.945,-45.000
1.000,6.000,-636.865,-637.245,0.235,-638.345,-447.710,-453.590,170.812,156.962,-1.945,-45.000
1.000,6.000,-637.610,-637.115,-0.145,-639.060,-447.130,-453.740,171.125,156.993,-1.945,-45.000
1.000,6.000,-636.615,-638.020,0.310,-638.375,-447.740,-453.985,171.125,156.993,-1.945,-45.000
1.000,6.000,-637.530,-637.455,0.030,-638.235,-447.765,-454.150,171.125,156.993,-1.945,-45.000
1.000,6.000,-636.865,-637.275,0.240,-638.355,-447.465,-453.920,171.125,156.993,-1.945,-45.000
1.000,6.000,-637.030,-637.510,0.515,-638.800,-447.200,-453.590,171.125,156.993,-1.945,-45.000
1.000,7.000,-2.010,-898.440,-14.380,-8.670,-617.265,-660.450,171.125,157.087,-1.945,-90.000
1.000,7.000,-1.315,-898.055,-14.865,-8.465,-617.630,-660.240,171.125,157.087,-1.945,-90.000
1.000,7.000,-2.375,-897.925,-14.475,-8.180,-617.800,-659.750,171.125,157.087,-1.945,-90.000
1.000,7.000,-2.140,-898.560,-14.975,-8.800,-617.690,-659.505,170.812,157.118,-1.945,-90.000
1.000,7.000,-2.455,-898.795,-14.835,-8.550,-617.735,-659.965,171.125,157.118,-1.945,-90.000
1.000,7.000,-1.235,-898.270,-14.380,-8.310,-617.700,-660.665,171.437,157.118,-1.945,-90.000
1.000,7.000,-2.000,-898.245,-14.695,-8.440,-617.670,-659.675,171.125,157.118,-1.945,-90.000
1.000,7.000,-2.130,-898.000,-13.985,-7.925,-617.995,-660.430,171.125,157.118,-1.945,-90.000
1.000,7.000,-1.710,-898.375,-14.160,-8.480,-617.295,-659.940,171.125,157.149,-1.945,-90.000
1.000,7.000,-2.110,-897.980,-14.200,-8.145,-617.930,-660.050,170.812,157.149,-1.945,-90.000
1.000,8.000,642.410,-632.865,-40.155,636.075,-419.150,-482.990,171.125,157.212,-1.945,-135.000
1.000,8.000,642.595,-632.495,-40.380,636.410,-419.175,-482.710,171.437,157.212,-1.945,-135.000
1.000,8.000,642.290,-632.660,-40.090,635.715,-419.425,-482.380,171.125,157.243,-1.945,-135.000
1.000,8.000,642.205,-632.730,-39.815,636.525,-419.275,-482.615,171.437,157.243,-1.945,-135.000
1.000,8.000,642.425,-632.450,-39.885,636.200,-419.055,-482.955,171.125,157.243,-1.945,-135.000
1.000,8.000,642.275,-632.990,-39.920,636.795,-419.010,-482.505,171.125,157.274,-1.945,-135.000
1.000,8.000,641.915,-632.835,-40.655,636.685,-418.950,-482.470,171.437,157.274,-1.945,-135.000
1.000,8.000,642.575,-632.590,-40.925,636.305,-419.080,-483.020,170.812,157.274,-1.945,-135.000
1.000,8.000,642.565,-632.665,-40.955,635.830,-419.095,-482.740,171.437,157.274,-1.945,-135.000
1.000,8.000,642.300,-632.775,-40.030,636.195,-419.190,-482.635,171.750,157.274,-1.945,-135.000
1.000,9.000,818.160,12.920,372.745,812.650,-275.030,264.985,171.437,157.399,26.405,180.000
1.000,9.000,818.260,13.850,372.835,812.435,-274.830,264.585,171.437,157.399,26.405,180.000
1.000,9.000,817.515,13.475,372.300,811.800,-274.790,264.845,171.437,157.430,26.405,180.000
1.000,9.000,818.315,13.415,372.135,812.200,-275.015,265.280,171.125,157.430,26.415,180.000
1.000,9.000,817.730,13.350,373.095,812.390,-275.035,265.555,171.437,157.462,26.415,180.000
1.000,9.000,817.665,12.480,373.025,812.425,-275.275,264.115,171.437,157.462,26.415,180.000
1.000,9.000,817.480,12.940,373.245,812.595,-274.935,264.940,171.750,157.430,26.415,180.000
1.000,9.000,817.660,13.210,372.265,812.395,-275.500,265.065,171.750,157.430,26.415,180.000
1.000,9.000,817.820,13.275,373.315,812.525,-275.630,264.145,171.437,157.462,26.415,180.000
1.000,9.000,817.785,13.430,372.820,811.695,-275.275,264.240,171.125,157.462,26.415,180.000
1.000,10.000,580.065,580.050,367.225,579.065,118.865,667.685,171.750,157.524,26.415,135.000
1.000,10.000,580.595,580.330,367.315,578.300,118.340,667.835,171.437,157.524,26.415,135.000
1.000,10.000,580.015,580.185,367.295,578.270,119.280,668.235,171.750,157.555,26.415,135.000
1.000,10.000,580.275,580.350,367.155,578.970,118.985,668.090,171.750,157.587,26.415,135.000
1.000,10.000,579.565,579.815,367.775,578.380,119.200,667.245,171.437,157.555,26.415,135.000
1.000,10.000,579.900,579.660,367.355,579.410,118.960,667.390,171.750,157.555,26.415,135.000
1.000,10.000,580.125,580.520,367.950,578.700,119.345,667.480,171.437,157.555,26.415,135.000
1.000,10.000,579.940,579.745,367.410,578.475,119.025,668.220,171.437,157.587,26.415,135.000
1.000,10.000,580.315,580.140,367.515,578.655,119.280,667.910,172.062,157.587,26.415,135.000
1.000,10.000,580.235,580.015,367.115,578.975,119.355,667.615,171.437,157.587,26.415,135.000
1.000,11.000,12.540,813.330,384.850,10.870,278.745,843.920,171.437,157.649,26.415,90.000
1.000,11.000,12.740,813.455,384.960,10.335,278.775,843.100,171.437,157.680,26.415,90.000
1.000,11.000,12.720,813.465,384.670,11.370,278.535,843.185,171.750,157.680,26.415,90.000
1.000,11.000,13.025,813.105,384.270,10.535,278.655,843.775,171.750,157.649,26.415,90.000
1.000,11.000,12.710,813.220,385.180,11.350,278.225,844.480,171.750,157.680,26.415,90.000
1.000,11.000,12.645,812.755,385.360,10.475,279.050,843.700,171.750,157.680,26.415,90.000
1.000,11.000,11.800,812.730,384.665,10.715,278.480,843.990,171.750,157.712,26.415,90.000
1.000,11.000,12.855,813.005,384.580,10.910,278.890,842.900,171.750,157.680,26.415,90.000
1.000,11.000,12.300,813.110,384.605,10.495,278.585,843.565,172.062,157.680,26.415,90.000
1.000,11.000,13.390,813.020,385.235,10.355,278.880,844.185,171.750,157.680,26.415,90.000
1.000,12.000,-565.910,570.565,408.030,-568.285,96.995,689.275,171.750,157.712,26.415,45.000
1.000,12.000,-566.095,570.320,408.370,-568.220,96.570,689.415,172.062,157.712,26.415,45.000
1.000,12.000,-565.245,570.180,408.805,-568.375,96.815,689.710,172.062,157.743,26.415,45.000
1.000,12.000,-565.020,570.695,408.865,-567.920,96.955,689.175,172.062,157.743,26.415,45.000
1.000,12.000,-566.610,569.965,408.050,-567.685,96.845,689.595,171.750,157.743,26.415,45.000
1.000,12.000,-565.990,570.690,408.630,-567.695,96.735,689.515,171.750,157.743,26.415,45.000
1.000,12.000,-565.120,570.625,408.590,-568.450,96.445,688.770,171.750,157.743,26.415,45.000
1.000,12.000,-564.970,570.655,407.665,-568.260,96.330,690.055,171.437,157.743,26.415,45.000
1.000,12.000,-566.195,570.875,409.280,-567.955,96.375,689.835,171.750,157.743,26.415,45.000
1.000,12.000,-566.040,570.600,408.745,-567.785,96.785,688.940,171.750,157.743,26.415,45.000
1.000,13.000,-791.695,3.360,427.710,-797.570,-309.060,295.035,171.750,157.836,26.415,0.000
1.000,13.000,-791.455,3.245,427.275,-798.105,-309.015,294.840,171.750,157.805,26.415,0.000
1.000,13.000,-791.030,3.165,427.560,-797.430,-309.410,294.850,171.750,157.836,26.415,0.000
1.000,13.000,-790.975,2.920,427.370,-798.525,-308.540,294.525,172.062,157.836,26.415,0.000
1.000,13.000,-791.005,2.725,427.570,-797.345,-308.735,294.850,172.062,157.836,26.415,0.000
1.000,13.000,-791.475,2.675,427.335,-797.385,-308.565,294.015,171.750,157.868,26.415,0.000
1.000,13.000,-791.350,3.140,427.555,-797.485,-308.470,295.065,171.750,157.868,26.415,0.000
1.000,13.000,-790.825,3.155,428.450,-796.980,-308.770,294.725,171.750,157.868,26.415,0.000
1.000,13.000,-791.220,3.090,426.980,-797.565,-309.215,295.695,172.062,157.836,26.415,0.000
1.000,13.000,-791.525,2.780,427.170,-797.895,-309.365,295.595,172.062,157.868,26.415,0.000
1.000,14.000,-555.475,-564.210,426.885,-565.345,-701.540,-109.675,172.375,157.930,26.415,-45.000
1.000,14.000,-556.010,-564.870,427.700,-564.915,-702.240,-109.325,172.062,157.930,26.415,-45.000
1.000,14.000,-555.490,-564.800,427.480,-565.295,-701.595,-109.850,172.062,157.961,26.425,-45.000
1.000,14.000,-555.650,-564.385,426.880,-565.225,-702.010,-109.525,172.375,157.961,26.425,-45.000
1.000,14.000,-555.635,-565.025,427.025,-564.345,-701.805,-109.065,172.375,157.961,26.425,-45.000
1.000,14.000,-555.670,-564.275,427.515,-564.580,-701.580,-109.720,172.062,157.961,26.425,-45.000
1.000,14.000,-556.210,-564.410,426.995,-564.805,-702.165,-110.120,171.750,157.961,26.425,-45.000
1.000,14.000,-555.730,-564.200,427.180,-564.750,-701.900,-110.130,172.375,157.961,26.425,-45.000
1.000,14.000,-555.700,-564.980,427.215,-564.915,-702.090,-109.200,172.375,157.993,26.425,-45.000
1.000,14.000,-555.725,-564.340,427.370,-564.620,-702.275,-109.085,171.750,157.993,26.425,-45.000
1.000,15.000,13.855,-796.360,416.055,6.255,-858.270,-289.925,172.375,158.055,26.415,-90.000
1.000,15.000,13.775,-795.890,415.875,6.945,-858.375,-290.625,172.375,158.055,26.415,-90.000
1.000,15.000,13.295,-796.380,415.870,6.645,-857.750,-289.990,172.375,158.055,26.415,-90.000
1.000,15.000,14.050,-796.190,415.765,6.935,-858.120,-291.340,172.062,158.055,26.415,-90.000
1.000,15.000,13.710,-796.625,415.680,7.055,-858.020,-289.920,172.375,158.086,26.415,-90.000
1.000,15.000,13.055,-795.360,415.950,7.005,-858.310,-290.765,171.750,158.055,26.415,-90.000
1.000,15.000,13.625,-795.945,415.880,7.295,-857.815,-290.535,172.687,158.055,26.425,-90.000
1.000,15.000,13.650,-796.490,416.200,6.405,-857.755,-289.935,172.375,158.086,26.425,-90.000
1.000,15.000,13.335,-796.855,416.160,6.290,-857.765,-290.260,172.687,158.086,26.425,-90.000
1.000,15.000,13.030,-796.515,416.405,7.380,-858.150,-289.735,172.375,158.086,26.415,-90.000
1.000,16.000,589.605,-557.440,387.150,588.035,-676.100,-135.450,172.062,158.149,26.415,-135.000
1.000,16.000,590.225,-557.255,386.735,587.300,-676.250,-134.795,172.062,158.149,26.415,-135.000
1.000,16.000,589.495,-557.380,386.720,587.710,-675.535,-135.275,172.062,158.149,26.415,-135.000
1.000,16.000,589.165,-557.495,386.800,588.270,-676.220,-134.520,172.687,158.180,26.415,-135.000
1.000,16.000,589.960,-557.910,386.915,587.935,-675.565,-134.555,172.375,158.180,26.415,-135.000
1.000,16.000,589.665,-558.065,386.240,587.540,-675.975,-135.045,172.687,158.180,26.415,-135.000
1.000,16.000,589.280,-557.585,386.240,587.920,-675.825,-135.100,172.062,158.180,26.415,-135.000
1.000,16.000,589.385,-557.060,386.515,587.390,-675.565,-135.375,172.375,158.180,26.415,-135.000
1.000,16.000,590.370,-557.375,385.770,588.095,-676.350,-135.280,172.687,158.211,26.415,-135.000
1.000,16.000,589.595,-557.635,386.405,587.530,-675.605,-134.840,172.375,158.180,26.415,-135.000
1.000,17.000,645.740,14.425,625.125,640.510,-452.365,440.075,172.375,158.305,177.277,180.000
1.000,17.000,645.280,14.265,624.615,639.590,-452.335,440.155,172.687,158.305,177.287,180.000
1.000,17.000,645.465,14.110,624.365,640.300,-452.470,440.335,172.687,158.305,177.287,180.000
1.000,17.000,645.555,14.375,624.590,640.445,-452.025,439.555,172.375,158.305,177.287,180.000
1.000,17.000,645.535,14.230,624.735,639.780,-452.055,440.145,172.375,158.305,177.287,180.000
1.000,17.000,644.650,14.265,624.620,639.880,-451.825,439.725,172.062,158.305,177.287,180.000
1.000,17.000,645.535,14.230,624.735,640.000,-451.815,440.260,172.687,158.336,177.287,180.000
1.000,17.000,645.615,14.040,624.860,640.565,-452.680,439.270,172.062,158.367,-9519.595,180.000
1.000,17.000,645.620,13.885,624.450,639.815,-451.870,440.110,172.687,158.367,177.287,180.000
1.000,17.000,645.930,14.150,624.650,640.265,-452.290,440.135,172.687,158.336,177.287,180.000
1.000,18.000,457.640,455.320,623.325,455.215,-145.700,755.060,172.687,158.399,177.287,135.000
1.000,18.000,458.070,454.805,623.385,455.370,-146.110,755.000,172.687,158.399,177.287,135.000
1.000,18.000,457.995,454.820,623.230,455.985,-145.650,755.200,172.687,158.399,177.287,135.000
1.000,18.000,457.475,454.860,623.575,455.385,-146.000,755.510,172.687,158.430,177.287,135.000
1.000,18.000,457.990,455.035,623.875,455.615,-145.725,755.280,172.687,158.399,177.287,135.000
1.000,18.000,457.325,455.150,623.310,455.600,-145.490,754.945,172.375,158.399,177.287,135.000
1.000,18.000,457.905,454.850,623.725,455.435,-145.800,755.465,172.687,158.430,177.287,135.000
1.000,18.000,456.955,455.320,623.845,454.825,-145.950,754.595,173.000,158.430,177.287,135.000
1.000,18.000,456.825,455.030,623.520,455.460,-145.470,754.470,172.687,158.430,177.287,135.000
1.000,18.000,458.160,454.965,622.915,455.995,-145.440,755.830,172.687,158.430,177.287,135.000
1.000,19.000,21.455,633.925,637.570,18.440,-29.610,891.000,172.687,158.492,177.287,90.000
1.000,19.000,21.390,633.430,638.020,17.740,-29.525,891.105,172.687,158.523,177.287,90.000
1.000,19.000,21.275,633.670,638.710,18.010,-29.300,890.950,173.000,158.492,177.287,90.000
1.000,19.000,21.425,633.845,638.415,17.825,-28.970,891.275,173.000,158.523,177.287,90.000
1.000,19.000,21.610,633.565,638.335,17.730,-30.045,891.045,172.687,158.523,177.287,90.000
1.000,19.000,21.805,634.440,638.770,18.370,-29.965,890.085,172.687,158.523,177.287,90.000
1.000,19.000,22.025,633.745,638.895,18.080,-28.720,890.700,172.687,158.523,177.287,90.000
1.000,19.000,21.160,633.545,638.920,17.460,-29.615,890.945,173.000,158.523,177.287,90.000
1.000,19.000,21.430,633.825,638.655,18.890,-29.230,889.985,172.687,158.523,177.287,90.000
1.000,19.000,21.120,633.855,637.950,17.090,-29.310,890.920,172.687,158.555,177.287,90.000
1.000,20.000,-423.865,449.285,650.840,-430.605,-169.735,771.235,173.000,158.586,177.287,45.000
1.000,20.000,-424.025,449.550,650.550,-430.820,-170.010,770.485,173.000,158.586,177.287,45.000
1.000,20.000,-424.150,449.190,650.420,-432.030,-169.920,770.880,173.000,158.586,177.287,45.000
1.000,20.000,-424.045,449.030,651.380,-430.530,-170.060,770.450,172.687,158.586,177.287,45.000
1.000,20.000,-423.780,448.665,650.470,-431.460,-169.635,770.875,173.000,158.586,177.287,45.000
1.000,20.000,-424.745,449.415,651.315,-430.200,-169.810,770.095,173.000,158.617,177.287,45.000
1.000,20.000,-424.315,448.560,650.860,-431.535,-169.875,770.260,172.687,158.617,177.287,45.000
1.000,20.000,-424.125,448.690,650.665,-430.365,-169.925,769.860,173.000,158.648,177.297,45.000
1.000,20.000,-425.620,448.865,651.375,-430.710,-169.780,770.645,173.312,158.648,177.297,45.000
1.000,20.000,-424.795,449.470,650.670,-430.580,-170.455,770.055,172.687,158.648,177.287,45.000
1.000,21.000,-608.260,8.505,664.415,-605.725,-482.975,465.585,173.000,158.711,177.297,0.000
1.000,21.000,-608.700,8.580,663.830,-605.600,-482.900,466.300,173.000,158.680,177.297,0.000
1.000,21.000,-608.505,8.010,664.270,-605.300,-482.950,466.075,173.312,158.680,177.297,0.000
1.000,21.000,-608.590,8.210,664.130,-605.895,-482.965,465.400,172.687,158.711,177.297,0.000
1.000,21.000,-608.315,8.870,664.395,-605.450,-482.800,466.055,173.000,158.711,177.297,0.000
1.000,21.000,-608.555,7.895,664.175,-605.690,-483.340,465.715,173.000,158.742,177.297,0.000
1.000,21.000,-608.735,8.060,664.540,-605.160,-482.635,466.405,173.000,158.711,177.297,0.000
1.000,21.000,-609.565,8.365,664.135,-605.440,-483.215,466.335,173.000,158.742,177.297,0.000
1.000,21.000,-608.515,8.445,664.945,-605.705,-482.700,465.870,172.687,158.742,177.297,0.000
1.000,21.000,-608.240,8.600,664.375,-605.305,-482.420,466.080,173.000,158.711,177.297,0.000
1.000,22.000,-417.525,-429.715,669.955,-425.950,-785.865,155.335,172.687,158.805,177.297,-45.000
1.000,22.000,-417.715,-430.185,670.155,-426.070,-785.335,154.935,173.000,158.805,177.297,-45.000
1.000,22.000,-417.525,-429.955,670.585,-426.380,-785.165,155.050,173.312,158.805,177.297,-45.000
1.000,22.000,-418.190,-430.055,670.185,-427.260,-785.730,154.795,173.312,158.805,177.297,-45.000
1.000,22.000,-417.200,-430.745,670.225,-425.935,-785.435,156.280,173.312,158.805,177.297,-45.000
1.000,22.000,-416.870,-430.315,670.745,-426.820,-785.500,155.290,173.000,158.805,177.297,-45.000
1.000,22.000,-417.390,-430.385,670.140,-426.635,-785.665,155.240,173.000,158.805,177.297,-45.000
1.000,22.000,-417.220,-430.240,670.060,-426.550,-785.850,155.270,173.000,158.836,177.297,-45.000
1.000,22.000,-417.775,-430.650,669.435,-425.635,-785.355,154.875,173.000,158.805,177.297,-45.000
1.000,22.000,-418.225,-430.145,670.210,-425.725,-785.180,155.310,173.000,158.836,177.297,-45.000
1.000,23.000,20.100,-615.465,653.670,16.010,-906.180,14.015,173.000,158.867,177.297,-90.000
1.000,23.000,19.710,-615.050,653.870,14.780,-905.635,13.890,173.000,158.898,177.297,-90.000
1.000,23.000,19.355,-615.120,654.125,16.220,-906.065,14.325,173.000,158.867,177.297,-90.000
1.000,23.000,18.905,-615.495,653.925,15.185,-905.145,14.290,173.625,158.898,177.297,-90.000
1.000,23.000,20.505,-615.615,653.825,17.290,-905.705,15.180,173.312,158.867,177.297,-90.000
1.000,23.000,20.020,-615.345,654.120,15.590,-905.535,13.775,173.312,158.898,177.297,-90.000
1.000,23.000,19.895,-615.210,653.710,15.720,-905.130,14.110,173.312,158.898,177.297,-90.000
1.000,23.000,19.495,-615.235,653.640,15.805,-905.755,13.905,173.625,158.898,177.297,-90.000
1.000,23.000,20.215,-614.920,654.140,15.335,-905.020,14.790,173.312,158.898,177.297,-90.000
1.000,23.000,19.610,-615.055,653.935,16.475,-905.455,13.835,173.312,158.929,177.297,-90.000
1.000,24.000,465.930,-423.030,638.095,465.150,-765.020,135.300,173.312,158.961,177.297,-135.000
1.000,24.000,466.125,-423.455,638.250,464.505,-764.880,134.865,173.000,158.961,177.297,-135.000
1.000,24.000,465.950,-423.410,638.645,465.730,-764.490,135.280,173.312,158.961,177.297,-135.000
1.000,24.000,466.330,-423.170,637.990,464.830,-764.385,136.095,173.312,158.961,177.297,-135.000
1.000,24.000,465.850,-423.760,638.310,465.880,-764.480,135.800,173.312,158.961,177.297,-135.000
1.000,24.000,466.010,-423.655,638.380,465.740,-764.355,135.020,173.312,158.961,177.297,-135.000
1.000,24.000,465.665,-423.655,638.485,465.065,-764.490,135.735,173.000,158.992,112.922,-135.000
1.000,24.000,466.350,-423.245,638.595,465.310,-763.995,135.705,173.312,158.992,177.297,-135.000
1.000,24.000,465.900,-423.195,638.790,465.135,-764.250,136.260,173.312,158.992,177.297,-135.000
1.000,24.000,465.145,-423.015,638.210,465.175,-764.305,135.515,173.312,158.992,177.297,-135.000
