Temp Iter,Index,X Accel 1,Y Accel 1,Z Accel 1,X Accel 2,Y Accel 2,Z Accel2, Temp_6g,Temp,Theta,Phi,,,,,,
1.000,1.000,901.540,8.395,-49.480,895.630,21.745,-42.000,136.750,127.262,-1.975,180.000
1.000,1.000,900.465,7.885,-49.265,895.455,22.010,-42.140,136.750,127.293,-1.975,180.000
1.000,1.000,900.730,8.185,-49.660,895.065,22.400,-41.855,136.750,127.293,-1.975,180.000
1.000,1.000,900.595,7.785,-49.800,895.390,22.115,-41.950,136.750,127.293,-1.975,180.000
1.000,1.000,900.835,8.025,-49.755,895.425,21.890,-41.500,136.437,127.293,-1.975,180.000
1.000,1.000,901.435,7.790,-50.480,894.900,22.175,-42.445,136.437,127.293,-1.975,180.000
1.000,1.000,900.590,8.380,-49.330,895.680,21.900,-41.800,136.437,127.293,-1.975,180.000
1.000,1.000,901.520,7.820,-50.495,894.770,21.660,-41.625,136.750,127.293,-1.975,180.000
1.000,1.000,900.800,8.050,-49.880,894.470,21.975,-41.900,136.750,127.293,-1.975,180.000
1.000,1.000,900.985,8.515,-49.690,895.110,21.760,-42.110,136.125,127.293,-1.975,180.000
1.000,2.000,639.580,637.960,-58.150,638.705,466.020,410.415,136.437,127.325,-1.975,135.000
1.000,2.000,639.820,638.240,-57.265,638.595,465.805,409.950,136.750,127.356,-1.975,135.000
1.000,2.000,639.540,637.720,-57.655,638.365,465.835,410.230,136.750,127.325,-1.975,135.000
1.000,2.000,639.435,638.080,-56.670,638.850,465.925,410.615,136.437,127.325,-1.975,135.000
1.000,2.000,640.200,638.280,-57.515,639.160,466.180,409.820,136.750,127.325,-1.975,135.000
1.000,2.000,639.880,638.010,-58.110,638.570,465.460,410.030,136.437,127.325,-1.975,135.000
1.000,2.000,639.520,638.000,-57.530,638.935,466.020,410.135,137.062,127.325,-1.975,135.000
1.000,2.000,639.630,638.215,-57.675,638.525,466.040,410.235,136.750,127.356,-1.975,135.000
1.000,2.000,640.400,638.245,-57.645,638.765,465.865,409.645,136.750,127.325,-1.975,135.000
1.000,2.000,639.675,638.545,-57.280,638.545,465.795,409.645,136.750,127.356,-1.975,135.000
1.000,3.000,1.365,903.670,-50.090,8.940,646.355,614.370,136.750,127.356,-1.975,90.000
1.000,3.000,0.850,903.190,-50.820,9.320,646.160,614.830,136.750,127.387,-1.975,90.000
1.000,3.000,1.430,903.510,-50.495,10.040,645.850,615.085,136.750,127.387,-1.975,90.000
1.000,3.000,1.350,903.280,-50.695,8.375,646.420,614.490,136.750,127.387,-1.975,90.000
1.000,3.000,1.020,902.930,-50.725,8.905,646.615,614.800,136.750,127.387,-1.975,90.000
1.000,3.000,0.885,903.255,-49.885,9.090,646.580,615.285,136.750,127.387,-1.975,90.000
1.000,3.000,1.435,903.145,-50.785,9.220,646.775,615.655,136.750,127.387,-1.975,90.000
1.000,3.000,1.100,903.380,-50.405,8.980,646.825,614.610,136.750,127.387,-1.975,90.000
1.000,3.000,0.865,903.525,-49.505,8.980,645.905,614.950,136.750,127.387,-1.975,90.000
1.000,3.000,0.965,903.435,-49.990,9.490,645.850,615.340,137.062,127.387,-1.975,90.000
1.000,4.000,-647.755,634.285,-34.915,-638.575,454.690,437.775,136.750,127.418,-1.975,45.000
1.000,4.000,-647.615,633.660,-35.015,-638.990,454.065,437.260,136.750,127.387,-1.975,45.000
1.000,4.000,-647.340,633.935,-35.275,-639.280,454.965,437.760,136.750,127.418,-1.975,45.000
1.000,4.000,-647.365,633.785,-34.125,-638.650,454.595,438.120,136.437,127.418,-1.975,45.000
1.000,4.000,-647.885,633.570,-35.655,-638.470,454.800,437.610,136.750,127.418,-1.975,45.000
1.000,4.000,-647.095,633.760,-34.720,-638.645,454.510,437.500,136.750,127.418,-1.975,45.000
1.000,4.000,-647.310,634.060,-34.550,-638.600,454.120,437.765,136.750,127.387,-1.975,45.000
1.000,4.000,-647.245,633.490,-34.880,-638.640,454.935,437.635,136.437,127.418,-1.975,45.000
1.000,4.000,-647.295,633.550,-34.755,-639.645,454.660,437.520,136.437,127.418,-1.975,45.000
1.000,4.000,-646.800,633.490,-35.405,-639.460,454.880,437.210,136.750,127.418,-1.975,45.000
1.000,5.000,-899.925,-1.925,-19.460,-902.260,3.155,-3.185,136.750,127.450,-1.975,0.000
1.000,5.000,-900.315,-1.760,-19.600,-902.955,3.300,-2.940,136.437,127.450,-1.975,0.000
1.000,5.000,-900.390,-1.965,-18.590,-902.190,3.155,-2.800,136.750,127.450,-1.975,0.000
1.000,5.000,-900.965,-2.300,-19.095,-902.645,3.180,-3.720,136.437,127.450,-1.975,0.000
1.000,5.000,-900.480,-2.565,-19.905,-902.630,2.985,-2.990,136.750,127.481,-1.975,0.000
1.000,5.000,-900.165,-2.390,-19.750,-902.560,3.585,-3.525,136.750,127.481,-1.975,0.000
1.000,5.000,-900.075,-2.115,-19.325,-903.265,3.480,-3.225,137.062,127.450,-1.975,0.000
1.000,5.000,-899.840,-2.525,-19.190,-902.435,3.440,-3.850,136.750,127.450,-1.975,0.000
1.000,5.000,-900.480,-2.505,-19.220,-902.190,3.335,-3.195,136.750,127.450,-1.975,0.000
1.000,5.000,-900.530,-2.680,-19.295,-903.035,3.130,-3.555,136.750,127.481,-1.975,0.000
1.000,6.000,-639.740,-634.460,-11.735,-645.855,-441.330,-455.705,137.062,127.512,-1.975,-45.000
1.000,6.000,-640.290,-634.720,-11.125,-646.440,-441.705,-456.065,136.750,127.512,-1.975,-45.000
1.000,6.000,-639.615,-634.640,-11.605,-647.195,-442.265,-457.285,137.062,127.481,-1.975,-45.000
1.000,6.000,-639.105,-634.630,-11.180,-647.050,-441.385,-455.190,136.750,127.512,-1.975,-45.000
1.000,6.000,-639.080,-634.725,-11.560,-647.010,-441.725,-455.535,136.750,127.512,-1.975,-45.000
1.000,6.000,-639.805,-634.480,-11.400,-646.190,-441.790,-456.130,137.062,127.481,-1.975,-45.000
1.000,6.000,-639.890,-634.125,-11.465,-646.065,-441.935,-455.795,136.750,127.512,-1.975,-45.000
1.000,6.000,-640.005,-634.760,-11.540,-646.955,-441.465,-455.940,137.062,127.481,-1.975,-45.000
1.000,6.000,-639.730,-634.610,-11.600,-646.605,-442.275,-456.485,136.750,127.512,-1.975,-45.000
1.000,6.000,-640.305,-634.875,-11.245,-646.925,-441.585,-455.765,136.750,127.512,-1.975,-45.000
1.000,7.000,-2.320,-898.660,-17.930,-16.905,-620.475,-663.320,137.062,127.512,-1.975,-90.000
1.000,7.000,-1.740,-898.635,-17.905,-17.555,-620.400,-662.765,136.750,127.543,-1.975,-90.000
1.000,7.000,-1.465,-898.550,-18.120,-17.175,-620.320,-663.710,136.750,127.512,-1.975,-90.000
1.000,7.000,-2.250,-898.510,-18.420,-16.565,-620.450,-663.345,136.750,127.543,-1.975,-90.000
1.000,7.000,-1.690,-898.655,-17.960,-17.160,-620.805,-663.360,136.750,127.512,-1.975,-90.000
1.000,7.000,-1.220,-898.905,-17.795,-16.335,-620.370,-662.820,136.750,127.512,-1.975,-90.000
1.000,7.000,-1.770,-899.140,-17.680,-17.060,-620.200,-663.105,137.062,127.543,-1.975,-90.000
1.000,7.000,-1.400,-899.095,-17.635,-16.770,-620.255,-663.455,136.437,127.543,-1.975,-90.000
1.000,7.000,-1.890,-899.120,-17.370,-16.470,-620.090,-662.945,136.750,127.543,-1.975,-90.000
1.000,7.000,-2.290,-899.180,-17.405,-16.735,-620.165,-663.490,136.750,127.543,-1.975,-90.000
1.000,8.000,646.515,-629.820,-34.295,632.225,-428.250,-484.240,137.062,127.575,-1.975,-135.000
1.000,8.000,647.200,-630.780,-33.935,632.035,-427.895,-483.740,136.750,127.575,-1.975,-135.000
1.000,8.000,646.835,-630.200,-34.560,632.255,-428.490,-483.615,137.062,127.543,-1.975,-135.000
1.000,8.000,646.620,-630.035,-33.880,632.230,-428.635,-483.840,136.750,127.575,-1.975,-135.000
1.000,8.000,647.345,-630.285,-33.945,632.415,-428.350,-484.230,137.062,127.575,-1.975,-135.000
1.000,8.000,647.045,-630.315,-33.700,632.095,-428.490,-483.870,136.750,127.575,-1.975,-135.000
1.000,8.000,646.435,-630.550,-34.100,632.160,-428.640,-483.555,136.750,127.575,-1.975,-135.000
1.000,8.000,646.225,-630.475,-34.830,632.675,-428.410,-483.945,136.750,127.575,-1.975,-135.000
1.000,8.000,646.365,-630.005,-34.180,632.140,-428.705,-483.690,137.062,127.575,-1.975,-135.000
1.000,8.000,646.805,-630.090,-34.130,632.145,-428.210,-484.015,136.750,127.575,-1.975,-135.000
1.000,9.000,816.500,14.640,383.775,812.685,-285.390,264.415,137.062,127.606,26.295,180.000
1.000,9.000,816.105,14.520,384.065,812.595,-285.270,264.750,137.062,127.606,26.295,180.000
1.000,9.000,816.980,14.825,383.405,813.265,-285.025,264.815,136.750,127.606,26.295,180.000
1.000,9.000,816.660,14.575,383.830,812.240,-285.325,264.265,136.750,127.606,26.295,180.000
1.000,9.000,816.550,14.950,384.420,813.065,-285.045,265.085,137.062,127.606,26.295,180.000
1.000,9.000,815.595,15.185,383.220,812.735,-285.035,264.815,136.750,127.606,26.295,180.000
1.000,9.000,816.715,15.380,384.160,812.880,-285.715,264.500,136.750,127.606,26.295,180.000
1.000,9.000,817.020,14.880,383.725,812.365,-285.070,265.515,137.062,127.637,26.295,180.000
1.000,9.000,817.090,14.505,383.965,812.675,-284.705,264.525,136.750,127.606,26.295,180.000
1.000,9.000,816.405,14.400,384.095,812.380,-284.795,265.370,137.062,127.606,26.295,180.000
1.000,10.000,576.830,584.605,375.235,583.400,114.465,669.160,136.750,127.637,26.295,135.000
1.000,10.000,577.355,584.860,374.450,583.600,114.540,669.590,137.375,127.637,26.295,135.000
1.000,10.000,577.055,584.790,375.155,583.825,114.105,669.630,137.062,127.637,26.295,135.000
1.000,10.000,577.000,584.855,374.855,583.705,114.395,668.765,137.062,127.637,26.295,135.000
1.000,10.000,577.345,585.050,374.770,584.060,114.365,669.040,136.750,127.637,26.295,135.000
1.000,10.000,577.010,585.115,374.315,583.620,114.120,668.950,137.062,127.637,26.305,135.000
1.000,10.000,577.830,584.245,375.045,583.475,114.605,669.330,137.062,127.637,26.305,135.000
1.000,10.000,576.975,584.525,374.985,583.650,114.345,668.880,137.375,127.668,26.305,135.000
1.000,10.000,577.465,585.110,374.795,583.695,114.585,668.920,136.750,127.668,26.305,135.000
1.000,10.000,577.410,584.555,374.610,583.670,114.435,669.055,137.062,127.668,26.305,135.000
1.000,11.000,8.385,817.845,381.995,16.500,281.035,846.730,137.062,127.668,26.305,90.000
1.000,11.000,7.910,817.935,382.165,14.955,280.595,846.430,137.062,127.668,26.305,90.000
1.000,11.000,8.455,818.180,382.140,15.980,280.775,845.805,136.750,127.668,26.305,90.000
1.000,11.000,8.935,818.320,382.165,15.790,281.240,846.180,136.750,127.668,26.305,90.000
1.000,11.000,9.175,817.960,381.700,15.845,280.955,845.650,137.062,127.668,26.305,90.000
1.000,11.000,9.105,818.275,381.875,16.090,281.230,845.920,137.062,127.668,26.305,90.000
1.000,11.000,8.205,818.350,382.025,15.815,281.170,845.610,137.062,127.699,26.305,90.000
1.000,11.000,7.595,818.540,382.255,16.420,281.130,845.605,137.062,127.668,26.305,90.000
1.000,11.000,7.125,818.060,381.445,15.970,281.145,846.210,137.062,127.699,26.305,90.000
1.000,11.000,8.745,818.245,381.620,15.980,281.455,846.310,137.062,127.668,26.305,90.000
1.000,12.000,-573.940,574.375,396.200,-567.700,105.990,690.555,137.375,127.699,26.305,45.000
1.000,12.000,-573.435,574.375,396.320,-568.735,105.675,690.750,137.062,127.699,26.305,45.000
1.000,12.000,-574.050,574.870,396.595,-568.810,105.305,691.005,137.062,127.699,26.305,45.000
1.000,12.000,-574.120,574.795,396.345,-568.445,105.575,690.325,137.375,127.699,26.305,45.000
1.000,12.000,-574.370,574.630,396.500,-569.030,105.330,690.675,137.062,127.699,26.305,45.000
1.000,12.000,-573.805,574.290,396.615,-569.155,105.870,690.575,137.062,127.699,26.305,45.000
1.000,12.000,-574.225,574.745,396.435,-568.295,106.100,691.020,137.062,127.731,26.305,45.000
1.000,12.000,-573.855,574.485,396.755,-568.335,105.990,690.610,137.062,127.699,26.305,45.000
1.000,12.000,-574.045,574.625,395.650,-568.295,105.555,691.025,136.750,127.699,26.305,45.000
1.000,12.000,-574.440,574.845,396.530,-569.185,105.355,690.840,136.750,127.731,26.305,45.000
1.000,13.000,-800.190,5.245,411.820,-803.945,-298.555,294.845,137.062,127.731,26.305,0.000
1.000,13.000,-799.890,5.725,412.335,-804.830,-298.845,295.410,137.375,127.731,26.305,0.000
1.000,13.000,-800.005,6.135,412.545,-805.165,-298.925,295.410,137.062,127.731,26.305,0.000
1.000,13.000,-800.160,5.870,412.115,-804.315,-298.700,294.245,137.375,127.762,26.305,0.000
1.000,13.000,-800.820,5.860,411.975,-804.355,-298.730,294.855,137.062,127.762,26.305,0.000
1.000,13.000,-800.320,5.990,412.340,-804.580,-298.615,294.945,136.437,127.731,26.305,0.000
1.000,13.000,-799.925,5.405,412.685,-805.260,-299.360,294.750,137.375,127.731,26.305,0.000
1.000,13.000,-800.395,5.975,412.185,-805.020,-299.010,294.445,137.375,127.731,26.305,0.000
1.000,13.000,-800.090,6.040,412.280,-803.975,-299.195,294.815,137.062,127.731,26.305,0.000
1.000,13.000,-800.010,5.350,412.350,-804.855,-299.050,295.020,137.062,127.762,26.305,0.000
1.000,14.000,-564.675,-565.140,415.735,-575.965,-697.085,-111.900,137.062,127.762,26.305,-45.000
1.000,14.000,-563.500,-565.240,415.530,-575.985,-697.255,-111.800,137.062,127.762,26.305,-45.000
1.000,14.000,-564.495,-565.760,414.385,-575.690,-697.620,-111.495,137.062,127.762,26.305,-45.000
1.000,14.000,-563.890,-565.020,415.025,-576.165,-697.200,-111.675,137.062,127.762,26.305,-45.000
1.000,14.000,-563.880,-565.350,415.010,-576.980,-697.035,-111.215,136.750,127.762,26.305,-45.000
1.000,14.000,-563.355,-565.120,415.015,-577.130,-696.760,-110.725,136.750,127.762,26.305,-45.000
1.000,14.000,-564.070,-565.530,414.535,-576.310,-697.505,-111.315,137.062,127.793,26.305,-45.000
1.000,14.000,-563.635,-565.100,414.835,-576.220,-697.190,-111.525,136.750,127.762,26.305,-45.000
1.000,14.000,-563.225,-565.900,414.255,-576.415,-697.320,-111.770,137.062,127.793,26.305,-45.000
1.000,14.000,-563.645,-565.440,414.835,-576.160,-697.875,-111.545,137.062,127.793,26.305,-45.000
1.000,15.000,7.395,-797.780,412.980,-4.425,-861.280,-294.090,137.375,127.793,26.305,-90.000
1.000,15.000,7.395,-797.630,413.230,-4.240,-861.295,-293.755,137.375,127.824,26.305,-90.000
1.000,15.000,7.060,-797.350,413.095,-4.585,-861.645,-294.150,137.062,127.824,26.305,-90.000
1.000,15.000,7.665,-797.875,413.365,-4.315,-861.215,-294.000,137.375,127.793,26.305,-90.000
1.000,15.000,7.695,-797.680,413.370,-4.485,-862.085,-293.935,137.062,127.824,26.305,-90.000
1.000,15.000,6.970,-798.450,413.215,-4.465,-861.605,-292.760,137.375,127.793,26.305,-90.000
1.000,15.000,7.240,-798.145,412.500,-3.855,-861.065,-292.985,137.062,127.824,26.305,-90.000
1.000,15.000,8.020,-797.960,413.910,-4.080,-861.535,-293.785,137.062,127.793,26.305,-90.000
1.000,15.000,6.370,-797.800,412.710,-3.825,-861.420,-294.200,137.062,127.793,26.305,-90.000
1.000,15.000,7.225,-797.655,413.330,-3.205,-861.660,-293.950,137.375,127.824,26.305,-90.000
1.000,16.000,587.475,-557.460,392.855,581.655,-684.985,-137.670,137.062,127.824,26.305,-135.000
1.000,16.000,587.250,-557.740,392.785,581.610,-685.720,-137.200,137.062,127.824,26.305,-135.000
1.000,16.000,586.585,-557.560,392.025,581.355,-685.330,-136.650,137.375,127.856,26.305,-135.000
1.000,16.000,586.570,-557.295,392.330,581.890,-685.355,-136.700,137.062,127.824,26.305,-135.000
1.000,16.000,586.740,-557.395,392.215,582.600,-685.130,-136.990,137.062,127.824,26.305,-135.000
1.000,16.000,587.410,-557.600,392.580,583.070,-684.865,-136.600,137.375,127.824,26.305,-135.000
1.000,16.000,587.110,-557.285,392.855,582.185,-685.770,-137.120,137.375,127.824,26.305,-135.000
1.000,16.000,587.825,-557.250,392.455,582.275,-684.515,-136.960,137.062,127.856,26.305,-135.000
1.000,16.000,587.615,-557.885,392.555,581.935,-685.160,-136.790,137.062,127.824,26.305,-135.000
1.000,16.000,587.845,-557.210,392.845,581.865,-685.200,-137.185,137.375,127.856,26.305,-135.000
1.000,17.000,642.200,16.095,631.845,640.530,-460.025,439.230,137.062,127.887,45.945,180.000
1.000,17.000,642.535,16.095,631.655,641.275,-460.000,440.130,137.062,127.856,45.945,180.000
1.000,17.000,642.740,16.460,632.580,640.535,-460.360,440.060,137.062,127.856,45.945,180.000
1.000,17.000,642.305,17.060,631.390,640.650,-460.080,439.365,137.375,127.887,45.945,180.000
1.000,17.000,642.310,16.395,631.655,640.565,-460.085,439.960,137.375,127.887,45.945,180.000
1.000,17.000,642.335,15.960,630.935,640.640,-459.840,440.365,137.062,127.887,45.945,180.000
1.000,17.000,642.025,16.475,631.340,641.450,-460.225,440.120,137.375,127.856,45.945,180.000
1.000,17.000,642.410,16.120,631.495,640.815,-460.030,440.295,137.062,127.887,45.945,180.000
1.000,17.000,642.400,16.500,630.995,640.535,-460.175,440.050,137.062,127.887,45.955,180.000
1.000,17.000,642.520,16.180,630.835,640.030,-460.290,439.730,137.375,127.856,45.955,180.000
1.000,18.000,454.125,460.040,627.355,460.140,-147.750,758.125,137.375,127.887,45.955,135.000
1.000,18.000,453.680,460.040,627.550,460.315,-148.240,757.810,137.375,127.918,45.955,135.000
1.000,18.000,453.655,459.820,628.315,459.375,-148.325,757.395,137.062,127.887,45.955,135.000
1.000,18.000,454.270,459.805,627.955,459.670,-148.140,757.590,137.062,127.918,45.955,135.000
1.000,18.000,453.820,460.380,627.405,459.500,-147.680,758.040,137.062,127.918,45.955,135.000
1.000,18.000,453.440,460.140,628.035,459.825,-148.200,758.360,137.062,127.918,45.955,135.000
1.000,18.000,454.075,460.130,627.560,459.515,-148.310,757.840,137.375,127.918,45.955,135.000
1.000,18.000,454.485,460.135,627.750,459.505,-148.235,757.500,137.375,127.918,45.955,135.000
1.000,18.000,454.000,460.045,627.815,459.145,-147.995,757.675,137.062,127.918,45.955,135.000
1.000,18.000,453.885,460.150,627.315,460.285,-148.210,758.195,137.375,127.918,45.955,135.000
1.000,19.000,13.940,640.690,635.310,19.140,-25.605,893.475,137.375,127.949,45.955,90.000
1.000,19.000,13.755,640.665,635.705,19.130,-25.575,894.440,137.375,127.949,45.955,90.000
1.000,19.000,13.935,641.000,635.225,19.645,-25.695,893.885,137.375,127.918,45.955,90.000
1.000,19.000,14.320,640.855,635.130,19.080,-26.205,894.225,137.062,127.949,45.955,90.000
1.000,19.000,13.935,640.955,635.185,19.145,-26.070,893.020,137.687,127.949,45.955,90.000
1.000,19.000,14.270,640.970,634.845,18.765,-26.175,894.110,137.375,127.949,45.955,90.000
1.000,19.000,13.965,641.440,635.335,19.460,-25.535,894.145,137.062,127.918,45.955,90.000
1.000,19.000,14.220,641.040,634.940,18.270,-25.295,894.195,137.375,127.949,45.955,90.000
1.000,19.000,14.130,641.305,635.220,18.495,-25.800,893.745,137.375,127.949,45.955,90.000
1.000,19.000,13.765,640.940,635.065,19.130,-25.625,893.895,137.062,127.949,45.955,90.000
1.000,20.000,-435.640,454.995,642.540,-435.945,-161.135,772.665,137.375,127.949,45.955,45.000
1.000,20.000,-435.580,455.235,641.905,-433.860,-161.200,772.215,137.062,127.949,45.955,45.000
1.000,20.000,-435.940,455.230,642.015,-434.220,-161.350,772.820,137.062,127.981,45.955,45.000
1.000,20.000,-435.450,454.735,641.855,-434.040,-160.875,773.060,137.375,127.949,45.955,45.000
1.000,20.000,-436.335,454.970,641.290,-435.195,-161.145,772.095,137.375,127.949,45.955,45.000
1.000,20.000,-435.635,454.985,642.005,-435.345,-161.655,771.995,137.375,127.981,45.955,45.000
1.000,20.000,-436.140,454.455,643.040,-435.025,-161.255,773.555,137.375,127.981,45.955,45.000
1.000,20.000,-435.715,454.985,641.460,-435.570,-160.870,772.750,137.375,127.981,45.955,45.000
1.000,20.000,-436.260,454.550,641.955,-434.755,-160.925,772.475,137.375,127.981,45.955,45.000
1.000,20.000,-436.120,455.200,641.405,-435.035,-161.255,773.250,137.375,127.981,45.955,45.000
1.000,21.000,-621.555,10.845,652.455,-616.220,-474.770,466.475,137.062,128.012,45.955,0.000
1.000,21.000,-621.505,10.935,651.960,-615.755,-474.580,465.275,137.375,128.012,45.955,0.000
1.000,21.000,-621.630,11.060,652.410,-615.970,-475.195,465.715,137.375,128.012,45.955,0.000
1.000,21.000,-620.890,10.870,652.565,-616.015,-474.440,465.275,137.062,128.012,45.955,0.000
1.000,21.000,-621.810,10.715,652.435,-616.215,-474.945,465.500,137.375,127.981,45.955,0.000
1.000,21.000,-621.505,10.880,653.305,-615.405,-474.460,465.495,137.375,128.012,45.955,0.000
1.000,21.000,-622.560,10.615,652.670,-616.010,-475.035,466.145,137.375,128.012,45.955,0.000
1.000,21.000,-622.260,11.030,652.305,-615.845,-474.330,465.820,137.062,128.012,45.955,0.000
1.000,21.000,-622.060,11.230,652.830,-615.575,-474.455,465.925,137.062,128.012,45.955,0.000
1.000,21.000,-622.475,11.150,653.230,-615.610,-474.600,465.790,137.687,128.012,45.955,0.000
1.000,22.000,-430.800,-431.615,661.435,-439.610,-782.735,152.810,137.375,128.012,45.955,-45.000
1.000,22.000,-429.785,-431.375,661.380,-439.570,-782.640,153.720,137.375,128.043,45.955,-45.000
1.000,22.000,-430.325,-431.060,661.735,-439.900,-783.590,153.080,137.687,128.043,45.955,-45.000
1.000,22.000,-429.920,-431.070,661.530,-439.680,-783.630,152.250,137.687,128.043,45.955,-45.000
1.000,22.000,-430.335,-431.225,661.360,-439.425,-783.755,152.680,137.375,128.074,45.955,-45.000
1.000,22.000,-430.145,-431.245,661.300,-439.935,-783.475,153.580,137.687,128.043,45.955,-45.000
1.000,22.000,-430.555,-431.405,660.970,-440.295,-782.735,152.540,137.375,128.074,45.955,-45.000
1.000,22.000,-430.600,-431.180,660.935,-439.590,-783.085,152.530,137.375,128.043,45.955,-45.000
1.000,22.000,-429.725,-431.280,661.470,-439.320,-782.980,152.090,137.375,128.043,45.955,-45.000
1.000,22.000,-430.020,-431.450,661.850,-439.625,-782.715,152.180,137.375,128.043,45.955,-45.000
1.000,23.000,12.120,-617.710,651.750,3.900,-909.285,9.875,137.375,128.074,45.955,-90.000
1.000,23.000,11.845,-617.640,651.880,4.205,-909.655,10.230,137.062,128.074,45.955,-90.000
1.000,23.000,12.040,-618.315,652.080,5.275,-909.940,9.930,137.687,128.074,45.955,-90.000
1.000,23.000,11.930,-618.205,651.660,4.860,-909.640,10.255,137.375,128.074,45.955,-90.000
1.000,23.000,11.995,-618.500,651.520,5.025,-909.515,9.950,137.687,128.074,45.955,-90.000
1.000,23.000,10.875,-617.370,651.430,4.190,-909.850,10.085,137.687,128.074,45.955,-90.000
1.000,23.000,11.525,-618.005,651.385,4.910,-909.440,9.600,137.687,128.074,45.955,-90.000
1.000,23.000,12.290,-617.930,652.150,3.990,-909.450,9.625,137.375,128.074,45.955,-90.000
1.000,23.000,12.000,-618.175,651.970,4.245,-909.735,10.555,137.062,128.074,45.955,-90.000
1.000,23.000,12.225,-618.000,651.525,5.080,-909.915,10.105,137.687,128.074,45.955,-90.000
1.000,24.000,460.935,-425.015,642.180,460.740,-773.250,132.905,137.375,128.105,45.955,-135.000
1.000,24.000,461.120,-425.455,642.580,460.630,-772.925,132.490,137.375,128.105,45.955,-135.000
1.000,24.000,461.150,-425.070,642.290,460.525,-773.030,132.270,137.375,128.105,45.955,-135.000
1.000,24.000,459.925,-424.995,642.625,460.455,-772.930,132.440,137.062,128.105,45.955,-135.000
1.000,24.000,460.520,-424.960,642.885,460.200,-772.640,132.150,137.687,128.105,45.955,-135.000
1.000,24.000,461.730,-425.360,642.970,460.035,-772.935,132.010,137.375,128.105,45.955,-135.000
1.000,24.000,461.170,-425.040,642.550,460.010,-772.815,131.760,137.375,128.105,45.955,-135.000
1.000,24.000,460.955,-425.505,642.695,460.840,-772.955,132.345,137.687,128.105,45.955,-135.000
1.000,24.000,461.680,-425.245,642.750,460.620,-772.700,132.145,137.687,128.137,45.955,-135.000
1.000,24.000,462.035,-425.405,642.905,460.900,-773.260,132.710,137.062,128.137,45.955,-135.000
1.000,25.000,386.670,21.615,808.935,383.380,-588.640,571.040,137.375,128.137,66.095,180.000
1.000,25.000,386.575,21.310,808.570,382.950,-588.460,570.520,137.687,128.137,66.095,180.000
1.000,25.000,386.785,21.455,808.300,383.015,-588.645,571.365,137.375,128.137,66.095,180.000
1.000,25.000,387.025,21.085,808.560,382.310,-588.590,570.855,137.062,128.168,66.095,180.000
1.000,25.000,387.570,21.085,809.185,382.045,-588.305,570.325,137.687,128.137,66.095,180.000
1.000,25.000,386.070,21.120,809.165,382.200,-588.370,570.160,137.687,128.137,66.095,180.000
1.000,25.000,387.195,21.505,808.365,381.075,-588.280,570.900,137.687,128.137,66.095,180.000
1.000,25.000,387.690,21.365,808.950,382.285,-588.580,570.540,137.687,128.168,66.095,180.000
1.000,25.000,387.535,21.160,808.920,382.705,-588.455,570.940,137.375,128.168,66.095,180.000
1.000,25.000,386.760,21.290,808.770,382.085,-588.245,570.725,137.375,128.168,66.095,180.000
1.000,26.000,273.845,278.165,811.275,275.425,-406.360,756.815,137.375,128.168,66.095,135.000
1.000,26.000,273.415,277.955,811.845,274.850,-406.650,756.140,137.375,128.168,66.095,135.000
1.000,26.000,273.935,277.820,812.040,275.005,-406.400,757.275,137.687,128.168,66.095,135.000
1.000,26.000,273.860,278.475,811.575,275.460,-406.265,755.540,137.687,128.199,66.095,135.000
1.000,26.000,274.235,278.110,811.210,276.025,-406.440,756.720,137.687,128.168,66.095,135.000
1.000,26.000,273.075,278.310,811.380,274.275,-405.935,756.595,137.375,128.168,66.095,135.000
1.000,26.000,272.790,277.915,811.610,275.325,-405.840,756.540,137.375,128.168,66.095,135.000
1.000,26.000,273.230,278.035,811.585,275.175,-406.395,756.045,137.375,128.199,66.105,135.000
1.000,26.000,273.100,277.975,811.755,276.490,-405.650,756.045,137.375,128.199,66.105,135.000
1.000,26.000,273.025,278.380,811.510,275.320,-406.065,756.500,137.375,128.168,66.105,135.000
1.000,27.000,15.650,388.705,810.140,19.020,-336.655,833.290,138.000,128.199,66.105,90.000
1.000,27.000,15.500,388.260,810.220,19.805,-336.250,833.165,137.687,128.199,66.105,90.000
1.000,27.000,15.595,388.415,809.885,19.930,-336.245,832.610,137.687,128.199,66.105,90.000
1.000,27.000,15.180,388.455,808.980,20.355,-336.120,833.305,138.000,128.199,66.105,90.000
1.000,27.000,14.845,388.580,809.740,19.040,-335.740,832.315,137.375,128.199,66.105,90.000
1.000,27.000,15.250,388.625,809.265,19.535,-336.120,832.600,137.687,128.230,66.095,90.000
1.000,27.000,15.095,388.425,809.295,19.140,-335.730,833.490,137.687,128.199,66.105,90.000
1.000,27.000,15.380,388.160,809.655,20.650,-335.680,833.735,137.687,128.199,66.105,90.000
1.000,27.000,15.540,388.795,809.580,19.265,-336.370,832.855,137.375,128.230,66.095,90.000
1.000,27.000,15.045,388.810,809.900,20.155,-335.915,834.180,138.000,128.199,66.095,90.000
1.000,28.000,-248.315,277.095,817.460,-245.640,-416.320,762.890,137.062,128.230,66.105,45.000
1.000,28.000,-248.775,277.495,816.860,-246.510,-416.340,761.865,137.687,128.230,66.105,45.000
1.000,28.000,-248.025,277.240,817.975,-245.480,-416.260,762.915,137.687,128.230,66.105,45.000
1.000,28.000,-248.085,277.145,816.265,-245.370,-416.395,764.140,137.687,128.230,66.105,45.000
1.000,28.000,-248.690,276.505,816.435,-245.600,-416.630,762.355,137.375,128.262,66.105,45.000
1.000,28.000,-248.365,277.250,817.510,-245.685,-416.105,762.670,137.687,128.230,66.105,45.000
1.000,28.000,-248.460,277.515,815.895,-246.240,-416.295,762.410,137.375,128.230,66.105,45.000
1.000,28.000,-247.885,277.365,816.150,-245.700,-416.920,762.890,137.375,128.230,66.105,45.000
1.000,28.000,-248.400,277.510,816.435,-245.815,-416.415,762.245,137.687,128.230,66.105,45.000
1.000,28.000,-248.475,277.550,816.350,-246.160,-416.540,763.020,137.375,128.230,66.105,45.000
1.000,29.000,-354.960,14.810,825.180,-352.885,-593.480,589.360,137.687,128.262,66.105,0.000
1.000,29.000,-354.855,15.335,824.825,-354.245,-593.735,588.950,137.687,128.262,66.105,0.000
1.000,29.000,-354.515,15.135,825.400,-353.765,-594.060,589.575,137.687,128.293,66.105,0.000
1.000,29.000,-354.620,14.490,826.350,-353.320,-593.475,589.830,137.375,128.262,66.105,0.000
1.000,29.000,-354.660,14.885,825.415,-353.390,-593.645,589.240,137.687,128.293,66.105,0.000
1.000,29.000,-354.040,14.675,825.595,-352.190,-593.395,590.390,137.687,128.293,66.105,0.000
1.000,29.000,-354.250,14.910,825.520,-352.920,-593.490,588.745,137.687,128.262,66.105,0.000
1.000,29.000,-354.940,14.995,825.585,-353.735,-593.250,588.855,137.687,128.262,66.105,0.000
1.000,29.000,-354.935,15.230,825.815,-353.170,-593.750,589.390,137.687,128.293,66.105,0.000
1.000,29.000,-354.845,15.425,825.460,-352.495,-593.445,589.125,137.687,128.262,66.105,0.000
1.000,30.000,-244.385,-244.945,828.220,-246.635,-776.600,402.970,137.687,128.293,66.105,-45.000
1.000,30.000,-243.925,-245.310,828.390,-245.600,-776.400,403.190,138.000,128.293,66.105,-45.000
1.000,30.000,-244.065,-245.605,827.430,-246.040,-776.180,403.140,138.000,128.293,66.105,-45.000
1.000,30.000,-244.315,-245.240,827.295,-245.780,-776.410,403.445,137.375,128.293,66.105,-45.000
1.000,30.000,-243.975,-245.410,827.570,-246.070,-776.735,403.780,138.000,128.324,66.105,-45.000
1.000,30.000,-244.135,-245.395,827.695,-245.415,-776.085,403.865,137.687,128.293,66.105,-45.000
1.000,30.000,-244.485,-245.630,827.740,-245.830,-776.425,404.085,138.000,128.324,66.105,-45.000
1.000,30.000,-244.205,-245.575,827.585,-246.060,-776.200,403.165,137.687,128.324,66.105,-45.000
1.000,30.000,-243.525,-245.335,827.915,-246.245,-776.135,402.420,137.375,128.293,66.105,-45.000
1.000,30.000,-244.110,-244.985,827.845,-245.745,-776.495,402.605,137.375,128.324,66.105,-45.000
1.000,31.000,16.005,-352.475,823.390,12.220,-850.245,320.905,137.687,128.324,66.105,-90.000
1.000,31.000,16.945,-352.120,823.705,12.430,-850.835,320.725,137.687,128.355,66.105,-90.000
1.000,31.000,16.130,-352.375,823.895,12.190,-850.260,320.515,137.687,128.324,66.105,-90.000
1.000,31.000,15.525,-352.105,823.760,12.825,-850.165,320.465,137.687,128.324,66.105,-90.000
1.000,31.000,16.355,-352.635,824.025,13.625,-850.485,320.870,137.375,128.324,66.105,-90.000
1.000,31.000,15.630,-352.805,823.790,12.630,-850.320,321.010,137.375,128.355,66.105,-90.000
1.000,31.000,16.230,-352.650,824.190,12.380,-850.250,320.410,138.000,128.355,66.105,-90.000
1.000,31.000,16.035,-352.170,824.245,12.700,-850.470,320.365,137.687,128.355,66.105,-90.000
1.000,31.000,16.525,-352.350,823.120,13.235,-850.390,319.925,137.687,128.324,66.105,-90.000
1.000,31.000,15.835,-352.165,823.190,12.290,-850.235,320.390,138.000,128.355,66.105,-90.000
1.000,32.000,281.130,-240.450,816.335,279.675,-769.675,391.745,138.000,128.355,66.105,-135.000
1.000,32.000,280.885,-240.230,816.165,280.135,-769.900,392.770,138.000,128.355,66.105,-135.000
1.000,32.000,282.080,-240.100,815.595,278.415,-769.780,392.030,137.687,128.355,66.105,-135.000
1.000,32.000,281.625,-241.035,815.950,279.175,-769.735,391.820,137.687,128.355,66.105,-135.000
1.000,32.000,281.270,-240.685,816.205,279.545,-769.235,392.620,137.375,128.355,66.105,-135.000
1.000,32.000,281.490,-240.650,816.740,278.955,-769.850,392.000,137.687,128.387,66.105,-135.000
1.000,32.000,281.095,-240.255,816.045,279.115,-770.090,393.205,137.687,128.387,66.105,-135.000
1.000,32.000,280.460,-240.705,816.600,279.555,-769.650,392.715,137.687,128.387,66.105,-135.000
1.000,32.000,281.135,-240.700,816.210,278.950,-769.845,392.620,138.000,128.355,66.105,-135.000
1.000,32.000,281.225,-240.765,816.155,279.455,-769.710,392.170,137.687,128.355,66.105,-135.000
1.000,33.000,40.455,21.585,894.615,41.635,-643.760,636.795,138.000,128.387,88.745,180.000
1.000,33.000,40.320,21.265,894.530,41.305,-643.820,636.995,137.687,128.387,88.745,180.000
1.000,33.000,39.905,20.985,894.605,40.945,-643.495,637.150,137.687,128.418,88.745,180.000
1.000,33.000,39.380,21.275,894.870,40.915,-643.370,636.730,137.687,128.418,88.745,180.000
1.000,33.000,40.515,21.560,894.155,41.385,-643.620,637.010,138.000,128.387,88.745,180.000
1.000,33.000,40.630,20.815,894.495,41.385,-643.595,636.430,138.000,128.418,88.745,180.000
1.000,33.000,40.765,20.890,894.800,41.230,-643.875,637.670,137.687,128.418,88.745,180.000
1.000,33.000,40.350,21.410,894.685,41.640,-643.640,637.275,137.687,128.418,88.745,180.000
1.000,33.000,40.660,21.275,894.115,41.085,-643.735,637.470,137.687,128.449,88.745,180.000
1.000,33.000,40.385,21.385,894.955,41.685,-643.435,636.675,138.000,128.418,88.745,180.000
1.000,34.000,32.280,37.285,893.805,35.020,-633.130,649.255,137.375,128.449,88.755,135.000
1.000,34.000,31.845,37.010,894.690,33.740,-633.100,648.655,137.687,128.418,88.745,135.000
1.000,34.000,32.155,37.195,893.595,33.410,-632.715,647.775,138.000,128.418,88.745,135.000
1.000,34.000,32.285,37.045,893.940,32.975,-632.705,648.690,138.312,128.449,88.745,135.000
1.000,34.000,31.840,37.065,894.255,33.095,-632.935,649.285,138.000,128.449,88.745,135.000
1.000,34.000,32.405,36.830,894.020,33.775,-632.845,648.600,137.687,128.449,88.745,135.000
1.000,34.000,32.165,36.690,894.160,32.745,-632.700,648.580,138.000,128.418,88.745,135.000
1.000,34.000,32.075,36.820,893.850,33.680,-631.990,649.460,137.687,128.418,88.745,135.000
1.000,34.000,32.080,37.060,893.690,33.405,-632.595,648.300,138.000,128.418,88.755,135.000
1.000,34.000,32.570,36.560,893.860,33.950,-633.100,648.535,138.000,128.449,88.755,135.000
1.000,35.000,15.480,42.780,893.590,16.760,-628.920,651.750,138.000,128.449,88.755,90.000
1.000,35.000,15.770,41.900,893.655,16.850,-628.970,652.025,138.000,128.480,88.755,90.000
1.000,35.000,15.990,42.765,894.120,17.385,-628.710,652.455,138.000,128.449,88.755,90.000
1.000,35.000,15.665,42.765,894.405,16.845,-628.445,651.910,138.000,128.449,88.755,90.000
1.000,35.000,16.295,42.540,893.975,16.895,-629.210,651.650,137.687,128.449,88.755,90.000
1.000,35.000,16.215,42.765,893.735,17.145,-629.060,652.645,138.000,128.480,88.755,90.000
1.000,35.000,15.805,42.800,893.350,16.295,-628.765,652.250,138.000,128.480,88.755,90.000
1.000,35.000,15.735,42.470,894.120,17.065,-628.895,652.435,138.000,128.449,88.755,90.000
1.000,35.000,15.845,42.410,894.080,17.805,-628.925,652.020,138.000,128.449,88.755,90.000
1.000,35.000,15.605,42.585,894.840,17.575,-628.735,652.120,137.687,128.480,88.755,90.000
1.000,36.000,0.715,35.115,894.705,2.225,-634.045,646.565,138.000,128.480,88.755,45.000
1.000,36.000,0.705,35.005,894.190,2.405,-633.905,647.435,138.000,128.480,88.755,45.000
1.000,36.000,1.275,35.140,894.695,2.135,-633.765,647.385,137.687,128.511,88.755,45.000
1.000,36.000,0.380,35.015,894.675,2.280,-634.095,647.325,138.000,128.511,88.755,45.000
1.000,36.000,0.545,34.990,894.670,2.130,-633.900,647.670,138.312,128.480,88.755,45.000
1.000,36.000,0.615,35.370,894.315,2.620,-633.685,648.680,138.000,128.480,88.755,45.000
1.000,36.000,0.510,35.105,893.915,2.125,-633.720,648.275,138.000,128.511,88.755,45.000
1.000,36.000,0.405,35.355,894.245,2.090,-634.185,647.215,137.687,128.480,88.755,45.000
1.000,36.000,0.270,35.465,894.665,2.525,-633.845,649.035,138.000,128.511,88.755,45.000
1.000,36.000,0.450,35.025,894.745,2.015,-633.805,647.320,137.687,128.480,88.755,45.000
1.000,37.000,-3.570,19.650,894.510,-3.880,-645.185,637.525,138.000,128.511,88.755,0.000
1.000,37.000,-3.305,19.570,894.750,-3.580,-645.285,636.620,138.312,128.511,88.755,0.000
1.000,37.000,-3.610,19.415,895.365,-3.400,-645.365,636.790,137.687,128.543,88.755,0.000
1.000,37.000,-3.770,19.600,895.165,-2.915,-645.380,636.420,138.312,128.511,88.755,0.000
1.000,37.000,-3.765,19.420,895.060,-3.885,-645.495,637.385,137.687,128.543,88.755,0.000
1.000,37.000,-3.220,19.150,894.425,-3.730,-644.955,636.085,138.312,128.511,88.755,0.000
1.000,37.000,-3.145,18.960,894.830,-3.970,-645.190,636.575,138.000,128.511,88.755,0.000
1.000,37.000,-3.760,18.990,895.285,-3.670,-645.150,636.090,137.687,128.543,88.755,0.000
1.000,37.000,-3.520,18.985,895.085,-3.835,-645.020,636.605,137.687,128.543,88.755,0.000
1.000,37.000,-3.720,19.615,895.645,-3.485,-644.910,636.770,138.000,128.543,88.755,0.000
1.000,38.000,3.765,3.580,895.320,2.630,-655.790,625.215,138.000,128.543,88.755,-45.000
1.000,38.000,3.735,3.020,895.840,3.535,-656.200,624.880,137.687,128.543,88.755,-45.000
1.000,38.000,4.340,3.430,895.400,4.000,-655.925,625.135,138.312,128.543,88.755,-45.000
1.000,38.000,3.455,3.055,895.465,3.430,-656.175,625.170,137.687,128.543,88.755,-45.000
1.000,38.000,3.685,3.405,895.970,3.935,-656.005,624.480,137.687,128.543,88.755,-45.000
1.000,38.000,4.510,3.360,895.235,3.115,-655.970,624.855,138.000,128.543,88.755,-45.000
1.000,38.000,3.310,4.040,896.585,3.180,-655.875,624.950,137.687,128.543,88.755,-45.000
1.000,38.000,3.375,3.735,895.245,3.470,-655.950,625.640,138.000,128.574,88.755,-45.000
1.000,38.000,3.585,3.775,895.710,3.270,-655.705,625.040,138.000,128.574,88.755,-45.000
1.000,38.000,3.585,3.275,895.745,3.685,-655.860,625.125,137.687,128.574,88.755,-45.000
1.000,39.000,19.435,-2.215,894.735,20.615,-660.390,620.545,138.000,128.574,88.755,-90.000
1.000,39.000,19.795,-2.275,894.825,20.680,-660.365,620.445,138.000,128.543,88.755,-90.000
1.000,39.000,19.940,-2.440,894.935,20.865,-660.205,620.100,138.000,128.574,88.755,-90.000
1.000,39.000,20.195,-2.040,895.055,21.095,-660.390,620.360,137.687,128.574,88.755,-90.000
1.000,39.000,18.815,-2.445,894.835,20.895,-660.365,620.255,137.687,128.605,88.755,-90.000
1.000,39.000,19.895,-2.345,895.550,20.685,-660.235,620.390,138.000,128.574,88.755,-90.000
1.000,39.000,19.880,-2.410,895.845,20.795,-659.885,619.800,137.687,128.574,88.755,-90.000
1.000,39.000,19.515,-2.245,895.115,20.895,-660.365,621.340,138.312,128.605,88.755,-90.000
1.000,39.000,20.180,-2.545,895.255,20.555,-660.395,620.720,137.687,128.605,88.755,-90.000
1.000,39.000,19.590,-2.420,895.590,20.745,-660.100,621.160,138.000,128.574,88.755,-90.000
1.000,40.000,35.355,5.130,894.430,36.455,-654.590,626.125,138.000,128.605,88.755,-135.000
1.000,40.000,35.390,4.930,894.160,36.780,-654.885,626.045,137.687,128.605,88.755,-135.000
1.000,40.000,35.220,5.120,894.505,36.065,-654.845,626.395,138.000,128.605,88.755,-135.000
1.000,40.000,34.910,5.095,894.675,36.435,-654.750,626.765,138.312,128.605,88.755,-135.000
1.000,40.000,34.880,5.385,894.980,37.645,-654.815,625.530,138.312,128.605,88.755,-135.000
1.000,40.000,34.655,4.865,894.560,36.335,-655.380,625.995,137.687,128.605,88.755,-135.000
1.000,40.000,35.300,5.025,894.660,36.525,-654.695,626.120,138.000,128.605,88.755,-135.000
1.000,40.000,35.930,5.665,894.805,36.405,-654.480,626.085,138.000,128.605,88.755,-135.000
1.000,40.000,35.720,5.105,894.785,36.765,-655.105,626.380,137.687,128.605,88.755,-135.000
1.000,40.000,35.270,4.820,894.585,36.830,-655.000,625.540,138.000,128.605,88.755,-135.000
2.000,1.000,897.570,5.985,-58.675,891.040,29.680,-40.675,166.750,153.995,-1.785,180.000
2.000,1.000,897.675,5.550,-59.135,891.995,30.065,-40.885,167.062,154.026,-1.785,180.000
2.000,1.000,898.160,5.440,-58.460,891.420,30.055,-40.330,166.750,153.995,-1.785,180.000
2.000,1.000,897.235,5.385,-59.055,891.200,29.800,-40.525,166.750,153.995,-1.785,180.000
2.000,1.000,897.655,4.790,-58.370,891.815,29.435,-40.940,166.750,154.026,-1.785,180.000
2.000,1.000,897.245,5.365,-59.410,891.375,29.275,-40.210,166.750,154.026,-1.795,180.000
2.000,1.000,897.525,5.090,-58.780,891.430,29.495,-40.260,166.750,154.026,-1.795,180.000
2.000,1.000,897.410,5.420,-58.785,891.740,29.740,-40.810,166.750,154.026,-1.795,180.000
2.000,1.000,897.100,5.180,-59.200,890.960,29.875,-40.500,166.750,154.058,-1.795,180.000
2.000,1.000,897.645,5.110,-59.180,890.375,30.010,-41.410,166.750,154.058,-1.795,180.000
2.000,2.000,637.715,634.600,-63.890,630.060,469.605,410.715,166.750,154.120,-1.795,135.000
2.000,2.000,636.910,634.100,-63.780,630.480,469.330,410.595,166.750,154.120,-1.795,135.000
2.000,2.000,637.770,633.970,-63.090,630.845,469.560,410.965,166.750,154.120,-1.805,135.000
2.000,2.000,638.020,634.200,-63.495,630.885,469.430,410.240,167.062,154.120,-1.805,135.000
2.000,2.000,637.805,634.295,-63.180,630.890,469.285,411.130,166.750,154.120,-1.805,135.000
2.000,2.000,637.330,634.090,-62.995,631.475,469.685,410.450,167.062,154.120,-1.805,135.000
2.000,2.000,637.500,634.120,-63.690,631.180,469.625,411.090,166.750,154.120,-1.805,135.000
2.000,2.000,637.290,634.215,-63.890,631.150,469.390,410.650,167.062,154.120,-1.805,135.000
2.000,2.000,637.405,634.340,-62.735,631.120,470.330,410.430,166.750,154.151,-1.805,135.000
2.000,2.000,638.000,633.875,-63.570,630.970,469.500,411.245,166.750,154.151,-1.805,135.000
2.000,3.000,-0.710,898.715,-46.830,0.425,642.320,616.405,167.375,154.214,-1.805,90.000
2.000,3.000,-1.155,898.795,-46.920,0.695,642.515,615.750,167.062,154.214,-1.805,90.000
2.000,3.000,-0.645,898.385,-46.530,0.815,642.060,616.690,166.750,154.214,-1.805,90.000
2.000,3.000,-0.955,898.560,-46.845,0.585,642.180,616.595,167.375,154.214,-1.805,90.000
2.000,3.000,-0.740,898.795,-47.120,0.605,642.730,616.190,166.750,154.214,-1.805,90.000
2.000,3.000,-1.330,898.650,-47.135,1.180,642.145,616.320,166.750,154.214,-1.805,90.000
2.000,3.000,-0.765,898.605,-46.730,1.080,642.315,616.425,166.750,154.214,-1.805,90.000
2.000,3.000,-1.360,898.530,-46.620,0.650,642.135,615.715,166.750,154.245,-1.805,90.000
2.000,3.000,-0.870,898.690,-46.585,0.975,641.950,616.805,166.750,154.245,-1.805,90.000
2.000,3.000,-0.190,898.375,-46.470,0.770,642.040,616.315,167.062,154.245,-1.805,90.000
2.000,4.000,-646.545,630.255,-20.485,-642.000,444.010,438.830,166.750,154.307,-1.805,45.000
2.000,4.000,-646.950,629.945,-20.635,-642.560,444.365,438.675,167.375,154.307,-1.805,45.000
2.000,4.000,-646.535,629.600,-20.550,-642.895,444.300,439.295,167.375,154.307,-1.805,45.000
2.000,4.000,-646.955,629.470,-21.250,-642.785,444.330,439.655,167.062,154.339,-1.805,45.000
2.000,4.000,-646.305,629.600,-20.535,-642.050,444.680,439.225,167.062,154.307,-1.805,45.000
2.000,4.000,-646.630,629.970,-20.205,-642.270,444.670,439.845,167.375,154.307,-1.805,45.000
2.000,4.000,-646.485,629.885,-21.085,-642.135,444.160,438.760,166.750,154.339,-1.805,45.000
2.000,4.000,-646.355,630.280,-20.900,-642.115,444.540,438.830,167.062,154.339,-1.805,45.000
2.000,4.000,-648.100,629.345,-20.220,-643.205,443.400,438.920,167.062,154.339,-1.805,45.000
2.000,4.000,-646.120,630.345,-20.625,-642.725,444.960,438.940,167.375,154.339,-1.805,45.000
2.000,5.000,-898.065,-4.275,-0.350,-900.165,-8.195,-0.445,167.375,154.401,-1.805,0.000
2.000,5.000,-898.510,-4.730,-0.430,-899.715,-9.105,-0.250,167.062,154.401,-1.805,0.000
2.000,5.000,-898.230,-4.940,-0.295,-899.520,-8.640,-0.295,167.062,154.401,-1.805,0.000
2.000,5.000,-897.975,-4.500,-0.140,-899.440,-8.735,-0.560,167.375,154.401,-1.805,0.000
2.000,5.000,-898.035,-4.810,0.015,-899.585,-8.215,-0.195,167.062,154.401,-1.805,0.000
2.000,5.000,-898.305,-4.485,0.025,-899.645,-8.060,0.495,167.062,154.432,-1.805,0.000
2.000,5.000,-897.730,-4.015,-0.075,-899.670,-7.885,0.275,167.375,154.432,-1.805,0.000
2.000,5.000,-898.040,-4.265,-0.155,-900.000,-8.270,-0.795,167.375,154.432,-1.805,0.000
2.000,5.000,-898.320,-4.865,-0.020,-900.315,-9.075,-0.630,167.375,154.432,-1.805,0.000
2.000,5.000,-898.880,-5.045,0.870,-899.495,-9.670,-0.690,167.062,154.464,-1.805,0.000
2.000,6.000,-636.960,-637.540,2.105,-639.470,-449.675,-452.235,167.687,154.495,-1.805,-45.000
2.000,6.000,-637.410,-637.790,1.480,-640.000,-449.730,-452.205,167.375,154.495,-1.805,-45.000
2.000,6.000,-637.265,-636.525,0.630,-640.205,-448.990,-451.800,167.062,154.495,-1.805,-45.000
2.000,6.000,-636.530,-637.665,1.495,-639.600,-449.565,-451.920,167.062,154.526,-1.805,-45.000
2.000,6.000,-636.645,-637.385,1.080,-639.470,-449.395,-451.865,167.062,154.526,-1.815,-45.000
2.000,6.000,-636.655,-637.420,1.075,-639.915,-449.045,-452.145,167.687,154.526,-1.815,-45.000
2.000,6.000,-637.365,-637.955,1.575,-639.570,-449.115,-451.100,167.062,154.526,-1.815,-45.000
2.000,6.000,-637.035,-637.570,1.165,-640.170,-449.530,-451.805,167.375,154.526,-1.815,-45.000
2.000,6.000,-637.010,-637.530,1.000,-639.670,-448.945,-452.105,167.375,154.557,-1.805,-45.000
2.000,6.000,-637.440,-637.415,0.945,-639.105,-449.435,-452.410,166.750,154.557,-1.805,-45.000
2.000,7.000,-0.990,-898.550,-12.615,-9.715,-619.660,-659.555,167.375,154.620,-1.805,-90.000
2.000,7.000,-0.805,-898.680,-12.875,-10.630,-619.745,-658.640,167.375,154.620,-1.805,-90.000
2.000,7.000,-1.550,-898.540,-13.290,-9.815,-619.935,-659.235,167.375,154.620,-1.805,-90.000
2.000,7.000,-2.055,-898.250,-13.350,-10.125,-619.570,-659.635,167.687,154.620,-1.805,-90.000
2.000,7.000,-0.975,-898.585,-13.250,-10.195,-620.015,-659.195,167.687,154.620,-1.805,-90.000
2.000,7.000,-1.030,-898.750,-13.155,-10.555,-619.805,-658.920,167.062,154.620,-1.805,-90.000
2.000,7.000,-1.940,-898.685,-12.810,-9.950,-619.710,-658.535,167.687,154.620,-1.805,-90.000
2.000,7.000,-0.840,-898.850,-13.045,-9.640,-619.585,-659.135,167.687,154.651,-1.805,-90.000
2.000,7.000,-1.525,-898.505,-13.215,-10.505,-619.485,-659.035,167.375,154.620,-1.805,-90.000
2.000,7.000,-0.900,-898.720,-13.255,-10.460,-619.660,-659.170,167.375,154.651,-1.805,-90.000
2.000,8.000,642.690,-631.880,-38.930,635.285,-421.805,-481.650,167.375,154.682,-1.815,-135.000
2.000,8.000,643.110,-632.135,-38.410,634.805,-421.185,-481.880,167.375,154.713,-1.815,-135.000
2.000,8.000,643.300,-632.320,-38.315,634.805,-421.600,-481.270,167.687,154.682,-1.815,-135.000
2.000,8.000,643.300,-632.125,-38.390,634.850,-421.335,-480.820,167.375,154.713,-1.815,-135.000
2.000,8.000,642.745,-632.145,-38.535,635.005,-421.525,-481.520,167.375,154.713,-1.815,-135.000
2.000,8.000,642.780,-632.125,-38.260,634.920,-421.750,-481.150,167.687,154.713,-1.815,-135.000
2.000,8.000,642.625,-632.080,-38.395,634.545,-421.040,-481.410,167.375,154.713,-1.815,-135.000
2.000,8.000,643.020,-632.230,-38.650,634.620,-422.000,-481.260,167.375,154.713,-1.815,-135.000
2.000,8.000,642.710,-632.445,-38.165,635.445,-421.560,-482.125,167.687,154.745,-1.815,-135.000
2.000,8.000,643.310,-632.285,-38.485,634.170,-421.720,-481.980,167.687,154.745,-1.815,-135.000
2.000,9.000,819.800,13.915,368.125,814.165,-273.770,261.860,168.000,154.838,26.155,180.000
2.000,9.000,820.155,14.040,368.390,813.585,-274.075,261.920,167.687,154.807,26.155,180.000
2.000,9.000,819.845,13.590,368.865,813.975,-273.710,261.825,167.687,154.838,26.155,180.000
2.000,9.000,820.100,13.565,368.565,814.340,-273.170,262.980,168.000,154.838,26.155,180.000
2.000,9.000,820.000,13.055,368.615,813.665,-273.830,261.640,167.687,154.870,26.155,180.000
2.000,9.000,820.045,14.060,368.445,813.480,-273.730,261.915,167.687,154.870,26.155,180.000
2.000,9.000,820.025,13.110,369.295,813.300,-273.900,262.610,167.687,154.838,26.155,180.000
2.000,9.000,820.260,13.635,369.180,813.430,-273.910,262.310,167.687,154.838,26.155,180.000
2.000,9.000,820.255,13.635,368.360,813.930,-274.070,261.995,167.687,154.870,26.155,180.000
2.000,9.000,820.530,12.685,367.850,813.565,-273.640,262.225,167.687,154.870,26.155,180.000
2.000,10.000,580.655,581.800,363.730,580.230,121.665,665.300,167.687,154.901,26.165,135.000
2.000,10.000,581.255,581.590,364.285,580.440,121.765,665.335,168.000,154.932,26.165,135.000
2.000,10.000,581.750,581.970,363.555,579.555,122.090,664.435,167.687,154.932,26.165,135.000
2.000,10.000,581.275,581.635,363.215,580.645,121.725,665.890,168.000,154.932,26.165,135.000
2.000,10.000,581.870,581.805,363.230,580.690,121.610,665.365,167.687,154.932,26.165,135.000
2.000,10.000,581.460,582.165,363.775,580.470,122.130,665.545,168.000,154.932,26.165,135.000
2.000,10.000,581.760,581.765,363.765,580.105,121.325,665.995,167.687,154.963,26.165,135.000
2.000,10.000,581.520,581.645,364.250,579.820,122.005,665.720,168.000,154.932,26.165,135.000
2.000,10.000,581.585,582.290,363.055,580.275,121.735,666.100,167.687,154.963,26.165,135.000
2.000,10.000,580.785,581.570,363.535,579.490,122.195,665.345,168.000,154.932,26.165,135.000
2.000,11.000,13.355,815.605,380.300,11.385,282.665,842.235,168.000,154.994,26.165,90.000
2.000,11.000,12.770,815.250,380.560,11.460,282.625,842.585,167.687,154.994,26.165,90.000
2.000,11.000,12.280,815.165,380.615,11.120,283.100,841.885,168.000,155.026,26.165,90.000
2.000,11.000,13.025,815.040,380.295,10.640,282.230,842.485,168.000,155.026,26.165,90.000
2.000,11.000,12.715,815.495,381.195,12.125,282.310,842.465,168.000,155.026,26.165,90.000
2.000,11.000,13.070,815.335,381.015,11.655,282.715,842.495,168.000,155.057,26.165,90.000
2.000,11.000,12.865,815.450,381.215,11.415,282.725,842.330,168.312,155.026,26.165,90.000
2.000,11.000,12.765,815.490,380.785,11.710,282.875,842.800,168.000,155.026,26.165,90.000
2.000,11.000,12.960,815.455,381.030,11.670,282.905,842.440,168.000,155.057,26.165,90.000
2.000,11.000,12.705,815.440,381.070,12.150,283.145,841.960,167.375,155.057,26.165,90.000
2.000,12.000,-567.315,571.920,405.270,-569.070,100.235,688.405,167.687,155.119,26.165,45.000
2.000,12.000,-566.515,572.065,404.820,-569.195,100.625,687.935,168.000,155.119,26.165,45.000
2.000,12.000,-566.690,571.895,405.250,-569.385,100.430,689.085,168.312,155.119,26.165,45.000
2.000,12.000,-567.440,571.500,404.955,-568.430,100.465,688.835,168.000,155.088,26.165,45.000
2.000,12.000,-566.495,571.905,404.450,-569.720,100.700,689.055,168.312,155.119,26.165,45.000
2.000,12.000,-566.965,571.650,404.675,-569.525,101.015,689.005,168.000,155.151,26.165,45.000
2.000,12.000,-566.735,571.975,405.345,-568.250,100.630,688.710,168.312,155.151,26.165,45.000
2.000,12.000,-567.585,571.820,405.315,-569.155,100.665,688.815,168.000,155.151,26.165,45.000
2.000,12.000,-566.450,571.805,404.855,-569.505,100.625,687.895,168.312,155.151,26.165,45.000
2.000,12.000,-567.405,572.060,405.295,-568.425,100.600,688.470,168.312,155.151,26.165,45.000
2.000,13.000,-793.490,3.010,423.260,-800.040,-305.860,293.560,168.312,155.182,26.165,0.000
2.000,13.000,-793.625,3.035,423.975,-799.585,-305.650,293.390,168.312,155.182,26.165,0.000
2.000,13.000,-792.950,3.035,424.265,-799.565,-305.835,293.490,168.000,155.213,26.165,0.000
2.000,13.000,-792.845,3.060,424.110,-800.545,-306.595,293.315,168.625,155.213,26.165,0.000
2.000,13.000,-793.565,3.090,424.375,-800.200,-306.015,293.195,168.000,155.213,26.165,0.000
2.000,13.000,-793.485,2.835,423.720,-800.775,-306.295,293.405,168.312,155.213,26.165,0.000
2.000,13.000,-794.060,2.725,424.285,-800.970,-306.175,293.650,168.312,155.244,26.165,0.000
2.000,13.000,-793.255,3.045,423.505,-799.970,-305.560,292.565,168.312,155.213,26.165,0.000
2.000,13.000,-792.840,3.195,424.830,-800.030,-306.175,293.015,168.312,155.244,26.165,0.000
2.000,13.000,-793.230,3.250,424.410,-800.110,-305.855,292.705,168.000,155.244,26.165,0.000
2.000,14.000,-556.165,-565.965,423.500,-567.145,-700.455,-112.800,168.312,155.276,26.165,-45.000
2.000,14.000,-556.555,-566.550,423.515,-567.345,-700.330,-112.930,168.000,155.307,26.165,-45.000
2.000,14.000,-556.930,-566.145,423.210,-567.545,-700.025,-112.280,168.937,155.276,26.165,-45.000
2.000,14.000,-556.600,-566.100,423.590,-568.205,-700.680,-112.175,168.625,155.307,26.165,-45.000
2.000,14.000,-556.750,-566.145,423.675,-567.595,-700.245,-112.160,168.000,155.307,26.165,-45.000
2.000,14.000,-556.635,-566.215,423.365,-567.170,-701.000,-112.255,168.000,155.307,26.165,-45.000
2.000,14.000,-556.330,-566.745,423.145,-567.235,-700.215,-112.310,168.312,155.307,26.165,-45.000
2.000,14.000,-557.030,-567.060,423.550,-567.655,-699.660,-112.500,168.312,155.307,26.165,-45.000
2.000,14.000,-556.270,-566.325,423.345,-568.300,-700.550,-112.220,168.312,155.338,26.165,-45.000
2.000,14.000,-556.585,-566.265,423.710,-567.480,-700.425,-111.850,168.625,155.338,26.165,-45.000
2.000,15.000,14.800,-798.150,412.420,5.580,-857.085,-294.080,168.625,155.400,26.165,-90.000
2.000,15.000,14.660,-798.180,412.950,5.530,-857.390,-293.905,168.937,155.400,26.165,-90.000
2.000,15.000,14.530,-798.255,412.550,5.645,-857.125,-293.520,168.312,155.400,26.165,-90.000
2.000,15.000,14.320,-798.195,412.825,5.390,-857.225,-294.030,168.312,155.400,26.165,-90.000
2.000,15.000,14.515,-798.240,412.560,5.650,-856.740,-294.665,168.312,155.400,26.165,-90.000
2.000,15.000,14.245,-798.395,412.330,4.820,-856.905,-294.060,168.312,155.400,26.165,-90.000
2.000,15.000,14.225,-798.195,412.920,5.150,-857.650,-294.265,168.312,155.400,26.165,-90.000
2.000,15.000,14.885,-798.180,412.295,5.580,-857.625,-294.105,168.312,155.432,26.165,-90.000
2.000,15.000,14.705,-798.050,412.480,4.960,-857.340,-294.335,168.312,155.432,26.165,-90.000
2.000,15.000,14.275,-798.610,413.015,4.790,-857.490,-294.265,168.625,155.432,26.165,-90.000
