Temp Iter,Index,X Accel 1,Y Accel 1,Z Accel 1,X Accel 2,Y Accel 2,Z Accel2, Temp_6g,Temp,Theta,Phi,,,,,,
1.000,1.000,893.575,5.345,-66.950,889.780,37.260,-44.070,174.250,160.054,-2.215,180.000
1.000,1.000,893.950,5.275,-67.115,889.920,38.000,-43.465,174.875,160.085,-2.215,180.000
1.000,1.000,893.315,5.595,-67.270,890.275,37.555,-43.715,174.875,160.085,-2.225,180.000
1.000,1.000,894.160,5.640,-66.955,890.480,37.805,-44.235,174.875,160.085,-2.225,180.000
1.000,1.000,894.670,5.495,-66.305,889.490,37.705,-44.370,174.875,160.085,-2.225,180.000
1.000,1.000,894.595,5.300,-67.195,891.010,37.280,-44.540,174.250,160.116,-2.225,180.000
1.000,1.000,894.135,5.725,-66.485,890.180,37.525,-44.260,174.875,160.116,-2.225,180.000
1.000,1.000,893.390,5.515,-67.265,890.375,37.720,-44.800,174.562,160.116,-2.225,180.000
1.000,1.000,893.550,5.285,-66.890,890.855,37.635,-43.725,174.562,160.116,-2.225,180.000
1.000,1.000,893.930,5.375,-67.040,889.940,37.505,-43.970,174.562,160.116,-2.225,180.000
1.000,2.000,634.485,633.015,-71.165,627.690,476.360,405.750,174.875,160.179,-2.235,135.000
1.000,2.000,634.440,634.330,-70.790,628.125,475.930,406.455,174.875,160.179,-2.235,135.000
1.000,2.000,634.250,633.525,-70.065,627.515,476.030,405.360,174.562,160.179,-2.235,135.000
1.000,2.000,634.740,633.760,-70.545,628.530,476.215,406.130,174.875,160.179,-2.235,135.000
1.000,2.000,635.110,633.560,-71.055,627.860,476.350,406.860,174.562,160.179,-2.235,135.000
1.000,2.000,635.140,633.490,-70.825,627.925,476.175,406.545,174.562,160.179,-2.235,135.000
1.000,2.000,634.265,633.745,-70.720,628.645,476.160,405.700,174.250,160.179,-2.235,135.000
1.000,2.000,634.015,633.725,-70.490,628.820,476.310,406.845,174.250,160.179,-2.235,135.000
1.000,2.000,634.265,633.265,-69.765,628.090,476.210,406.300,174.562,160.210,-2.235,135.000
1.000,2.000,635.035,633.660,-70.775,627.215,475.980,406.410,174.875,160.210,-2.235,135.000
1.000,3.000,-2.355,897.320,-53.290,-0.660,646.885,610.965,174.250,160.241,-2.245,90.000
1.000,3.000,-3.785,896.855,-52.895,-0.985,647.300,610.780,174.562,160.272,-2.245,90.000
1.000,3.000,-2.560,897.095,-52.980,-0.750,646.555,610.075,174.562,160.241,-2.245,90.000
1.000,3.000,-2.165,896.870,-52.755,-0.795,646.820,610.070,174.562,160.272,-2.245,90.000
1.000,3.000,-3.485,896.910,-53.130,-0.890,646.850,610.860,175.187,160.272,-2.245,90.000
1.000,3.000,-3.360,897.040,-52.510,-1.335,647.195,611.610,174.875,160.272,-2.245,90.000
1.000,3.000,-3.220,896.835,-52.970,-1.410,647.040,611.020,174.875,160.272,-2.245,90.000
1.000,3.000,-2.345,897.475,-53.440,0.260,647.185,611.525,174.562,160.272,-2.245,90.000
1.000,3.000,-2.415,897.345,-53.110,-1.190,646.800,610.765,174.562,160.272,-2.245,90.000
1.000,3.000,-2.990,897.575,-52.765,-1.130,646.920,611.110,174.875,160.272,-2.245,90.000
1.000,4.000,-647.195,628.400,-25.830,-641.225,448.050,432.390,174.875,160.335,-2.245,45.000
1.000,4.000,-647.820,628.425,-25.565,-642.195,448.365,433.245,174.875,160.335,-2.245,45.000
1.000,4.000,-646.820,628.255,-25.455,-642.090,448.515,432.550,174.875,160.335,-2.245,45.000
1.000,4.000,-647.690,628.255,-25.620,-642.580,447.995,433.225,174.875,160.335,-2.245,45.000
1.000,4.000,-646.820,628.785,-25.380,-642.140,448.030,433.870,174.875,160.335,-2.245,45.000
1.000,4.000,-646.870,628.430,-25.965,-643.310,448.120,433.395,174.562,160.366,-2.245,45.000
1.000,4.000,-646.620,628.265,-26.325,-642.910,447.995,433.095,175.187,160.335,-2.245,45.000
1.000,4.000,-647.655,628.665,-25.725,-642.695,447.870,433.220,174.875,160.366,-2.245,45.000
1.000,4.000,-647.140,628.590,-25.385,-642.820,448.275,433.000,174.875,160.366,-2.245,45.000
1.000,4.000,-646.575,627.980,-26.140,-643.480,448.100,432.770,175.187,160.366,-2.245,45.000
1.000,5.000,-898.445,-5.450,-5.645,-899.120,-4.105,-6.150,175.187,160.429,-2.245,0.000
1.000,5.000,-897.910,-5.325,-5.245,-898.820,-4.260,-6.700,175.187,160.429,-2.245,0.000
1.000,5.000,-898.355,-5.420,-5.085,-898.920,-3.930,-6.200,175.500,160.429,-2.245,0.000
1.000,5.000,-897.815,-5.785,-5.990,-899.575,-4.105,-7.225,174.875,160.429,-2.245,0.000
1.000,5.000,-898.480,-5.125,-4.805,-898.055,-4.570,-5.890,175.187,160.429,-2.245,0.000
1.000,5.000,-898.520,-5.560,-5.185,-899.655,-4.650,-6.870,175.187,160.429,-2.245,0.000
1.000,5.000,-898.935,-5.565,-5.530,-899.045,-4.150,-5.925,174.875,160.460,-2.245,0.000
1.000,5.000,-897.695,-5.680,-4.830,-897.735,-4.710,-7.165,174.875,160.429,-2.245,0.000
1.000,5.000,-898.550,-5.475,-5.200,-899.310,-4.035,-6.075,175.187,160.429,-2.245,0.000
1.000,5.000,-898.580,-5.160,-5.745,-899.695,-4.010,-5.150,174.875,160.429,-2.245,0.000
1.000,6.000,-637.370,-637.195,-4.420,-637.755,-443.805,-456.900,174.875,160.491,-2.245,-45.000
1.000,6.000,-637.280,-637.490,-3.995,-637.505,-443.585,-456.130,174.875,160.491,-2.245,-45.000
1.000,6.000,-637.125,-637.040,-3.630,-636.855,-443.785,-456.960,175.187,160.522,-2.245,-45.000
1.000,6.000,-637.540,-637.355,-3.005,-638.210,-443.940,-456.105,174.875,160.522,-2.245,-45.000
1.000,6.000,-636.700,-637.100,-3.775,-637.875,-443.815,-456.475,175.187,160.522,-2.245,-45.000
1.000,6.000,-637.325,-637.175,-4.220,-638.240,-443.920,-456.820,175.187,160.522,-2.245,-45.000
1.000,6.000,-637.270,-637.230,-3.650,-637.055,-443.845,-456.150,175.187,160.522,-2.245,-45.000
1.000,6.000,-636.730,-637.190,-3.875,-637.505,-443.590,-456.880,175.500,160.553,-2.245,-45.000
1.000,6.000,-636.470,-637.090,-4.170,-637.320,-443.505,-456.870,175.187,160.522,-2.245,-45.000
1.000,6.000,-637.110,-636.460,-4.070,-637.790,-444.120,-457.060,175.187,160.522,-2.245,-45.000
1.000,7.000,-3.190,-897.110,-18.890,-7.225,-612.925,-663.305,175.187,160.585,-2.245,-90.000
1.000,7.000,-1.905,-897.665,-19.455,-7.345,-613.155,-662.115,175.187,160.585,-2.245,-90.000
1.000,7.000,-2.875,-897.690,-19.570,-7.305,-613.390,-662.435,175.187,160.585,-2.245,-90.000
1.000,7.000,-2.520,-897.485,-19.140,-7.045,-613.050,-663.365,175.187,160.585,-2.245,-90.000
1.000,7.000,-1.610,-897.045,-19.435,-7.410,-612.840,-662.350,175.500,160.585,-2.245,-90.000
1.000,7.000,-1.800,-897.540,-19.275,-7.395,-613.250,-662.885,175.187,160.616,-2.245,-90.000
1.000,7.000,-1.970,-897.570,-19.820,-7.810,-613.080,-662.300,175.500,160.616,-2.245,-90.000
1.000,7.000,-2.405,-897.220,-19.620,-7.935,-612.820,-662.960,175.187,160.585,-2.245,-90.000
1.000,7.000,-2.080,-897.395,-18.565,-7.490,-613.050,-662.695,175.187,160.616,-2.245,-90.000
1.000,7.000,-3.100,-897.140,-18.920,-7.205,-613.295,-661.665,175.500,160.616,-2.245,-90.000
1.000,8.000,640.965,-631.415,-44.055,636.160,-414.440,-485.030,175.187,160.647,-2.245,-135.000
1.000,8.000,639.915,-631.635,-44.220,636.245,-414.290,-484.910,174.875,160.647,-2.245,-135.000
1.000,8.000,641.135,-631.475,-44.110,636.335,-414.445,-485.350,175.500,160.678,-2.245,-135.000
1.000,8.000,639.615,-631.400,-45.055,635.950,-414.850,-484.920,175.187,160.678,-2.245,-135.000
1.000,8.000,640.790,-631.645,-43.670,636.515,-414.675,-484.885,175.187,160.678,-2.245,-135.000
1.000,8.000,640.170,-631.420,-43.800,636.200,-415.085,-484.830,175.500,160.647,-2.245,-135.000
1.000,8.000,640.295,-631.255,-44.235,636.875,-414.690,-485.200,175.500,160.678,-2.245,-135.000
1.000,8.000,640.525,-631.465,-44.495,635.920,-414.335,-485.440,175.500,160.678,-2.245,-135.000
1.000,8.000,640.820,-631.260,-44.005,636.390,-414.450,-484.205,174.875,160.678,-2.245,-135.000
1.000,8.000,640.470,-631.320,-44.000,636.270,-414.600,-484.390,174.875,160.678,-2.245,-135.000
1.000,9.000,816.450,14.240,371.840,812.385,-273.735,265.705,175.500,160.772,26.355,180.000
1.000,9.000,816.240,13.890,371.915,811.420,-273.715,265.390,175.187,160.772,26.355,180.000
1.000,9.000,816.500,14.105,371.805,812.035,-273.800,265.645,175.500,160.772,26.355,180.000
1.000,9.000,815.955,14.535,371.275,812.510,-273.760,265.795,175.500,160.772,26.355,180.000
1.000,9.000,816.050,14.380,371.725,811.570,-273.920,264.995,175.187,160.772,26.355,180.000
1.000,9.000,815.955,14.300,371.435,812.370,-273.715,265.785,175.500,160.772,26.355,180.000
1.000,9.000,817.025,14.140,371.585,812.230,-273.955,265.825,175.500,160.803,26.355,180.000
1.000,9.000,816.500,14.425,372.015,811.805,-273.620,265.980,175.500,160.772,26.355,180.000
1.000,9.000,816.280,14.165,371.130,811.960,-273.840,265.355,175.500,160.803,26.355,180.000
1.000,9.000,816.240,14.280,371.340,811.930,-273.815,265.585,175.500,160.803,26.355,180.000
1.000,10.000,578.190,580.190,366.400,577.850,120.610,667.320,175.500,160.835,26.355,135.000
1.000,10.000,577.545,580.210,366.585,578.110,120.200,667.915,175.500,160.866,26.355,135.000
1.000,10.000,577.845,580.465,366.630,577.340,120.695,667.325,175.500,160.835,26.365,135.000
1.000,10.000,578.155,580.695,366.960,577.845,120.140,667.470,175.500,160.866,26.365,135.000
1.000,10.000,577.835,580.395,366.460,576.980,120.400,668.150,175.500,160.835,26.365,135.000
1.000,10.000,577.510,580.835,366.405,576.855,119.905,667.025,175.500,160.866,26.365,135.000
1.000,10.000,577.585,579.870,366.245,577.460,119.910,667.565,175.812,160.835,26.365,135.000
1.000,10.000,577.220,580.665,366.520,577.545,120.515,667.295,175.500,160.866,26.365,135.000
1.000,10.000,577.270,580.410,366.795,577.695,120.240,668.070,175.500,160.866,26.365,135.000
1.000,10.000,578.425,580.350,366.345,577.100,120.245,667.860,175.500,160.866,26.365,135.000
1.000,11.000,10.745,813.005,384.120,9.800,279.480,843.125,175.187,160.928,26.365,90.000
1.000,11.000,10.225,813.035,384.155,10.005,279.440,843.070,175.500,160.897,26.365,90.000
1.000,11.000,10.520,813.070,384.195,9.495,279.410,842.385,175.187,160.928,26.365,90.000
1.000,11.000,10.460,813.260,384.210,9.865,279.570,842.845,175.500,160.928,26.365,90.000
1.000,11.000,10.210,812.995,383.760,10.010,279.770,842.750,175.812,160.928,26.365,90.000
1.000,11.000,10.630,812.765,384.050,10.010,279.565,842.835,175.500,160.897,26.365,90.000
1.000,11.000,9.965,813.025,384.270,9.550,279.310,842.370,175.500,160.928,26.365,90.000
1.000,11.000,9.690,812.690,383.825,9.825,279.285,841.985,175.500,160.928,26.365,90.000
1.000,11.000,10.850,812.770,384.600,10.145,279.300,843.110,175.500,160.959,26.365,90.000
1.000,11.000,10.070,813.000,384.125,9.720,279.190,842.565,175.500,160.928,26.365,90.000
1.000,12.000,-568.005,570.405,408.135,-568.695,97.015,688.150,175.812,160.959,26.365,45.000
1.000,12.000,-567.200,570.380,408.430,-569.310,96.775,688.770,175.812,160.991,26.365,45.000
1.000,12.000,-567.320,570.090,407.870,-569.170,97.200,688.350,175.812,160.991,26.365,45.000
1.000,12.000,-566.945,570.230,408.220,-569.065,97.050,688.885,175.500,160.991,26.365,45.000
1.000,12.000,-567.860,570.295,407.720,-569.575,96.640,687.925,175.812,160.991,26.365,45.000
1.000,12.000,-567.405,570.525,407.855,-568.880,96.855,688.755,175.500,160.991,26.365,45.000
1.000,12.000,-567.965,570.080,407.875,-569.455,97.335,688.620,175.187,160.991,26.365,45.000
1.000,12.000,-567.490,569.435,408.265,-568.225,97.240,688.225,175.500,161.022,26.365,45.000
1.000,12.000,-568.095,570.055,408.655,-568.620,97.155,688.370,175.500,161.022,26.365,45.000
1.000,12.000,-567.535,569.705,408.475,-569.305,97.065,688.385,175.812,161.022,26.365,45.000
1.000,13.000,-791.975,2.585,426.675,-797.255,-308.395,294.780,175.500,161.053,26.365,0.000
1.000,13.000,-792.470,2.615,425.805,-797.220,-308.645,294.465,175.812,161.053,26.365,0.000
1.000,13.000,-791.055,2.795,426.750,-797.210,-308.770,294.050,175.812,161.053,26.365,0.000
1.000,13.000,-791.930,2.230,426.245,-797.310,-308.935,294.080,175.812,161.053,26.365,0.000
1.000,13.000,-791.970,2.800,425.990,-797.915,-308.255,294.575,175.812,161.053,26.365,0.000
1.000,13.000,-791.630,2.865,426.300,-796.770,-308.885,293.825,175.500,161.084,26.365,0.000
1.000,13.000,-791.870,2.875,427.065,-797.760,-308.590,294.090,175.812,161.084,26.365,0.000
1.000,13.000,-792.625,2.790,426.590,-797.175,-308.835,293.555,175.500,161.053,26.365,0.000
1.000,13.000,-791.595,3.330,426.515,-797.680,-308.775,293.760,175.500,161.084,26.365,0.000
1.000,13.000,-791.710,2.635,426.625,-797.000,-308.665,293.460,175.812,161.084,26.365,0.000
1.000,14.000,-556.505,-564.200,427.075,-563.945,-701.770,-110.025,175.500,161.116,26.365,-45.000
1.000,14.000,-556.015,-564.375,426.295,-564.420,-701.730,-109.640,175.812,161.116,26.365,-45.000
1.000,14.000,-556.545,-564.355,426.340,-564.240,-701.260,-109.615,176.125,161.147,26.365,-45.000
1.000,14.000,-556.285,-564.885,426.565,-563.720,-701.520,-109.955,175.812,161.116,26.365,-45.000
1.000,14.000,-556.345,-564.325,426.770,-563.620,-701.590,-109.935,175.812,161.116,26.365,-45.000
1.000,14.000,-556.020,-564.655,426.090,-564.540,-701.490,-110.125,175.812,161.147,26.365,-45.000
1.000,14.000,-555.935,-564.465,427.160,-564.025,-701.350,-109.395,175.812,161.147,26.365,-45.000
1.000,14.000,-556.090,-564.360,426.290,-563.530,-701.105,-109.140,176.125,161.147,26.365,-45.000
1.000,14.000,-556.550,-564.460,427.045,-563.925,-701.760,-110.380,176.125,161.147,26.365,-45.000
1.000,14.000,-556.090,-564.630,426.415,-564.660,-701.650,-110.085,175.812,161.147,26.365,-45.000
1.000,15.000,13.520,-795.475,415.145,7.795,-857.010,-290.435,176.125,161.209,26.365,-90.000
1.000,15.000,13.005,-795.070,414.600,6.700,-856.670,-291.030,176.437,161.209,26.365,-90.000
1.000,15.000,13.330,-795.755,415.400,7.885,-856.785,-290.635,175.812,161.209,26.365,-90.000
1.000,15.000,13.775,-795.260,415.975,8.170,-857.160,-290.640,176.125,161.209,26.365,-90.000
1.000,15.000,13.480,-795.240,414.800,7.540,-856.885,-290.615,175.812,161.209,26.365,-90.000
1.000,15.000,13.445,-795.300,415.285,7.605,-857.060,-290.100,175.812,161.209,26.365,-90.000
1.000,15.000,13.325,-795.560,415.560,7.385,-856.850,-290.160,176.125,161.209,26.365,-90.000
1.000,15.000,12.555,-795.470,414.635,7.515,-856.895,-290.185,175.812,161.209,26.365,-90.000
1.000,15.000,13.170,-795.280,415.300,7.475,-856.705,-290.615,175.812,161.209,26.365,-90.000
1.000,15.000,12.935,-795.560,415.365,8.140,-857.005,-289.920,176.125,161.209,26.365,-90.000
1.000,16.000,589.155,-556.315,384.690,588.055,-674.620,-134.905,175.812,161.240,26.365,-135.000
1.000,16.000,589.025,-555.880,385.600,588.020,-674.445,-135.085,176.125,161.240,26.365,-135.000
1.000,16.000,589.380,-555.740,385.930,588.385,-674.485,-134.815,175.812,161.240,26.365,-135.000
1.000,16.000,588.755,-556.125,385.895,588.185,-674.690,-134.780,176.125,161.272,26.365,-135.000
1.000,16.000,588.930,-555.995,385.245,588.415,-674.895,-134.730,176.125,161.240,26.365,-135.000
1.000,16.000,588.065,-556.185,385.685,588.525,-674.215,-134.270,175.812,161.272,26.365,-135.000
1.000,16.000,588.850,-555.820,385.670,587.975,-674.895,-134.565,175.812,161.272,26.365,-135.000
1.000,16.000,589.450,-556.375,385.865,587.870,-674.935,-134.505,175.812,161.272,26.365,-135.000
1.000,16.000,588.865,-556.185,385.290,588.100,-674.740,-135.035,175.812,161.272,26.365,-135.000
1.000,16.000,589.065,-556.435,385.630,587.725,-674.995,-134.255,176.125,161.272,26.365,-135.000
1.000,17.000,644.920,15.435,623.880,639.785,-451.195,440.185,175.812,161.334,177.227,180.000
1.000,17.000,644.510,15.445,624.410,640.200,-451.335,440.580,176.125,161.334,177.237,180.000
1.000,17.000,645.365,15.330,624.220,640.185,-450.695,440.175,176.125,161.334,177.237,180.000
1.000,17.000,644.975,15.875,623.575,640.210,-451.175,440.390,176.125,161.334,177.237,180.000
1.000,17.000,645.395,15.075,624.685,640.320,-451.140,440.320,176.125,161.365,177.237,180.000
1.000,17.000,645.665,15.350,623.830,640.495,-450.955,440.100,175.812,161.365,177.237,180.000
1.000,17.000,643.915,15.525,624.420,639.775,-450.580,440.310,176.125,161.365,177.237,180.000
1.000,17.000,644.715,15.530,624.800,639.590,-451.030,440.130,176.437,161.365,177.237,180.000
1.000,17.000,644.795,15.310,624.415,640.125,-450.980,440.030,176.125,161.365,177.237,180.000
1.000,17.000,645.130,14.660,623.915,640.060,-450.840,440.630,175.812,161.365,177.237,180.000
1.000,18.000,455.940,456.070,622.070,455.220,-145.015,754.855,176.125,161.397,177.237,135.000
1.000,18.000,455.925,455.825,622.110,454.770,-145.320,754.795,176.125,161.428,177.237,135.000
1.000,18.000,455.860,455.980,622.755,454.290,-145.345,754.955,176.437,161.397,177.237,135.000
1.000,18.000,455.690,456.590,623.005,455.335,-145.095,754.650,176.125,161.397,177.237,135.000
1.000,18.000,455.725,456.145,621.860,455.290,-145.060,755.105,176.125,161.428,177.237,135.000
1.000,18.000,456.045,456.125,622.515,455.760,-144.965,754.175,176.125,161.397,177.237,135.000
1.000,18.000,455.755,455.505,623.245,455.295,-144.785,755.085,176.437,161.428,177.237,135.000
1.000,18.000,455.765,455.710,622.955,455.505,-144.815,754.495,176.437,161.428,177.237,135.000
1.000,18.000,455.890,456.150,622.140,455.085,-144.855,754.275,176.437,161.397,177.237,135.000
1.000,18.000,456.195,455.850,622.080,454.895,-145.090,754.205,176.125,161.428,177.237,135.000
1.000,19.000,19.195,634.250,638.155,17.630,-28.760,890.670,176.125,161.459,177.237,90.000
1.000,19.000,19.340,634.050,637.630,17.260,-28.500,890.415,175.812,161.459,177.237,90.000
1.000,19.000,19.890,634.015,636.850,17.065,-28.375,890.590,176.125,161.459,177.237,90.000
1.000,19.000,19.595,634.050,637.110,17.460,-28.200,889.850,176.125,161.459,177.237,90.000
1.000,19.000,19.480,634.190,637.570,16.535,-28.215,889.890,175.812,161.459,177.237,90.000
1.000,19.000,19.350,634.845,637.375,16.715,-28.425,889.640,176.750,161.459,177.237,90.000
1.000,19.000,19.495,634.285,636.895,17.415,-28.600,890.120,176.125,161.459,177.237,90.000
1.000,19.000,19.860,634.155,637.520,17.270,-28.615,889.990,176.437,161.490,177.237,90.000
1.000,19.000,19.430,634.165,637.710,17.460,-28.450,890.230,175.812,161.490,177.237,90.000
1.000,19.000,19.725,634.615,637.485,16.610,-28.415,890.150,176.125,161.490,177.237,90.000
1.000,20.000,-425.595,448.835,650.720,-430.580,-169.775,770.930,176.437,161.522,177.237,45.000
1.000,20.000,-425.385,449.380,649.925,-431.945,-169.065,770.665,176.437,161.522,177.237,45.000
1.000,20.000,-426.155,449.300,650.095,-431.455,-169.155,769.845,176.437,161.522,177.237,45.000
1.000,20.000,-425.965,449.125,650.335,-431.550,-169.510,769.580,176.125,161.522,177.237,45.000
1.000,20.000,-425.985,449.220,649.890,-430.985,-169.205,770.830,176.750,161.522,177.237,45.000
1.000,20.000,-425.915,448.845,650.260,-431.775,-169.210,770.170,176.437,161.522,177.237,45.000
1.000,20.000,-425.650,448.735,650.435,-431.365,-169.205,770.360,176.437,161.490,177.237,45.000
1.000,20.000,-425.830,448.755,650.020,-431.465,-169.925,770.205,176.750,161.553,177.237,45.000
1.000,20.000,-426.020,448.600,650.175,-431.325,-169.325,769.680,176.437,161.522,177.237,45.000
1.000,20.000,-426.060,448.750,651.145,-431.555,-169.295,769.635,176.437,161.522,177.237,45.000
1.000,21.000,-610.060,7.960,664.325,-605.835,-482.010,465.765,176.750,161.584,177.237,0.000
1.000,21.000,-609.305,8.355,663.530,-605.425,-482.050,465.250,176.437,161.553,177.237,0.000
1.000,21.000,-609.765,8.100,664.135,-605.695,-482.525,464.865,176.125,161.584,177.237,0.000
1.000,21.000,-609.715,7.845,663.815,-605.700,-482.085,465.615,176.750,161.553,177.237,0.000
1.000,21.000,-609.755,8.095,663.410,-606.640,-482.370,464.870,176.437,161.584,177.237,0.000
1.000,21.000,-609.875,7.875,663.345,-605.570,-482.705,465.420,176.125,161.584,177.237,0.000
1.000,21.000,-609.550,7.550,663.670,-606.065,-482.445,464.630,176.437,161.584,177.237,0.000
1.000,21.000,-609.815,7.745,663.880,-605.880,-482.480,463.780,176.125,161.584,177.237,0.000
1.000,21.000,-609.350,8.080,663.675,-604.985,-482.485,465.490,176.750,161.584,177.237,0.000
1.000,21.000,-609.810,8.040,663.515,-605.845,-482.260,465.510,176.750,161.584,177.237,0.000
1.000,22.000,-418.390,-430.220,669.080,-426.680,-784.970,154.275,176.437,161.615,177.237,-45.000
1.000,22.000,-418.710,-430.635,669.550,-426.075,-784.495,154.135,176.750,161.646,177.237,-45.000
1.000,22.000,-418.355,-430.755,669.280,-426.320,-784.920,154.010,176.437,161.646,177.237,-45.000
1.000,22.000,-418.320,-429.965,669.675,-426.625,-785.115,154.595,176.437,161.646,177.237,-45.000
1.000,22.000,-417.745,-430.890,668.805,-426.390,-784.420,153.895,176.750,161.646,177.237,-45.000
1.000,22.000,-417.525,-430.640,669.845,-426.805,-785.030,154.945,176.437,161.646,177.237,-45.000
1.000,22.000,-417.890,-430.710,669.495,-424.955,-785.490,154.170,176.437,161.646,177.237,-45.000
1.000,22.000,-418.680,-430.040,670.100,-426.230,-784.825,154.305,176.750,161.646,177.237,-45.000
1.000,22.000,-418.155,-430.445,669.305,-425.780,-785.360,154.295,176.750,161.646,177.237,-45.000
1.000,22.000,-418.090,-430.580,669.585,-426.075,-784.950,154.190,176.437,161.646,177.237,-45.000
1.000,23.000,19.325,-615.610,652.845,16.650,-904.830,13.975,176.437,161.709,177.237,-90.000
1.000,23.000,20.090,-615.390,654.060,17.125,-905.665,14.655,176.750,161.709,177.237,-90.000
1.000,23.000,20.370,-615.395,653.225,16.810,-904.820,13.915,176.750,161.678,177.247,-90.000
1.000,23.000,19.585,-615.565,652.705,16.660,-905.185,13.605,176.437,161.709,177.247,-90.000
1.000,23.000,19.910,-615.615,653.390,16.220,-905.340,13.635,176.437,161.709,177.247,-90.000
1.000,23.000,20.030,-615.215,653.070,16.800,-905.175,12.950,176.437,161.709,177.247,-90.000
1.000,23.000,19.455,-615.330,651.895,16.830,-905.100,13.665,176.125,161.709,177.247,-90.000
1.000,23.000,19.875,-615.465,653.215,16.370,-905.120,13.535,177.062,161.709,177.247,-90.000
1.000,23.000,19.685,-615.225,653.175,16.570,-904.745,14.150,176.750,161.709,177.247,-90.000
1.000,23.000,19.610,-615.225,653.150,16.300,-904.845,14.000,176.437,161.709,177.247,-90.000
1.000,24.000,465.365,-422.670,637.430,466.025,-763.745,135.430,176.750,161.740,177.237,-135.000
1.000,24.000,464.630,-421.970,637.970,466.180,-763.310,135.550,176.437,161.740,177.237,-135.000
1.000,24.000,465.665,-422.770,637.870,466.215,-763.695,136.205,176.437,161.740,177.237,-135.000
1.000,24.000,464.945,-422.275,637.815,465.480,-763.610,135.615,176.750,161.740,177.237,-135.000
1.000,24.000,465.255,-422.660,637.365,466.260,-763.920,135.495,176.437,161.740,177.237,-135.000
1.000,24.000,464.675,-422.635,637.195,466.105,-763.300,134.820,176.437,161.771,177.237,-135.000
1.000,24.000,465.430,-422.435,637.955,466.400,-763.710,135.290,176.437,161.771,177.237,-135.000
1.000,24.000,465.400,-423.120,637.965,465.435,-763.325,134.900,176.750,161.740,-526.054,-135.000
1.000,24.000,465.435,-422.680,636.880,466.550,-763.180,135.815,176.750,161.771,177.237,-135.000
1.000,24.000,464.935,-422.430,638.305,466.010,-763.900,135.410,176.437,161.740,177.237,-135.000
1.000,25.000,392.535,19.560,801.205,385.225,-581.680,569.280,176.750,161.803,66.145,180.000
1.000,25.000,392.935,20.050,801.995,385.290,-581.740,569.305,176.437,161.803,66.145,180.000
1.000,25.000,393.160,19.360,802.165,385.145,-581.745,568.390,176.437,161.803,66.145,180.000
1.000,25.000,392.710,19.850,802.295,385.420,-581.820,567.550,176.750,161.803,66.145,180.000
1.000,25.000,393.135,20.070,802.295,386.040,-581.985,569.205,176.750,161.834,66.145,180.000
1.000,25.000,392.910,20.105,802.045,385.760,-581.615,568.585,177.062,161.803,66.145,180.000
1.000,25.000,393.090,20.030,801.515,385.250,-581.620,568.715,176.437,161.803,66.145,180.000
1.000,25.000,392.965,19.735,802.320,385.985,-581.605,568.810,176.437,161.803,66.145,180.000
1.000,25.000,392.730,19.585,801.900,386.460,-582.195,569.070,176.750,161.803,66.145,180.000
1.000,25.000,392.870,19.695,801.830,385.755,-581.740,568.355,177.062,161.834,66.145,180.000
1.000,26.000,279.520,274.600,805.710,276.255,-401.145,754.025,176.437,161.834,66.145,135.000
1.000,26.000,279.440,274.905,806.140,276.565,-401.520,754.300,176.750,161.834,66.145,135.000
1.000,26.000,279.685,274.635,806.365,276.030,-401.260,754.850,176.750,161.834,66.155,135.000
1.000,26.000,279.205,274.795,807.020,275.875,-401.330,754.030,176.750,161.834,66.155,135.000
1.000,26.000,278.825,274.990,806.270,276.010,-401.400,754.305,177.062,161.865,66.155,135.000
1.000,26.000,279.600,274.930,806.215,276.165,-401.485,753.765,176.750,161.896,66.155,135.000
1.000,26.000,279.280,275.035,806.570,275.940,-401.130,754.480,176.750,161.865,66.155,135.000
1.000,26.000,279.205,275.050,806.330,276.285,-401.595,754.665,176.750,161.865,66.155,135.000
1.000,26.000,280.010,274.750,806.220,276.755,-401.825,754.365,176.750,161.865,66.155,135.000
1.000,26.000,278.700,274.995,806.040,275.995,-401.595,753.670,176.750,161.865,66.155,135.000
1.000,27.000,21.200,383.255,810.495,21.440,-336.140,829.985,177.062,161.865,66.155,90.000
1.000,27.000,21.485,383.580,810.230,21.740,-335.570,829.435,176.437,161.896,66.155,90.000
1.000,27.000,22.255,384.160,809.920,22.010,-335.685,829.865,176.750,161.896,66.155,90.000
1.000,27.000,21.240,384.290,810.040,21.425,-335.830,830.095,176.750,161.896,66.155,90.000
1.000,27.000,21.925,384.025,810.025,21.815,-335.755,830.685,176.750,161.896,66.155,90.000
1.000,27.000,20.645,384.075,810.555,21.650,-336.145,830.390,177.062,161.896,66.155,90.000
1.000,27.000,22.225,383.495,810.225,21.965,-336.045,829.405,176.750,161.896,66.155,90.000
1.000,27.000,21.530,383.905,810.830,21.450,-335.395,830.610,176.750,161.896,66.155,90.000
1.000,27.000,22.455,383.360,810.200,22.405,-336.130,830.025,176.750,161.896,66.155,90.000
1.000,27.000,21.335,383.630,810.440,21.440,-336.135,830.100,176.750,161.896,66.155,90.000
1.000,28.000,-238.810,274.055,818.815,-240.965,-418.375,759.465,176.750,161.928,66.155,45.000
1.000,28.000,-238.445,274.115,819.570,-241.250,-418.325,759.500,176.437,161.928,66.155,45.000
1.000,28.000,-238.070,273.620,819.875,-239.870,-417.905,759.290,177.062,161.928,66.155,45.000
1.000,28.000,-239.030,273.600,819.525,-241.200,-418.530,759.210,177.062,161.896,66.155,45.000
1.000,28.000,-238.760,273.960,819.865,-241.450,-418.765,758.960,177.062,161.928,66.155,45.000
1.000,28.000,-239.345,273.685,819.185,-240.705,-418.390,759.135,177.062,161.928,66.155,45.000
1.000,28.000,-239.125,274.350,819.775,-241.145,-418.065,759.260,176.437,161.959,66.155,45.000
1.000,28.000,-238.805,273.350,820.375,-240.955,-417.915,759.500,176.437,161.928,66.155,45.000
1.000,28.000,-238.610,273.910,819.150,-241.005,-418.540,759.925,176.437,161.928,66.155,45.000
1.000,28.000,-238.715,273.770,819.960,-241.170,-418.055,759.215,176.750,161.928,66.155,45.000
1.000,29.000,-343.710,12.845,828.895,-343.765,-595.775,587.275,176.750,161.959,66.155,0.000
1.000,29.000,-344.195,12.960,829.050,-344.705,-595.855,587.195,176.750,161.959,66.155,0.000
1.000,29.000,-343.755,12.800,829.610,-343.110,-595.725,587.185,176.750,161.959,66.155,0.000
1.000,29.000,-344.565,12.860,829.075,-343.705,-595.335,586.990,176.437,161.959,66.155,0.000
1.000,29.000,-343.915,12.735,829.105,-344.155,-595.170,587.210,176.750,161.959,66.155,0.000
1.000,29.000,-343.965,12.625,829.220,-343.585,-595.095,587.400,177.062,161.959,66.155,0.000
1.000,29.000,-344.165,12.930,829.180,-344.250,-595.465,587.430,177.062,161.959,66.155,0.000
1.000,29.000,-343.695,13.250,828.840,-343.820,-595.040,587.700,176.750,161.990,66.155,0.000
1.000,29.000,-344.700,11.950,829.225,-344.200,-595.435,586.900,177.062,161.990,66.155,0.000
1.000,29.000,-343.700,13.180,828.645,-344.815,-595.870,587.575,176.750,161.990,66.155,0.000
1.000,30.000,-234.515,-246.135,830.940,-234.720,-776.650,402.340,177.062,162.021,66.155,-45.000
1.000,30.000,-233.870,-245.975,830.475,-235.100,-776.650,401.875,177.062,162.021,66.155,-45.000
1.000,30.000,-234.295,-245.400,830.505,-235.620,-776.205,402.060,177.062,162.021,66.155,-45.000
1.000,30.000,-234.050,-246.420,831.220,-235.285,-776.240,402.985,176.750,161.990,66.155,-45.000
1.000,30.000,-234.660,-246.325,830.575,-235.065,-775.840,401.840,177.062,162.021,66.155,-45.000
1.000,30.000,-233.750,-246.195,830.475,-235.305,-776.290,402.200,176.750,162.021,66.155,-45.000
1.000,30.000,-233.935,-246.550,830.265,-234.845,-776.095,402.205,177.375,162.021,66.155,-45.000
1.000,30.000,-234.500,-246.600,830.490,-235.270,-776.385,402.260,176.750,162.021,66.155,-45.000
1.000,30.000,-234.235,-245.970,831.115,-234.850,-776.135,401.655,177.062,162.021,66.155,-45.000
1.000,30.000,-234.290,-246.220,830.565,-236.185,-776.910,402.925,176.750,162.021,66.155,-45.000
1.000,31.000,25.360,-351.590,822.545,23.240,-846.055,321.045,176.750,162.084,66.155,-90.000
1.000,31.000,25.615,-351.270,822.615,22.560,-845.945,321.165,177.375,162.021,66.155,-90.000
1.000,31.000,25.045,-351.285,822.605,23.135,-845.715,321.175,176.750,162.052,66.155,-90.000
1.000,31.000,25.265,-352.135,822.935,23.670,-846.060,321.070,177.375,162.052,66.155,-90.000
1.000,31.000,25.125,-351.330,822.765,22.475,-845.505,321.145,177.062,162.052,66.155,-90.000
1.000,31.000,25.060,-351.765,823.145,23.300,-846.115,321.555,176.750,162.052,66.155,-90.000
1.000,31.000,25.690,-351.475,822.880,23.500,-845.690,321.195,177.062,162.052,66.155,-90.000
1.000,31.000,25.115,-351.455,822.780,23.260,-845.945,321.500,177.062,162.052,66.155,-90.000
1.000,31.000,25.395,-351.835,822.915,23.325,-845.705,320.845,176.750,162.052,66.155,-90.000
1.000,31.000,25.110,-351.185,822.655,23.155,-845.520,321.520,177.062,162.052,66.155,-90.000
1.000,32.000,289.050,-240.415,810.815,286.690,-762.680,392.795,177.375,162.084,66.155,-135.000
1.000,32.000,288.970,-240.085,811.185,286.310,-763.045,392.070,177.062,162.084,66.155,-135.000
1.000,32.000,288.785,-240.010,810.910,285.650,-762.740,391.995,176.750,162.084,66.155,-135.000
1.000,32.000,288.750,-240.095,811.530,286.250,-762.525,392.955,177.062,162.084,66.155,-135.000
1.000,32.000,288.835,-239.940,811.255,286.695,-762.700,392.360,177.062,162.084,66.155,-135.000
1.000,32.000,289.810,-239.760,811.405,286.620,-762.500,392.020,177.375,162.115,66.155,-135.000
1.000,32.000,288.830,-240.700,811.405,286.225,-762.760,392.150,177.062,162.115,66.155,-135.000
1.000,32.000,288.395,-239.975,811.625,286.200,-762.310,391.625,177.062,162.115,66.155,-135.000
1.000,32.000,289.055,-240.115,811.620,286.480,-763.140,392.450,176.750,162.084,66.155,-135.000
1.000,32.000,289.240,-240.140,811.080,286.495,-762.530,392.295,177.062,162.115,66.155,-135.000
1.000,33.000,36.805,19.465,893.090,34.885,-640.415,635.795,177.062,162.146,89.515,180.000
1.000,33.000,37.085,18.805,892.705,34.755,-640.740,634.385,177.375,162.146,89.515,180.000
1.000,33.000,36.615,19.420,893.075,35.620,-640.645,636.030,177.062,162.115,89.515,180.000
1.000,33.000,35.995,19.140,892.925,33.675,-640.935,635.610,177.062,162.146,89.515,180.000
1.000,33.000,36.945,19.540,893.430,34.310,-640.925,635.640,177.062,162.146,89.515,180.000
1.000,33.000,37.145,18.970,893.610,35.360,-640.650,636.185,177.062,162.146,89.515,180.000
1.000,33.000,36.990,19.590,893.390,34.635,-640.445,635.465,176.750,162.146,89.515,180.000
1.000,33.000,36.540,18.825,892.800,35.375,-640.660,635.450,177.375,162.146,89.515,180.000
1.000,33.000,37.055,20.020,892.945,34.910,-640.350,635.545,177.375,162.146,89.515,180.000
1.000,33.000,36.730,19.445,892.775,34.775,-640.875,635.530,177.062,162.146,89.515,180.000
1.000,34.000,33.375,25.800,893.275,31.235,-636.100,640.665,177.062,162.177,89.515,135.000
1.000,34.000,33.450,26.070,892.845,31.610,-636.300,640.530,177.375,162.177,89.515,135.000
1.000,34.000,32.840,26.175,892.415,31.295,-636.140,640.270,177.687,162.177,89.515,135.000
1.000,34.000,32.825,25.700,893.155,31.080,-635.915,640.580,177.062,162.209,89.515,135.000
1.000,34.000,33.180,25.920,892.695,30.985,-636.330,640.715,177.062,162.177,89.515,135.000
1.000,34.000,33.115,26.730,892.415,30.920,-636.290,640.575,177.375,162.209,89.515,135.000
1.000,34.000,33.040,26.570,892.915,31.370,-636.140,640.425,177.062,162.209,89.515,135.000
1.000,34.000,33.425,25.995,892.410,30.895,-636.495,640.565,177.375,162.209,89.515,135.000
1.000,34.000,33.325,25.830,892.535,31.135,-635.805,640.740,177.375,162.209,89.515,135.000
1.000,34.000,32.360,26.715,892.800,30.770,-636.105,640.355,177.062,162.177,89.515,135.000
1.000,35.000,24.995,28.165,892.335,23.745,-635.040,642.350,176.750,162.209,89.525,90.000
1.000,35.000,24.970,27.795,892.135,23.505,-634.830,641.415,177.062,162.177,89.525,90.000
1.000,35.000,25.400,27.520,892.645,23.755,-634.960,641.765,177.062,162.240,89.525,90.000
1.000,35.000,25.155,27.810,892.530,23.590,-635.170,641.865,177.062,162.209,89.525,90.000
1.000,35.000,24.165,28.380,892.955,23.450,-635.170,642.065,177.375,162.209,89.525,90.000
1.000,35.000,25.380,28.285,892.710,24.355,-635.410,641.785,177.062,162.240,89.525,90.000
1.000,35.000,24.905,27.635,892.425,23.180,-634.950,642.335,177.687,162.240,89.525,90.000
1.000,35.000,25.415,28.350,892.895,23.535,-634.935,642.010,177.375,162.240,89.525,90.000
1.000,35.000,24.850,28.800,893.775,23.395,-635.130,641.530,177.375,162.209,89.525,90.000
1.000,35.000,25.675,28.010,893.290,23.420,-635.225,642.040,177.375,162.240,89.525,90.000
1.000,36.000,18.465,23.400,893.820,16.675,-637.700,638.410,176.750,162.240,89.525,45.000
1.000,36.000,18.390,23.565,893.050,16.740,-637.190,638.625,177.062,162.271,89.525,45.000
1.000,36.000,19.280,23.795,892.575,16.670,-637.230,638.895,177.062,162.240,89.525,45.000
1.000,36.000,18.065,23.870,893.600,16.795,-637.365,639.210,177.687,162.271,89.525,45.000
1.000,36.000,18.320,24.075,892.815,16.560,-637.940,638.670,177.062,162.240,89.525,45.000
1.000,36.000,18.010,23.950,892.190,16.875,-637.420,638.770,177.375,162.240,89.525,45.000
1.000,36.000,17.795,24.945,893.505,17.185,-637.475,639.690,177.375,162.271,89.525,45.000
1.000,36.000,18.640,24.085,893.015,17.390,-637.735,639.425,177.375,162.271,89.525,45.000
1.000,36.000,17.850,24.010,893.055,16.990,-637.560,639.405,177.375,162.271,89.525,45.000
1.000,36.000,17.900,24.305,893.145,16.960,-638.295,639.450,177.062,162.271,89.525,45.000
1.000,37.000,17.255,16.555,893.540,15.065,-642.885,634.190,177.062,162.302,89.525,0.000
1.000,37.000,16.360,16.050,893.450,15.075,-642.470,633.610,177.062,162.271,89.525,0.000
1.000,37.000,16.385,16.210,893.605,14.860,-642.145,634.860,177.375,162.271,89.525,0.000
1.000,37.000,17.105,16.965,893.730,15.355,-642.685,633.825,177.375,162.302,89.525,0.000
1.000,37.000,16.535,16.605,893.245,15.675,-642.935,633.805,177.062,162.302,89.525,0.000
1.000,37.000,16.335,16.050,893.385,15.495,-642.605,634.200,177.062,162.302,89.525,0.000
1.000,37.000,16.735,16.565,893.935,15.185,-642.600,633.280,177.375,162.271,89.525,0.000
1.000,37.000,17.015,15.800,894.185,15.350,-642.095,634.160,177.687,162.271,89.525,0.000
1.000,37.000,16.060,16.775,893.315,15.215,-642.450,634.405,177.375,162.302,89.525,0.000
1.000,37.000,16.780,16.480,893.685,14.775,-642.610,633.635,177.687,162.302,89.525,0.000
1.000,38.000,20.605,10.055,893.945,19.275,-647.255,629.335,177.375,162.302,89.525,-45.000
1.000,38.000,20.285,9.630,893.385,19.100,-647.110,629.195,177.375,162.334,89.525,-45.000
1.000,38.000,20.855,9.970,893.045,18.650,-647.070,628.530,177.687,162.302,89.525,-45.000
1.000,38.000,20.735,9.455,892.925,19.115,-647.365,628.865,177.375,162.334,89.525,-45.000
1.000,38.000,20.640,9.470,893.295,19.130,-647.145,629.395,177.375,162.334,89.525,-45.000
1.000,38.000,21.100,9.965,894.140,19.015,-647.185,629.265,177.375,162.334,89.525,-45.000
1.000,38.000,20.440,9.840,893.465,19.230,-647.590,628.775,177.687,162.334,89.525,-45.000
1.000,38.000,21.070,9.360,893.665,19.635,-647.215,628.980,177.375,162.334,89.525,-45.000
1.000,38.000,20.720,10.170,893.715,18.615,-647.120,629.680,177.687,162.334,89.525,-45.000
1.000,38.000,20.760,9.595,893.715,18.465,-647.325,629.540,177.375,162.302,89.525,-45.000
1.000,39.000,28.425,7.360,893.955,27.125,-648.875,627.830,177.062,162.365,89.525,-90.000
1.000,39.000,27.875,7.025,893.590,26.755,-648.365,627.240,177.375,162.365,89.525,-90.000
1.000,39.000,28.425,6.715,893.495,26.690,-648.070,627.910,177.062,162.365,89.525,-90.000
1.000,39.000,27.995,7.455,893.195,26.230,-648.185,627.525,177.375,162.365,89.525,-90.000
1.000,39.000,27.695,7.895,893.570,26.895,-647.910,627.630,177.375,162.365,89.525,-90.000
1.000,39.000,28.055,8.140,893.630,25.850,-648.050,628.635,177.375,162.365,89.525,-90.000
1.000,39.000,28.795,8.270,893.580,26.545,-648.475,627.490,177.062,162.365,89.525,-90.000
1.000,39.000,27.890,8.300,893.400,26.585,-648.400,628.570,177.375,162.365,89.525,-90.000
1.000,39.000,27.975,8.375,893.595,26.090,-648.760,628.130,177.375,162.365,89.525,-90.000
1.000,39.000,27.995,8.360,894.090,26.810,-648.230,627.710,177.375,162.365,89.525,-90.000
1.000,40.000,33.970,12.180,892.700,33.250,-645.335,630.715,177.062,162.396,89.525,-135.000
1.000,40.000,34.435,11.335,893.340,33.020,-645.915,630.860,177.687,162.396,89.525,-135.000
1.000,40.000,34.355,11.135,893.620,33.660,-645.820,631.060,177.375,162.396,89.525,-135.000
1.000,40.000,34.630,11.385,893.055,32.350,-645.615,630.355,177.375,162.396,89.525,-135.000
1.000,40.000,34.760,11.235,893.570,33.310,-645.340,630.255,177.375,162.365,89.525,-135.000
1.000,40.000,34.825,11.840,893.375,33.670,-645.375,630.430,177.687,162.396,89.525,-135.000
1.000,40.000,34.870,12.225,893.110,33.285,-645.220,630.395,177.375,162.396,89.525,-135.000
1.000,40.000,34.965,11.545,893.510,33.030,-645.880,630.255,177.375,162.396,89.525,-135.000
1.000,40.000,34.540,11.525,892.615,32.795,-645.605,630.840,177.687,162.396,89.525,-135.000
1.000,40.000,34.380,11.775,893.715,33.330,-645.675,631.230,177.375,162.396,89.525,-135.000
