Temp Iter,Index,X Accel 1,Y Accel 1,Z Accel 1,X Accel 2,Y Accel 2,Z Accel2, Temp_6g,Temp,Theta,Phi,,,,,,
0.000,1.000,-8191.000,-8191.000,8191.000,-8191.000,-8191.000,8191.000,25.812,26.639,-61.029,180.000
0.000,1.000,-8191.000,-8191.000,8191.000,-8191.000,-8191.000,8191.000,26.125,26.639,-61.029,180.000
0.000,1.000,-8191.000,-8191.000,8191.000,-8191.000,-8191.000,8191.000,26.125,26.639,-61.029,180.000
0.000,1.000,-8191.000,-8191.000,8191.000,-8191.000,-8191.000,8191.000,26.125,26.639,-61.029,180.000
0.000,1.000,-8191.000,-8191.000,8191.000,-8191.000,-8191.000,8191.000,25.812,26.639,-61.029,180.000
0.000,1.000,-8191.000,-8191.000,8191.000,-8191.000,-8191.000,8191.000,26.125,26.639,-61.029,180.000
0.000,1.000,-8191.000,-8191.000,8191.000,-8191.000,-8191.000,8191.000,26.125,26.639,-61.029,180.000
0.000,1.000,-8191.000,-8191.000,8191.000,-8191.000,-8191.000,8191.000,25.812,26.639,-61.029,180.000
0.000,1.000,-8191.000,-8191.000,8191.000,-8191.000,-8191.000,8191.000,25.812,26.639,-61.029,180.000
0.000,1.000,-8191.000,-8191.000,8191.000,-8191.000,-8191.000,8191.000,25.812,26.639,-61.029,180.000
0.000,2.000,-8191.000,-8191.000,8191.000,-8191.000,-8191.000,8191.000,25.812,26.670,-61.040,135.000
0.000,2.000,-8191.000,-8191.000,8191.000,-8191.000,-8191.000,8191.000,25.812,26.670,-61.040,135.000
0.000,2.000,-8191.000,-8191.000,8191.000,-8191.000,-8191.000,8191.000,25.812,26.670,-61.040,135.000
0.000,2.000,-8191.000,-8191.000,8191.000,-8191.000,-8191.000,8191.000,25.812,26.670,-61.040,135.000
0.000,2.000,-8191.000,-8191.000,8191.000,-8191.000,-8191.000,8191.000,25.812,26.670,-61.040,135.000
0.000,2.000,-8191.000,-8191.000,8191.000,-8191.000,-8191.000,8191.000,25.812,26.670,-61.040,135.000
0.000,2.000,-8191.000,-8191.000,8191.000,-8191.000,-8191.000,8191.000,25.500,26.670,-61.040,135.000
0.000,2.000,-8191.000,-8191.000,8191.000,-8191.000,-8191.000,8191.000,26.125,26.670,-61.040,135.000
0.000,2.000,-8191.000,-8191.000,8191.000,-8191.000,-8191.000,8191.000,25.812,26.670,-61.040,135.000
0.000,2.000,-8191.000,-8191.000,8191.000,-8191.000,-8191.000,8191.000,25.812,26.670,-61.040,135.000
0.000,3.000,-8191.000,-8191.000,8191.000,-8191.000,-8191.000,8191.000,25.812,26.702,-61.040,90.000
0.000,3.000,-8191.000,-8191.000,8191.000,-8191.000,-8191.000,8191.000,25.812,26.670,-61.040,90.000
0.000,3.000,-8191.000,-8191.000,8191.000,-8191.000,-8191.000,8191.000,26.125,26.702,-61.040,90.000
0.000,3.000,-8191.000,-8191.000,8191.000,-8191.000,-8191.000,8191.000,26.125,26.702,-61.040,90.000
0.000,3.000,-8191.000,-8191.000,8191.000,-8191.000,-8191.000,8191.000,25.812,26.702,-61.040,90.000
0.000,3.000,-8191.000,-8191.000,8191.000,-8191.000,-8191.000,8191.000,25.812,26.702,-61.040,90.000
0.000,3.000,-8191.000,-8191.000,8191.000,-8191.000,-8191.000,8191.000,26.125,26.733,-61.040,90.000
0.000,3.000,-8191.000,-8191.000,8191.000,-8191.000,-8191.000,8191.000,25.812,26.702,-61.040,90.000
0.000,3.000,-8191.000,-8191.000,8191.000,-8191.000,-8191.000,8191.000,26.125,26.702,-61.040,90.000
0.000,3.000,-8191.000,-8191.000,8191.000,-8191.000,-8191.000,8191.000,26.125,26.733,-61.040,90.000
0.000,4.000,-8191.000,-8191.000,8191.000,-8191.000,-8191.000,8191.000,25.812,26.733,-61.040,45.000
0.000,4.000,-8191.000,-8191.000,8191.000,-8191.000,-8191.000,8191.000,26.125,26.733,-61.040,45.000
0.000,4.000,-8191.000,-8191.000,8191.000,-8191.000,-8191.000,8191.000,26.125,26.733,-61.040,45.000
0.000,4.000,-8191.000,-8191.000,8191.000,-8191.000,-8191.000,8191.000,26.125,26.764,-61.040,45.000
0.000,4.000,-8191.000,-8191.000,8191.000,-8191.000,-8191.000,8191.000,26.125,26.764,-61.040,45.000
0.000,4.000,-8191.000,-8191.000,8191.000,-8191.000,-8191.000,8191.000,25.812,26.764,-61.040,45.000
0.000,4.000,-8191.000,-8191.000,8191.000,-8191.000,-8191.000,8191.000,25.812,26.764,-61.040,45.000
0.000,4.000,-8191.000,-8191.000,8191.000,-8191.000,-8191.000,8191.000,25.812,26.764,-61.040,45.000
0.000,4.000,-8191.000,-8191.000,8191.000,-8191.000,-8191.000,8191.000,26.125,26.764,-61.040,45.000
0.000,4.000,-8191.000,-8191.000,8191.000,-8191.000,-8191.000,8191.000,26.437,26.764,-61.040,45.000
0.000,5.000,-8191.000,-8191.000,8191.000,-8191.000,-8191.000,8191.000,25.812,26.795,-61.040,0.000
0.000,5.000,-8191.000,-8191.000,8191.000,-8191.000,-8191.000,8191.000,25.812,26.764,-61.040,0.000
0.000,5.000,-8191.000,-8191.000,8191.000,-8191.000,-8191.000,8191.000,26.125,26.764,-61.040,0.000
0.000,5.000,-8191.000,-8191.000,8191.000,-8191.000,-8191.000,8191.000,26.125,26.795,-61.040,0.000
0.000,5.000,-8191.000,-8191.000,8191.000,-8191.000,-8191.000,8191.000,26.125,26.795,-61.040,0.000
0.000,5.000,-8191.000,-8191.000,8191.000,-8191.000,-8191.000,8191.000,26.125,26.795,-61.040,0.000
