Temp Iter,Index,X Accel 1,Y Accel 1,Z Accel 1,X Accel 2,Y Accel 2,Z Accel2, Temp_6g,Temp,Theta,Phi,,,,,,
0.000,1.000,354.080,50.800,-825.350,337.040,642.675,-592.875,26.437,26.920,-66.670,180.000
0.000,1.000,354.650,50.480,-825.150,337.510,642.700,-592.875,26.437,26.920,-66.680,180.000
0.000,1.000,354.810,50.735,-825.615,336.725,642.350,-594.055,25.812,26.920,-66.680,180.000
0.000,1.000,354.135,50.485,-825.735,338.045,641.505,-592.795,25.812,26.920,-66.680,180.000
0.000,1.000,353.770,50.340,-825.600,337.090,642.555,-593.740,26.125,26.920,-66.680,180.000
0.000,1.000,354.545,50.635,-825.430,337.590,642.215,-593.480,26.437,26.920,-66.680,180.000
0.000,1.000,354.865,50.010,-826.395,337.195,642.260,-593.400,26.125,26.920,-66.680,180.000
0.000,1.000,354.125,50.750,-825.680,337.460,642.160,-593.115,26.125,26.920,-66.680,180.000
0.000,1.000,354.540,50.670,-825.355,337.450,642.140,-593.250,26.125,26.920,-66.680,180.000
0.000,1.000,354.400,50.910,-826.095,337.765,641.630,-592.385,26.125,26.951,-66.680,180.000
0.000,2.000,247.860,304.065,-828.385,240.060,815.905,-417.025,26.125,26.951,-66.680,135.000
0.000,2.000,247.980,303.520,-827.895,239.945,816.270,-417.260,26.437,26.951,-66.680,135.000
0.000,2.000,248.265,302.705,-828.210,239.275,815.410,-416.750,26.125,26.951,-66.680,135.000
0.000,2.000,248.560,303.040,-828.540,240.300,815.655,-416.480,26.437,26.951,-66.680,135.000
0.000,2.000,248.190,303.620,-827.935,239.150,815.625,-417.065,26.125,26.951,-66.680,135.000
0.000,2.000,248.030,302.695,-828.180,239.785,815.745,-416.655,26.437,26.951,-66.680,135.000
0.000,2.000,248.245,303.350,-828.240,239.995,815.470,-416.920,25.812,26.951,-66.680,135.000
0.000,2.000,248.080,303.345,-827.885,239.220,815.715,-416.560,26.437,26.951,-66.680,135.000
0.000,2.000,247.870,303.620,-828.290,239.585,815.495,-416.840,26.125,26.951,-66.690,135.000
0.000,2.000,248.300,303.755,-827.755,239.535,815.890,-416.985,26.125,26.951,-66.680,135.000
0.000,3.000,-5.350,408.560,-827.850,-12.140,887.925,-338.955,26.437,26.951,-66.690,90.000
0.000,3.000,-5.710,407.990,-827.485,-12.095,887.905,-337.455,26.125,26.951,-66.690,90.000
0.000,3.000,-5.655,407.270,-828.170,-11.630,888.475,-337.295,26.125,26.951,-66.690,90.000
0.000,3.000,-6.125,407.795,-828.295,-12.380,888.300,-338.530,26.125,26.951,-66.690,90.000
0.000,3.000,-6.060,408.130,-827.930,-12.410,888.270,-338.680,26.125,26.983,-66.680,90.000
0.000,3.000,-5.555,408.175,-827.185,-11.835,888.185,-338.085,26.125,26.951,-66.690,90.000
0.000,3.000,-5.725,408.530,-827.865,-11.680,888.095,-338.270,26.437,26.983,-66.690,90.000
0.000,3.000,-5.415,408.200,-827.540,-11.220,888.420,-338.065,26.437,26.983,-66.690,90.000
0.000,3.000,-5.905,408.025,-827.555,-11.975,887.775,-338.150,26.437,26.983,-66.690,90.000
0.000,3.000,-5.885,407.160,-828.395,-11.815,887.770,-337.015,26.437,26.983,-66.690,90.000
0.000,4.000,-258.595,297.005,-825.500,-270.870,809.950,-405.820,26.437,26.983,-66.690,45.000
0.000,4.000,-258.060,297.490,-825.955,-270.800,810.070,-405.560,26.437,26.983,-66.680,45.000
0.000,4.000,-258.595,297.520,-825.730,-271.045,809.425,-405.240,26.125,26.983,-66.680,45.000
0.000,4.000,-258.765,298.470,-825.615,-270.820,810.280,-405.345,26.437,26.983,-66.680,45.000
0.000,4.000,-258.585,297.280,-825.045,-270.245,810.070,-404.825,26.125,27.014,-66.680,45.000
0.000,4.000,-259.040,297.955,-825.345,-270.585,810.010,-405.395,26.437,26.983,-66.690,45.000
0.000,4.000,-258.820,296.815,-825.735,-271.505,809.515,-405.145,26.125,26.983,-66.680,45.000
0.000,4.000,-258.940,298.100,-825.630,-270.860,809.900,-405.430,26.437,26.983,-66.690,45.000
0.000,4.000,-258.630,297.580,-825.225,-270.990,809.570,-405.330,26.437,26.983,-66.690,45.000
0.000,4.000,-258.895,298.000,-825.420,-271.160,809.735,-405.610,26.437,27.014,-66.680,45.000
0.000,5.000,-367.035,45.725,-816.225,-370.995,632.545,-578.475,26.437,27.014,-66.680,0.000
0.000,5.000,-366.525,45.725,-816.510,-370.990,632.465,-578.640,26.125,27.014,-66.690,0.000
0.000,5.000,-366.325,46.345,-816.430,-371.205,632.390,-578.350,26.437,27.014,-66.690,0.000
0.000,5.000,-366.675,45.965,-816.380,-371.300,632.885,-578.245,26.437,27.014,-66.680,0.000
0.000,5.000,-366.605,45.135,-815.990,-370.545,632.625,-578.000,26.125,27.014,-66.690,0.000
0.000,5.000,-365.715,45.595,-816.295,-370.695,632.845,-578.970,26.437,27.014,-66.690,0.000
0.000,5.000,-366.435,46.085,-816.265,-371.200,632.720,-578.065,26.437,27.014,-66.690,0.000
0.000,5.000,-367.135,45.960,-816.320,-370.885,632.715,-578.000,26.437,27.014,-66.680,0.000
0.000,5.000,-366.230,47.170,-816.220,-371.000,632.605,-578.510,26.437,27.014,-66.690,0.000
0.000,5.000,-366.890,45.630,-816.425,-370.710,632.550,-579.040,26.437,27.014,-66.680,0.000
0.000,6.000,-259.540,-206.955,-813.545,-273.430,460.235,-754.960,26.125,27.014,-66.680,-45.000
0.000,6.000,-260.315,-206.710,-813.285,-273.475,460.400,-754.015,26.125,27.014,-66.690,-45.000
0.000,6.000,-259.795,-206.620,-813.620,-273.285,460.490,-754.055,25.812,27.014,-66.680,-45.000
0.000,6.000,-259.610,-206.105,-813.715,-272.940,460.705,-754.895,26.437,27.045,-66.680,-45.000
0.000,6.000,-259.330,-206.740,-813.405,-272.815,460.475,-754.640,26.125,27.014,-66.690,-45.000
0.000,6.000,-260.290,-206.270,-813.380,-273.825,460.605,-753.760,26.750,27.014,-66.680,-45.000
0.000,6.000,-259.750,-206.385,-813.760,-273.150,460.375,-755.290,26.437,27.014,-66.690,-45.000
0.000,6.000,-259.705,-207.160,-812.725,-272.945,460.190,-754.570,26.125,27.045,-66.690,-45.000
0.000,6.000,-259.390,-206.715,-813.765,-272.930,460.000,-753.820,26.437,27.045,-66.690,-45.000
0.000,6.000,-260.330,-206.625,-813.060,-273.065,460.080,-754.960,26.437,27.045,-66.690,-45.000
0.000,7.000,-5.180,-312.765,-814.640,-20.900,387.730,-834.845,26.437,27.045,-66.690,-90.000
0.000,7.000,-4.595,-312.755,-814.985,-21.305,387.265,-834.550,26.437,27.045,-66.690,-90.000
0.000,7.000,-5.855,-312.405,-815.770,-21.360,387.650,-834.875,26.125,27.045,-66.680,-90.000
0.000,7.000,-5.080,-312.390,-815.040,-20.980,387.415,-834.630,26.437,27.014,-66.680,-90.000
0.000,7.000,-5.755,-311.765,-815.525,-21.855,387.370,-835.120,25.812,27.045,-66.680,-90.000
0.000,7.000,-5.425,-312.325,-814.920,-21.415,387.470,-834.475,26.437,27.045,-66.690,-90.000
0.000,7.000,-5.035,-312.755,-815.410,-20.635,387.815,-834.850,26.437,27.045,-66.680,-90.000
0.000,7.000,-6.105,-312.095,-815.385,-21.095,387.250,-834.205,26.125,27.045,-66.690,-90.000
0.000,7.000,-5.920,-311.290,-815.285,-21.025,387.670,-834.260,26.125,27.045,-66.680,-90.000
0.000,7.000,-5.630,-311.875,-815.295,-21.515,387.435,-835.300,26.125,27.045,-66.680,-90.000
0.000,8.000,251.635,-204.105,-820.415,231.195,462.000,-768.675,26.437,27.045,-66.680,-135.000
0.000,8.000,250.880,-204.050,-820.060,231.445,461.795,-769.840,26.437,27.076,-66.680,-135.000
0.000,8.000,251.430,-203.895,-820.795,231.405,461.870,-769.325,26.437,27.045,-66.680,-135.000
0.000,8.000,251.490,-203.785,-820.610,231.780,462.130,-769.895,26.437,27.045,-66.690,-135.000
0.000,8.000,251.890,-203.975,-820.365,231.930,461.660,-769.290,26.437,27.076,-66.690,-135.000
0.000,8.000,251.690,-203.770,-820.505,231.405,461.925,-769.395,26.437,27.045,-66.680,-135.000
0.000,8.000,251.680,-204.605,-820.900,231.365,461.750,-769.865,26.437,27.045,-66.680,-135.000
0.000,8.000,251.620,-203.430,-820.450,231.460,462.005,-769.735,26.437,27.076,-66.680,-135.000
0.000,8.000,251.835,-204.180,-820.225,232.090,461.955,-769.735,26.125,27.076,-66.690,-135.000
0.000,8.000,251.540,-203.865,-820.545,230.630,461.770,-769.210,26.437,27.076,-66.680,-135.000
