Index,X Accel 1,Y Accel 1,Z Accel 1,X Accel 2,Y Accel 2,Z Accel2,Temp,Theta ,Phi
1,629.885,-4.215,-651.04,624.945,447.955,-467.08,24.562,-45.48,180
1,629.685,-4.735,-650.085,625.19,447.965,-467.3,24.25,-45.48,180
1,629.64,-4.35,-650.77,626.39,447.99,-466.265,24.562,-45.48,180
1,630.185,-4.26,-650.71,625.69,447.69,-467.25,24.562,-45.48,180
1,629.355,-4.72,-650.615,625.09,448.015,-466.75,24.25,-45.48,180
1,629.96,-4.715,-650.13,625.265,447.825,-467.11,24.25,-45.48,180
1,630.47,-5.37,-650.625,625.915,448.21,-467.1,24.562,-45.48,180
1,629.63,-4.965,-650.905,625.43,447.695,-466.78,24.562,-45.48,180
1,629.635,-5.705,-650.53,625.15,447.795,-466.815,24.25,-45.48,180
1,629.86,-5.07,-650.41,625.4,447.97,-467.645,24.562,-45.48,180
2,448.45,439.355,-652.695,453.32,762.06,-151.79,24.562,-45.48,135
2,448.875,439.015,-653.285,453.98,761.36,-151.285,23.937,-45.48,135
2,448.03,438.745,-653.105,453.87,761.605,-151.33,24.562,-45.48,135
2,447.81,438.705,-652.795,453.81,761.235,-151.44,24.25,-45.48,135
2,448.51,438.82,-653.31,454.505,761.32,-151.825,24.25,-45.48,135
2,448.215,440.23,-653.255,454.215,761.04,-151.005,24.25,-45.48,135
2,448.31,439.7,-652.955,454.17,761.625,-151.13,24.562,-45.48,135
2,448.525,438.445,-653.735,454.605,761.685,-150.705,24.562,-45.48,135
2,447.845,439.29,-652.625,453.475,761.705,-151.88,24.25,-45.48,135
2,449.11,439.28,-652.825,452.345,761.225,-151.77,24.562,-45.48,135
3,4.115,623.075,-658.98,12.525,898.69,-8.61,24.562,-45.48,90
3,3.85,622.85,-659.345,11.815,898.515,-8.34,24.562,-45.48,90
3,3.6,623.155,-659.205,12.055,898.91,-8.335,24.562,-45.48,90
3,3.67,622.73,-659.32,12.485,898.58,-7.79,24.25,-45.48,90
3,3.455,623.62,-659.765,11.8,898.72,-8.62,24.562,-45.48,90
3,3.78,623.81,-659.07,12.535,898.655,-8.83,24.562,-45.48,90
3,4.42,623.315,-659.315,11.475,898.36,-8.62,24.562,-45.48,90
3,3.79,623.865,-658.885,11.57,898.575,-8.555,24.25,-45.48,90
3,4,622.765,-658.67,12.39,898.355,-8.76,24.562,-45.48,90
3,4.425,622.905,-659.28,11.38,898.395,-8.185,24.562,-45.48,90
4,-446.625,436.95,-650.66,-448.855,768.775,-127.22,24.562,-45.48,45
4,-445.88,438.425,-650.65,-448.57,769.195,-126.825,24.562,-45.48,45
4,-446.25,436.545,-651.31,-448.89,768.53,-127.325,24.562,-45.48,45
4,-445.56,437.095,-650.99,-448.11,768.705,-126.81,24.562,-45.48,45
4,-446.04,436.73,-651.075,-448.05,768.89,-126.655,24.562,-45.48,45
4,-446.49,437.99,-651.355,-448.24,769.24,-126.745,24.562,-45.48,45
4,-446.565,436.995,-650.96,-448.025,769.05,-126.925,24.25,-45.48,45
4,-446.045,437.41,-651.05,-448.07,769.04,-126.815,24.25,-45.48,45
4,-446.12,437.335,-650.21,-448.545,769.06,-126.93,24.25,-45.48,45
4,-445.92,438.095,-650.63,-448.01,769.095,-126.655,24.562,-45.48,45
5,-630.115,-10.795,-641.085,-639.97,456.325,-435.3,24.25,-45.48,0
5,-629.755,-10.92,-640.715,-639.835,456.065,-434.955,24.25,-45.48,0
5,-629.71,-11.075,-641.14,-640.045,456.515,-434.965,24.25,-45.48,0
5,-629.95,-10.215,-640.805,-640.145,456.255,-434.675,24.25,-45.48,0
5,-630.335,-10.55,-640.065,-639.85,456.28,-435.1,24.25,-45.48,0
5,-629.455,-10.845,-640.405,-639.96,456.035,-435.11,24.562,-45.48,0
5,-630.215,-11.435,-641.305,-639.795,456.335,-434.885,24.562,-45.48,0
5,-629.445,-11.22,-640.94,-638.45,455.92,-435.04,24.562,-45.48,0
5,-630.105,-10.935,-641.215,-639.685,455.965,-435.36,24.25,-45.48,0
5,-629.825,-10.205,-640.94,-639.48,456.18,-435.02,24.562,-45.48,0
6,-443.01,-451.485,-634.09,-469.52,141.79,-750.195,24.562,-45.48,-45
6,-442.885,-451.365,-633.31,-469.65,141.76,-750.065,24.25,-45.48,-45
6,-443.21,-451.245,-633.67,-469.96,141.55,-749.435,24.562,-45.48,-45
6,-443.04,-452.33,-633.695,-469.91,141.39,-750.26,24.562,-45.48,-45
6,-443.635,-450.95,-633.17,-469.22,141.555,-750.895,24.562,-45.48,-45
6,-443.155,-452.295,-634.175,-469.135,141.78,-751.375,24.25,-45.48,-45
6,-442.78,-452.34,-633.625,-469.065,141.7,-749.605,24.562,-45.48,-45
6,-443.795,-451.66,-634.3,-470.04,141.4,-750.645,24.562,-45.48,-45
6,-442.38,-450.945,-633.815,-469.11,141.48,-750.745,24.562,-45.48,-45
6,-442.745,-451.77,-633.655,-469.955,141.965,-749.025,24.562,-45.48,-45
7,3.65,-634.545,-635.75,-20.665,6.29,-894.78,24.562,-45.48,-90
7,3.625,-634.525,-635.58,-20.44,5.86,-894.925,24.562,-45.48,-90
7,3.45,-634.525,-635.205,-20.925,5.975,-894.715,24.25,-45.48,-90
7,3.52,-634.885,-635.57,-20.53,5.945,-894.955,24.25,-45.48,-90
7,3.725,-635.365,-635.565,-20.56,6.17,-894.175,24.562,-45.48,-90
7,3.37,-634.75,-635.36,-19.475,6.285,-894.465,24.25,-45.48,-90
7,3.745,-634.305,-635.46,-20.19,6.205,-894.72,24.562,-45.48,-90
7,3.43,-634.955,-635.965,-20.685,6.015,-895.28,24.562,-45.48,-90
7,3.3,-635.005,-635.44,-20.635,6.1,-894.785,24.25,-45.48,-90
7,3.54,-634.185,-635.64,-21.03,6.025,-894.93,24.562,-45.48,-90
8,451.015,-449.59,-636.15,434.17,135.075,-773.685,24.562,-45.48,-135
8,451.3,-450.51,-635.775,434.61,134.395,-773.19,24.562,-45.48,-135
8,450.7,-450.07,-636.09,433.93,134.82,-773.485,24.562,-45.48,-135
8,451.8,-448.995,-635.715,434.25,134.655,-773.51,24.562,-45.48,-135
8,451.495,-450.14,-635.985,434.07,134.775,-774.04,24.562,-45.48,-135
8,451.68,-451.055,-636.05,434.35,134.335,-773.37,24.562,-45.48,-135
8,451.42,-449.99,-635.79,434.365,134.9,-774.115,24.25,-45.48,-135
8,451.66,-449.845,-635.45,434.05,134.34,-773.82,24.562,-45.48,-135
8,451.76,-451.295,-635.885,434.745,134.33,-773.795,24.875,-45.48,-135
8,451.04,-450.155,-635.895,433.85,134.58,-773.535,24.25,-45.48,-135
9,903.805,11.89,-10.74,900.93,-2.7,-25.305,24.25,-0.13,180
9,904.595,11.685,-10.14,900.13,-3.15,-24.925,24.562,-0.13,180
9,904.625,13.11,-10.14,900.625,-3.1,-24.86,24.25,-0.13,180
9,904.17,11.84,-10.24,901.085,-2.375,-25.505,24.562,-0.13,180
9,904.82,11.795,-10.07,899.695,-2.955,-24.98,24.25,-0.13,180
9,904.455,10.805,-9.685,900.315,-2.61,-25.425,24.25,-0.13,180
9,904.29,11.89,-10.085,900.025,-2.695,-26.185,24.25,-0.13,180
9,903.78,11.3,-10.255,900.455,-2.975,-25.39,24.25,-0.13,180
9,903.93,12.755,-10.34,899.605,-3.035,-25.74,24.562,-0.13,180
9,904.565,11.59,-10.125,900.69,-2.92,-26.005,24.562,-0.13,180
10,645.07,642.41,-21.81,653.14,446.13,427.845,24.562,-0.13,135
10,645.29,642.17,-21.165,652.985,446.115,426.705,24.562,-0.13,135
10,645.25,642.11,-22.04,653.87,446.275,427.265,24.562,-0.13,135
10,645.12,642.24,-21.44,653.425,446.17,426.875,24.562,-0.13,135
10,645.035,641.565,-21.315,652.98,446.645,426.895,24.562,-0.13,135
10,644.815,640.97,-21.06,653.745,445.69,426.99,24.562,-0.13,135
10,645.065,642.275,-21.25,653.88,446.285,427.2,24.562,-0.13,135
10,644.865,641.17,-21.33,653.825,446.04,426.655,24.562,-0.13,135
10,644.865,642.88,-21.09,653.605,446.06,427.455,24.562,-0.13,135
10,645.235,641.005,-21.935,653.585,445.95,426.785,24.875,-0.13,135
11,6.485,906.685,-24.695,26.99,635.695,633.965,24.562,-0.13,90
11,6.45,907.125,-24.645,26.96,635.33,633.795,24.25,-0.13,90
11,5.78,907.04,-24.93,27.055,635.335,633.4,24.25,-0.13,90
11,6.68,906.655,-25.845,26.535,635.47,633.575,24.562,-0.13,90
11,6.555,908.105,-25.22,26.89,635.585,632.62,24.875,-0.13,90
11,6.12,906.92,-25.095,27.005,635.525,633.135,24.875,-0.13,90
11,6.385,905.925,-25.44,27.405,635.56,632.845,24.562,-0.13,90
11,6.195,907.375,-24.775,26.89,635.475,633.64,24.562,-0.13,90
11,6.63,906.905,-25.395,27.005,635.965,633.285,24.562,-0.13,90
11,6.26,906.325,-25.25,27.44,635.545,632.38,24.25,-0.13,90
12,-642.115,637.175,-16.935,-623.595,453.39,458.975,24.562,-0.13,45
12,-641.86,637.04,-17.535,-623.44,453.785,458.435,24.562,-0.13,45
12,-642.265,636.655,-17.05,-623.665,453.57,458.22,24.875,-0.13,45
12,-641.945,637.49,-17.235,-623.735,453.785,458.625,24.562,-0.13,45
12,-642.235,635.65,-17.48,-623.5,453.46,458.42,24.562,-0.13,45
12,-641.85,636.6,-16.785,-622.805,453.715,458.33,24.562,-0.13,45
12,-641.545,637.165,-17.18,-623.165,453.415,458.485,24.562,-0.13,45
12,-642.145,635.665,-16.875,-623.6,453.23,458.38,24.875,-0.13,45
12,-641.95,636.855,-16.645,-624.045,453.82,458.79,24.562,-0.13,45
12,-641.765,636.505,-16.975,-623.34,453.335,458.765,24.562,-0.13,45
13,-895.59,1.95,-5.14,-895.515,6.085,17.525,24.25,-0.13,0
13,-895.175,1.34,-5.025,-895.62,5.84,17.83,24.562,-0.13,0
13,-895.61,2.655,-4.9,-895.945,5.53,17.845,24.25,-0.13,0
13,-895.05,1.665,-5.55,-895.615,5.865,17.535,24.562,-0.13,0
13,-895.06,0.7,-4.66,-896.06,5.855,17.73,24.25,-0.13,0
13,-895.42,2.19,-5.175,-895.63,6.18,17.42,24.562,-0.13,0
13,-894.895,0.825,-5.065,-895.605,6.09,18.35,24.25,-0.13,0
13,-894.81,2.51,-5.085,-895.535,6.225,16.875,24.25,-0.13,0
13,-894.625,2.21,-4.845,-895.925,5.92,17.615,24.875,-0.13,0
13,-895.62,0.965,-5.29,-895.825,6.445,17.09,24.562,-0.13,0
14,-638.175,-626.565,8.315,-651.95,-442.265,-432.985,24.25,-0.13,-45
14,-638.215,-627.1,8.175,-651.48,-442.66,-433.445,24.562,-0.13,-45
14,-638.625,-627.19,8.735,-651.55,-442.57,-433.885,24.562,-0.13,-45
14,-638.205,-627.175,8.245,-651.215,-442.465,-433.265,24.25,-0.13,-45
14,-638.465,-628.505,8.32,-652.31,-442.33,-433.22,24.25,-0.13,-45
14,-637.99,-628.035,8.055,-652.02,-442.175,-433.75,24.562,-0.13,-45
14,-638.24,-627.695,8.075,-652.115,-442.73,-433.9,24.25,-0.13,-45
14,-637.695,-626.8,8.03,-651.99,-442.605,-433.475,24.562,-0.13,-45
14,-637.295,-627.56,8.56,-651.72,-442.46,-433.595,24.875,-0.13,-45
14,-638.345,-627.69,8.24,-651.925,-442.37,-433.795,24.562,-0.13,-45
15,9.655,-893.105,9.115,-16.05,-631.835,-643.065,24.562,-0.13,-90
15,9.425,-892.85,8.685,-16.445,-632.19,-644.045,24.562,-0.13,-90
15,9.05,-892.75,9.215,-15.8,-631.84,-643.055,24.562,-0.13,-90
15,8.725,-892.315,8.785,-15.955,-631.555,-644.395,24.562,-0.13,-90
15,9.33,-892.215,9.245,-16.19,-631.845,-643.92,24.562,-0.13,-90
15,9.76,-891.42,8.15,-15.215,-631.46,-643.74,24.875,-0.13,-90
15,9.785,-893.965,9.16,-16.14,-631.78,-643.97,24.562,-0.13,-90
15,9.79,-892.18,9.025,-15.465,-631.765,-643.38,24.562,-0.13,-90
15,9.135,-891.965,8.565,-15.535,-631.75,-643.725,24.562,-0.13,-90
15,9.375,-892.745,8.67,-15.625,-631.8,-643.935,24.562,-0.13,-90
16,651.1,-624.075,0.6,628.4,-449.97,-465.515,24.25,-0.13,-135
16,650.99,-623.845,1.69,627.95,-449.495,-466.145,24.562,-0.13,-135
16,650.92,-622.815,1.61,628.685,-449.32,-466.325,24.562,-0.13,-135
16,651.015,-624.2,1.335,628.575,-449.545,-465.86,24.562,-0.13,-135
16,650.84,-623.545,1.41,627.905,-449.34,-465.92,24.25,-0.13,-135
16,650.295,-622.17,1.4,628.35,-449.545,-466.31,24.25,-0.13,-135
16,651.185,-623.76,1.05,628.165,-449.81,-465.42,24.562,-0.13,-135
16,650.91,-623.5,1.215,628.065,-449.845,-465.545,24.562,-0.13,-135
16,650.98,-622.595,0.83,628.75,-449.655,-466.045,24.562,-0.13,-135
16,651.16,-623.325,1.55,628.56,-449.345,-466.4,24.562,-0.13,-135
17,657.275,21.685,616.07,660.07,-442.99,420.99,24.562,44.1,180
17,657.46,21.16,615.6,661.21,-442.825,420.095,24.562,44.1,180
17,657.62,21.355,615.705,660.76,-443.445,420.27,24.562,44.1,180
17,658.025,21.93,614.855,660.165,-442.835,420.17,24.25,44.1,180
17,657.645,21.965,615.495,660.29,-442.985,421.185,24.562,44.1,180
17,657.505,21.91,615.865,660.695,-442.86,420.67,24.562,44.1,180
17,657.505,21.26,615.495,660.47,-442.915,420.49,24.562,44.1,180
17,657.125,21.185,615.58,660.375,-443.12,420.81,24.562,44.1,180
17,657.455,21.885,615.625,660.29,-442.975,420.845,24.875,44.1,180
17,657.505,21.845,615.46,660.895,-443.335,420.46,24.25,44.1,180
18,463.28,480.85,607.315,478.94,-116.455,749.795,24.562,44.1,135
18,462.67,480.5,607.485,479.395,-116.205,749.305,24.25,44.1,135
18,462.965,480.53,607.755,480.035,-116.48,749.27,24.25,44.1,135
18,463.22,480.465,607.185,479.945,-116.35,749.735,24.562,44.1,135
18,462.975,479.64,607.94,479.72,-116.24,749.87,24.562,44.1,135
18,463.115,480.745,607.285,479.81,-116.33,749.675,24.875,44.1,135
18,463.315,480.27,607.385,480.15,-116.05,750.405,24.562,44.1,135
18,463.145,480.575,607.94,479.955,-116.29,749.15,24.562,44.1,135
18,462.925,480.235,607.335,479.48,-115.79,749.955,24.562,44.1,135
18,462.475,482.065,607.665,480.22,-116.24,748.77,24.562,44.1,135
19,7.03,668.31,607.755,26.97,18.235,889.805,24.562,44.1,90
19,7.36,668.065,607.405,27.08,17.795,890.685,24.562,44.1,90
19,7.395,667.92,607.355,27.62,17.98,890.735,24.562,44.1,90
19,7.78,668.39,606.58,27.795,18.055,890.37,24.25,44.1,90
19,7.3,668.28,607.315,27.435,17.635,890.84,24.562,44.1,90
19,7.63,667.705,607.15,26.67,18.24,890.88,24.562,44.1,90
19,7.24,668.665,607.12,27.69,17.855,890.785,24.562,44.1,90
19,7.46,668.635,607.475,27.27,17.93,890.895,24.562,44.1,90
19,7.45,668.26,606.8,27.46,18.215,890.445,24.562,44.1,90
19,7.17,667.495,606.88,27.195,18.365,890.7,24.562,44.1,90
20,-457.31,475.125,608.125,-445.62,-114.17,767.07,24.25,44.1,45
20,-457.46,475.845,607.9,-445.62,-114.2,766.865,24.562,44.1,45
20,-457.5,475.125,607.815,-445.69,-114.59,766.825,24.562,44.1,45
20,-456.84,474.455,608.205,-445.785,-114.415,767.22,24.562,44.1,45
20,-457.31,473.555,608.405,-445.875,-114.985,767.34,24.562,44.1,45
20,-457.325,474.79,608.365,-445.96,-114.46,766.335,24.562,44.1,45
20,-457.715,475.275,607.895,-446.48,-114.535,766.64,24.562,44.1,45
20,-457.395,474.41,607.98,-446.02,-114.69,767.4,24.875,44.1,45
20,-457.58,474.725,608.365,-445.58,-114.25,767.255,24.562,44.1,45
20,-457.335,476.58,608.11,-445.685,-114.84,767.01,24.562,44.1,45
21,-649.345,15.96,614.605,-640.28,-437.52,449.85,24.25,44.1,0
21,-649.225,15.735,615.19,-640.495,-437.12,449.405,24.875,44.1,0
21,-649.84,15.79,614.81,-641.055,-437.415,449.1,24.562,44.1,0
21,-649.495,15.5,615.05,-640.335,-437.255,449.43,24.562,44.1,0
21,-650.17,15.23,614.585,-640.735,-437.565,449.815,24.875,44.1,0
21,-649.79,15.665,614.725,-640.33,-437.59,448.595,24.562,44.1,0
21,-649.08,16.335,614.515,-640.86,-437.325,449.44,24.25,44.1,0
21,-650.075,16.28,614.81,-641.01,-437.19,449.445,24.562,44.1,0
21,-650.48,15.53,615.165,-640.78,-437.36,448.925,24.25,44.1,0
21,-649.205,15.94,615.06,-641.11,-437.07,449.285,24.562,44.1,0
22,-452.125,-441.315,627.385,-463.86,-759.465,125.075,24.562,44.1,-45
22,-452.205,-442.38,627.545,-463.685,-759.36,124.33,24.562,44.1,-45
22,-451.84,-442.735,627.245,-464.31,-760.12,125.135,24.875,44.1,-45
22,-451.86,-441.31,627.13,-463.9,-760.015,125.085,24.562,44.1,-45
22,-452.36,-440.985,627.09,-464.855,-760.16,124.495,24.562,44.1,-45
22,-451.595,-441.49,627.15,-463.87,-759.61,125.55,24.562,44.1,-45
22,-451.405,-442.5,627.145,-463.805,-759.72,124.045,24.562,44.1,-45
22,-451.82,-441.795,626.88,-463.41,-760.02,125.115,24.875,44.1,-45
22,-451.675,-441.8,627.38,-464.11,-759.88,124.38,24.562,44.1,-45
22,-452.195,-442.92,626.855,-463.57,-759.72,124.3,24.25,44.1,-45
23,11.035,-628.87,633.755,-0.915,-899.085,-22.31,24.875,44.1,-90
23,11.3,-628.22,633.62,-0.76,-899.41,-22.52,24.562,44.1,-90
23,10.935,-627.625,634.415,-0.915,-899.055,-22.155,24.562,44.1,-90
23,11.22,-628.855,633.93,-1.495,-898.775,-22.95,24.562,44.1,-90
23,10.91,-627.655,633.67,-0.595,-899.57,-22.32,24.562,44.1,-90
23,10.905,-627.66,633.855,-0.965,-899.91,-21.96,24.562,44.1,-90
23,10.84,-628.61,633.4,-0.115,-898.9,-22.28,24.562,44.1,-90
23,10.645,-628.945,633.805,-0.725,-899.34,-22.685,24.875,44.1,-90
23,10.86,-628.14,633.16,-1.4,-899.205,-22.63,24.562,44.1,-90
23,10.54,-628.235,633.655,-0.705,-899.265,-22.815,24.25,44.1,-90
24,469.65,-433.975,622.88,467.195,-764.27,103.34,24.562,44.1,-135
24,469.74,-435.565,623.11,467.82,-763.955,103.07,24.25,44.1,-135
24,469.74,-434.505,622.46,466.995,-763.575,103.495,24.562,44.1,-135
24,470.275,-434.17,623.46,468.73,-763.875,103.535,24.562,44.1,-135
24,469.885,-433.625,622.83,467.595,-763.915,103.555,24.875,44.1,-135
24,470.05,-434.51,623.255,467.765,-764.025,102.955,24.25,44.1,-135
24,469.47,-434.585,622.35,467.365,-763.91,103.995,24.562,44.1,-135
24,469.945,-434.67,623.495,467.845,-764.15,103.695,24.562,44.1,-135
24,469.89,-435.09,622.87,466.955,-763.88,103.565,24.562,44.1,-135
24,469.84,-435.03,622.82,467.58,-763.785,103.915,24.875,44.1,-135
25,380.885,26.96,810.575,381.55,-580.94,567.9,24.25,66.21,180
25,381.095,28.015,810.285,382.775,-581.245,568.67,24.25,66.21,180
25,381.025,26.565,810.2,381.465,-580.325,568.08,24.562,66.21,180
25,380.12,26.81,810.02,381.16,-580.925,568.185,24.562,66.21,180
25,381.15,28.115,810.295,381.23,-580.495,568.28,24.875,66.21,180
25,381.02,27.825,810.54,381.43,-580.89,567.88,24.562,66.21,180
25,381.2,28.12,810.77,381.815,-580.805,568.18,24.562,66.21,180
25,381.125,29.195,810.17,382.005,-580.015,568.73,24.875,66.21,180
25,381.255,28.79,810.495,381.825,-580.05,568.3,24.562,66.21,180
25,381.03,27.985,810.52,381.245,-580.96,568.58,24.562,66.21,180
26,266.72,286.85,809.785,278.49,-396.81,754.32,24.562,66.21,135
26,266.73,286.565,809.57,278.48,-396.605,755.11,24.562,66.21,135
26,267.445,286.165,809.75,277.31,-396.685,755.765,24.875,66.21,135
26,266.38,287.16,809.305,278.01,-396.52,754.775,24.562,66.21,135
26,267.475,286.145,809.875,277.54,-396.755,755.14,24.562,66.21,135
26,266.86,286.43,809.83,277.575,-396.83,755.035,24.562,66.21,135
26,267.1,286.155,809.575,278.76,-397.09,754.615,24.562,66.21,135
26,266.575,286.26,809.66,277.575,-396.305,754.44,24.562,66.21,135
26,266.33,286.485,809.555,277.905,-397.16,754.78,24.875,66.21,135
26,267.275,286.365,809.305,277.945,-396.875,754.76,24.875,66.21,135
27,6.03,394.915,803.835,21.53,-321.465,832.52,24.562,66.21,90
27,6.255,395.555,803.115,22.21,-320.565,833.145,24.875,66.21,90
27,6.5,394.945,802.995,21.57,-320.92,832.77,24.562,66.21,90
27,5.855,395.03,803.62,21.6,-321.26,833.38,24.562,66.21,90
27,6.785,395.95,804.13,21.255,-320.43,832.92,24.562,66.21,90
27,6.385,395.56,804.195,21.71,-320.87,832.945,24.562,66.21,90
27,6.49,396,804.165,21.93,-320.54,832.79,24.875,66.21,90
27,6.455,395.9,803.31,21.07,-320.515,833.04,24.562,66.21,90
27,6.685,396.115,803.59,21.215,-321.01,833.67,24.562,66.21,90
27,6.285,395.99,803.38,21.265,-320.88,833.06,24.562,66.21,90
28,-259.14,284.215,808.53,-247.11,-398.475,761.825,24.875,66.21,45
28,-259.24,283.585,808.745,-247,-398.775,761.995,24.875,66.21,45
28,-258.955,284.155,808.265,-247.16,-398.395,761.91,24.562,66.21,45
28,-259.25,283.39,807.85,-246.585,-398.84,761.95,24.875,66.21,45
28,-259.69,284.305,808.695,-246.39,-398.54,761.535,24.562,66.21,45
28,-259.555,284.045,808.265,-246.375,-398.645,761.59,24.875,66.21,45
28,-259.81,283.81,808.2,-247.085,-398.8,761.88,24.875,66.21,45
28,-258.68,283.825,808.615,-247.415,-398.59,761.635,24.875,66.21,45
28,-258.57,284.55,809.125,-246.87,-399.12,761.945,24.875,66.21,45
28,-258.675,283.83,808.725,-246.935,-398.57,762.24,24.562,66.21,45
29,-367.13,19.48,813.645,-362.04,-577.385,587.03,24.25,66.21,0
29,-366.49,20.72,814.005,-361.68,-577.385,587.985,24.562,66.21,0
29,-366.95,20.07,813.835,-361.735,-577.17,587.22,24.562,66.21,0
29,-366.45,19.215,813.415,-361.17,-577.445,587.875,24.562,66.21,0
29,-365.985,20.125,813.96,-361.335,-576.95,586.945,24.25,66.21,0
29,-367.265,20.965,813.24,-361.865,-577.235,587.025,24.562,66.21,0
29,-367.225,20.405,813.355,-361.305,-577.405,586.565,24.562,66.21,0
29,-366.17,19.975,813.72,-361.565,-577.445,587.005,24.25,66.21,0
29,-366.42,19.795,813.96,-361.365,-577.43,586.38,24.875,66.21,0
29,-366.995,20.235,813.29,-360.995,-576.755,587.015,24.562,66.21,0
30,-255.6,-241.42,817.69,-256.365,-761.455,400.32,24.875,66.21,-45
30,-255.705,-241.74,817.965,-256.47,-760.615,400.295,24.562,66.21,-45
30,-255.62,-242.085,817.815,-255.635,-761.555,400.695,24.875,66.21,-45
30,-255.355,-241.845,817.91,-256.3,-761.01,400.16,24.562,66.21,-45
30,-255.27,-241.81,817.84,-255.495,-761.2,399.935,24.562,66.21,-45
30,-255.565,-240.5,817.6,-256.405,-761.04,400.555,24.562,66.21,-45
30,-255.595,-240.705,818.57,-255.87,-761.695,400.53,24.562,66.21,-45
30,-255.625,-241.21,817.555,-256.3,-761.95,400.41,24.875,66.21,-45
30,-256,-241.635,817.39,-255.89,-761.385,400.64,24.562,66.21,-45
30,-256.195,-241.165,817.55,-255.975,-760.73,400.78,24.562,66.21,-45
31,10.915,-349.115,819.385,7.965,-840.75,318.98,24.25,66.21,-90
31,10.7,-349.06,819.35,7.975,-840.685,317.73,24.562,66.21,-90
31,10.805,-349.21,819.495,8.305,-840.49,318.16,24.562,66.21,-90
31,10.545,-348.5,819.765,7.755,-840.595,318.605,24.875,66.21,-90
31,10.745,-349.205,819.72,8.21,-840.365,317.87,24.562,66.21,-90
31,11.065,-348.785,819.865,8.115,-840.715,318.76,24.25,66.21,-90
31,10.645,-348.705,819.02,7.785,-840.395,317.78,24.562,66.21,-90
31,11.105,-349.235,819.44,7.99,-840.27,318.035,24.25,66.21,-90
31,11.31,-348.51,820.08,8.385,-840.58,318.74,24.562,66.21,-90
31,10.515,-348.4,819.795,7.99,-840.775,318.725,24.562,66.21,-90
32,274.44,-236.305,815.915,273.465,-763.42,388.995,24.562,66.21,-135
32,274.015,-236.435,815.505,273.345,-763.19,388.9,24.562,66.21,-135
32,274.615,-235.83,815.19,273.835,-763.28,389.42,24.562,66.21,-135
32,274.395,-236.25,815.455,273.125,-763.375,389.225,24.875,66.21,-135
32,274.15,-236.39,815.535,273.45,-762.835,388.89,24.562,66.21,-135
32,274.215,-236.8,816.045,273.4,-763.325,389.805,24.875,66.21,-135
32,273.895,-235.72,816.225,273.22,-763.455,389.225,24.562,66.21,-135
32,274.325,-236.89,816.28,273.995,-763.44,388.48,24.562,66.21,-135
32,273.865,-236.34,816.07,273.675,-763.06,388.53,24.562,66.21,-135
32,274.08,-235.91,816.09,273.32,-763.53,389.055,24.562,66.21,-135
33,63.595,27.84,888.09,69.835,-632.22,634.305,24.562,87.06,180
33,63.005,26.99,887.86,69.895,-632.22,633.895,24.875,87.06,180
33,63.095,27.73,888.24,69.475,-631.63,634.165,24.562,87.06,180
33,63.515,28.025,887.905,69.86,-632.14,634.69,24.25,87.06,180
33,63.485,27.445,888.565,70.295,-632.18,633.895,24.25,87.06,180
33,63.465,27.395,888.54,70.46,-631.8,634.665,24.562,87.06,180
33,63.765,27.83,888.075,69.895,-632.295,633.305,24.562,87.06,180
33,63.665,27.255,888.565,69.395,-632.07,634.485,24.562,87.06,180
33,63.475,28.655,888.535,69.225,-632.185,634.815,24.875,87.06,180
33,63.63,26.65,887.275,70.05,-631.78,634.025,24.25,87.06,180
34,44.825,66.04,888.075,52.625,-604.31,661.94,24.562,87.06,135
34,44.23,65.47,888.11,52.805,-604.825,663.245,24.562,87.06,135
34,45.225,66.645,888.48,53.405,-604.925,663.505,24.25,87.06,135
34,45.33,66.45,888.205,53.095,-604.8,662.85,24.562,87.06,135
34,44.925,66.725,888.13,52.795,-604.33,662.735,24.562,87.06,135
34,44.865,66.02,888.635,52.565,-604.325,663.69,24.562,87.06,135
34,45.195,65.995,888.64,52.99,-604.595,663.265,24.25,87.06,135
34,45.18,66.565,888.405,52.625,-604.87,662.45,24.562,87.06,135
34,44.585,66.435,889.035,53.285,-605.055,662.205,24.875,87.06,135
34,45.1,66.1,888.94,53.635,-605.045,662.71,24.562,87.06,135
35,4.94,81.64,887.565,13.28,-593.24,673.91,24.562,87.06,90
35,5.055,82.145,888.18,13.77,-593.505,674.18,24.562,87.06,90
35,5.46,82.49,887.13,13.68,-593.95,674.79,24.562,87.06,90
35,5.275,81.895,887.745,13.515,-593.345,674.56,24.562,87.06,90
35,5.54,82.095,887.825,13.105,-593.385,673.8,24.875,87.06,90
35,5.065,81.015,887.21,13.595,-593.21,673.88,24.562,87.06,90
35,4.96,81.74,888.105,13.305,-593.52,673.87,24.562,87.06,90
35,5.105,80.875,887.175,13.635,-593.495,673.86,24.562,87.06,90
35,5.435,80.645,887.56,12.835,-593.03,673.765,24.562,87.06,90
35,4.965,81.61,887.815,13.89,-593.52,674.11,24.562,87.06,90
36,-33.235,64.195,889.25,-27.21,-606.01,663.445,24.562,87.06,45
36,-33.55,63.52,889.235,-28.43,-606.41,663.355,24.562,87.06,45
36,-32.68,64.22,889.405,-27.37,-605.845,663.2,24.562,87.06,45
36,-33.805,65.19,889.455,-27.14,-605.39,663.075,24.562,87.06,45
36,-33.485,62.625,889.49,-27.495,-606.3,663.455,24.562,87.06,45
36,-34.055,64.2,889.2,-27.03,-606.18,663.48,24.562,87.06,45
36,-33.205,64.08,889.19,-26.805,-605.945,663.42,24.875,87.06,45
36,-33.73,63.64,889.5,-27.095,-606.465,663.03,24.562,87.06,45
36,-33.59,63.98,889.065,-27.415,-606.24,662.81,24.562,87.06,45
36,-33.825,64.12,889.465,-27.76,-605.73,663.095,24.875,87.06,45
37,-49.25,23.52,890.46,-41.54,-633.09,636.405,24.875,87.06,0
37,-49.275,23.465,890.24,-42.34,-633.14,635.805,24.875,87.06,0
37,-49.195,23.315,890.38,-42.405,-632.64,636.305,24.25,87.06,0
37,-49.11,22.975,890.45,-42.71,-633.385,635.945,24.562,87.06,0
37,-49.095,23.3,890.08,-42.465,-632.895,635.45,24.875,87.06,0
37,-48.87,23.085,890.38,-42.03,-632.955,636.25,24.562,87.06,0
37,-48.845,22.935,890.78,-42.395,-632.695,636.085,24.562,87.06,0
37,-48.9,23.51,889.93,-42.13,-633.36,635.1,24.562,87.06,0
37,-49.095,23.105,891.035,-42.515,-633.185,636.21,24.562,87.06,0
37,-48.94,23.48,890.4,-42.705,-632.84,635.275,24.562,87.06,0
38,-29.5,-16.375,890.46,-24.73,-661.35,608,24.562,87.06,-45
38,-29.835,-16.335,890.945,-24.335,-661.225,607.875,24.562,87.06,-45
38,-29.62,-15.865,890.89,-24.135,-661.095,608.175,24.875,87.06,-45
38,-29.8,-16.025,890.59,-25.335,-661.215,607.685,24.562,87.06,-45
38,-29.68,-16.905,891.085,-24.645,-660.94,607.925,24.875,87.06,-45
38,-29.445,-15.9,891.04,-24.47,-661.35,607.325,24.562,87.06,-45
38,-29.58,-16.85,890.17,-25,-661.38,607.3,24.562,87.06,-45
38,-29.135,-16.91,890.88,-24.465,-661.555,607.805,24.562,87.06,-45
38,-29.365,-16.155,890.86,-24.455,-661.435,607.27,24.562,87.06,-45
38,-29.725,-15.725,890.695,-23.785,-661.37,607.61,24.562,87.06,-45
39,9.375,-31.235,890.01,15.74,-672.215,597.345,24.562,87.06,-90
39,8.715,-31.58,890.345,17.01,-672.205,597.41,24.875,87.06,-90
39,9.325,-31.095,890.7,16.145,-672.285,596.905,24.562,87.06,-90
39,9.465,-31.54,890.435,16.02,-672.2,596.65,24.562,87.06,-90
39,9.38,-30.13,890.71,16.195,-671.605,596.985,24.562,87.06,-90
39,9.92,-29.89,890.85,16.105,-672.025,596.95,24.875,87.06,-90
39,9.32,-30.88,890.73,16.245,-671.785,597.415,24.562,87.06,-90
39,9.015,-30.51,890.365,16.175,-672,596.33,24.562,87.06,-90
39,9.25,-30.305,891.025,16.22,-672.2,596.415,24.875,87.06,-90
39,8.7,-30.92,890.485,16.395,-672.075,596.515,24.562,87.06,-90
40,48.985,-11.395,890.9,56.185,-659.16,606.6,24.875,87.06,-135
40,47.58,-13.42,890.165,54.77,-659.445,606.635,24.875,87.06,-135
40,47.805,-12.46,890.74,55.135,-659.605,606.78,24.875,87.06,-135
40,48.55,-12.615,890.645,55.07,-659.14,607.135,24.562,87.06,-135
40,47.965,-13.005,890.275,55.73,-659.25,607.22,24.562,87.06,-135
40,48.48,-12.415,890.255,54.81,-659.335,606.675,24.562,87.06,-135
40,48.18,-12.76,890.325,55.675,-659.4,606.74,24.875,87.06,-135
40,48.06,-12.39,889.88,54.735,-659.3,607.17,24.875,87.06,-135
40,47.85,-10.47,890.485,55.29,-659.525,606.69,24.875,87.06,-135
40,48.45,-12.595,890.485,55.76,-659.155,607.19,24.562,87.06,-135
