Temp Iter,Index,X Accel 1,Y Accel 1,Z Accel 1,X Accel 2,Y Accel 2,Z Accel2, Temp_6g,Temp,Theta,Phi,,,,,,
1.000,1.000,905.090,10.725,-18.465,899.945,3.360,-32.215,25.500,26.108,-0.775,180.000
1.000,1.000,904.030,11.300,-18.210,900.130,3.600,-31.705,25.500,26.108,-0.775,180.000
1.000,1.000,904.080,11.100,-19.575,899.515,3.430,-31.970,25.187,26.108,-0.775,180.000
1.000,1.000,904.330,10.990,-18.425,899.460,3.355,-31.570,25.500,26.108,-0.775,180.000
1.000,1.000,904.450,11.245,-18.775,899.505,3.940,-32.735,25.187,26.108,-0.775,180.000
1.000,1.000,904.550,10.570,-19.215,899.480,3.270,-32.010,25.500,26.108,-0.775,180.000
1.000,1.000,904.500,11.485,-18.310,900.025,4.000,-32.140,25.187,26.140,-0.775,180.000
1.000,1.000,903.440,11.395,-18.955,899.280,3.240,-31.410,25.500,26.108,-0.775,180.000
1.000,1.000,903.830,11.700,-19.400,900.200,3.330,-32.135,25.500,26.108,-0.775,180.000
1.000,1.000,903.655,11.350,-18.820,899.395,3.470,-32.190,25.500,26.108,-0.775,180.000
