Temp Iter,Index,X Accel 1,Y Accel 1,Z Accel 1,X Accel 2,Y Accel 2,Z Accel2, Temp_6g,Temp,Theta,Phi,,,,,,
0.000,1.000,902.220,75.105,-19.180,895.525,70.320,-24.395,25.812,26.514,-0.390,180.000
0.000,1.000,903.240,75.160,-18.270,896.495,70.980,-24.670,25.812,26.514,-0.390,180.000
0.000,1.000,903.230,75.420,-18.640,895.630,70.615,-24.965,25.812,26.514,-0.380,180.000
0.000,1.000,902.330,74.500,-19.045,896.270,70.685,-25.390,25.812,26.545,-0.390,180.000
0.000,1.000,902.735,76.500,-18.460,896.075,70.740,-25.085,25.500,26.514,-0.390,180.000
0.000,1.000,902.810,74.790,-18.340,895.345,70.310,-24.770,25.812,26.545,-0.390,180.000
0.000,1.000,903.085,74.730,-18.275,896.115,70.740,-24.950,26.125,26.545,-0.390,180.000
0.000,1.000,903.010,75.100,-18.965,896.410,71.100,-24.610,25.812,26.514,-0.390,180.000
0.000,1.000,902.725,75.380,-18.525,895.575,70.330,-24.810,26.125,26.514,-0.390,180.000
0.000,1.000,902.810,75.235,-18.590,895.970,70.725,-24.635,25.812,26.545,-0.390,180.000
0.000,2.000,640.195,701.845,-26.380,638.310,513.800,424.720,26.125,26.577,-0.390,135.000
0.000,2.000,639.900,703.705,-26.960,637.755,513.915,425.270,25.812,26.577,-0.390,135.000
0.000,2.000,640.820,702.365,-26.985,638.125,513.995,425.220,26.125,26.577,-0.390,135.000
0.000,2.000,640.845,702.095,-26.460,637.665,513.680,425.010,26.125,26.577,-0.390,135.000
0.000,2.000,641.025,703.915,-26.390,637.925,513.920,425.425,25.812,26.577,-0.390,135.000
0.000,2.000,639.945,702.480,-26.470,637.780,513.330,425.715,25.812,26.577,-0.390,135.000
0.000,2.000,640.990,702.985,-27.150,637.940,514.130,424.980,25.812,26.577,-0.390,135.000
0.000,2.000,641.095,702.595,-27.100,637.840,513.765,424.710,25.812,26.577,-0.390,135.000
0.000,2.000,640.680,702.465,-26.810,637.405,514.085,425.515,25.812,26.577,-0.390,135.000
0.000,2.000,640.100,703.085,-26.900,638.235,514.410,424.770,25.812,26.577,-0.390,135.000
0.000,3.000,-0.990,964.440,-22.875,7.470,688.140,627.635,25.812,26.639,-0.390,90.000
0.000,3.000,-0.345,964.320,-23.105,7.745,687.715,627.380,26.125,26.608,-0.390,90.000
0.000,3.000,-0.375,963.325,-23.085,7.740,687.800,627.745,25.812,26.639,-0.390,90.000
0.000,3.000,-0.085,964.095,-23.325,7.170,687.955,627.000,25.500,26.608,-0.390,90.000
0.000,3.000,-0.640,963.350,-23.515,7.845,688.040,627.855,25.812,26.639,-0.390,90.000
0.000,3.000,-1.110,963.960,-22.710,7.555,688.045,627.230,26.125,26.608,-0.390,90.000
0.000,3.000,-1.140,963.485,-22.915,7.970,688.365,627.095,25.812,26.639,-0.390,90.000
0.000,3.000,-0.815,962.700,-23.125,8.225,688.375,627.330,25.812,26.639,-0.390,90.000
0.000,3.000,-0.525,963.240,-22.820,7.365,688.230,626.675,25.812,26.639,-0.390,90.000
0.000,3.000,-0.660,963.625,-22.945,7.130,688.135,627.300,26.125,26.639,-0.390,90.000
0.000,4.000,-645.550,687.600,-9.360,-635.745,494.960,444.305,26.125,26.670,-0.390,45.000
0.000,4.000,-645.345,688.475,-9.050,-635.185,494.750,444.020,26.125,26.670,-0.390,45.000
0.000,4.000,-645.305,687.475,-9.515,-635.755,494.865,444.325,25.812,26.670,-0.390,45.000
0.000,4.000,-645.880,688.090,-9.085,-635.820,494.950,444.020,26.125,26.670,-0.390,45.000
0.000,4.000,-645.425,687.965,-9.190,-635.000,494.740,444.250,25.812,26.670,-0.390,45.000
0.000,4.000,-645.495,687.700,-8.415,-635.855,494.960,443.830,26.125,26.670,-0.390,45.000
0.000,4.000,-645.695,687.135,-9.565,-635.290,494.490,444.355,25.812,26.670,-0.390,45.000
0.000,4.000,-646.215,687.970,-9.825,-635.135,494.450,444.650,26.125,26.670,-0.390,45.000
0.000,4.000,-645.645,687.745,-9.195,-635.740,494.345,444.785,26.125,26.702,-0.390,45.000
0.000,4.000,-645.080,687.575,-9.040,-635.605,494.845,443.685,26.125,26.702,-0.390,45.000
0.000,5.000,-892.230,51.885,2.205,-893.995,43.070,1.800,26.125,26.702,-0.380,0.000
0.000,5.000,-892.025,52.030,3.840,-893.230,43.330,2.395,25.812,26.702,-0.390,0.000
0.000,5.000,-891.450,52.270,3.525,-893.830,43.630,1.515,26.125,26.733,-0.390,0.000
0.000,5.000,-892.260,51.455,2.880,-893.960,43.300,1.970,26.437,26.702,-0.390,0.000
0.000,5.000,-891.685,51.565,3.060,-893.775,43.295,2.250,26.125,26.702,-0.390,0.000
0.000,5.000,-892.045,52.270,3.355,-893.740,44.035,2.170,25.812,26.702,-0.390,0.000
0.000,5.000,-892.120,52.385,3.265,-893.540,43.900,1.625,26.125,26.702,-0.390,0.000
0.000,5.000,-892.505,52.125,3.185,-893.665,43.725,1.945,25.812,26.733,-0.390,0.000
0.000,5.000,-892.685,51.315,2.930,-893.620,43.700,2.060,26.125,26.733,-0.380,0.000
0.000,5.000,-892.000,51.215,3.315,-894.220,43.260,1.145,26.437,26.733,-0.390,0.000
0.000,6.000,-630.875,-575.260,12.950,-636.260,-398.215,-446.340,25.812,26.764,-0.390,-45.000
0.000,6.000,-631.040,-574.860,13.510,-636.035,-398.080,-446.530,25.812,26.764,-0.390,-45.000
0.000,6.000,-630.830,-575.290,12.920,-637.095,-398.170,-446.495,26.125,26.764,-0.380,-45.000
0.000,6.000,-630.295,-574.835,12.765,-636.955,-398.350,-446.005,26.125,26.764,-0.380,-45.000
0.000,6.000,-630.560,-575.060,13.325,-637.000,-398.630,-446.485,25.812,26.733,-0.390,-45.000
0.000,6.000,-630.515,-575.420,13.330,-636.535,-398.570,-445.345,26.125,26.764,-0.390,-45.000
0.000,6.000,-630.305,-575.090,13.020,-636.015,-398.305,-445.885,25.812,26.764,-0.390,-45.000
0.000,6.000,-630.445,-575.240,12.960,-636.345,-398.280,-446.360,25.812,26.764,-0.390,-45.000
0.000,6.000,-629.970,-575.015,12.965,-636.285,-397.855,-446.180,26.125,26.764,-0.390,-45.000
0.000,6.000,-630.255,-574.645,13.090,-637.085,-397.860,-446.215,26.125,26.764,-0.390,-45.000
0.000,7.000,9.360,-834.595,6.835,-5.280,-572.760,-651.840,26.437,26.795,-0.390,-90.000
0.000,7.000,9.300,-834.470,7.300,-5.305,-572.335,-651.390,26.125,26.764,-0.390,-90.000
0.000,7.000,9.315,-834.540,7.230,-5.290,-572.880,-651.040,26.437,26.795,-0.390,-90.000
0.000,7.000,9.515,-834.635,7.475,-5.435,-572.860,-651.450,26.437,26.795,-0.390,-90.000
0.000,7.000,9.675,-834.545,7.765,-5.360,-572.730,-651.015,26.125,26.795,-0.390,-90.000
0.000,7.000,9.385,-834.980,7.200,-5.450,-572.445,-651.610,26.125,26.795,-0.390,-90.000
0.000,7.000,9.175,-835.455,7.715,-5.115,-573.120,-651.475,26.125,26.795,-0.390,-90.000
0.000,7.000,9.990,-835.640,7.345,-5.685,-572.640,-651.540,26.125,26.827,-0.390,-90.000
0.000,7.000,9.290,-835.870,7.435,-5.570,-572.745,-651.750,26.437,26.795,-0.390,-90.000
0.000,7.000,9.635,-835.720,7.390,-4.860,-572.855,-651.055,26.125,26.827,-0.390,-90.000
0.000,8.000,656.340,-561.035,-5.570,641.085,-379.290,-466.845,25.812,26.827,-0.390,-135.000
0.000,8.000,656.535,-561.210,-5.870,640.755,-379.585,-465.950,26.125,26.827,-0.390,-135.000
0.000,8.000,656.815,-559.655,-6.125,641.010,-379.060,-466.315,25.812,26.827,-0.390,-135.000
0.000,8.000,655.945,-561.195,-6.150,640.080,-379.420,-466.960,26.125,26.827,-0.390,-135.000
0.000,8.000,656.590,-559.720,-5.990,640.220,-379.445,-466.765,26.125,26.827,-0.390,-135.000
0.000,8.000,656.430,-561.755,-4.960,639.960,-379.640,-466.760,26.125,26.827,-0.390,-135.000
0.000,8.000,656.275,-560.540,-5.835,641.055,-379.115,-466.545,26.125,26.827,-0.390,-135.000
0.000,8.000,656.265,-561.075,-6.655,640.240,-379.290,-466.065,26.437,26.858,-0.390,-135.000
0.000,8.000,656.495,-560.615,-5.465,640.780,-379.145,-466.520,25.812,26.827,-0.390,-135.000
0.000,8.000,656.800,-560.445,-6.225,640.775,-379.435,-466.225,26.125,26.827,-0.390,-135.000
0.000,9.000,815.795,81.450,385.600,812.910,-215.585,262.260,26.437,26.889,26.190,180.000
0.000,9.000,815.940,82.845,386.050,813.815,-216.000,261.800,26.437,26.889,26.200,180.000
0.000,9.000,815.870,82.085,385.660,813.255,-215.480,262.065,26.437,26.889,26.200,180.000
0.000,9.000,816.845,82.340,385.715,813.290,-215.665,261.670,25.812,26.920,26.200,180.000
0.000,9.000,815.870,82.315,386.010,813.570,-215.755,262.075,26.125,26.889,26.200,180.000
0.000,9.000,816.375,82.370,385.495,813.400,-215.320,262.190,26.125,26.920,26.200,180.000
0.000,9.000,816.015,82.255,385.535,813.690,-215.510,261.870,26.125,26.889,26.200,180.000
0.000,9.000,815.880,81.555,386.170,813.195,-215.625,262.270,26.125,26.889,26.200,180.000
0.000,9.000,816.725,81.610,385.685,813.355,-215.570,262.180,26.125,26.889,26.200,180.000
0.000,9.000,815.870,82.015,386.270,813.300,-215.440,262.010,26.437,26.889,26.200,180.000
0.000,10.000,573.460,648.000,374.925,583.110,181.770,660.510,26.125,26.920,26.200,135.000
0.000,10.000,574.455,648.250,374.940,582.975,181.740,660.995,26.125,26.920,26.200,135.000
0.000,10.000,573.860,648.540,375.155,583.375,181.600,660.320,26.125,26.920,26.200,135.000
0.000,10.000,573.625,648.235,375.360,582.985,181.570,660.490,26.437,26.920,26.200,135.000
0.000,10.000,573.895,648.260,374.805,582.925,181.850,660.920,26.125,26.920,26.200,135.000
0.000,10.000,574.065,648.225,375.130,582.595,181.950,660.630,26.125,26.920,26.200,135.000
0.000,10.000,574.035,648.025,374.925,583.440,181.635,660.825,26.125,26.951,26.200,135.000
0.000,10.000,574.240,648.230,375.430,583.130,181.700,660.845,26.437,26.951,26.200,135.000
0.000,10.000,574.710,648.075,374.710,582.795,181.785,660.950,26.125,26.920,26.210,135.000
0.000,10.000,574.570,648.720,375.335,582.875,181.655,660.990,26.125,26.951,26.210,135.000
0.000,11.000,5.695,876.975,381.240,14.290,344.145,836.655,26.125,26.951,26.200,90.000
0.000,11.000,5.570,876.275,382.200,13.610,344.290,836.570,26.437,26.951,26.200,90.000
0.000,11.000,6.320,876.810,381.750,14.465,344.255,836.560,26.437,26.951,26.200,90.000
0.000,11.000,5.680,877.465,381.600,14.435,344.150,836.355,26.125,26.951,26.210,90.000
0.000,11.000,6.275,877.490,381.600,14.260,344.330,835.710,26.437,26.951,26.200,90.000
0.000,11.000,5.205,876.750,381.670,13.780,344.335,836.520,26.125,26.951,26.200,90.000
0.000,11.000,6.075,876.010,381.800,14.290,344.325,836.385,26.125,26.983,26.200,90.000
0.000,11.000,5.170,876.510,382.395,13.955,344.425,837.040,26.437,26.951,26.200,90.000
0.000,11.000,6.060,877.545,382.120,14.840,343.705,835.915,26.437,26.983,26.200,90.000
0.000,11.000,5.305,876.845,381.045,13.980,344.345,836.085,26.437,26.983,26.200,90.000
0.000,12.000,-571.310,631.950,389.445,-567.620,165.555,676.125,26.437,26.983,26.200,45.000
0.000,12.000,-571.080,632.045,389.895,-567.590,165.815,676.135,26.125,26.983,26.200,45.000
0.000,12.000,-572.205,632.260,389.645,-567.895,165.785,675.395,26.437,26.983,26.200,45.000
0.000,12.000,-571.765,631.525,389.140,-567.985,165.640,675.345,26.125,26.983,26.200,45.000
0.000,12.000,-571.100,631.130,389.925,-567.395,165.410,674.810,26.125,26.983,26.200,45.000
0.000,12.000,-571.615,631.605,389.500,-567.915,165.455,675.640,26.437,26.983,26.200,45.000
0.000,12.000,-571.820,632.130,389.520,-567.875,166.120,675.000,26.437,26.983,26.200,45.000
0.000,12.000,-571.110,631.540,390.045,-568.145,165.950,675.765,26.125,27.014,26.210,45.000
0.000,12.000,-571.405,631.570,389.955,-567.940,165.565,675.240,26.437,26.983,26.200,45.000
0.000,12.000,-571.455,631.540,390.085,-567.720,165.350,675.085,26.437,26.983,26.200,45.000
0.000,13.000,-792.025,59.700,407.020,-797.335,-237.390,279.125,26.437,27.014,26.200,0.000
0.000,13.000,-792.140,60.440,406.535,-797.960,-237.450,278.935,26.437,27.014,26.200,0.000
0.000,13.000,-792.450,60.225,406.560,-797.850,-237.180,278.895,26.437,27.014,26.210,0.000
0.000,13.000,-792.315,59.895,406.630,-797.715,-237.330,279.260,26.125,27.014,26.210,0.000
0.000,13.000,-792.190,60.355,406.470,-798.465,-237.010,279.525,26.125,27.014,26.200,0.000
0.000,13.000,-793.055,60.175,406.385,-797.900,-237.175,279.375,26.437,27.014,26.210,0.000
0.000,13.000,-792.840,60.790,406.895,-797.980,-237.310,279.505,26.125,27.045,26.210,0.000
0.000,13.000,-792.425,60.495,407.095,-798.865,-237.230,278.985,26.125,27.045,26.200,0.000
0.000,13.000,-792.700,60.045,406.525,-797.810,-236.995,279.790,26.437,27.045,26.200,0.000
0.000,13.000,-793.480,59.705,406.465,-798.490,-237.145,278.960,26.437,27.045,26.210,0.000
0.000,14.000,-556.510,-506.400,410.820,-567.280,-633.235,-123.170,26.125,27.045,26.200,-45.000
0.000,14.000,-555.875,-506.230,409.655,-566.280,-632.780,-123.255,26.437,27.045,26.200,-45.000
0.000,14.000,-555.870,-506.200,410.240,-566.370,-632.950,-123.530,26.125,27.045,26.210,-45.000
0.000,14.000,-555.315,-506.090,410.325,-566.275,-633.240,-124.040,26.437,27.045,26.210,-45.000
0.000,14.000,-555.535,-505.725,410.445,-566.095,-633.055,-123.290,26.750,27.045,26.210,-45.000
0.000,14.000,-556.130,-506.515,409.660,-566.390,-632.915,-123.715,26.750,27.076,26.200,-45.000
0.000,14.000,-555.870,-506.320,410.080,-566.910,-632.915,-123.020,26.750,27.045,26.200,-45.000
0.000,14.000,-555.735,-505.765,410.310,-566.470,-632.915,-123.470,26.437,27.076,26.200,-45.000
0.000,14.000,-555.980,-506.130,410.165,-566.285,-632.835,-122.680,26.437,27.076,26.200,-45.000
0.000,14.000,-555.355,-505.825,410.610,-566.175,-633.120,-123.090,26.125,27.076,26.210,-45.000
0.000,15.000,15.695,-735.045,409.840,5.070,-794.540,-301.855,26.437,27.076,26.210,-90.000
0.000,15.000,15.105,-734.565,409.700,5.545,-794.410,-301.765,26.437,27.076,26.210,-90.000
0.000,15.000,15.495,-735.375,409.910,4.850,-794.670,-302.450,26.437,27.108,26.210,-90.000
0.000,15.000,15.270,-735.670,409.875,4.605,-794.470,-302.735,26.437,27.108,26.210,-90.000
0.000,15.000,15.030,-734.895,409.445,4.915,-794.805,-302.880,26.437,27.076,26.210,-90.000
0.000,15.000,15.155,-735.180,409.835,4.870,-794.620,-301.995,26.437,27.076,26.210,-90.000
0.000,15.000,14.990,-734.395,409.690,4.975,-794.560,-301.740,26.125,27.076,26.210,-90.000
0.000,15.000,15.235,-734.535,409.810,5.005,-794.015,-301.865,26.750,27.108,26.210,-90.000
0.000,15.000,14.695,-736.015,410.000,4.245,-794.445,-302.895,26.437,27.108,26.210,-90.000
0.000,15.000,15.095,-734.955,410.205,5.115,-794.560,-302.120,26.437,27.076,26.210,-90.000
0.000,16.000,590.365,-489.100,392.570,589.490,-614.870,-139.500,26.125,27.139,26.200,-135.000
0.000,16.000,591.220,-489.040,392.690,589.245,-615.350,-140.025,26.437,27.108,26.200,-135.000
0.000,16.000,591.090,-489.770,392.465,589.230,-615.305,-140.235,26.125,27.108,26.210,-135.000
0.000,16.000,591.030,-489.430,392.515,588.880,-615.420,-140.635,26.437,27.108,26.210,-135.000
0.000,16.000,590.870,-489.815,391.965,589.035,-615.380,-140.570,26.437,27.108,26.210,-135.000
0.000,16.000,590.445,-490.010,392.230,589.165,-615.010,-140.345,26.437,27.108,26.200,-135.000
0.000,16.000,591.040,-490.235,392.315,588.865,-615.825,-140.505,26.437,27.139,26.200,-135.000
0.000,16.000,590.780,-489.890,391.910,588.775,-615.250,-139.940,26.125,27.108,26.200,-135.000
0.000,16.000,590.655,-489.430,392.805,589.445,-615.265,-139.975,26.437,27.108,26.210,-135.000
0.000,16.000,591.180,-489.545,392.520,589.590,-615.195,-140.030,26.750,27.139,26.210,-135.000
0.000,17.000,637.220,82.330,636.940,637.685,-394.390,438.285,26.437,27.139,177.322,180.000
0.000,17.000,637.660,81.700,637.655,637.080,-394.420,438.115,26.750,27.170,177.322,180.000
0.000,17.000,637.060,81.755,637.985,637.850,-394.820,437.635,26.437,27.170,177.322,180.000
0.000,17.000,637.350,81.720,637.800,637.500,-394.710,437.550,26.437,27.170,177.322,180.000
0.000,17.000,637.525,82.270,637.415,637.585,-394.250,437.340,26.437,27.170,177.322,180.000
0.000,17.000,637.380,81.645,637.635,638.295,-394.500,437.570,26.125,27.170,177.322,180.000
0.000,17.000,637.635,81.650,637.455,638.270,-394.875,438.220,26.437,27.170,177.322,180.000
0.000,17.000,637.090,81.500,637.545,637.275,-394.270,437.810,26.437,27.139,177.322,180.000
0.000,17.000,636.880,82.100,638.005,637.545,-394.360,437.865,26.437,27.170,177.322,180.000
0.000,17.000,637.010,81.660,636.955,637.630,-394.520,437.865,26.437,27.170,177.322,180.000
0.000,18.000,447.605,519.850,633.835,453.805,-85.520,751.630,26.437,27.170,177.333,135.000
0.000,18.000,447.440,519.235,633.970,454.030,-85.630,751.510,26.437,27.170,177.333,135.000
0.000,18.000,447.680,519.745,633.920,453.770,-85.555,751.595,26.437,27.170,177.322,135.000
0.000,18.000,448.000,520.370,633.695,454.400,-85.360,751.595,26.750,27.170,177.322,135.000
0.000,18.000,447.855,519.405,634.355,454.530,-85.600,751.175,26.437,27.201,177.333,135.000
0.000,18.000,447.340,519.425,634.685,454.220,-86.145,751.865,26.437,27.201,177.333,135.000
0.000,18.000,447.595,520.500,633.865,454.255,-85.615,752.310,26.437,27.170,177.333,135.000
0.000,18.000,447.340,520.035,633.470,454.130,-85.165,751.530,26.437,27.201,-495.103,135.000
0.000,18.000,447.345,519.955,634.175,454.195,-85.515,751.670,26.437,27.201,177.333,135.000
0.000,18.000,447.815,520.235,633.740,454.205,-85.505,751.430,26.750,27.201,177.333,135.000
0.000,19.000,8.455,695.905,638.000,17.025,32.685,881.690,26.437,27.201,177.333,90.000
0.000,19.000,8.375,695.270,639.190,16.990,31.490,882.510,26.437,27.201,177.333,90.000
0.000,19.000,8.200,696.160,638.370,17.260,32.205,881.985,26.437,27.201,177.333,90.000
0.000,19.000,8.960,695.255,638.500,17.505,32.235,882.550,26.750,27.201,177.333,90.000
0.000,19.000,8.100,695.860,639.055,17.905,32.270,882.360,26.750,27.201,177.333,90.000
0.000,19.000,8.195,695.655,638.955,17.415,32.430,882.155,26.437,27.233,177.333,90.000
0.000,19.000,8.965,695.755,638.365,17.150,32.310,882.155,26.437,27.201,177.333,90.000
0.000,19.000,7.840,695.310,639.280,17.075,32.285,882.200,26.437,27.233,177.333,90.000
0.000,19.000,8.775,695.175,638.805,16.905,32.205,882.240,26.750,27.201,177.322,90.000
0.000,19.000,8.285,694.815,638.355,17.340,32.310,881.855,26.437,27.201,177.333,90.000
0.000,20.000,-433.775,507.400,641.255,-432.305,-103.310,758.400,27.062,27.233,177.333,45.000
0.000,20.000,-433.575,507.440,641.145,-432.215,-103.195,758.470,26.750,27.264,177.322,45.000
0.000,20.000,-432.760,507.625,642.240,-432.015,-103.565,758.970,26.750,27.233,177.333,45.000
0.000,20.000,-433.345,508.110,642.255,-431.965,-103.345,758.185,26.750,27.233,177.333,45.000
0.000,20.000,-433.685,508.295,641.475,-432.300,-103.260,758.925,26.750,27.233,177.333,45.000
0.000,20.000,-433.845,507.595,641.895,-431.555,-103.585,758.945,26.750,27.233,177.333,45.000
0.000,20.000,-433.100,508.075,642.055,-432.580,-103.705,759.105,26.750,27.233,177.333,45.000
0.000,20.000,-433.355,508.040,642.120,-432.660,-103.210,758.825,26.437,27.233,177.333,45.000
0.000,20.000,-434.005,508.085,641.125,-431.955,-103.235,758.690,26.437,27.233,177.333,45.000
0.000,20.000,-433.365,508.165,641.805,-431.760,-103.335,758.925,26.437,27.233,177.333,45.000
0.000,21.000,-614.515,68.370,648.675,-608.390,-414.715,454.480,26.437,27.264,177.322,0.000
0.000,21.000,-614.210,67.465,648.495,-608.545,-414.485,453.555,26.750,27.264,177.342,0.000
0.000,21.000,-614.170,68.050,647.805,-608.905,-414.790,454.200,26.750,27.264,177.333,0.000
0.000,21.000,-614.145,68.595,647.945,-607.550,-414.415,454.150,26.750,27.233,177.333,0.000
0.000,21.000,-614.680,68.410,648.150,-608.265,-414.465,454.400,26.437,27.264,177.333,0.000
0.000,21.000,-614.370,68.575,647.835,-608.800,-414.890,454.920,26.437,27.264,177.322,0.000
0.000,21.000,-614.645,68.115,648.395,-608.070,-414.620,454.790,26.437,27.264,177.333,0.000
0.000,21.000,-614.095,67.785,648.765,-608.170,-414.905,454.355,26.750,27.264,177.333,0.000
0.000,21.000,-614.270,68.060,648.110,-608.145,-414.905,453.970,26.750,27.264,177.333,0.000
0.000,21.000,-613.760,67.975,649.105,-608.000,-414.720,454.785,26.750,27.264,177.333,0.000
0.000,22.000,-419.910,-369.130,658.360,-428.255,-719.265,144.990,26.437,27.295,177.333,-45.000
0.000,22.000,-420.410,-369.315,658.505,-428.655,-719.090,144.740,26.750,27.295,177.333,-45.000
0.000,22.000,-420.425,-368.780,658.495,-428.540,-718.840,145.285,27.062,27.264,177.333,-45.000
0.000,22.000,-420.065,-369.855,658.900,-427.660,-719.365,144.790,26.750,27.295,177.342,-45.000
0.000,22.000,-420.315,-368.440,657.930,-428.330,-718.980,144.890,26.750,27.264,177.333,-45.000
0.000,22.000,-419.870,-369.320,657.850,-428.155,-719.060,144.930,26.437,27.295,177.333,-45.000
0.000,22.000,-419.535,-369.410,657.925,-427.935,-719.290,144.945,26.750,27.264,177.333,-45.000
0.000,22.000,-419.810,-369.560,658.010,-427.885,-719.400,145.610,26.437,27.264,177.333,-45.000
0.000,22.000,-420.465,-368.875,658.210,-428.180,-719.000,144.590,26.750,27.295,177.333,-45.000
0.000,22.000,-420.430,-369.315,658.425,-427.700,-719.435,144.890,26.437,27.264,177.333,-45.000
0.000,23.000,18.640,-548.610,653.700,13.480,-843.545,8.845,26.750,27.295,177.333,-90.000
0.000,23.000,18.410,-549.395,653.770,13.415,-843.100,9.545,26.437,27.295,177.333,-90.000
0.000,23.000,19.030,-548.695,653.400,13.005,-843.285,8.545,26.750,27.295,177.333,-90.000
0.000,23.000,18.600,-548.925,653.775,13.750,-843.295,8.925,26.437,27.295,177.333,-90.000
0.000,23.000,19.050,-548.570,653.940,13.370,-843.170,9.310,26.750,27.295,177.333,-90.000
0.000,23.000,18.620,-549.245,653.875,12.640,-842.715,9.030,26.437,27.295,177.333,-90.000
0.000,23.000,18.665,-548.660,653.545,13.125,-843.215,9.285,26.750,27.295,177.333,-90.000
0.000,23.000,18.610,-549.005,654.025,12.910,-843.330,9.635,26.750,27.326,177.333,-90.000
0.000,23.000,18.575,-549.255,653.990,13.255,-843.515,8.595,26.750,27.295,177.333,-90.000
0.000,23.000,18.275,-548.615,653.775,13.490,-843.205,9.335,27.062,27.326,177.333,-90.000
0.000,24.000,461.405,-354.665,645.650,463.510,-703.640,132.785,26.750,27.326,177.333,-135.000
0.000,24.000,461.325,-354.590,645.875,463.480,-703.665,133.055,26.750,27.326,177.333,-135.000
0.000,24.000,460.970,-355.635,646.025,463.620,-703.985,132.605,26.750,27.326,177.333,-135.000
0.000,24.000,461.320,-354.505,645.975,463.745,-703.575,133.205,26.437,27.326,177.333,-135.000
0.000,24.000,461.600,-354.035,645.585,463.990,-703.620,132.665,26.750,27.326,177.333,-135.000
0.000,24.000,461.550,-354.735,645.885,463.495,-703.640,132.650,26.750,27.326,177.333,-135.000
0.000,24.000,461.315,-354.020,646.100,463.780,-703.650,133.125,26.437,27.326,177.333,-135.000
0.000,24.000,460.855,-354.910,645.370,463.605,-703.680,132.970,26.437,27.326,177.322,-135.000
0.000,24.000,461.660,-354.620,646.000,463.600,-704.040,132.990,27.062,27.326,177.333,-135.000
0.000,24.000,461.430,-354.480,646.180,463.630,-703.695,132.975,26.750,27.326,177.333,-135.000
0.000,25.000,383.090,85.855,809.170,380.680,-520.225,565.085,26.750,27.357,66.240,180.000
0.000,25.000,383.070,86.080,809.215,381.270,-520.270,564.845,26.437,27.357,66.240,180.000
0.000,25.000,383.015,85.675,809.115,381.510,-520.190,564.845,26.750,27.357,66.240,180.000
0.000,25.000,382.450,85.855,808.715,380.940,-520.210,563.940,26.750,27.357,66.240,180.000
0.000,25.000,383.390,85.450,808.845,381.295,-520.315,564.790,27.062,27.357,66.240,180.000
0.000,25.000,383.445,85.420,808.690,381.140,-520.040,565.815,26.437,27.357,66.240,180.000
0.000,25.000,382.860,86.115,808.740,380.985,-520.375,565.215,26.750,27.357,66.240,180.000
0.000,25.000,383.670,85.910,808.880,380.060,-520.370,565.450,26.437,27.357,66.240,180.000
0.000,25.000,383.535,86.115,808.605,381.560,-520.430,564.725,26.750,27.357,66.240,180.000
0.000,25.000,383.600,85.685,809.070,380.215,-519.885,564.635,26.437,27.357,66.240,180.000
0.000,26.000,269.170,338.745,809.640,273.750,-342.615,747.825,26.750,27.389,66.240,135.000
0.000,26.000,268.170,339.900,810.240,274.030,-342.130,748.325,26.437,27.389,66.240,135.000
0.000,26.000,269.190,339.425,810.300,273.850,-342.525,748.650,26.750,27.389,66.250,135.000
0.000,26.000,269.110,340.185,810.525,273.270,-342.370,747.825,26.750,27.357,66.250,135.000
0.000,26.000,269.075,340.290,810.785,273.210,-342.235,748.505,26.750,27.357,66.250,135.000
0.000,26.000,268.695,340.305,810.610,273.700,-342.545,748.130,26.750,27.389,66.240,135.000
0.000,26.000,268.635,339.740,809.895,273.080,-342.050,747.845,26.437,27.389,66.240,135.000
0.000,26.000,268.880,340.335,810.600,273.900,-342.125,748.555,26.750,27.357,66.240,135.000
0.000,26.000,268.460,340.065,810.185,274.020,-342.595,747.965,26.437,27.389,66.240,135.000
0.000,26.000,269.185,339.835,810.555,273.745,-342.570,747.920,26.437,27.389,66.250,135.000
0.000,27.000,12.035,445.305,807.845,19.630,-273.955,821.310,26.750,27.389,66.250,90.000
0.000,27.000,11.630,444.625,807.865,20.045,-274.440,822.365,26.750,27.389,66.250,90.000
0.000,27.000,12.125,445.945,807.355,19.580,-274.180,821.770,27.062,27.389,66.250,90.000
0.000,27.000,11.325,444.590,807.050,20.410,-273.690,822.105,26.750,27.420,66.250,90.000
0.000,27.000,12.280,445.315,806.985,19.650,-274.040,821.950,26.750,27.389,66.240,90.000
0.000,27.000,12.020,445.290,807.505,20.450,-274.345,822.210,26.437,27.420,66.240,90.000
0.000,27.000,11.605,445.075,807.485,19.170,-273.810,822.035,27.062,27.389,66.250,90.000
0.000,27.000,11.800,445.340,807.325,19.805,-274.775,821.805,26.750,27.389,66.250,90.000
0.000,27.000,12.400,445.190,807.350,20.130,-274.330,821.690,26.750,27.389,66.250,90.000
0.000,27.000,11.300,444.975,807.685,19.740,-274.065,822.175,26.437,27.420,66.250,90.000
0.000,28.000,-248.735,332.485,813.410,-241.840,-355.580,748.995,26.750,27.420,66.240,45.000
0.000,28.000,-248.800,333.375,813.600,-242.020,-355.590,747.605,26.750,27.420,66.250,45.000
0.000,28.000,-248.660,333.250,814.310,-242.180,-355.955,748.225,26.750,27.420,66.250,45.000
0.000,28.000,-248.060,332.970,814.170,-242.365,-355.830,748.125,26.750,27.420,66.240,45.000
0.000,28.000,-248.550,332.610,813.640,-242.200,-355.515,748.535,26.750,27.420,66.250,45.000
0.000,28.000,-247.715,333.160,814.470,-241.805,-355.540,748.335,26.750,27.420,66.240,45.000
0.000,28.000,-248.080,332.930,814.010,-241.435,-355.520,747.960,26.750,27.420,66.240,45.000
0.000,28.000,-248.520,333.710,813.865,-241.420,-355.540,748.245,26.750,27.389,66.240,45.000
0.000,28.000,-248.350,333.260,813.785,-242.330,-355.265,748.095,26.750,27.420,66.240,45.000
0.000,28.000,-248.495,333.125,813.725,-241.845,-355.910,748.815,26.750,27.420,66.250,45.000
0.000,29.000,-350.820,73.310,820.240,-347.885,-531.035,578.150,26.750,27.420,66.250,0.000
0.000,29.000,-350.935,73.295,819.420,-348.195,-531.025,578.565,26.750,27.420,66.250,0.000
0.000,29.000,-350.795,72.805,819.695,-347.750,-531.075,578.580,26.750,27.420,66.250,0.000
0.000,29.000,-350.400,72.670,819.955,-347.390,-531.165,579.145,26.750,27.420,66.260,0.000
0.000,29.000,-351.125,73.790,819.210,-348.110,-530.935,578.860,26.750,27.451,66.260,0.000
0.000,29.000,-351.365,73.400,819.665,-348.150,-530.905,578.525,26.750,27.420,66.250,0.000
0.000,29.000,-350.870,73.130,819.875,-349.185,-531.235,578.075,26.750,27.451,66.250,0.000
0.000,29.000,-350.955,73.465,820.415,-348.310,-531.035,578.665,26.750,27.451,66.250,0.000
0.000,29.000,-351.395,73.435,820.115,-347.750,-530.660,578.785,27.062,27.451,66.250,0.000
0.000,29.000,-351.130,73.100,819.895,-348.315,-531.095,578.220,27.062,27.451,66.250,0.000
0.000,30.000,-240.120,-183.800,821.795,-240.075,-708.925,395.770,27.375,27.451,66.250,-45.000
0.000,30.000,-240.045,-183.360,821.125,-240.555,-709.065,395.720,27.062,27.451,66.250,-45.000
0.000,30.000,-239.940,-182.730,822.830,-240.295,-709.045,395.380,26.750,27.451,66.250,-45.000
0.000,30.000,-240.160,-183.110,821.865,-241.030,-709.055,395.200,27.375,27.451,66.250,-45.000
0.000,30.000,-239.945,-182.685,822.365,-239.455,-709.220,395.675,26.750,27.451,66.260,-45.000
0.000,30.000,-239.885,-183.440,822.175,-239.725,-709.475,395.540,26.437,27.451,66.260,-45.000
0.000,30.000,-240.415,-183.320,822.540,-239.665,-708.915,395.375,26.750,27.451,66.250,-45.000
0.000,30.000,-240.500,-182.760,821.910,-240.985,-709.595,396.035,26.750,27.451,66.250,-45.000
0.000,30.000,-239.920,-182.595,822.110,-240.385,-709.065,395.525,26.750,27.451,66.250,-45.000
0.000,30.000,-239.855,-183.195,822.210,-240.195,-709.285,395.840,26.437,27.451,66.250,-45.000
0.000,31.000,19.570,-287.465,821.030,18.375,-781.500,316.010,26.750,27.451,66.250,-90.000
0.000,31.000,19.145,-286.750,821.050,18.835,-782.170,316.520,27.062,27.482,66.250,-90.000
0.000,31.000,19.310,-286.315,821.125,19.205,-782.680,316.080,27.062,27.451,66.250,-90.000
0.000,31.000,19.545,-286.690,820.845,19.045,-782.125,315.970,26.750,27.482,66.240,-90.000
0.000,31.000,19.460,-286.645,820.810,19.595,-782.320,316.480,26.750,27.482,66.250,-90.000
0.000,31.000,19.115,-286.550,821.235,19.360,-782.050,316.740,26.750,27.482,66.250,-90.000
0.000,31.000,19.840,-287.190,820.950,19.455,-782.250,316.495,27.062,27.482,66.250,-90.000
0.000,31.000,19.440,-287.060,820.865,19.305,-781.935,316.090,27.062,27.482,66.250,-90.000
0.000,31.000,19.450,-287.075,821.315,18.925,-782.250,315.985,27.062,27.482,66.250,-90.000
0.000,31.000,19.110,-286.395,820.355,19.085,-781.835,316.460,27.062,27.482,66.250,-90.000
0.000,32.000,280.795,-174.610,815.940,280.655,-700.765,389.290,27.062,27.482,66.250,-135.000
0.000,32.000,281.170,-174.620,815.120,280.600,-700.860,388.885,26.750,27.482,66.250,-135.000
0.000,32.000,280.485,-174.840,815.890,280.550,-701.045,389.175,26.437,27.482,66.250,-135.000
0.000,32.000,281.475,-174.515,815.630,281.535,-700.540,388.610,27.062,27.482,66.250,-135.000
0.000,32.000,280.755,-173.315,815.125,280.825,-700.850,388.535,26.750,27.482,66.250,-135.000
0.000,32.000,280.880,-173.575,816.110,280.365,-700.570,389.335,26.750,27.482,66.250,-135.000
0.000,32.000,280.845,-173.910,815.160,280.855,-700.835,389.540,26.750,27.482,66.250,-135.000
0.000,32.000,280.530,-174.260,815.985,280.810,-700.530,389.130,27.062,27.482,66.250,-135.000
0.000,32.000,280.495,-174.540,815.445,280.800,-700.950,389.225,26.750,27.482,66.250,-135.000
0.000,32.000,281.320,-173.570,815.465,280.585,-700.675,389.770,26.750,27.482,66.250,-135.000
0.000,33.000,52.140,83.695,888.450,57.160,-575.995,628.800,26.750,27.514,87.900,180.000
0.000,33.000,52.885,83.560,888.885,57.145,-575.740,629.205,27.062,27.514,87.890,180.000
0.000,33.000,53.225,84.305,888.890,56.680,-576.275,628.795,27.062,27.514,87.890,180.000
0.000,33.000,52.855,84.200,888.520,57.335,-576.035,629.220,26.750,27.514,87.890,180.000
0.000,33.000,52.755,83.825,888.785,57.310,-575.695,628.585,26.750,27.514,87.890,180.000
0.000,33.000,52.740,83.365,889.395,57.300,-575.910,628.930,26.750,27.514,87.890,180.000
0.000,33.000,52.455,83.635,888.700,56.560,-575.545,628.740,27.062,27.514,87.890,180.000
0.000,33.000,52.605,83.330,888.230,57.110,-575.935,628.765,26.750,27.514,87.900,180.000
0.000,33.000,52.915,83.975,888.200,57.815,-575.780,628.650,26.750,27.514,87.900,180.000
0.000,33.000,53.020,84.175,888.855,57.370,-575.680,628.730,26.750,27.514,87.900,180.000
0.000,34.000,40.590,107.310,888.680,46.130,-559.245,645.695,26.750,27.545,87.900,135.000
0.000,34.000,41.260,107.365,888.435,45.575,-559.580,645.335,26.750,27.514,87.900,135.000
0.000,34.000,40.695,107.285,888.635,45.930,-559.810,645.685,27.062,27.545,87.900,135.000
0.000,34.000,40.500,107.480,888.685,45.215,-559.410,646.305,26.750,27.514,87.900,135.000
0.000,34.000,40.545,107.260,888.960,45.310,-559.550,645.585,26.750,27.545,87.900,135.000
0.000,34.000,40.630,107.490,888.610,45.930,-559.490,645.845,26.750,27.514,87.900,135.000
0.000,34.000,40.610,107.065,888.525,45.305,-559.375,645.290,27.062,27.514,87.900,135.000
0.000,34.000,40.540,107.040,888.875,45.540,-559.120,645.845,27.062,27.514,87.900,135.000
0.000,34.000,40.500,106.855,889.035,45.550,-559.460,645.315,27.062,27.545,87.900,135.000
0.000,34.000,40.040,107.575,888.650,45.365,-559.140,645.785,26.750,27.545,87.900,135.000
0.000,35.000,14.490,116.825,889.405,20.200,-553.225,653.320,26.750,27.545,87.900,90.000
0.000,35.000,14.165,116.690,889.545,19.110,-553.145,653.230,26.750,27.545,87.900,90.000
0.000,35.000,14.180,116.370,889.165,19.255,-553.010,653.220,27.375,27.545,87.910,90.000
0.000,35.000,14.950,116.150,889.300,19.495,-553.445,653.880,27.062,27.545,87.900,90.000
0.000,35.000,15.165,116.675,889.355,19.485,-553.325,653.065,27.062,27.545,87.900,90.000
0.000,35.000,15.025,116.565,889.160,19.750,-553.440,652.930,27.062,27.545,87.900,90.000
0.000,35.000,14.720,116.860,889.600,20.105,-553.045,653.485,27.062,27.545,87.900,90.000
0.000,35.000,14.350,116.725,889.295,19.530,-553.045,652.885,26.750,27.576,87.900,90.000
0.000,35.000,14.385,116.940,889.300,19.300,-553.185,653.395,27.062,27.576,87.900,90.000
0.000,35.000,14.805,116.435,889.905,19.910,-553.080,653.665,27.062,27.545,87.900,90.000
0.000,36.000,-9.365,104.295,891.155,-5.945,-562.015,646.445,27.062,27.576,87.900,45.000
0.000,36.000,-10.055,104.760,890.710,-5.345,-561.425,646.640,26.750,27.545,87.900,45.000
0.000,36.000,-8.835,104.085,891.205,-5.950,-561.525,645.820,26.437,27.576,87.900,45.000
0.000,36.000,-9.835,103.890,891.290,-5.830,-561.760,645.825,26.750,27.545,87.900,45.000
0.000,36.000,-9.610,104.580,890.720,-5.920,-561.890,645.485,27.062,27.545,87.900,45.000
0.000,36.000,-9.005,104.910,890.310,-6.310,-562.185,645.725,27.062,27.545,87.910,45.000
0.000,36.000,-9.805,104.525,889.920,-5.580,-561.935,645.615,27.062,27.545,87.900,45.000
0.000,36.000,-10.050,105.165,890.425,-5.915,-561.335,646.315,27.062,27.576,87.900,45.000
0.000,36.000,-9.635,105.285,890.910,-5.515,-561.695,645.730,27.062,27.576,87.900,45.000
0.000,36.000,-10.020,104.875,890.340,-6.220,-561.955,645.460,26.750,27.576,87.900,45.000
0.000,37.000,-17.755,77.465,891.235,-13.425,-579.630,628.085,26.750,27.576,87.900,0.000
0.000,37.000,-17.670,77.480,891.425,-13.300,-579.685,627.580,26.750,27.576,87.900,0.000
0.000,37.000,-18.155,77.220,891.795,-14.440,-579.310,627.710,27.062,27.576,87.900,0.000
0.000,37.000,-17.390,76.985,891.195,-13.570,-579.720,627.325,27.062,27.576,87.910,0.000
0.000,37.000,-18.350,78.565,891.685,-13.715,-579.580,627.310,26.750,27.576,87.910,0.000
0.000,37.000,-17.625,77.945,891.575,-14.370,-579.685,627.190,27.062,27.576,87.900,0.000
0.000,37.000,-18.105,77.670,891.760,-14.425,-579.545,627.665,27.062,27.576,87.900,0.000
0.000,37.000,-17.455,77.510,891.230,-13.740,-579.305,627.775,27.062,27.576,87.900,0.000
0.000,37.000,-17.510,77.640,890.845,-14.315,-578.945,627.790,26.750,27.545,87.900,0.000
0.000,37.000,-18.375,78.265,891.555,-13.365,-579.740,627.975,27.062,27.576,87.910,0.000
0.000,38.000,-5.360,53.385,890.605,-1.005,-596.890,610.530,27.062,27.607,87.900,-45.000
0.000,38.000,-5.400,53.225,890.695,-1.875,-596.885,611.080,27.062,27.576,87.900,-45.000
0.000,38.000,-6.320,53.545,890.805,-0.955,-596.980,610.515,26.750,27.576,87.900,-45.000
0.000,38.000,-5.945,53.600,891.205,-0.940,-597.030,610.565,26.750,27.576,87.900,-45.000
0.000,38.000,-5.730,54.370,891.030,-1.050,-596.885,611.325,27.062,27.607,87.900,-45.000
0.000,38.000,-5.500,53.265,891.730,-1.295,-596.835,610.705,27.062,27.607,87.900,-45.000
0.000,38.000,-6.040,53.730,891.110,-1.320,-596.855,610.610,27.062,27.607,87.900,-45.000
0.000,38.000,-5.420,53.695,891.100,-0.815,-597.020,610.725,27.062,27.607,87.900,-45.000
0.000,38.000,-6.180,53.690,890.910,-2.170,-596.945,610.550,27.062,27.576,87.900,-45.000
0.000,38.000,-5.975,52.885,890.985,-0.915,-596.725,610.975,26.750,27.607,87.910,-45.000
0.000,39.000,19.140,45.365,891.480,24.115,-602.130,604.120,26.750,27.607,87.900,-90.000
0.000,39.000,18.235,45.600,890.480,23.645,-602.585,604.575,27.062,27.607,87.900,-90.000
0.000,39.000,18.395,45.505,891.215,23.755,-602.470,604.205,26.750,27.607,87.900,-90.000
0.000,39.000,18.380,45.580,890.800,23.775,-602.125,604.100,27.062,27.607,87.900,-90.000
0.000,39.000,18.645,46.000,890.945,23.610,-602.630,604.560,26.750,27.607,87.900,-90.000
0.000,39.000,18.250,45.900,890.600,24.000,-602.180,603.980,27.062,27.607,87.900,-90.000
0.000,39.000,19.110,45.750,890.705,23.885,-602.440,605.080,26.750,27.607,87.910,-90.000
0.000,39.000,18.030,45.845,891.085,24.600,-602.300,604.330,26.750,27.607,87.910,-90.000
0.000,39.000,18.330,46.535,890.635,23.240,-602.695,603.730,26.750,27.607,87.900,-90.000
0.000,39.000,18.635,45.610,890.500,24.100,-602.355,604.495,27.062,27.607,87.900,-90.000
0.000,40.000,43.855,58.005,889.885,47.415,-593.825,610.740,27.062,27.607,87.900,-135.000
0.000,40.000,43.960,58.175,889.960,47.700,-593.215,611.580,27.687,27.607,87.900,-135.000
0.000,40.000,43.775,57.945,890.280,48.295,-592.920,611.730,27.062,27.607,87.900,-135.000
0.000,40.000,43.285,58.120,890.000,47.545,-593.515,611.340,27.062,27.607,87.900,-135.000
0.000,40.000,43.595,58.795,889.890,47.630,-593.895,611.665,27.375,27.639,87.900,-135.000
0.000,40.000,43.615,58.570,889.605,48.295,-593.650,611.275,26.750,27.607,87.900,-135.000
0.000,40.000,43.180,58.290,890.115,48.430,-593.110,611.715,26.750,27.607,87.900,-135.000
0.000,40.000,43.720,58.065,890.235,47.910,-593.550,611.505,27.062,27.607,87.910,-135.000
0.000,40.000,43.200,58.050,889.485,47.775,-593.680,611.080,27.062,27.639,87.900,-135.000
0.000,40.000,44.095,57.715,890.370,48.075,-593.220,610.575,27.062,27.607,87.900,-135.000
