Temp Iter,Index,X Accel 1,Y Accel 1,Z Accel 1,X Accel 2,Y Accel 2,Z Accel2, Temp_6g,Temp,Theta,Phi,,,,,,
0.0000000000000000,1.0000000000000000,937.4987182620000100,56.7412490844999979,-45.9362487793000014,938.2796020509999830,89.1999282837000038,-43.6798782349000021,27.6875000000000000,30.0744915008999989,-2.6000000000000001,180.0000000000000000
0.0000000000000000,1.0000000000000000,938.3037109379999940,56.8074989318999996,-45.9287490844999979,940.2799072269999660,89.1999206543000013,-43.9199142455999975,27.6875000000000000,30.0744915008999989,-2.6000000000000001,180.0000000000000000
0.0000000000000000,1.0000000000000000,938.7762451170000300,57.1875000000000000,-45.3325004578000019,938.5600585939999960,89.4799194336000027,-43.5206184386999979,28.0000000000000000,30.0744915008999989,-2.6000000000000001,180.0000000000000000
0.0000000000000000,1.0000000000000000,938.1412353519999660,56.4862480163999976,-45.5287475586000027,938.5991821290000410,88.9200973510999972,-43.1197395324999988,27.6875000000000000,30.0744915008999989,-2.6000000000000001,180.0000000000000000
0.0000000000000000,1.0000000000000000,937.4799804689999960,56.8937492371000033,-45.7899971008000008,940.2796630860000270,88.9600753784000062,-43.5998191832999992,28.0000000000000000,30.0744915008999989,-2.6000000000000001,180.0000000000000000
0.0000000000000000,1.0000000000000000,938.5224609379999940,56.3962478637999993,-45.0125007628999967,941.1207885740000160,88.7997894286999951,-43.8805618286000012,27.3750000000000000,30.0744915008999989,-2.6000000000000001,180.0000000000000000
0.0000000000000000,1.0000000000000000,938.0862426759999830,56.7412490844999979,-45.7837486267000031,940.2802124019999600,88.9999313354000065,-42.8800201415999993,27.3750000000000000,30.0744915008999989,-2.6000000000000001,180.0000000000000000
0.0000000000000000,1.0000000000000000,937.4949951170000300,57.0637474059999974,-46.1924972533999991,940.8402709959999570,88.8399810790999992,-43.9600753783999991,27.6875000000000000,30.0744915008999989,-2.6000000000000001,180.0000000000000000
0.0000000000000000,1.0000000000000000,938.1887207029999440,57.0174980163999976,-45.9774971008000008,939.5194091800000240,89.3601150512999993,-43.3600769043000014,27.6875000000000000,30.0744915008999989,-2.6000000000000001,180.0000000000000000
0.0000000000000000,1.0000000000000000,937.3399658199999740,56.2975006104000002,-46.8574981689000012,940.2809448240000160,88.9998397826999933,-42.7197418212999977,27.3750000000000000,30.0744915008999989,-2.6000000000000001,180.0000000000000000
0.0000000000000000,2.0000000000000000,676.2212524410000460,682.6512451170000300,-44.6887474059999974,679.7593383790000410,537.7199707029999440,397.2397460939999970,27.3750000000000000,30.0744915008999989,-2.6099999999999999,135.0000000000000000
0.0000000000000000,2.0000000000000000,675.8612060550000240,683.1737060550000240,-43.9487495421999980,680.9601440430000130,537.7600708009999830,397.8002624509999800,27.6875000000000000,30.0744915008999989,-2.6099999999999999,135.0000000000000000
0.0000000000000000,2.0000000000000000,676.6112060550000240,683.2399902339999460,-43.3162498474000017,680.2000122069999850,537.6399536129999880,396.7995910640000260,27.6875000000000000,30.0744915008999989,-2.6099999999999999,135.0000000000000000
0.0000000000000000,2.0000000000000000,676.2862548829999690,683.0887451170000300,-43.9775009155000020,679.9995727540000410,537.7999267579999690,397.5603027340000040,27.6875000000000000,30.0744915008999989,-2.6099999999999999,135.0000000000000000
0.0000000000000000,2.0000000000000000,676.5937499999999990,683.0112304689999970,-44.6362495421999980,681.2399902339999460,537.7599487300000190,397.0393676759999830,28.0000000000000000,30.0744915008999989,-2.6099999999999999,135.0000000000000000
0.0000000000000000,2.0000000000000000,677.3624877930000130,682.8662109379999940,-43.4687500000000000,680.9599609379999940,537.7199707029999440,397.2402343750000000,28.0000000000000000,30.0744915008999989,-2.6099999999999999,135.0000000000000000
0.0000000000000000,2.0000000000000000,676.7512207029999440,683.6224975589999520,-43.6525001525999982,680.4796752930000130,537.6398315430000130,397.9598388669999730,27.6875000000000000,30.0744915008999989,-2.6099999999999999,135.0000000000000000
0.0000000000000000,2.0000000000000000,675.7749633790000410,683.1112060550000240,-43.7162475586000027,683.2810058589999460,538.2001342769999600,396.6396789550000220,27.6875000000000000,30.0744915008999989,-2.6099999999999999,135.0000000000000000
0.0000000000000000,2.0000000000000000,676.1887207029999440,682.6562499999999990,-44.3574981689000012,680.9599609379999940,538.0399780269999600,397.3598022460000150,27.6875000000000000,30.0744915008999989,-2.6099999999999999,135.0000000000000000
0.0000000000000000,2.0000000000000000,676.4887084959999580,682.7924804689999970,-43.4424972533999991,680.6400146480000320,538.1199951170000300,397.4397583009999830,27.3750000000000000,30.0744915008999989,-2.6099999999999999,135.0000000000000000
0.0000000000000000,3.0000000000000000,38.4287490844999979,943.0137329100000430,-47.1712493895999998,49.8398818969999979,729.5999145509999830,583.1602783199999740,27.3750000000000000,30.0744915008999989,-2.6099999999999999,89.9999999999999999
0.0000000000000000,3.0000000000000000,39.4074974059999974,942.3449707029999440,-46.6162490844999979,51.0404472350999967,730.7202758790000410,584.2402954100000440,27.6875000000000000,30.0432605742999996,-2.6099999999999999,89.9999999999999999
0.0000000000000000,3.0000000000000000,38.4775009155000020,942.5124511720000550,-46.9237480163999976,49.7996215820000003,730.1601562499999990,582.6000976560000020,27.3750000000000000,30.0432605742999996,-2.6099999999999999,89.9999999999999999
0.0000000000000000,3.0000000000000000,38.4212493895999998,942.7112426759999830,-46.3125000000000000,50.8400001525999982,730.3600463870000100,583.0400390620000050,27.6875000000000000,30.0432605742999996,-2.6099999999999999,89.9999999999999999
0.0000000000000000,3.0000000000000000,39.1712493895999998,942.8599853519999660,-46.3112487793000014,50.2000961303999986,730.4799804689999970,582.7199707029999440,27.6875000000000000,30.0432605742999996,-2.6099999999999999,89.9999999999999999
0.0000000000000000,3.0000000000000000,39.2124977112000010,942.6599731449999800,-47.7862472533999991,50.5998573302999972,730.1199951170000300,582.7998046879999940,27.6875000000000000,30.0744915008999989,-2.6099999999999999,89.9999999999999999
0.0000000000000000,3.0000000000000000,38.7887496948000034,942.6112060550000240,-46.6224975586000027,51.4400978087999973,730.0799560550000240,582.6400146480000320,27.6875000000000000,30.0744915008999989,-2.6099999999999999,89.9999999999999999
0.0000000000000000,3.0000000000000000,38.7799987793000014,942.6950073240000160,-46.6062507628999967,50.3597412108999975,729.9199829100000440,583.1203613279999440,27.6875000000000000,30.0744915008999989,-2.6099999999999999,89.9999999999999999
0.0000000000000000,3.0000000000000000,38.3862495421999980,942.6599731449999800,-47.0187492371000033,49.8797340392999970,729.7201538089999520,582.2001342769999600,27.6875000000000000,30.0432605742999996,-2.6099999999999999,89.9999999999999999
0.0000000000000000,3.0000000000000000,38.4449996948000034,942.5974731449999800,-46.4074974059999974,50.9596443176000022,729.9197998050000240,582.9602050779999440,27.6875000000000000,30.0432605742999996,-2.6099999999999999,89.9999999999999999
0.0000000000000000,4.0000000000000000,-604.3187255860000270,670.8875122069999850,-53.4925003051999965,-593.1599121089999470,549.1997680660000460,391.5204162599999900,27.6875000000000000,30.0432605742999996,-2.6000000000000001,45.0000000000000000
0.0000000000000000,4.0000000000000000,-603.5062255860000270,670.5999755860000270,-52.4912490844999979,-593.3602905269999600,549.4401245120000110,390.6002197270000230,27.6875000000000000,30.0432605742999996,-2.6000000000000001,45.0000000000000000
0.0000000000000000,4.0000000000000000,-604.2274780269999600,670.5775146480000320,-52.5799980163999976,-594.2799072269999660,549.9599609379999940,388.8795166020000230,27.6875000000000000,30.0432605742999996,-2.6000000000000001,45.0000000000000000
0.0000000000000000,4.0000000000000000,-603.6462402339999470,670.9224853519999660,-53.3137474059999974,-593.2799682620000110,550.2800292970000550,390.4402160640000260,27.3750000000000000,30.0432605742999996,-2.6000000000000001,45.0000000000000000
0.0000000000000000,4.0000000000000000,-604.3549804689999970,671.2974853519999660,-52.7425003051999965,-593.9996337889999720,549.3599853519999660,390.1994323729999790,28.0000000000000000,30.0432605742999996,-2.6000000000000001,45.0000000000000000
0.0000000000000000,4.0000000000000000,-603.8124999999999990,670.9212646480000320,-53.4712486267000031,-594.2403564449999740,549.3198242189999970,390.0001525879999910,27.3750000000000000,30.0432605742999996,-2.6000000000000001,45.0000000000000000
0.0000000000000000,4.0000000000000000,-604.1724853519999660,670.6950073240000160,-52.9399986267000031,-594.0802612300000190,549.5999755860000270,390.6404724120000080,27.6875000000000000,30.0432605742999996,-2.6000000000000001,45.0000000000000000
0.0000000000000000,4.0000000000000000,-604.0174560550000240,670.9337158199999740,-52.2549972533999991,-593.6401977540000410,549.7199707029999440,389.6797485349999870,27.6875000000000000,30.0432605742999996,-2.6000000000000001,45.0000000000000000
0.0000000000000000,4.0000000000000000,-603.3812255860000270,671.4174804689999970,-52.0112495421999980,-593.5599365230000320,549.5999145509999830,390.1203002930000140,27.6875000000000000,30.0432605742999996,-2.6000000000000001,45.0000000000000000
0.0000000000000000,4.0000000000000000,-604.2937622069999860,671.3237304689999970,-53.5462493895999998,-594.5198974610000270,549.6001586910000460,389.8799133300000220,27.6875000000000000,30.0432605742999996,-2.6000000000000001,45.0000000000000000
0.0000000000000000,5.0000000000000000,-854.1499633790000410,35.5237503051999965,-59.9412498474000017,-856.8005981449999800,103.9599380490000010,-59.2004508971999996,27.6875000000000000,30.0744915008999989,-2.6000000000000001,0.0000000000000000
0.0000000000000000,5.0000000000000000,-854.5737304689999960,35.5299987793000014,-59.8799972533999991,-856.1598510740000160,103.7599563600000040,-58.9999198913999976,28.0000000000000000,30.0432605742999996,-2.6000000000000001,0.0000000000000000
0.0000000000000000,5.0000000000000000,-854.6849975589999520,35.8549995421999980,-59.1774978637999993,-856.1203002930000130,104.1201324459999990,-58.7199935913000032,28.0000000000000000,30.0432605742999996,-2.6000000000000001,0.0000000000000000
0.0000000000000000,5.0000000000000000,-854.4987182620000100,35.7137489318999996,-60.4437484740999977,-856.0798339839999460,103.8398818969999980,-57.9193382262999989,27.6875000000000000,30.0432605742999996,-2.6000000000000001,0.0000000000000000
0.0000000000000000,5.0000000000000000,-854.0262451170000300,35.6499977112000010,-59.6512489318999996,-855.2801513670000300,104.3200759890000030,-58.6800804137999989,27.6875000000000000,30.0432605742999996,-2.6000000000000001,0.0000000000000000
0.0000000000000000,5.0000000000000000,-854.2449951170000300,35.7037506104000002,-58.7174987793000014,-855.4398193360000270,104.0401153560000010,-58.9201545714999994,27.6875000000000000,30.0432605742999996,-2.6000000000000001,0.0000000000000000
0.0000000000000000,5.0000000000000000,-853.8537597660000520,35.6437492371000033,-58.8950004578000019,-855.7999877930000130,104.3199996950000070,-58.4396553039999986,27.6875000000000000,30.0432605742999996,-2.6000000000000001,0.0000000000000000
0.0000000000000000,5.0000000000000000,-854.0537109379999940,35.8887481689000012,-59.5087471008000008,-855.5203857420000300,104.2400741579999990,-58.0397338866999987,27.6875000000000000,30.0432605742999996,-2.6000000000000001,0.0000000000000000
0.0000000000000000,5.0000000000000000,-854.6537475589999520,35.3387489318999996,-59.4687500000000000,-855.3599853519999660,104.0400543209999990,-58.5999221801999965,27.6875000000000000,30.0432605742999996,-2.6000000000000001,0.0000000000000000
0.0000000000000000,5.0000000000000000,-853.8137207029999440,35.3299980163999976,-59.5574989318999996,-854.7196655269999600,104.2797317499999960,-58.9203109740999977,27.6875000000000000,30.0432605742999996,-2.6000000000000001,0.0000000000000000
0.0000000000000000,6.0000000000000000,-593.4637451170000300,-593.5949707029999440,-59.2649993895999998,-594.5595092769999600,-346.3600769039999820,-501.9198303219999950,27.6875000000000000,30.0744915008999989,-2.6000000000000001,-45.0000000000000000
0.0000000000000000,6.0000000000000000,-593.4475097660000520,-593.6562499999999990,-60.0062484740999977,-594.7996826170000300,-346.2800598140000260,-502.3998413090000090,27.6875000000000000,30.0744915008999989,-2.6000000000000001,-45.0000000000000000
0.0000000000000000,6.0000000000000000,-593.5712280269999600,-593.4899902339999470,-59.9300003051999965,-594.6398925779999440,-346.2399291990000160,-501.7201538090000090,27.6875000000000000,30.0744915008999989,-2.6000000000000001,-45.0000000000000000
0.0000000000000000,6.0000000000000000,-593.2249755860000270,-593.6487426759999830,-60.2224998474000017,-595.3599243160000460,-345.8400268550000190,-503.0400695800000220,27.3750000000000000,30.0744915008999989,-2.6000000000000001,-45.0000000000000000
0.0000000000000000,6.0000000000000000,-593.2724609379999940,-593.5912475589999520,-60.2199974059999974,-595.7201538089999520,-345.3600769039999820,-502.1596679689999970,27.6875000000000000,30.0744915008999989,-2.6000000000000001,-45.0000000000000000
0.0000000000000000,6.0000000000000000,-593.7399902339999470,-593.3524780269999600,-60.8174972533999991,-594.8798828120000050,-345.4400024409999900,-502.9602355960000180,27.6875000000000000,30.0744915008999989,-2.6000000000000001,-45.0000000000000000
0.0000000000000000,6.0000000000000000,-592.9374999999999990,-593.9262084959999580,-59.6699981689000012,-594.7199096680000130,-345.5598449710000180,-501.8797607419999730,27.3750000000000000,30.0744915008999989,-2.6000000000000001,-45.0000000000000000
0.0000000000000000,6.0000000000000000,-592.8437499999999990,-593.6612548829999690,-59.8912467956999989,-595.4397583009999830,-345.5600585939999970,-503.2402343750000000,27.6875000000000000,30.0744915008999989,-2.6000000000000001,-45.0000000000000000
0.0000000000000000,6.0000000000000000,-592.8137207029999440,-593.0874633790000410,-60.0562477112000010,-594.8400878910000520,-345.7200012210000180,-502.4400939939999940,27.6875000000000000,30.0744915008999989,-2.6000000000000001,-45.0000000000000000
0.0000000000000000,6.0000000000000000,-593.0112304689999970,-593.4599609379999940,-59.7537498474000017,-594.1600952149999550,-345.5997619629999910,-501.4002990719999950,27.6875000000000000,30.0744915008999989,-2.6000000000000001,-45.0000000000000000
0.0000000000000000,7.0000000000000000,44.0825004578000019,-852.8299560550000240,-57.8312492371000033,36.3599586487000010,-538.2800903319999860,-686.2796630860000270,28.0000000000000000,30.0432605742999996,-2.6000000000000001,-89.9999999999999999
0.0000000000000000,7.0000000000000000,45.1124992371000033,-852.4674682620000100,-56.9349975586000027,36.2398147582999996,-538.5601196290000410,-687.3198242189999970,27.6875000000000000,30.0432605742999996,-2.6000000000000001,-89.9999999999999999
0.0000000000000000,7.0000000000000000,44.2500000000000000,-853.0662231449999800,-57.1112480163999976,36.4799041747999979,-538.5199584959999580,-685.7994995120000110,27.6875000000000000,30.0432605742999996,-2.6000000000000001,-89.9999999999999999
0.0000000000000000,7.0000000000000000,43.7049980163999976,-852.8787231449999800,-57.3212471008000008,35.7196731566999972,-538.1599121089999470,-686.6398315430000130,27.3750000000000000,30.0432605742999996,-2.6000000000000001,-89.9999999999999999
0.0000000000000000,7.0000000000000000,44.3875007628999967,-852.3124999999999990,-57.4624977112000010,36.2398986816000032,-538.7600097660000520,-687.3601684569999850,27.3750000000000000,30.0432605742999996,-2.6000000000000001,-89.9999999999999999
0.0000000000000000,7.0000000000000000,43.8487472533999991,-852.2474975589999520,-57.9575004578000019,36.7998771667000000,-538.9197387699999800,-686.3997802730000320,27.3750000000000000,30.0432605742999996,-2.6000000000000001,-89.9999999999999999
0.0000000000000000,7.0000000000000000,44.1212501525999982,-852.5437011720000550,-57.6749992371000033,36.7599830627000017,-538.2797241209999580,-686.8397216800000240,27.6875000000000000,30.0432605742999996,-2.6000000000000001,-89.9999999999999999
0.0000000000000000,7.0000000000000000,45.2762489318999996,-852.8549804689999960,-56.6912498474000017,36.0799179077000005,-538.9602050779999440,-687.7604370120000110,27.6875000000000000,30.0432605742999996,-2.6000000000000001,-89.9999999999999999
0.0000000000000000,7.0000000000000000,43.7312507628999967,-852.7487182620000100,-57.4487495421999980,36.8803176879999981,-538.5198974610000270,-686.5595092769999600,27.6875000000000000,30.0432605742999996,-2.6000000000000001,-89.9999999999999999
0.0000000000000000,7.0000000000000000,43.7524986267000031,-852.3962402339999460,-58.3537483214999994,36.4799575806000007,-538.2399291990000160,-687.6397705079999690,27.6875000000000000,30.0432605742999996,-2.6000000000000001,-89.9999999999999999
0.0000000000000000,8.0000000000000000,688.8549804689999970,-581.0762329100000440,-46.5837478637999993,681.7598876949999740,-357.9602661129999880,-491.9202575680000100,27.6875000000000000,30.0432605742999996,-2.6000000000000001,-135.0000000000000000
0.0000000000000000,8.0000000000000000,688.6074829100000440,-580.8862304689999970,-46.0512504578000019,681.1196899410000460,-357.7598876949999750,-492.0402221680000130,27.6875000000000000,30.0432605742999996,-2.6000000000000001,-135.0000000000000000
0.0000000000000000,8.0000000000000000,688.5574951170000300,-580.8825073240000160,-47.2962493895999998,681.6403808589999460,-357.4801940919999760,-491.8401489259999830,27.3750000000000000,30.0432605742999996,-2.6000000000000001,-135.0000000000000000
0.0000000000000000,8.0000000000000000,689.5337524410000460,-580.9999999999999990,-46.8299980163999976,681.3599853519999660,-357.7999572749999970,-491.9199523930000160,27.6875000000000000,30.0432605742999996,-2.6000000000000001,-135.0000000000000000
0.0000000000000000,8.0000000000000000,688.8737182620000110,-580.9799804689999970,-47.0649986267000031,681.0797729490000160,-357.8400573729999790,-492.7597961430000160,27.6875000000000000,30.0432605742999996,-2.6000000000000001,-135.0000000000000000
0.0000000000000000,8.0000000000000000,688.9737548829999690,-580.5662231449999800,-47.0349998474000017,681.5996093749999990,-358.1600341800000250,-492.2001342770000170,28.0000000000000000,30.0432605742999996,-2.6000000000000001,-135.0000000000000000
0.0000000000000000,8.0000000000000000,688.0874633790000410,-580.8737182620000110,-47.1162490844999979,680.8000488279999440,-357.9600830080000260,-491.5596618650000090,27.3750000000000000,30.0432605742999996,-2.6000000000000001,-135.0000000000000000
0.0000000000000000,8.0000000000000000,688.5924682620000110,-580.6649780269999600,-47.4149971008000008,681.6004638670000300,-357.5599975590000100,-492.0798645020000200,28.0000000000000000,30.0432605742999996,-2.6000000000000001,-135.0000000000000000
0.0000000000000000,8.0000000000000000,688.6424560550000240,-580.3449707029999440,-47.7150001525999982,681.1195068360000270,-357.7599792479999790,-492.9208068849999900,27.6875000000000000,30.0432605742999996,-2.6000000000000001,-135.0000000000000000
0.0000000000000000,8.0000000000000000,688.0050048829999690,-580.8724975589999520,-47.8824996948000034,680.8001708980000320,-357.3601379390000260,-490.9598999020000170,27.6875000000000000,30.0432605742999996,-2.6000000000000001,-135.0000000000000000
0.0000000000000000,9.0000000000000000,870.0549926759999830,54.7612495421999980,339.3537292479999790,869.6000366209999580,-183.0800781250000000,227.5600891109999960,27.6875000000000000,30.0432605742999996,22.6099999999999994,180.0000000000000000
0.0000000000000000,9.0000000000000000,870.5237426759999830,54.8462486267000031,339.1749877930000140,869.8402709959999580,-182.7600097659999960,228.0804290769999910,27.3750000000000000,30.0432605742999996,22.6099999999999994,180.0000000000000000
0.0000000000000000,9.0000000000000000,870.0924682620000100,54.2387504578000019,339.5862426759999830,870.2401123050000240,-182.7601318359999990,228.1198577879999900,27.6875000000000000,30.0432605742999996,22.6099999999999994,180.0000000000000000
0.0000000000000000,9.0000000000000000,870.1325073240000160,54.3274993895999998,339.0312500000000000,869.4799804689999960,-182.8803253170000000,227.8793945310000020,27.6875000000000000,30.0120315552000001,22.6099999999999994,180.0000000000000000
0.0000000000000000,9.0000000000000000,870.0537109379999940,55.1412506104000002,338.9700012210000180,869.7199707029999440,-182.3597564700000080,227.2797393799999950,27.6875000000000000,30.0120315552000001,22.6099999999999994,180.0000000000000000
0.0000000000000000,9.0000000000000000,870.4024658199999740,54.7849998474000017,339.4100036620000080,868.6795043949999800,-182.5198822019999910,227.6798553470000000,27.6875000000000000,30.0120315552000001,22.6099999999999994,180.0000000000000000
0.0000000000000000,9.0000000000000000,870.6062011720000550,54.9624977112000010,339.6474914550000220,869.6398315430000130,-182.1997680659999900,227.9199829099999870,27.3750000000000000,30.0120315552000001,22.6099999999999994,180.0000000000000000
0.0000000000000000,9.0000000000000000,870.1687011720000550,54.5625000000000000,339.9737548830000260,868.9199829100000430,-182.1199340819999860,226.4796295170000060,27.6875000000000000,30.0432605742999996,22.6099999999999994,180.0000000000000000
0.0000000000000000,9.0000000000000000,870.7099609379999940,54.8512496948000034,338.8812561039999870,869.6401367189999960,-182.5600585939999970,228.0400695799999940,27.6875000000000000,30.0432605742999996,22.6099999999999994,180.0000000000000000
0.0000000000000000,9.0000000000000000,870.0199584959999580,54.3799972533999991,339.6024780270000180,869.6003417970000550,-182.4798736570000130,226.6398773189999930,27.6875000000000000,30.0432605742999996,22.6199999999999974,180.0000000000000000
0.0000000000000000,10.0000000000000000,622.2749633790000410,636.5650024410000460,336.6524963379999910,630.0800170899999550,234.1598510739999880,636.8002319339999520,27.6875000000000000,30.0432605742999996,22.6099999999999994,135.0000000000000000
0.0000000000000000,10.0000000000000000,621.8912353519999660,636.5137329100000440,336.8837280270000180,629.3999023439999970,233.9198760989999920,637.3200073240000160,27.6875000000000000,30.0432605742999996,22.6099999999999994,135.0000000000000000
0.0000000000000000,10.0000000000000000,621.9487304689999970,636.7625122069999860,337.0899963379999910,629.4799194339999520,234.6001281739999910,637.7606811519999600,27.6875000000000000,30.0432605742999996,22.6099999999999994,135.0000000000000000
0.0000000000000000,10.0000000000000000,622.4174804689999970,636.5637207029999440,337.1087341310000050,629.2398681639999720,233.9198913570000110,637.3197021480000320,28.0000000000000000,30.0432605742999996,22.6099999999999994,135.0000000000000000
0.0000000000000000,10.0000000000000000,621.0324707029999440,636.5912475589999520,337.1962280270000180,629.0798339839999460,234.1598815920000050,635.9195556639999720,27.6875000000000000,30.0432605742999996,22.6099999999999994,135.0000000000000000
0.0000000000000000,10.0000000000000000,622.3362426759999830,636.5512084959999580,337.6487426759999830,631.0006103519999660,233.8396453860000010,636.2798461910000460,27.6875000000000000,30.0432605742999996,22.6099999999999994,135.0000000000000000
0.0000000000000000,10.0000000000000000,621.9924926759999830,636.5449829100000440,337.0774841310000050,629.9196166990000160,233.9199981689999960,636.9999999999999990,28.0000000000000000,30.0432605742999996,22.6099999999999994,135.0000000000000000
0.0000000000000000,10.0000000000000000,621.0349731449999800,636.4387207029999440,337.9912414550000220,630.3999633790000410,234.5602722170000050,637.6400756839999520,27.6875000000000000,30.0432605742999996,22.6099999999999994,135.0000000000000000
0.0000000000000000,10.0000000000000000,622.0249633790000410,636.5862426759999830,338.2299804689999970,630.0801391600000440,233.8399505620000120,637.1198730470000550,27.6875000000000000,30.0432605742999996,22.6099999999999994,135.0000000000000000
0.0000000000000000,10.0000000000000000,621.7724609379999940,636.6350097660000520,336.7662353520000230,630.4397583009999830,234.4001312260000130,637.6399536129999880,27.3750000000000000,30.0432605742999996,22.6099999999999994,135.0000000000000000
0.0000000000000000,11.0000000000000000,34.7849998474000017,874.9450073240000160,337.2049865719999950,43.3996925353999998,415.1996765139999750,803.3601684569999850,27.3750000000000000,30.0120315552000001,22.6099999999999994,89.9999999999999999
0.0000000000000000,11.0000000000000000,34.8750000000000000,874.6199951170000300,337.2537536620000080,44.4799385071000017,415.6400756840000100,803.1998901370000100,27.3750000000000000,30.0120315552000001,22.6099999999999994,89.9999999999999999
0.0000000000000000,11.0000000000000000,35.6974983214999994,874.1737060550000240,337.7587280270000180,45.2003593445000007,415.5199890139999750,802.8798828120000040,27.6875000000000000,30.0120315552000001,22.6099999999999994,89.9999999999999999
0.0000000000000000,11.0000000000000000,34.9787483214999994,874.2600097660000520,337.0887451169999730,44.8798980712999977,415.3999023439999970,803.4802856449999800,27.6875000000000000,30.0120315552000001,22.6099999999999994,89.9999999999999999
0.0000000000000000,11.0000000000000000,35.3062477112000010,874.3162231449999800,337.9012451169999730,45.3600196837999974,415.8800659180000130,803.3599853519999660,27.6875000000000000,30.0120315552000001,22.6099999999999994,89.9999999999999999
0.0000000000000000,11.0000000000000000,35.1037483214999994,874.7174682620000100,336.8412475590000100,45.0002136230000005,415.3199157710000120,802.9596557620000100,27.3750000000000000,30.0120315552000001,22.6099999999999994,89.9999999999999999
0.0000000000000000,11.0000000000000000,34.8724975586000028,874.3374633790000410,337.1612548830000260,45.1198616028000003,415.6799926759999830,803.1597290040000410,27.6875000000000000,30.0120315552000001,22.6099999999999994,89.9999999999999999
0.0000000000000000,11.0000000000000000,34.9174995421999980,874.2699584959999580,337.0762329099999870,44.7202835082999996,415.6800537110000270,803.7202148439999970,27.6875000000000000,30.0120315552000001,22.6099999999999994,89.9999999999999999
0.0000000000000000,11.0000000000000000,34.6025009155000020,874.3837280269999600,336.7687377930000140,45.1599998474000017,415.3999938960000120,803.5198364259999830,28.0000000000000000,30.0120315552000001,22.6099999999999994,89.9999999999999999
0.0000000000000000,11.0000000000000000,34.8912506104000002,874.4462280269999600,338.0362548830000260,45.5196571350000027,415.5599060060000050,803.5196533199999740,27.6875000000000000,30.0120315552000001,22.6099999999999994,89.9999999999999999
0.0000000000000000,12.0000000000000000,-561.6262207029999440,621.3825073240000160,331.3087463379999910,-552.2797241209999580,243.8798828120000050,629.7199707029999440,27.3750000000000000,30.0120315552000001,22.6199999999999974,45.0000000000000000
0.0000000000000000,12.0000000000000000,-561.7799682620000110,621.9162597660000520,331.5412292479999790,-552.4400024410000460,243.7200469969999970,629.0401611329999690,27.6875000000000000,30.0120315552000001,22.6199999999999974,45.0000000000000000
0.0000000000000000,12.0000000000000000,-560.8762207029999440,621.8662109379999940,332.0375061039999870,-552.2399902339999470,243.7600708010000120,628.3594970699999740,27.6875000000000000,30.0120315552000001,22.6199999999999974,45.0000000000000000
0.0000000000000000,12.0000000000000000,-561.3599853519999660,621.5487060550000240,333.3662414550000220,-552.1997680660000460,243.7999114989999890,628.6799926759999830,27.6875000000000000,30.0120315552000001,22.6199999999999974,45.0000000000000000
0.0000000000000000,12.0000000000000000,-561.1137084959999580,621.3837280269999600,331.2724914550000220,-551.9597778319999860,243.5599212650000140,628.9201660160000520,27.3750000000000000,30.0120315552000001,22.6199999999999974,45.0000000000000000
0.0000000000000000,12.0000000000000000,-561.7662353519999660,621.6787109379999940,331.8912353520000230,-552.5999755860000270,244.0801849370000120,629.5200805660000460,27.6875000000000000,30.0120315552000001,22.6199999999999974,45.0000000000000000
0.0000000000000000,12.0000000000000000,-561.4362182620000110,621.2787475589999520,331.8974914550000220,-552.4797363279999440,243.3198699950000050,629.4400634769999660,27.3750000000000000,30.0120315552000001,22.6199999999999974,45.0000000000000000
0.0000000000000000,12.0000000000000000,-562.0775146480000320,621.2824707029999440,331.8987426759999830,-552.0000610350000440,243.8399353030000040,628.9602050779999440,27.6875000000000000,30.0120315552000001,22.6199999999999974,45.0000000000000000
0.0000000000000000,12.0000000000000000,-561.1749877930000130,621.3312377930000130,332.0887451169999730,-552.3198242189999970,243.9200134280000040,629.3599243160000460,28.0000000000000000,30.0120315552000001,22.6199999999999974,45.0000000000000000
0.0000000000000000,12.0000000000000000,-560.8787231449999800,621.5937499999999990,331.9212341310000050,-552.9603271480000320,244.1600189209999880,629.3201293949999800,27.6875000000000000,30.0120315552000001,22.6199999999999974,45.0000000000000000
0.0000000000000000,13.0000000000000000,-790.4224853519999660,32.7312507628999967,326.2875061039999870,-792.3596801759999830,-169.2397155760000090,213.3196411129999890,28.0000000000000000,30.0120315552000001,22.6199999999999974,0.0000000000000000
0.0000000000000000,13.0000000000000000,-790.5587158199999740,32.7437477112000010,325.9662475590000100,-792.7998046879999940,-169.7199707030000010,214.2001190189999990,27.6875000000000000,30.0120315552000001,22.6199999999999974,0.0000000000000000
0.0000000000000000,13.0000000000000000,-789.9549560550000240,33.3474998474000017,326.3087463379999910,-793.4002075199999800,-169.6800994870000070,214.9604034420000000,27.6875000000000000,30.0120315552000001,22.6199999999999974,0.0000000000000000
0.0000000000000000,13.0000000000000000,-791.0499877930000130,32.8250007628999967,326.2599792479999790,-791.7998046879999940,-169.7198791499999970,213.7597808840000080,27.6875000000000000,30.0120315552000001,22.6199999999999974,0.0000000000000000
0.0000000000000000,13.0000000000000000,-790.4724731449999800,33.1062507628999967,326.0312500000000000,-792.6799926759999830,-169.7198028560000010,214.3999176030000060,27.6875000000000000,30.0120315552000001,22.6199999999999974,0.0000000000000000
0.0000000000000000,13.0000000000000000,-791.4724731449999800,33.4274978637999993,325.9624938960000120,-792.8001098629999880,-169.8799591060000010,214.1198425290000100,27.3750000000000000,30.0120315552000001,22.6199999999999974,0.0000000000000000
0.0000000000000000,13.0000000000000000,-790.7674560550000240,33.0362510681000003,326.0862426759999830,-792.5201416019999660,-169.6397857670000060,214.0398406980000060,27.6875000000000000,30.0432605742999996,22.6199999999999974,0.0000000000000000
0.0000000000000000,13.0000000000000000,-790.6312255860000270,32.7024993895999998,325.8999938960000120,-793.0004272459999580,-169.6799011230000070,214.8801116939999930,27.6875000000000000,30.0432605742999996,22.6199999999999974,0.0000000000000000
0.0000000000000000,13.0000000000000000,-790.4112548829999690,33.1987495421999981,326.4962463379999910,-792.6000366209999580,-170.0798797610000010,214.0798034670000050,27.6875000000000000,30.0432605742999996,22.6199999999999974,0.0000000000000000
0.0000000000000000,13.0000000000000000,-790.4524536129999880,33.3924980163999976,326.2487487789999820,-793.5606689449999740,-169.7598571780000040,214.3199920650000080,27.6875000000000000,30.0120315552000001,22.6199999999999974,0.0000000000000000
0.0000000000000000,14.0000000000000000,-544.5349731449999800,-552.0725097660000520,322.8549804689999970,-552.1199951170000300,-585.8798828120000050,-197.3602905269999890,27.3750000000000000,30.0432605742999996,22.6299999999999990,-45.0000000000000000
0.0000000000000000,14.0000000000000000,-545.0837402339999470,-552.5824584959999580,323.2812500000000000,-552.4398193360000270,-585.7198486329999690,-196.9603271480000040,27.6875000000000000,30.0432605742999996,22.6299999999999990,-45.0000000000000000
0.0000000000000000,14.0000000000000000,-545.0512084959999580,-552.1124877930000130,322.3924865719999950,-552.0798339839999470,-585.6398925779999440,-197.3202514650000120,27.6875000000000000,30.0432605742999996,22.6299999999999990,-45.0000000000000000
0.0000000000000000,14.0000000000000000,-544.4112548829999690,-552.5237426759999830,323.0962524409999900,-550.8795166019999660,-585.7599487300000190,-196.8798828120000050,27.3750000000000000,30.0432605742999996,22.6199999999999974,-45.0000000000000000
0.0000000000000000,14.0000000000000000,-544.5612182620000110,-552.3387451170000300,323.1237487789999820,-551.4799194339999530,-585.9201660160000520,-196.4399566650000110,27.6875000000000000,30.0432605742999996,22.6299999999999990,-45.0000000000000000
0.0000000000000000,14.0000000000000000,-545.4287109379999940,-552.0100097660000520,323.6912536620000080,-553.0006713870000110,-585.6400756839999520,-197.2400970459999880,28.0000000000000000,30.0432605742999996,22.6299999999999990,-45.0000000000000000
0.0000000000000000,14.0000000000000000,-545.0112304689999970,-552.4837646480000320,322.1162414550000220,-552.6801757810000020,-585.9199218749999990,-196.9998626709999880,27.6875000000000000,30.0432605742999996,22.6199999999999974,-45.0000000000000000
0.0000000000000000,14.0000000000000000,-544.4362182620000110,-552.1762084959999580,322.6837463379999910,-551.8001708980000320,-586.0401611329999690,-196.3597259519999910,27.6875000000000000,30.0432605742999996,22.6199999999999974,-45.0000000000000000
0.0000000000000000,14.0000000000000000,-545.2137451170000300,-552.1849975589999530,323.6012573240000160,-552.4396972660000520,-585.8798828120000050,-196.4400024409999900,27.6875000000000000,30.0432605742999996,22.6299999999999990,-45.0000000000000000
0.0000000000000000,14.0000000000000000,-544.3949584959999580,-552.4587402339999470,322.4499816890000260,-552.2001342769999600,-585.4398803709999580,-196.6000213620000070,27.6875000000000000,30.0120315552000001,22.6199999999999974,-45.0000000000000000
0.0000000000000000,15.0000000000000000,43.0874977112000010,-788.9124755860000270,328.6862487789999820,31.0397605896000002,-763.1998901370000100,-368.7202148439999970,27.6875000000000000,30.0432605742999996,22.6199999999999974,-89.9999999999999999
0.0000000000000000,15.0000000000000000,43.4137496948000034,-789.1925048829999690,329.5124816890000260,31.9599170685000011,-763.5599975589999520,-368.0798339840000040,27.6875000000000000,30.0432605742999996,22.6199999999999974,-89.9999999999999999
0.0000000000000000,15.0000000000000000,43.6149978637999993,-789.5087280269999600,329.4037475590000100,31.7200603484999988,-763.6802978519999660,-368.5198669430000110,27.3750000000000000,30.0432605742999996,22.6299999999999990,-89.9999999999999999
0.0000000000000000,15.0000000000000000,43.3987503051999965,-789.7174682620000100,329.4624938960000120,32.0398178100999971,-762.9998168949999800,-369.1603698729999790,27.3750000000000000,30.0432605742999996,22.6299999999999990,-89.9999999999999999
0.0000000000000000,15.0000000000000000,42.7975006104000002,-789.4299926759999830,328.7312316890000260,31.4799404144000014,-762.9998168949999800,-368.7197875979999820,27.3750000000000000,30.0432605742999996,22.6199999999999974,-89.9999999999999999
0.0000000000000000,15.0000000000000000,44.1262474059999974,-789.2274780269999600,329.5562438960000120,32.5200538635000029,-763.2001342769999600,-369.6804199219999980,27.6875000000000000,30.0120315552000001,22.6199999999999974,-89.9999999999999999
0.0000000000000000,15.0000000000000000,43.3212509155000020,-789.2287597660000520,328.8512573240000160,32.2802009583000000,-762.8800048829999690,-368.0396728520000230,27.3750000000000000,30.0120315552000001,22.6199999999999974,-89.9999999999999999
0.0000000000000000,15.0000000000000000,44.3474998474000017,-788.8724975589999520,329.4299926759999830,32.8402366637999989,-763.1998901370000100,-369.6002502439999940,27.6875000000000000,30.0120315552000001,22.6199999999999974,-89.9999999999999999
0.0000000000000000,15.0000000000000000,43.3812484740999977,-789.1737060550000240,328.6187438960000120,32.3199157714999998,-763.4000854490000160,-368.6399536129999880,27.3750000000000000,30.0120315552000001,22.6199999999999974,-89.9999999999999999
0.0000000000000000,15.0000000000000000,43.5087509155000020,-789.5549926759999830,329.0824890139999750,32.3602790833000000,-763.2399902339999460,-368.0796508789999840,27.6875000000000000,30.0120315552000001,22.6199999999999974,-89.9999999999999999
0.0000000000000000,16.0000000000000000,637.5700073240000160,-538.0075073240000160,331.7599792479999790,633.2396240230000320,-592.9999389649999550,-189.5999908450000080,27.6875000000000000,29.9808006286999990,22.6199999999999974,-135.0000000000000000
0.0000000000000000,16.0000000000000000,637.5474853519999660,-537.6724853519999660,332.1262512210000180,633.8402099610000270,-592.3599243160000460,-190.3602752689999990,27.6875000000000000,30.0120315552000001,22.6199999999999974,-135.0000000000000000
0.0000000000000000,16.0000000000000000,638.0725097660000520,-537.8349609379999940,332.7487487789999820,633.7601318360000270,-592.8800048829999690,-190.7198791499999970,27.6875000000000000,30.0120315552000001,22.6199999999999974,-135.0000000000000000
0.0000000000000000,16.0000000000000000,637.1737060550000240,-538.2575073240000160,332.8974914550000220,634.5603027339999460,-592.8397216800000250,-189.8801879879999890,27.6875000000000000,30.0120315552000001,22.6199999999999974,-135.0000000000000000
0.0000000000000000,16.0000000000000000,636.3837280269999600,-538.0474853519999660,331.3362426759999830,633.4802856449999800,-593.0401000980000380,-189.6401062010000090,27.6875000000000000,30.0120315552000001,22.6199999999999974,-135.0000000000000000
0.0000000000000000,16.0000000000000000,637.5787353519999660,-537.9237670899999550,332.0174865719999950,634.2000732420000300,-593.1998291019999660,-189.8801879879999890,27.6875000000000000,30.0120315552000001,22.6199999999999974,-135.0000000000000000
0.0000000000000000,16.0000000000000000,636.8624877930000130,-537.6037597660000520,331.7987365719999950,634.4401245120000110,-592.9999999999999990,-190.8400573730000070,27.3750000000000000,30.0120315552000001,22.6199999999999974,-135.0000000000000000
0.0000000000000000,16.0000000000000000,637.5762329100000440,-538.2037353519999660,331.3687438960000120,634.7999267579999690,-592.8000488279999440,-190.2799987790000100,27.6875000000000000,30.0120315552000001,22.6199999999999974,-135.0000000000000000
0.0000000000000000,16.0000000000000000,637.7949829100000440,-537.5062255860000270,331.6325073240000160,633.6400146480000320,-592.5197753910000520,-189.3598175049999950,27.6875000000000000,30.0120315552000001,22.6199999999999974,-135.0000000000000000
0.0000000000000000,16.0000000000000000,637.1199951170000300,-537.9749755860000270,332.6512451169999730,633.9604492189999970,-593.1202392579999690,-190.9202423099999920,27.3750000000000000,30.0120315552000001,22.6199999999999974,-135.0000000000000000
0.0000000000000000,17.0000000000000000,684.4549560550000240,49.0324974059999974,619.3875122069999860,684.5997314449999740,-379.5599975590000100,426.2799377439999940,27.3750000000000000,30.0120315552000001,44.4299999999999997,180.0000000000000000
0.0000000000000000,17.0000000000000000,684.1824951170000300,49.7587471008000008,619.1187133790000410,684.9203491209999580,-380.0001525879999910,426.6799926759999830,27.6875000000000000,30.0120315552000001,44.4299999999999997,180.0000000000000000
0.0000000000000000,17.0000000000000000,684.9562377930000130,49.3587493895999998,619.2074584959999580,684.4799804689999970,-379.5599670409999930,426.1999816890000260,27.6875000000000000,30.0120315552000001,44.4299999999999997,180.0000000000000000
0.0000000000000000,17.0000000000000000,684.4387207029999440,49.5812492371000033,619.1787109379999940,683.7197265620000050,-379.6799926759999830,425.5198974610000270,27.6875000000000000,30.0120315552000001,44.4299999999999997,180.0000000000000000
0.0000000000000000,17.0000000000000000,684.8850097660000520,49.2937507628999967,619.7262573240000160,684.3601684569999850,-379.1999816890000260,426.6000671389999750,27.6875000000000000,30.0120315552000001,44.4299999999999997,180.0000000000000000
0.0000000000000000,17.0000000000000000,684.8762207029999440,49.0724983214999994,619.4974975589999520,683.6799926759999830,-379.2398376460000120,426.8804321289999840,28.0000000000000000,30.0120315552000001,44.4299999999999997,180.0000000000000000
0.0000000000000000,17.0000000000000000,684.7312622069999850,48.8787498474000017,618.9762573240000160,683.9193725589999520,-379.4798889159999930,425.9600219729999820,27.6875000000000000,30.0120315552000001,44.4299999999999997,180.0000000000000000
0.0000000000000000,17.0000000000000000,685.1662597660000520,49.0087471008000008,619.9224853519999660,684.1998901370000110,-379.8402709960000150,425.9597167969999980,27.3750000000000000,30.0120315552000001,44.4299999999999997,180.0000000000000000
0.0000000000000000,17.0000000000000000,685.1350097660000520,49.4300003051999965,619.4149780269999600,684.3201293949999800,-379.7599792479999790,425.7998352050000220,28.0000000000000000,30.0120315552000001,44.4299999999999997,180.0000000000000000
0.0000000000000000,17.0000000000000000,684.0762329100000440,49.1687507628999967,618.3512573240000160,685.3200073240000160,-379.6000366210000150,426.2399597169999760,27.3750000000000000,29.9808006286999990,44.4299999999999997,180.0000000000000000
0.0000000000000000,18.0000000000000000,490.5999755860000270,503.2374877930000130,619.7987060550000240,496.7995605469999980,-55.6400566100999967,742.5999755860000270,27.6875000000000000,30.0120315552000001,44.4299999999999997,135.0000000000000000
0.0000000000000000,18.0000000000000000,490.2687377930000130,502.8362426759999830,620.9012451170000300,496.5598449710000180,-55.7601394652999999,742.1201171879999940,27.6875000000000000,29.9808006286999990,44.4299999999999997,135.0000000000000000
0.0000000000000000,18.0000000000000000,489.9687500000000000,502.9012451169999730,621.4525146480000320,497.3601379390000260,-55.8800315857000029,742.4397583009999830,27.3750000000000000,29.9808006286999990,44.4299999999999997,135.0000000000000000
0.0000000000000000,18.0000000000000000,490.3574829099999870,503.4387512210000180,620.3099975589999520,497.6004638669999730,-55.6798667907999984,742.4797973629999880,27.6875000000000000,29.9808006286999990,44.4299999999999997,135.0000000000000000
0.0000000000000000,18.0000000000000000,490.7712402340000040,503.1137390139999750,620.7162475589999520,497.1600646969999950,-55.3599205017000031,742.5599975589999520,27.6875000000000000,29.9808006286999990,44.4299999999999997,135.0000000000000000
0.0000000000000000,18.0000000000000000,490.2200012210000180,503.2737426759999830,620.7999877930000130,496.3600158689999940,-55.9999809265000010,742.9999999999999990,27.6875000000000000,30.0120315552000001,44.4299999999999997,135.0000000000000000
0.0000000000000000,18.0000000000000000,489.9387512210000180,503.8487243650000090,620.3999633790000410,497.0400695800000220,-55.5999794005999987,742.5203247069999850,27.3750000000000000,30.0120315552000001,44.4299999999999997,135.0000000000000000
0.0000000000000000,18.0000000000000000,490.0987243650000090,503.6424865719999950,619.6849975589999520,497.2398986819999890,-55.7999610900999982,743.1190185550000240,27.6875000000000000,30.0120315552000001,44.4299999999999997,135.0000000000000000
0.0000000000000000,18.0000000000000000,490.9974975590000090,503.3387451169999730,619.7587280269999600,495.9998474120000080,-56.1602325439000012,742.9996948240000160,27.6875000000000000,30.0120315552000001,44.4299999999999997,135.0000000000000000
0.0000000000000000,18.0000000000000000,490.2412414550000220,503.0662536620000080,620.1662597660000520,497.1195983889999750,-55.6001586913999972,741.5996704100000440,28.0000000000000000,30.0120315552000001,44.4299999999999997,135.0000000000000000
0.0000000000000000,19.0000000000000000,35.3787498474000017,687.6837158199999740,620.1724853519999660,38.7196273803999986,82.9199981688999940,876.2801513670000300,27.6875000000000000,30.0120315552000001,44.4299999999999997,89.9999999999999999
0.0000000000000000,19.0000000000000000,35.2387504578000019,687.4649658199999740,619.4887084959999580,38.1601791382000002,82.8801574706999986,874.9998168949999800,27.6875000000000000,30.0120315552000001,44.4299999999999997,89.9999999999999999
0.0000000000000000,19.0000000000000000,35.1749992371000033,687.1275024410000460,619.5837402339999460,39.1599960327000005,82.9599990844999979,874.5999755860000270,27.6875000000000000,30.0120315552000001,44.4299999999999997,89.9999999999999999
0.0000000000000000,19.0000000000000000,35.4150009155000020,687.3037109379999940,620.1275024410000460,37.8394393920999974,82.6801147461000027,874.3197631839999520,28.0000000000000000,30.0120315552000001,44.4299999999999997,89.9999999999999999
0.0000000000000000,19.0000000000000000,34.8612480163999976,687.4437255860000270,620.7712402339999460,37.8394546509000022,82.4399948119999947,874.3997192379999880,28.0000000000000000,30.0120315552000001,44.4299999999999997,89.9999999999999999
0.0000000000000000,19.0000000000000000,34.3012504578000019,687.1900024410000460,620.1312255860000270,37.9998397827000005,82.4800567627000020,874.1597290040000410,27.3750000000000000,30.0120315552000001,44.4299999999999997,89.9999999999999999
0.0000000000000000,19.0000000000000000,35.1612510681000003,687.6387329100000440,619.9812622069999860,38.6802139281999970,82.9602127075000055,874.9199829100000430,27.3750000000000000,30.0120315552000001,44.4299999999999997,89.9999999999999999
0.0000000000000000,19.0000000000000000,33.9974975586000028,687.4549560550000240,620.4037475589999520,38.3601570128999967,82.4401626587000038,874.4002685550000240,27.6875000000000000,30.0120315552000001,44.4299999999999997,89.9999999999999999
0.0000000000000000,19.0000000000000000,35.7712478637999993,687.7174682620000110,620.1762084959999580,39.4406204224000021,82.3598632812000062,874.7999877930000130,27.6875000000000000,29.9808006286999990,44.4299999999999997,89.9999999999999999
0.0000000000000000,19.0000000000000000,34.6462478637999993,687.8387451170000300,619.7074584959999580,39.3602790833000000,82.3998031616000048,874.5996704100000430,27.6875000000000000,29.9808006286999990,44.4299999999999997,89.9999999999999999
0.0000000000000000,20.0000000000000000,-426.9712524409999900,492.8612365719999950,613.5374755860000270,-427.0400695800000220,-49.1198959350999970,736.4002075199999800,28.3125000000000000,29.9808006286999990,44.4409999999999954,45.0000000000000000
0.0000000000000000,20.0000000000000000,-426.1624755860000270,492.3962402340000040,613.1387329100000440,-426.5203857419999730,-48.8398437500000000,736.6801147459999580,27.6875000000000000,29.9808006286999990,44.4409999999999954,45.0000000000000000
0.0000000000000000,20.0000000000000000,-425.7837524409999900,493.1112365719999950,612.7674560550000240,-427.1998291020000230,-49.1198616028000003,736.7600708009999830,27.3750000000000000,29.9808006286999990,44.4409999999999954,45.0000000000000000
0.0000000000000000,20.0000000000000000,-426.6662292479999790,492.9512329099999870,614.2899780269999600,-426.3600769039999810,-49.2800636292000007,736.3198242189999970,27.6875000000000000,29.9808006286999990,44.4409999999999954,45.0000000000000000
0.0000000000000000,20.0000000000000000,-426.2825012210000180,492.7337341310000050,613.5424804689999970,-426.3999023439999970,-49.6400184630999987,736.4799804689999970,27.6875000000000000,30.0120315552000001,44.4409999999999954,45.0000000000000000
0.0000000000000000,20.0000000000000000,-426.4837341310000050,493.0187377930000130,612.2737426759999830,-427.3203735349999870,-49.3201560974000017,736.2396850589999520,28.0000000000000000,30.0120315552000001,44.4409999999999954,45.0000000000000000
0.0000000000000000,20.0000000000000000,-426.0975036620000080,493.0524902340000030,612.9149780269999600,-426.5599975590000100,-49.0799751281999974,736.2400512699999800,27.6875000000000000,30.0120315552000001,44.4409999999999954,45.0000000000000000
0.0000000000000000,20.0000000000000000,-425.6674804689999970,492.4712524409999900,613.6049804689999970,-426.3197631840000100,-49.2001609802000032,735.8401489259999830,27.6875000000000000,29.9808006286999990,44.4299999999999997,45.0000000000000000
0.0000000000000000,20.0000000000000000,-426.1562500000000000,493.1237487789999810,613.8599853519999660,-426.4399108889999750,-49.2002182007000001,735.6796874999999990,27.6875000000000000,29.9808006286999990,44.4299999999999997,45.0000000000000000
0.0000000000000000,20.0000000000000000,-427.4474792479999790,492.7887268069999890,612.9024658199999740,-426.8396911620000080,-49.0800361633000008,737.3609008790000410,27.6875000000000000,29.9808006286999990,44.4299999999999997,45.0000000000000000
0.0000000000000000,21.0000000000000000,-615.1537475589999520,32.5912475586000028,607.1449584959999580,-614.0404663089999520,-370.6801452639999750,412.5999145509999830,27.6875000000000000,29.9808006286999990,44.4409999999999954,0.0000000000000000
0.0000000000000000,21.0000000000000000,-615.4525146480000320,32.9912490844999979,607.4874877930000130,-614.5197143550000190,-370.4799194340000100,413.0400390620000050,28.0000000000000000,29.9808006286999990,44.4409999999999954,0.0000000000000000
0.0000000000000000,21.0000000000000000,-614.6212158199999740,33.1087493895999998,607.0299682620000110,-614.5197753910000520,-370.6798400879999910,413.6802978520000230,27.6875000000000000,29.9808006286999990,44.4409999999999954,0.0000000000000000
0.0000000000000000,21.0000000000000000,-614.3862304689999970,33.0087509155000020,605.7187499999999990,-613.0397338870000110,-370.5200805659999900,412.2799987789999810,27.6875000000000000,29.9808006286999990,44.4409999999999954,0.0000000000000000
0.0000000000000000,21.0000000000000000,-614.5449829100000440,32.9837493895999998,605.4087524410000460,-613.6799316410000520,-370.7999877930000140,413.1199035640000260,28.0000000000000000,30.0120315552000001,44.4409999999999954,0.0000000000000000
0.0000000000000000,21.0000000000000000,-615.0612182620000110,32.6925010681000003,607.6412353519999660,-614.2797241209999580,-370.4799499509999800,412.4391174319999890,28.0000000000000000,30.0120315552000001,44.4409999999999954,0.0000000000000000
0.0000000000000000,21.0000000000000000,-614.2037353519999660,33.2150001525999982,606.8362426759999830,-613.8804321290000410,-370.6799926759999830,413.3203125000000000,28.0000000000000000,30.0120315552000001,44.4409999999999954,0.0000000000000000
0.0000000000000000,21.0000000000000000,-614.9462280269999600,32.7374992371000033,606.4525146480000320,-614.0399169920000300,-370.7598266599999870,412.3594055180000160,27.3750000000000000,29.9808006286999990,44.4409999999999954,0.0000000000000000
0.0000000000000000,21.0000000000000000,-614.4450073240000160,32.8525009155000020,606.4699707029999440,-614.9202880860000270,-371.2400817870000080,413.0401916499999970,27.3750000000000000,29.9808006286999990,44.4409999999999954,0.0000000000000000
0.0000000000000000,21.0000000000000000,-614.7499999999999990,32.4074974059999974,606.9749755860000270,-613.9598388670000300,-370.6799011229999790,412.9598999020000170,27.6875000000000000,29.9808006286999990,44.4409999999999954,0.0000000000000000
0.0000000000000000,22.0000000000000000,-415.5774841310000050,-421.8649902340000040,609.7637329100000440,-425.5598754879999880,-694.0798950199999800,95.9199295044000024,27.6875000000000000,30.0120315552000001,44.4409999999999954,-45.0000000000000000
0.0000000000000000,22.0000000000000000,-415.7287292479999790,-422.2525024409999900,607.8137207029999440,-424.8800048830000260,-694.7202758790000410,95.7998199463000048,27.6875000000000000,30.0120315552000001,44.4409999999999954,-45.0000000000000000
0.0000000000000000,22.0000000000000000,-415.9162292479999790,-422.0350036620000080,609.4562377930000130,-425.4398193360000270,-694.0000610350000440,94.9598007201999933,27.6875000000000000,30.0120315552000001,44.4409999999999954,-45.0000000000000000
0.0000000000000000,22.0000000000000000,-416.4799804689999970,-422.0824890139999750,609.2637329100000440,-424.7191162110000270,-693.6799926759999830,95.7601547241000048,27.3750000000000000,29.9808006286999990,44.4409999999999954,-45.0000000000000000
0.0000000000000000,22.0000000000000000,-415.6787414550000220,-422.1587524409999900,607.9649658199999740,-426.2799072270000230,-693.9199829100000440,95.4000549315999961,27.6875000000000000,29.9808006286999990,44.4409999999999954,-45.0000000000000000
0.0000000000000000,22.0000000000000000,-417.2962341310000050,-422.1624755860000270,608.7899780269999600,-425.6398010249999970,-694.3999633790000410,95.7593917847000000,28.0000000000000000,29.9808006286999990,44.4409999999999954,-45.0000000000000000
0.0000000000000000,22.0000000000000000,-416.1412353520000230,-422.4437255860000270,608.0324707029999440,-426.2803039550000220,-694.0402221680000130,95.0002899170000034,27.6875000000000000,29.9808006286999990,44.4409999999999954,-45.0000000000000000
0.0000000000000000,22.0000000000000000,-416.1524963379999910,-422.2149963379999910,608.8562622069999860,-425.3201904300000250,-693.9199829100000440,95.4799194336000027,27.6875000000000000,30.0120315552000001,44.4409999999999954,-45.0000000000000000
0.0000000000000000,22.0000000000000000,-415.5137329099999870,-422.0037536620000080,608.9174804689999970,-426.0799255370000080,-694.3200073240000160,95.3201522826999933,27.6875000000000000,30.0120315552000001,44.4409999999999954,-45.0000000000000000
0.0000000000000000,22.0000000000000000,-416.1687316890000260,-422.6124877930000130,609.0112304689999970,-425.7603149409999900,-693.8399658199999740,95.2404556273999958,27.6875000000000000,30.0120315552000001,44.4409999999999954,-45.0000000000000000
0.0000000000000000,23.0000000000000000,40.8962478637999993,-605.4987182620000110,615.5612182620000110,31.9204998015999983,-832.9997558589999460,-35.7598609924000001,27.6875000000000000,30.0120315552000001,44.4409999999999954,-89.9999999999999999
0.0000000000000000,23.0000000000000000,41.6699981689000012,-605.0287475589999520,614.5162353519999660,31.7200012206999986,-833.1195678709999580,-35.5601768494000012,27.6875000000000000,30.0120315552000001,44.4409999999999954,-89.9999999999999999
0.0000000000000000,23.0000000000000000,40.9712486267000031,-605.3175048829999690,615.7099609379999940,31.3195552825999996,-833.5999145509999830,-35.5195770264000003,27.6875000000000000,30.0120315552000001,44.4409999999999954,-89.9999999999999999
0.0000000000000000,23.0000000000000000,42.5625000000000000,-605.4199829100000440,615.1599731449999800,31.8796958922999991,-833.5200805660000460,-35.3997612000000003,28.0000000000000000,30.0120315552000001,44.4409999999999954,-89.9999999999999999
0.0000000000000000,23.0000000000000000,41.7762489318999996,-605.5100097660000520,615.0162353519999660,30.9598007202000005,-833.6799926759999830,-35.1198959350999970,27.6875000000000000,30.0120315552000001,44.4409999999999954,-89.9999999999999999
0.0000000000000000,23.0000000000000000,41.9412498474000017,-605.7837524410000460,614.7149658199999740,32.0001411438000005,-833.1998291019999660,-35.8398742676000026,27.6875000000000000,30.0120315552000001,44.4409999999999954,-89.9999999999999999
0.0000000000000000,23.0000000000000000,41.5637474059999974,-605.3312377930000130,615.3474731449999800,31.8803997039999984,-833.7603149410000460,-35.4398384093999965,27.3750000000000000,30.0120315552000001,44.4409999999999954,-89.9999999999999999
0.0000000000000000,23.0000000000000000,41.4174995421999980,-605.6774902339999460,614.3787231449999800,31.4000186919999997,-833.1198120120000100,-36.4401588440000026,27.6875000000000000,30.0120315552000001,44.4409999999999954,-89.9999999999999999
0.0000000000000000,23.0000000000000000,42.1599998474000017,-605.5125122069999860,615.3462524410000460,31.3595600127999994,-833.4799804689999970,-36.4806823730000005,28.0000000000000000,30.0120315552000001,44.4409999999999954,-89.9999999999999999
0.0000000000000000,23.0000000000000000,40.9500007628999967,-605.5262451170000300,614.8724975589999520,31.0799350738999997,-833.5201416019999660,-35.3200378418000014,27.6875000000000000,30.0120315552000001,44.4409999999999954,-89.9999999999999999
0.0000000000000000,24.0000000000000000,501.0287475590000090,-408.8549804689999970,616.3974609379999940,500.1197509770000230,-700.3200073240000160,102.0397109989999930,27.6875000000000000,29.9808006286999990,44.4299999999999997,-135.0000000000000000
0.0000000000000000,24.0000000000000000,501.1412353520000230,-408.8112487789999810,616.3499755860000270,499.8799133300000220,-700.1197509769999660,103.1203613280000010,27.6875000000000000,29.9808006286999990,44.4409999999999954,-135.0000000000000000
0.0000000000000000,24.0000000000000000,501.6749877930000130,-408.6575012210000180,615.8875122069999860,500.4001464840000030,-700.2799682620000110,102.6001510619999950,27.3750000000000000,29.9808006286999990,44.4409999999999954,-135.0000000000000000
0.0000000000000000,24.0000000000000000,501.3912353520000230,-408.9237365719999950,615.4462280269999600,499.5999450680000100,-700.5599975589999520,103.6402435300000060,27.3750000000000000,30.0120315552000001,44.4409999999999954,-135.0000000000000000
0.0000000000000000,24.0000000000000000,500.8624877930000130,-408.9774780270000170,616.3012084959999580,500.8401489259999830,-700.2801513670000300,102.1196746829999990,27.3750000000000000,30.0120315552000001,44.4409999999999954,-135.0000000000000000
0.0000000000000000,24.0000000000000000,501.2999877930000130,-409.0549926759999830,616.8499755860000270,499.7199401859999730,-700.2001953120000050,102.1594238280000010,27.6875000000000000,30.0120315552000001,44.4299999999999997,-135.0000000000000000
0.0000000000000000,24.0000000000000000,500.9062500000000000,-409.1174926759999830,615.7874755860000270,500.3601379390000260,-700.5601196290000410,102.1596450809999940,27.6875000000000000,29.9808006286999990,44.4299999999999997,-135.0000000000000000
0.0000000000000000,24.0000000000000000,501.5862426759999830,-408.7037353520000230,616.6900024410000460,500.0799865719999950,-699.8798828120000050,102.1996841429999990,27.6875000000000000,29.9808006286999990,44.4299999999999997,-135.0000000000000000
0.0000000000000000,24.0000000000000000,500.2899780270000170,-409.1737365719999950,615.8949584959999580,499.5998840330000230,-700.1600341800000240,102.5199508670000060,28.0000000000000000,29.9808006286999990,44.4409999999999954,-135.0000000000000000
0.0000000000000000,24.0000000000000000,500.6537475590000090,-408.9400024409999900,616.8850097660000520,500.1198730469999980,-700.1598510740000160,101.9200744630000060,28.0000000000000000,29.9808006286999990,44.4409999999999954,-135.0000000000000000
0.0000000000000000,25.0000000000000000,408.5675048830000260,46.7837486267000031,810.0499877930000130,402.5197448729999790,-515.9199218750000000,562.5199584959999580,27.6875000000000000,29.9808006286999990,66.2800000000000011,180.0000000000000000
0.0000000000000000,25.0000000000000000,407.4462280270000170,46.8849983214999994,809.9612426759999830,401.5997924800000190,-515.7598876949999740,564.2000732420000300,27.6875000000000000,29.9808006286999990,66.2800000000000011,180.0000000000000000
0.0000000000000000,25.0000000000000000,408.0924987789999810,46.8349990844999979,810.3150024410000460,403.7203063960000120,-515.7999877930000130,563.5600585939999970,27.6875000000000000,29.9808006286999990,66.2800000000000011,180.0000000000000000
0.0000000000000000,25.0000000000000000,408.1287536620000080,46.5462493895999998,809.3937377930000130,402.6401367189999970,-515.9998779300000250,562.7600097660000520,27.3750000000000000,29.9808006286999990,66.2800000000000011,180.0000000000000000
0.0000000000000000,25.0000000000000000,406.9474792479999790,46.5587501525999982,809.6474609379999940,402.2796936039999870,-515.6400756839999530,563.7199707029999440,27.6875000000000000,29.9808006286999990,66.2900000000000062,180.0000000000000000
0.0000000000000000,25.0000000000000000,408.3324890139999750,46.5412483214999994,810.3462524410000460,402.2398986819999890,-515.8798828120000050,563.5197753910000520,27.3750000000000000,29.9808006286999990,66.2900000000000062,180.0000000000000000
0.0000000000000000,25.0000000000000000,408.1949768069999890,46.9949989318999996,809.7999877930000130,403.4803161620000080,-516.0800170899999550,562.0397338870000110,27.6875000000000000,29.9808006286999990,66.2900000000000062,180.0000000000000000
0.0000000000000000,25.0000000000000000,408.2774963379999910,46.6299972533999991,809.9774780269999600,402.7602539060000020,-515.9600219730000380,563.8400878910000520,27.6875000000000000,29.9808006286999990,66.2900000000000062,180.0000000000000000
0.0000000000000000,25.0000000000000000,407.7974853520000230,46.9337501525999982,810.3399658199999740,403.0801391599999870,-515.7199707029999440,562.9597778319999860,27.3750000000000000,29.9808006286999990,66.2900000000000062,180.0000000000000000
0.0000000000000000,25.0000000000000000,408.1962280270000170,46.3637504578000019,810.8037109379999940,402.8001403810000050,-516.3198852540000410,563.3998413089999530,27.6875000000000000,29.9808006286999990,66.2900000000000062,180.0000000000000000
0.0000000000000000,26.0000000000000000,292.8049926759999830,304.6199951169999730,814.4612426759999830,292.8398742680000170,-330.5596923830000260,745.5200805660000460,27.6875000000000000,29.9495716095000013,66.2800000000000011,135.0000000000000000
0.0000000000000000,26.0000000000000000,293.4312438960000120,304.6962280270000180,814.4787597660000520,292.4799194340000100,-330.7202758789999840,745.3596801759999830,27.6875000000000000,29.9495716095000013,66.2800000000000011,135.0000000000000000
0.0000000000000000,26.0000000000000000,293.1199951169999730,304.5112304689999970,814.3587036129999880,294.5203857419999730,-330.8399047849999870,745.6404418949999800,27.6875000000000000,29.9808006286999990,66.2900000000000062,135.0000000000000000
0.0000000000000000,26.0000000000000000,292.9537353520000240,304.4649963379999910,814.2174682620000100,292.8399047849999870,-330.7598876949999750,746.0004272459999580,27.6875000000000000,29.9808006286999990,66.2900000000000062,135.0000000000000000
0.0000000000000000,26.0000000000000000,292.9337463379999910,304.1549987789999820,813.5574951170000300,293.2803955080000260,-330.8800659180000140,745.9202880860000270,27.6875000000000000,29.9808006286999990,66.2800000000000011,135.0000000000000000
0.0000000000000000,26.0000000000000000,292.4524841310000050,304.0062561039999870,814.1574707029999440,293.0002136229999790,-330.6399841310000050,745.8808593749999990,27.3750000000000000,29.9808006286999990,66.2800000000000011,135.0000000000000000
0.0000000000000000,26.0000000000000000,293.2624816890000260,303.8937377930000140,813.5424804689999970,292.7999267580000260,-330.3999633789999840,745.6806640620000050,27.6875000000000000,29.9808006286999990,66.2800000000000011,135.0000000000000000
0.0000000000000000,26.0000000000000000,292.4775085449999780,304.6124877930000140,814.3599853519999660,293.2801208500000030,-331.0001831050000190,745.9999999999999990,27.6875000000000000,29.9808006286999990,66.2900000000000062,135.0000000000000000
0.0000000000000000,26.0000000000000000,291.6650085449999780,303.9912414550000220,813.9274902339999460,292.6401062009999800,-331.0001525879999910,744.8796997069999850,27.6875000000000000,29.9808006286999990,66.2900000000000062,135.0000000000000000
0.0000000000000000,26.0000000000000000,292.2949829099999870,304.3624877930000140,813.2787475589999520,294.1203308109999740,-330.5600280759999800,745.0396728519999660,27.6875000000000000,29.9808006286999990,66.2900000000000062,135.0000000000000000
0.0000000000000000,27.0000000000000000,33.0074996948000034,411.6549987789999810,809.3724975589999520,35.3201179503999967,-253.8401336670000030,819.3201904300000240,27.3750000000000000,29.9808006286999990,66.2900000000000062,89.9999999999999999
0.0000000000000000,27.0000000000000000,33.4425010681000003,411.5137329099999870,808.7762451170000300,35.1196403503000027,-253.8399963379999910,818.4803466800000240,28.0000000000000000,29.9808006286999990,66.2900000000000062,89.9999999999999999
0.0000000000000000,27.0000000000000000,33.2212486267000031,411.3349914550000220,808.2487182620000100,35.2002639771000005,-253.5198364260000120,817.7196655269999600,27.6875000000000000,29.9808006286999990,66.2900000000000062,89.9999999999999999
0.0000000000000000,27.0000000000000000,33.5712509155000020,412.2037353520000230,809.0512084959999580,35.0397758483999979,-253.4799346920000000,817.2395629879999880,27.6875000000000000,29.9808006286999990,66.2900000000000062,89.9999999999999999
0.0000000000000000,27.0000000000000000,32.6712493895999998,411.4787292479999790,809.0962524410000460,35.0400390625000000,-253.8799896239999890,817.8003540040000410,27.6875000000000000,29.9808006286999990,66.2900000000000062,89.9999999999999999
0.0000000000000000,27.0000000000000000,34.0074996948000034,411.3199768069999890,809.4387207029999440,34.8399810790999993,-253.7599029540000110,818.1599731449999800,27.6875000000000000,29.9808006286999990,66.2900000000000062,89.9999999999999999
0.0000000000000000,27.0000000000000000,33.2412490844999979,411.7337341310000050,808.8049926759999830,35.0004005432000014,-253.8400878909999960,817.5598144529999440,27.3750000000000000,29.9808006286999990,66.2900000000000062,89.9999999999999999
0.0000000000000000,27.0000000000000000,33.3562507628999967,411.3399963379999910,809.0650024410000460,34.9602584838999988,-253.6399536129999890,817.9202880860000270,27.6875000000000000,29.9808006286999990,66.2900000000000062,89.9999999999999999
0.0000000000000000,27.0000000000000000,32.4324989318999996,411.9425048830000260,809.1524658199999740,34.4399833678999982,-253.5201110840000070,817.9999999999999990,27.6875000000000000,29.9808006286999990,66.2900000000000062,89.9999999999999999
0.0000000000000000,27.0000000000000000,32.8962478637999993,411.7012329099999870,809.3349609379999940,35.1599807739000027,-253.6400146480000040,818.5601196290000410,27.6875000000000000,29.9808006286999990,66.2900000000000062,89.9999999999999999
0.0000000000000000,28.0000000000000000,-231.1624908450000080,299.6912536620000080,806.0050048829999690,-231.8397979739999920,-330.0399780270000180,737.3602294920000300,27.3750000000000000,29.9808006286999990,66.2900000000000062,45.0000000000000000
0.0000000000000000,28.0000000000000000,-231.3600006099999860,299.6337585449999780,806.5387573240000160,-231.6397857670000060,-329.8800353999999970,737.3596801759999830,28.0000000000000000,29.9808006286999990,66.2900000000000062,45.0000000000000000
0.0000000000000000,28.0000000000000000,-230.8399963379999920,299.4899902340000040,807.1375122069999850,-231.6001892090000070,-329.9199523930000170,737.3601684569999850,27.6875000000000000,29.9808006286999990,66.2900000000000062,45.0000000000000000
0.0000000000000000,28.0000000000000000,-230.8574981689999960,299.3624877930000140,806.4899902339999460,-232.4001464840000040,-329.1997680659999900,737.3999633790000410,27.6875000000000000,29.9808006286999990,66.2900000000000062,45.0000000000000000
0.0000000000000000,28.0000000000000000,-230.8499908450000080,299.5299987789999820,805.9749755860000270,-230.7595825200000090,-329.8800659180000140,737.0399169920000300,27.3750000000000000,29.9808006286999990,66.2900000000000062,45.0000000000000000
0.0000000000000000,28.0000000000000000,-230.5924987790000100,299.5424804689999970,806.4362182620000100,-231.8399963379999920,-330.0002136229999790,737.6799926759999830,28.0000000000000000,29.9808006286999990,66.2900000000000062,45.0000000000000000
0.0000000000000000,28.0000000000000000,-231.5249938960000120,299.3624877930000140,805.6824951170000300,-231.8000335689999930,-329.7201232909999930,737.5602416990000160,27.6875000000000000,29.9808006286999990,66.2900000000000062,45.0000000000000000
0.0000000000000000,28.0000000000000000,-231.0849914549999940,299.4824829099999870,807.9162597660000520,-231.3600463870000110,-330.0399169919999730,737.8798828120000050,28.0000000000000000,29.9808006286999990,66.2900000000000062,45.0000000000000000
0.0000000000000000,28.0000000000000000,-231.4974975590000100,299.5799865719999950,805.9737548829999690,-231.4801483150000080,-329.5199584960000150,738.8399047850000440,27.6875000000000000,29.9808006286999990,66.2900000000000062,45.0000000000000000
0.0000000000000000,28.0000000000000000,-230.1250000000000000,299.6012573240000160,807.6749877930000130,-231.5595397950000060,-329.7599792479999790,736.8399658199999740,27.6875000000000000,29.9808006286999990,66.2900000000000062,45.0000000000000000
0.0000000000000000,29.0000000000000000,-335.7287292479999790,34.4637489318999996,804.0987548829999690,-337.2799072270000230,-512.4801635740000160,554.5597534180000130,27.6875000000000000,29.9808006286999990,66.2900000000000062,0.0000000000000000
0.0000000000000000,29.0000000000000000,-335.5212402340000040,34.9974975586000028,804.9612426759999830,-337.4401855469999980,-512.0398559569999860,555.4801025389999720,27.6875000000000000,29.9808006286999990,66.2900000000000062,0.0000000000000000
0.0000000000000000,29.0000000000000000,-336.4762573240000160,35.5900001525999982,805.3062133790000410,-336.9202270509999830,-512.3999633790000410,555.0800170899999550,27.6875000000000000,29.9808006286999990,66.2900000000000062,0.0000000000000000
0.0000000000000000,29.0000000000000000,-336.0512390139999750,35.2737503051999965,804.6112060550000240,-336.5998229979999790,-512.3599243160000460,555.2800903319999860,27.6875000000000000,29.9808006286999990,66.2900000000000062,0.0000000000000000
0.0000000000000000,29.0000000000000000,-335.8524780270000180,35.0924987793000014,804.2937622069999850,-336.4399108889999750,-512.7600097660000520,553.7996826170000300,27.6875000000000000,29.9808006286999990,66.2900000000000062,0.0000000000000000
0.0000000000000000,29.0000000000000000,-336.9212341310000050,34.7512474059999974,805.4037475589999520,-336.8794555659999900,-512.6398925779999440,556.0402832029999440,27.6875000000000000,29.9808006286999990,66.2900000000000062,0.0000000000000000
0.0000000000000000,29.0000000000000000,-336.7374877930000140,35.0374984740999977,805.6649780269999600,-337.4801635740000160,-512.6799926759999830,554.5203247069999860,27.6875000000000000,29.9808006286999990,66.2900000000000062,0.0000000000000000
0.0000000000000000,29.0000000000000000,-337.7812500000000000,35.0737495421999980,804.7774658199999740,-337.0801391599999870,-512.4800415040000410,555.1198730470000550,28.0000000000000000,29.9808006286999990,66.2900000000000062,0.0000000000000000
0.0000000000000000,29.0000000000000000,-336.5499877930000140,34.5012474059999974,805.7487182620000100,-336.7200622560000050,-512.4000244139999720,554.4798583980000320,28.0000000000000000,29.9808006286999990,66.2900000000000062,0.0000000000000000
0.0000000000000000,29.0000000000000000,-337.2412414550000220,35.1025009155000020,804.4362182620000100,-336.7196655270000180,-513.0000610350000440,555.2001342769999600,27.6875000000000000,29.9808006286999990,66.2900000000000062,0.0000000000000000
0.0000000000000000,30.0000000000000000,-225.2174987790000100,-226.8424987790000100,803.9162597660000520,-228.9194641109999960,-695.7600097660000520,373.8800353999999970,27.6875000000000000,29.9808006286999990,66.3000000000000113,-45.0000000000000000
0.0000000000000000,30.0000000000000000,-224.9449920650000080,-226.1737518310000040,804.0675048829999690,-228.5199432370000070,-696.1599731449999800,373.0399780270000170,27.6875000000000000,29.9808006286999990,66.3000000000000113,-45.0000000000000000
0.0000000000000000,30.0000000000000000,-224.5287475590000100,-226.1374969480000060,804.4749755860000270,-228.5197448730000070,-696.3598022459999580,374.4803161620000080,27.6875000000000000,29.9808006286999990,66.3000000000000113,-45.0000000000000000
0.0000000000000000,30.0000000000000000,-225.7012481689999960,-226.3999938960000120,803.5824584959999580,-229.1203002930000140,-696.5198974610000270,372.9598388669999730,27.6875000000000000,29.9808006286999990,66.3000000000000113,-45.0000000000000000
0.0000000000000000,30.0000000000000000,-224.6624908450000080,-226.7274932859999980,804.8812255860000270,-228.3199157710000120,-696.1601562499999990,373.6003112789999810,27.3750000000000000,29.9808006286999990,66.3000000000000113,-45.0000000000000000
0.0000000000000000,30.0000000000000000,-224.7874908450000080,-226.4937438960000120,804.3200073240000160,-228.7201538090000100,-696.2000122069999850,373.7599182129999910,27.3750000000000000,29.9808006286999990,66.3000000000000113,-45.0000000000000000
0.0000000000000000,30.0000000000000000,-225.5137481689999960,-226.5212402340000040,803.8212280269999600,-228.4800872799999920,-696.2000122069999850,373.9196472169999760,27.6875000000000000,29.9808006286999990,66.3000000000000113,-45.0000000000000000
0.0000000000000000,30.0000000000000000,-225.3287506099999860,-226.3162384030000000,803.7625122069999850,-229.1596832280000060,-696.5599365230000320,374.2802124020000170,27.3750000000000000,29.9808006286999990,66.3000000000000113,-45.0000000000000000
0.0000000000000000,30.0000000000000000,-225.3887481689999960,-226.2675018310000040,802.8912353519999660,-229.3202819820000110,-695.8800048829999690,373.9599609379999940,27.6875000000000000,29.9808006286999990,66.3000000000000113,-45.0000000000000000
0.0000000000000000,30.0000000000000000,-225.1537475590000100,-226.7762451170000020,803.4262084959999580,-228.9597930909999940,-696.2000122069999850,373.5198364259999830,27.6875000000000000,29.9808006286999990,66.3000000000000113,-45.0000000000000000
0.0000000000000000,31.0000000000000000,38.7249984740999977,-332.1387329099999870,805.9362182620000100,31.3996810912999997,-775.3198242189999970,298.2395935060000050,28.0000000000000000,29.9808006286999990,66.3000000000000113,-89.9999999999999999
0.0000000000000000,31.0000000000000000,38.2612495421999980,-332.5650024409999900,806.4724731449999800,31.9601783752000017,-775.1998291019999660,298.6797485349999870,28.0000000000000000,29.9808006286999990,66.3000000000000113,-89.9999999999999999
0.0000000000000000,31.0000000000000000,39.1362495421999980,-331.9462280270000180,806.5537109379999940,31.0401782990000008,-775.5198974610000270,298.7198791499999970,27.3750000000000000,29.9808006286999990,66.3000000000000113,-89.9999999999999999
0.0000000000000000,31.0000000000000000,38.3912506104000002,-332.0087280270000180,805.4987182620000100,31.9601173400999982,-775.3998413089999520,299.3599853520000240,28.0000000000000000,29.9808006286999990,66.2900000000000062,-89.9999999999999999
0.0000000000000000,31.0000000000000000,38.2937507628999967,-332.0162353520000230,806.6199951170000300,31.7599220275999982,-775.2800903319999850,299.1602783199999750,28.0000000000000000,29.9808006286999990,66.2900000000000062,-89.9999999999999999
0.0000000000000000,31.0000000000000000,38.6800003051999965,-332.0912475590000100,806.1562499999999990,31.8001613616999989,-775.4000854490000160,299.7600708009999830,27.6875000000000000,29.9808006286999990,66.2900000000000062,-89.9999999999999999
0.0000000000000000,31.0000000000000000,38.1800003051999965,-332.1862487789999820,806.2087402339999460,31.7600002289000009,-775.5600585939999970,298.9201354979999790,27.3750000000000000,29.9808006286999990,66.3000000000000113,-89.9999999999999999
0.0000000000000000,31.0000000000000000,39.2500000000000000,-332.5137329099999870,805.8775024410000460,30.5996990203999992,-775.2400512699999800,298.8801879879999880,27.6875000000000000,29.9495716095000013,66.3000000000000113,-89.9999999999999999
0.0000000000000000,31.0000000000000000,38.3162498474000017,-331.8800048830000260,806.3537597660000520,31.2801380157000004,-775.8402709959999580,299.1199646000000030,27.6875000000000000,29.9495716095000013,66.3000000000000113,-89.9999999999999999
0.0000000000000000,31.0000000000000000,38.6424980163999976,-332.1424865719999950,806.0637207029999440,32.0400581359999989,-775.3599243160000460,298.9198913569999830,28.0000000000000000,29.9495716095000013,66.3000000000000113,-89.9999999999999999
0.0000000000000000,32.0000000000000000,304.7825012210000180,-217.8887481689999960,807.4612426759999830,297.8399047849999870,-698.9599609379999940,380.0003051759999830,27.6875000000000000,29.9808006286999990,66.2900000000000062,-135.0000000000000000
0.0000000000000000,32.0000000000000000,304.5000000000000000,-217.5999908450000080,808.2162475589999520,299.2001037599999900,-699.0799560550000240,379.7599182129999910,28.0000000000000000,29.9808006286999990,66.2900000000000062,-135.0000000000000000
0.0000000000000000,32.0000000000000000,304.4937438960000120,-217.4887390140000030,807.8349609379999940,298.9600830080000260,-698.7600097660000520,378.8399963379999910,27.6875000000000000,29.9808006286999990,66.2900000000000062,-135.0000000000000000
0.0000000000000000,32.0000000000000000,303.8862304689999970,-217.6037445069999870,807.9437255860000270,298.1998901370000110,-698.8798217769999600,378.9595947270000230,27.6875000000000000,29.9495716095000013,66.2900000000000062,-135.0000000000000000
0.0000000000000000,32.0000000000000000,304.5487365719999950,-217.9562377930000140,807.5025024410000460,299.0004882810000020,-698.2000122069999850,379.2395935060000050,27.6875000000000000,29.9495716095000013,66.2900000000000062,-135.0000000000000000
0.0000000000000000,32.0000000000000000,304.2762451169999730,-217.6137390140000030,807.7012329100000440,298.2797546389999750,-698.4800415040000410,379.1999206539999810,28.0000000000000000,29.9495716095000013,66.2900000000000062,-135.0000000000000000
0.0000000000000000,32.0000000000000000,304.4075012210000180,-217.7987518310000040,807.4799804689999970,298.9996032710000120,-698.9202880860000270,378.2797546389999750,27.6875000000000000,29.9495716095000013,66.2900000000000062,-135.0000000000000000
0.0000000000000000,32.0000000000000000,304.7087402340000040,-217.6087493900000140,807.8137207029999440,298.5599975590000100,-698.9199829100000440,379.0398254390000260,27.6875000000000000,29.9808006286999990,66.2900000000000062,-135.0000000000000000
0.0000000000000000,32.0000000000000000,304.3750000000000000,-217.7012481689999960,807.3424682620000100,298.6401367189999970,-698.7199096680000130,379.7601013180000110,28.0000000000000000,29.9808006286999990,66.2900000000000062,-135.0000000000000000
0.0000000000000000,32.0000000000000000,303.6112365719999950,-217.9337463379999920,807.6687622069999850,298.5601806639999720,-699.0401611329999690,379.5600585939999970,27.6875000000000000,29.9808006286999990,66.2900000000000062,-135.0000000000000000
0.0000000000000000,33.0000000000000000,58.9025001525999982,40.7462501525999982,885.5862426759999830,55.3202629088999984,-567.7201538089999530,618.2000122069999860,27.6875000000000000,29.9808006286999990,89.1200000000000045,180.0000000000000000
0.0000000000000000,33.0000000000000000,59.0724983214999994,41.0962486267000031,885.6424560550000240,55.0400581359999989,-567.8403930660000460,618.5606079100000440,27.6875000000000000,29.9495716095000013,89.1200000000000045,180.0000000000000000
0.0000000000000000,33.0000000000000000,58.6512489318999996,40.6812477112000010,885.1937255860000270,54.4399986267000031,-566.9600830079999690,619.3596801759999830,27.6875000000000000,29.9495716095000013,89.1200000000000045,180.0000000000000000
0.0000000000000000,33.0000000000000000,59.2412490844999979,41.1412506104000002,885.3499755860000270,54.9601211547999994,-567.7200927730000320,618.5601806639999720,27.3750000000000000,29.9495716095000013,89.1200000000000045,180.0000000000000000
0.0000000000000000,33.0000000000000000,58.0562477112000010,40.5924987793000014,885.7324829100000430,54.4797744751000010,-567.5199584959999580,618.4401245120000110,27.6875000000000000,29.9495716095000013,89.1200000000000045,180.0000000000000000
0.0000000000000000,33.0000000000000000,58.4074974059999974,40.7337493895999998,886.3324584959999580,54.6798973082999992,-567.6002197269999660,618.5200805660000460,27.3750000000000000,29.9495716095000013,89.1200000000000045,180.0000000000000000
0.0000000000000000,33.0000000000000000,59.4674987793000014,40.6437492371000033,885.3274536129999880,54.4396820067999982,-567.6000366209999580,619.0001220699999740,27.6875000000000000,29.9495716095000013,89.1200000000000045,180.0000000000000000
0.0000000000000000,33.0000000000000000,58.0837478637999993,40.7975006104000002,885.4599609379999940,55.1200103760000033,-567.3599853519999660,618.9605712889999720,27.6875000000000000,29.9495716095000013,89.1200000000000045,180.0000000000000000
0.0000000000000000,33.0000000000000000,58.8099975586000027,40.4737472533999991,885.5974731449999800,55.4002838135000033,-567.5999755860000270,619.2003173829999690,27.6875000000000000,29.9495716095000013,89.1200000000000045,180.0000000000000000
0.0000000000000000,33.0000000000000000,57.6537475586000027,40.5787506104000002,885.4362182620000100,54.3595581054999996,-567.4799804689999970,618.6401367189999970,27.6875000000000000,29.9495716095000013,89.1200000000000045,180.0000000000000000
0.0000000000000000,34.0000000000000000,51.9599990844999979,57.0637474059999974,886.5449829100000430,46.9200363158999991,-556.2799072269999660,629.3601684569999860,27.6875000000000000,29.9808006286999990,89.1200000000000045,135.0000000000000000
0.0000000000000000,34.0000000000000000,51.5587501525999982,56.9699974059999974,887.4649658199999740,48.0399398803999986,-556.4801635740000160,629.7998046879999940,27.3750000000000000,29.9808006286999990,89.1200000000000045,135.0000000000000000
0.0000000000000000,34.0000000000000000,50.8724975586000027,56.3187484740999977,887.0174560550000240,47.3600349426000022,-556.4397583009999830,629.2401123050000240,27.6875000000000000,29.9808006286999990,89.1200000000000045,135.0000000000000000
0.0000000000000000,34.0000000000000000,51.4074974059999974,56.8600006104000002,886.9499511720000550,48.4400367737000010,-556.2799072269999660,629.3596801759999830,27.6875000000000000,29.9808006286999990,89.1200000000000045,135.0000000000000000
0.0000000000000000,34.0000000000000000,51.0687484740999977,56.7762489318999996,885.6874999999999990,47.5601196288999972,-556.5999145509999830,629.2398071290000410,27.6875000000000000,29.9495716095000013,89.1200000000000045,135.0000000000000000
0.0000000000000000,34.0000000000000000,50.8137474059999974,56.5837478637999993,886.3037109379999940,46.9598197936999994,-556.6400756839999530,629.9599609379999940,27.6875000000000000,29.9495716095000013,89.1200000000000045,135.0000000000000000
0.0000000000000000,34.0000000000000000,51.0187492371000033,56.9699974059999974,887.1699829100000430,47.5601196288999972,-556.2401733399999550,629.9598388670000300,27.3750000000000000,29.9495716095000013,89.1200000000000045,135.0000000000000000
0.0000000000000000,34.0000000000000000,50.8649978637999993,57.0224990844999979,885.7799682620000100,47.5601997374999996,-556.5600585939999970,629.3598022459999580,27.3750000000000000,29.9495716095000013,89.1200000000000045,135.0000000000000000
0.0000000000000000,34.0000000000000000,51.1474990844999979,57.1649971008000008,886.6087036129999880,47.1200523376000006,-556.3200683589999470,630.2001953120000050,27.3750000000000000,29.9808006286999990,89.1200000000000045,135.0000000000000000
0.0000000000000000,34.0000000000000000,50.6924972533999991,57.1337471008000008,886.3787231449999800,47.9200515746999968,-556.0398559569999860,629.0396118160000460,27.6875000000000000,29.9808006286999990,89.1200000000000045,135.0000000000000000
0.0000000000000000,35.0000000000000000,33.7062492371000033,63.0900001525999982,887.5787353519999660,31.3601799011000004,-551.9998168949999800,632.7198486329999690,27.6875000000000000,29.9495716095000013,89.1200000000000045,89.9999999999999999
0.0000000000000000,35.0000000000000000,33.8487510681000003,62.5737495421999980,887.8412475589999520,31.0400009154999985,-552.5200805660000460,632.9603271480000320,27.6875000000000000,29.9495716095000013,89.1200000000000045,89.9999999999999999
0.0000000000000000,35.0000000000000000,34.2762489318999996,62.6324996948000034,886.8862304689999960,31.6397361755000013,-552.7601928709999580,632.7196655269999600,28.0000000000000000,29.9495716095000013,89.1200000000000045,89.9999999999999999
0.0000000000000000,35.0000000000000000,34.6274986267000031,63.1324996948000034,887.5424804689999960,31.7599582671999982,-552.5599365230000320,634.1197509769999660,27.6875000000000000,29.9495716095000013,89.1200000000000045,89.9999999999999999
0.0000000000000000,35.0000000000000000,33.6537475586000028,62.6562500000000000,887.2312011720000550,31.6799411773999999,-552.3999633790000410,633.8402099610000270,27.6875000000000000,29.9808006286999990,89.1200000000000045,89.9999999999999999
0.0000000000000000,35.0000000000000000,34.4837493895999998,63.0887489318999996,888.2562255860000270,31.1202049255000013,-552.4802246089999470,634.6401367189999970,27.6875000000000000,29.9808006286999990,89.1200000000000045,89.9999999999999999
0.0000000000000000,35.0000000000000000,34.0400009155000020,63.1512489318999996,886.8262329100000430,30.9599399567000013,-552.4799194339999530,632.7598876949999740,27.6875000000000000,29.9808006286999990,89.1200000000000045,89.9999999999999999
0.0000000000000000,35.0000000000000000,33.9150009155000020,62.5912475586000027,886.8262329100000430,30.5995388030999997,-552.3999633790000410,634.0803833009999830,27.6875000000000000,29.9495716095000013,89.1200000000000045,89.9999999999999999
0.0000000000000000,35.0000000000000000,34.7712478637999993,62.8325004578000019,887.1762084959999580,31.5599403380999987,-552.6800537110000270,633.8801269529999440,28.0000000000000000,29.9495716095000013,89.1200000000000045,89.9999999999999999
0.0000000000000000,35.0000000000000000,35.3937492371000033,62.6187477112000010,887.1937255860000270,31.0397396088000015,-552.2000732420000300,634.5202026370000110,28.0000000000000000,29.9495716095000013,89.1200000000000045,89.9999999999999999
0.0000000000000000,36.0000000000000000,17.1012496947999999,54.8187484740999977,887.0924682620000100,15.1601018906000000,-558.2001953120000050,628.9206542970000550,27.3750000000000000,29.9808006286999990,89.1300000000000096,45.0000000000000000
0.0000000000000000,36.0000000000000000,16.4899997710999990,54.4074974059999974,886.0337524410000460,15.4801988601999998,-557.4799194339999530,628.1600341800000240,27.6875000000000000,29.9808006286999990,89.1300000000000096,45.0000000000000000
0.0000000000000000,36.0000000000000000,17.3587493895999998,54.3600006104000002,887.1012573240000160,15.1601190566999993,-557.7998046879999940,628.4401245120000110,27.3750000000000000,29.9808006286999990,89.1200000000000045,45.0000000000000000
0.0000000000000000,36.0000000000000000,17.1637496947999999,54.5112495421999980,887.3699951170000300,15.1195592879999996,-557.8399658199999740,627.5599975589999520,28.0000000000000000,29.9495716095000013,89.1300000000000096,45.0000000000000000
0.0000000000000000,36.0000000000000000,17.4424991608000006,54.4612503051999965,886.7287597660000520,15.8001995087000004,-557.5999755860000270,627.8000488279999440,28.0000000000000000,29.9495716095000013,89.1300000000000096,45.0000000000000000
0.0000000000000000,36.0000000000000000,17.1099987029999987,54.3524971008000008,886.8187255860000270,14.4395599365000002,-557.7200927730000320,627.3998413089999520,27.6875000000000000,29.9495716095000013,89.1300000000000096,45.0000000000000000
0.0000000000000000,36.0000000000000000,17.7425003052000001,54.1574974059999974,887.1350097660000520,14.2796802521000004,-557.5601806639999720,628.2400512699999800,27.6875000000000000,29.9495716095000013,89.1300000000000096,45.0000000000000000
0.0000000000000000,36.0000000000000000,17.4137496947999999,54.3974990844999979,886.7137451170000300,15.7200975417999995,-557.8402099610000270,627.3997192379999880,27.3750000000000000,29.9808006286999990,89.1300000000000096,45.0000000000000000
0.0000000000000000,36.0000000000000000,16.5025005341000010,54.3099975586000027,887.0162353519999660,14.9198007583999992,-557.6799926759999830,626.9993896480000320,27.6875000000000000,29.9808006286999990,89.1300000000000096,45.0000000000000000
0.0000000000000000,36.0000000000000000,17.2287502289000010,54.6037483214999994,886.8037109379999940,15.3200397490999993,-557.2796630860000270,628.2800903319999860,27.6875000000000000,29.9808006286999990,89.1200000000000045,45.0000000000000000
0.0000000000000000,37.0000000000000000,11.9749994278000003,37.8899993895999998,886.9887084959999580,9.0795803070099996,-569.4000244139999720,616.7603759769999660,27.6875000000000000,29.9808006286999990,89.1300000000000096,0.0000000000000000
0.0000000000000000,37.0000000000000000,11.9412498473999999,38.4199981689000012,886.0862426759999830,9.6402196884200002,-569.0800170899999550,616.4797973629999880,27.6875000000000000,29.9808006286999990,89.1300000000000096,0.0000000000000000
0.0000000000000000,37.0000000000000000,11.8499994278000003,37.7912483214999994,887.3862304689999960,8.4797601699800005,-569.3200073240000160,616.8001708980000320,28.0000000000000000,29.9808006286999990,89.1300000000000096,0.0000000000000000
0.0000000000000000,37.0000000000000000,11.8175001143999996,38.4824981689000012,885.8924560550000240,10.0403194426999995,-569.5601196290000410,616.5199584959999580,28.0000000000000000,29.9495716095000013,89.1300000000000096,0.0000000000000000
0.0000000000000000,37.0000000000000000,12.2299995421999998,37.4399986267000031,886.2749633790000410,10.1599397659000008,-568.8399047850000440,616.3600463870000110,27.3750000000000000,29.9495716095000013,89.1300000000000096,0.0000000000000000
0.0000000000000000,37.0000000000000000,12.4774999618999995,37.8137474059999974,886.5100097660000520,9.1198987960799993,-569.1600341800000250,616.7202148439999970,27.6875000000000000,29.9495716095000013,89.1300000000000096,0.0000000000000000
0.0000000000000000,37.0000000000000000,12.8337497711000008,37.4524993895999998,885.9024658199999740,9.2402801513699995,-569.5198974610000270,616.5199584959999580,27.6875000000000000,29.9495716095000013,89.1300000000000096,0.0000000000000000
0.0000000000000000,37.0000000000000000,11.8312501907000005,37.6137504578000019,886.8762207029999440,9.6801996231099991,-568.7600097660000520,616.2801513670000300,27.3750000000000000,29.9495716095000013,89.1300000000000096,0.0000000000000000
0.0000000000000000,37.0000000000000000,11.4049997330000004,37.4487495421999980,886.5012207029999440,8.9196777343800004,-568.9199829100000440,616.6802368160000460,27.6875000000000000,29.9495716095000013,89.1300000000000096,0.0000000000000000
0.0000000000000000,37.0000000000000000,11.6887493134000007,38.1774978637999993,885.5662231449999800,8.5997390747099995,-568.9999999999999990,616.3594970699999740,27.6875000000000000,29.9495716095000013,89.1300000000000096,0.0000000000000000
0.0000000000000000,38.0000000000000000,19.7487487793000014,21.6724987029999987,884.5862426759999830,16.7595424651999991,-579.9600830079999690,605.3599243160000460,27.6875000000000000,29.9495716095000013,89.1300000000000096,-45.0000000000000000
0.0000000000000000,38.0000000000000000,20.5674991608000006,21.5574989318999996,885.0075073240000160,17.1596794127999992,-580.1600952149999550,606.1202392579999690,27.6875000000000000,29.9495716095000013,89.1300000000000096,-45.0000000000000000
0.0000000000000000,38.0000000000000000,19.7250003814999992,21.5862503052000001,886.1749877930000130,17.4801197051999999,-580.0401000980000380,605.6401367189999970,27.6875000000000000,29.9495716095000013,89.1300000000000096,-45.0000000000000000
0.0000000000000000,38.0000000000000000,19.7837486266999995,21.4762496947999999,885.4974975589999520,16.5596580505000013,-579.6799316410000520,605.5997314449999740,27.6875000000000000,29.9495716095000013,89.1300000000000096,-45.0000000000000000
0.0000000000000000,38.0000000000000000,20.9662494658999989,21.3587493895999998,885.6562499999999990,16.6797790526999989,-580.0798950199999800,605.6400146480000320,27.6875000000000000,29.9495716095000013,89.1300000000000096,-45.0000000000000000
0.0000000000000000,38.0000000000000000,20.0487499237000008,21.8437500000000000,885.7874755860000270,16.8396987914999983,-579.7200927730000320,604.7996215819999860,27.3750000000000000,29.9495716095000013,89.1300000000000096,-45.0000000000000000
0.0000000000000000,38.0000000000000000,20.0974998474000017,21.2849998474000017,885.9112548829999690,17.7201194762999989,-580.1599731449999800,605.0000610350000440,27.6875000000000000,29.9495716095000013,89.1300000000000096,-45.0000000000000000
0.0000000000000000,38.0000000000000000,19.8787498474000017,21.3762493133999989,885.2537231449999800,17.3200817108000002,-580.1199951170000300,605.9602050779999440,27.6875000000000000,29.9495716095000013,89.1300000000000096,-45.0000000000000000
0.0000000000000000,38.0000000000000000,20.1949996947999999,21.8112487793000014,886.2787475589999520,17.6004810332999995,-580.5200805660000460,606.2000732420000300,27.6875000000000000,29.9495716095000013,89.1300000000000096,-45.0000000000000000
0.0000000000000000,38.0000000000000000,19.6137504577999984,21.3149986266999995,885.1900024410000460,17.9200592040999993,-580.1600952149999550,605.1995239259999830,27.6875000000000000,29.9495716095000013,89.1300000000000096,-45.0000000000000000
0.0000000000000000,39.0000000000000000,36.6862487793000014,16.1812496185000008,885.9762573240000160,34.1600990295000031,-583.9998779300000250,600.8800048829999690,28.0000000000000000,29.9495716095000013,89.1300000000000096,-89.9999999999999999
0.0000000000000000,39.0000000000000000,36.5099983214999994,16.2174987793000014,885.7525024410000460,33.7601623535000001,-584.0800170899999550,600.9995727540000410,27.6875000000000000,29.9495716095000013,89.1300000000000096,-89.9999999999999999
0.0000000000000000,39.0000000000000000,35.7524986267000031,16.3024997710999990,885.7124633790000410,33.7197418212999977,-584.5602416990000160,601.4401245120000110,27.6875000000000000,29.9495716095000013,89.1300000000000096,-89.9999999999999999
0.0000000000000000,39.0000000000000000,36.7062492371000033,15.6012496947999999,886.1950073240000160,34.0003814697000024,-583.9199218749999990,601.3999633790000410,27.6875000000000000,29.9495716095000013,89.1300000000000096,-89.9999999999999999
0.0000000000000000,39.0000000000000000,36.6337509155000020,16.0612487793000014,885.9962158199999740,33.6401977538999972,-584.3200683589999470,600.9596557620000110,27.6875000000000000,29.9495716095000013,89.1300000000000096,-89.9999999999999999
0.0000000000000000,39.0000000000000000,36.6074981689000012,16.4475002289000010,885.3899536129999880,33.7999992371000033,-584.1199340819999860,601.9202270509999830,27.3750000000000000,29.9495716095000013,89.1300000000000096,-89.9999999999999999
0.0000000000000000,39.0000000000000000,36.3699989318999996,15.9899997711000008,886.4812011720000550,33.7197570801000026,-584.0399169920000300,601.1195678709999580,27.3750000000000000,29.9495716095000013,89.1300000000000096,-89.9999999999999999
0.0000000000000000,39.0000000000000000,36.8649978637999993,16.0849990845000015,886.7137451170000300,33.4796218871999969,-583.6799926759999830,602.3201904300000240,27.6875000000000000,29.9495716095000013,89.1300000000000096,-89.9999999999999999
0.0000000000000000,39.0000000000000000,35.9775009155000020,16.4637489318999996,885.7849731449999800,34.1199569702000005,-584.6001586910000460,600.9597778319999860,27.6875000000000000,29.9495716095000013,89.1300000000000096,-89.9999999999999999
0.0000000000000000,39.0000000000000000,36.4062500000000000,16.0699996947999999,885.9724731449999800,33.7998619079999969,-584.0801391600000440,601.3999633790000410,27.6875000000000000,29.9495716095000013,89.1300000000000096,-89.9999999999999999
0.0000000000000000,40.0000000000000000,51.9112472533999991,23.7875003814999992,885.5237426759999830,49.8001785278000000,-578.9600830079999690,606.9202880860000270,27.6875000000000000,29.9495716095000013,89.1300000000000096,-135.0000000000000000
0.0000000000000000,40.0000000000000000,52.3574981689000012,24.1337490081999988,886.0037231449999800,48.8401374816999975,-579.3198242189999970,606.1996459959999580,27.6875000000000000,29.9495716095000013,89.1300000000000096,-135.0000000000000000
0.0000000000000000,40.0000000000000000,52.0699996948000034,23.7712497710999990,886.1925048829999690,48.3600006104000002,-578.9199218749999990,606.4798583980000320,27.6875000000000000,29.9495716095000013,89.1300000000000096,-135.0000000000000000
0.0000000000000000,40.0000000000000000,52.0949974059999974,24.1024990081999988,886.2624511720000550,48.8402252197000024,-578.6799316410000520,606.1199340819999860,27.6875000000000000,29.9495716095000013,89.1300000000000096,-135.0000000000000000
0.0000000000000000,40.0000000000000000,51.4724998474000017,23.6612491608000006,885.2774658199999740,49.2802772522000012,-579.5601196290000410,606.5599365230000320,28.0000000000000000,29.9495716095000013,89.1300000000000096,-135.0000000000000000
0.0000000000000000,40.0000000000000000,52.3574981689000012,24.1212501525999983,886.3762207029999440,49.2798805237000010,-578.9999389649999550,606.7200927730000320,28.0000000000000000,29.9495716095000013,89.1300000000000096,-135.0000000000000000
0.0000000000000000,40.0000000000000000,51.9225006104000002,23.6462497710999990,885.2287597660000520,49.5203552246000029,-579.2000122069999860,606.7200927730000320,27.6875000000000000,29.9495716095000013,89.1300000000000096,-135.0000000000000000
0.0000000000000000,40.0000000000000000,52.7849998474000017,23.6774997710999990,885.9099731449999800,48.5595588684000034,-579.0401611329999690,606.1999511720000550,27.6875000000000000,29.9495716095000013,89.1300000000000096,-135.0000000000000000
0.0000000000000000,40.0000000000000000,51.9412498474000017,23.8824996947999999,885.8587036129999880,48.7998580933000028,-578.8800048829999690,606.7998657230000380,27.6875000000000000,29.9495716095000013,89.1300000000000096,-135.0000000000000000
0.0000000000000000,40.0000000000000000,52.9662475586000027,24.0662498474000017,885.2899780269999600,48.5597991942999982,-579.1200561519999600,606.8002929689999970,27.3750000000000000,29.9495716095000013,89.1300000000000096,-135.0000000000000000
