Temp Iter,Index,X Accel 1,Y Accel 1,Z Accel 1,X Accel 2,Y Accel 2,Z Accel2, Temp_6g,Temp,Theta,Phi,,,,,,
0.0000000000000000,1.0000000000000000,939.9974365230000320,59.4375000000000000,-4.4270834922800004,939.0838623050000240,61.3330841064000012,-12.7499580383000008,23.6250000000000000,26.6079597473000007,-0.1000000000000000,180.0000000000000000
0.0000000000000000,1.0000000000000000,940.2656249999999990,59.7057304381999998,-3.8281250000000000,938.8330078120000040,61.9166221619000012,-14.0837097167999996,23.9375000000000000,26.6079597473000007,-0.1000000000000000,180.0000000000000000
0.0000000000000000,1.0000000000000000,940.2421874999999990,59.4505233765000014,-4.1536459922800004,938.1663818360000270,61.9169578552000032,-12.6669158936000006,23.9375000000000000,26.6079597473000007,-0.1000000000000000,180.0000000000000000
0.0000000000000000,1.0000000000000000,940.8880615230000320,59.1119804381999998,-3.7187500000000000,940.5001831050000180,61.5832901001000010,-11.8330841063999994,23.6250000000000000,26.6079597473000007,-0.1000000000000000,180.0000000000000000
0.0000000000000000,1.0000000000000000,940.4765624999999990,59.4453125000000000,-3.4088542461400002,939.4994506839999520,61.7500076294000024,-13.1663742065000004,23.9375000000000000,26.6079597473000007,-0.1000000000000000,180.0000000000000000
0.0000000000000000,1.0000000000000000,940.4921874999999990,59.7526054381999998,-3.5000000000000000,938.9166870120000100,61.9166259766000024,-11.9998741150000008,23.9375000000000000,26.6079597473000007,-0.1000000000000000,180.0000000000000000
0.0000000000000000,1.0000000000000000,940.6744995120000100,59.5364608765000014,-2.9244792461400002,938.0827636720000550,61.5830039977999987,-13.0839595795000001,23.9375000000000000,26.6079597473000007,-0.1000000000000000,180.0000000000000000
0.0000000000000000,1.0000000000000000,940.3749999999999990,59.6328125000000000,-3.3958334922800000,940.0830078120000040,61.6668777466000008,-11.0826673507999995,23.9375000000000000,26.6079597473000007,-0.1000000000000000,180.0000000000000000
0.0000000000000000,1.0000000000000000,939.8698120120000100,59.4427108765000014,-3.5755209922800000,940.0004882810000020,62.0834960938000008,-13.1662902832000004,23.9375000000000000,26.6079597473000007,-0.1000000000000000,180.0000000000000000
0.0000000000000000,1.0000000000000000,940.4349365230000320,59.5703125000000000,-3.2343750000000000,939.4169311519999600,62.2500457764000003,-11.9997930526999994,23.9375000000000000,26.6079597473000007,-0.1000000000000000,180.0000000000000000
0.0000000000000000,2.0000000000000000,677.6666870120000110,684.6041870120000110,-0.6796875000000000,680.6665649410000460,508.2498474120000080,428.4163208009999830,23.6250000000000000,26.6391906738000017,-0.1000000000000000,135.0000000000000000
0.0000000000000000,2.0000000000000000,676.3046874999999990,684.8984374999999990,-1.4791667461400000,680.5838623050000240,508.8337097169999760,427.4997558590000040,23.9375000000000000,26.6079597473000007,-0.1000000000000000,135.0000000000000000
0.0000000000000000,2.0000000000000000,677.2552490230000320,684.9349365230000320,-1.6067708730700001,679.9997558589999460,508.1665649409999900,426.4163208009999830,23.9375000000000000,26.6079597473000007,-0.1000000000000000,135.0000000000000000
0.0000000000000000,2.0000000000000000,676.3281249999999990,685.0026245120000110,-2.3567709922800000,681.0838012699999800,508.6666259770000230,428.5836791990000160,23.9375000000000000,26.6079597473000007,-0.1000000000000000,135.0000000000000000
0.0000000000000000,2.0000000000000000,676.5494995120000110,684.6068115230000320,-1.1093750000000000,681.1667480470000550,508.9999694819999830,428.4997558590000040,23.6250000000000000,26.6079597473000007,-0.1000000000000000,135.0000000000000000
0.0000000000000000,2.0000000000000000,677.2135620120000110,685.0052490230000320,-1.8541667461400000,680.5002441410000520,508.7500915530000040,428.1658630370000080,23.9375000000000000,26.6391906738000017,-0.1000000000000000,135.0000000000000000
0.0000000000000000,2.0000000000000000,676.5390624999999990,684.9088745120000110,-1.4557292461400000,679.5833740230000320,507.9996948240000160,428.7500915530000040,23.6250000000000000,26.6391906738000017,-0.1000000000000000,135.0000000000000000
0.0000000000000000,2.0000000000000000,678.0052490230000320,684.5521240230000320,-1.0729167461400000,679.9165649410000460,508.1665039060000020,429.3323974610000270,24.2500000000000000,26.6391906738000017,-0.1000000000000000,135.0000000000000000
0.0000000000000000,2.0000000000000000,676.3515624999999990,684.3802490230000320,-1.0390625000000000,679.8333740230000320,508.7498168949999800,428.2496032710000120,23.9375000000000000,26.6391906738000017,-0.1000000000000000,135.0000000000000000
0.0000000000000000,2.0000000000000000,677.1979370120000110,684.2187499999999990,-1.9114583730700001,680.7495117189999970,508.4164428710000150,429.2496948240000160,23.6250000000000000,26.6079597473000007,-0.1000000000000000,135.0000000000000000
0.0000000000000000,3.0000000000000000,37.3802108765000014,945.0182495120000100,-3.0494792461400002,47.0007476807000017,700.3331909180000130,615.4165039060000020,23.3125000000000000,26.6391906738000017,-0.1000000000000000,89.9999999999999999
0.0000000000000000,3.0000000000000000,37.5963554381999998,944.9244995120000100,-3.1510417461400002,46.5000839232999965,699.4999999999999990,614.9163818360000270,23.9375000000000000,26.6391906738000017,-0.1000000000000000,89.9999999999999999
0.0000000000000000,3.0000000000000000,37.4010429381999998,945.1796874999999990,-2.8645834922800000,48.3335494995000019,700.1669311519999600,615.9168701170000300,23.6250000000000000,26.6391906738000017,-0.1000000000000000,89.9999999999999999
0.0000000000000000,3.0000000000000000,37.4687500000000000,945.3046874999999990,-3.8541667461400002,47.8332481384000019,699.6665039060000020,615.7497558589999460,23.9375000000000000,26.6079597473000007,-0.1000000000000000,89.9999999999999999
0.0000000000000000,3.0000000000000000,38.1848983765000014,945.1823120120000100,-3.5026042461400002,46.9164657593000029,700.6668701170000300,613.1659545899999550,23.9375000000000000,26.6079597473000007,-0.1000000000000000,89.9999999999999999
0.0000000000000000,3.0000000000000000,38.2708358765000014,945.0781249999999990,-4.2057294845600000,48.6670074462999977,700.1666870120000110,614.3320922850000440,23.9375000000000000,26.6079597473000007,-0.1000000000000000,89.9999999999999999
0.0000000000000000,3.0000000000000000,37.4322929381999998,945.0677490230000320,-3.2838542461400002,45.6659622191999972,699.9164428709999580,614.7490234379999940,23.9375000000000000,26.6079597473000007,-0.1000000000000000,89.9999999999999999
0.0000000000000000,3.0000000000000000,37.1197929381999998,945.2187499999999990,-3.7526042461400002,48.5840415954999969,700.1669311519999600,614.5836181639999720,23.6250000000000000,26.6391906738000017,-0.1000000000000000,89.9999999999999999
0.0000000000000000,3.0000000000000000,37.3880233765000014,945.3073120120000100,-3.4218750000000000,48.0008392334000007,700.3331909180000130,615.3332519529999440,24.2500000000000000,26.6391906738000017,-0.1000000000000000,89.9999999999999999
0.0000000000000000,3.0000000000000000,37.2317733765000014,945.5937499999999990,-2.8098959922800000,48.6671257018999981,700.6668701170000300,615.2501220699999740,23.9375000000000000,26.6391906738000017,-0.1000000000000000,89.9999999999999999
0.0000000000000000,4.0000000000000000,-604.2968749999999990,673.7213745120000110,-7.9531250000000000,-594.6671752930000130,519.1666259769999660,424.1662597659999960,23.9375000000000000,26.6391906738000017,-0.1000000000000000,45.0000000000000000
0.0000000000000000,4.0000000000000000,-603.8984374999999990,673.6458740230000320,-8.8229169845600008,-594.4998779300000250,518.2501220699999740,424.2496337889999720,23.9375000000000000,26.6391906738000017,-0.1000000000000000,45.0000000000000000
0.0000000000000000,4.0000000000000000,-604.2734374999999990,673.4296874999999990,-9.3411464691199999,-595.3331298829999690,519.2502441410000520,422.7500000000000000,23.9375000000000000,26.6391906738000017,-0.1000000000000000,45.0000000000000000
0.0000000000000000,4.0000000000000000,-604.3124999999999990,673.2708740230000320,-9.5989589691199999,-593.9168701170000300,519.0001220699999740,423.0002136229999790,23.6250000000000000,26.6391906738000017,-0.1000000000000000,45.0000000000000000
0.0000000000000000,4.0000000000000000,-605.6406249999999990,673.8255615230000320,-9.4453125000000000,-594.4174804689999970,518.1663818360000270,424.4999389650000120,23.9375000000000000,26.6391906738000017,-0.1000000000000000,45.0000000000000000
0.0000000000000000,4.0000000000000000,-604.7187499999999990,673.3568115230000320,-9.2265625000000000,-593.0821533199999740,518.9167480470000550,423.5829772949999770,23.9375000000000000,26.6391906738000017,-0.1000000000000000,45.0000000000000000
0.0000000000000000,4.0000000000000000,-604.9296874999999990,673.5104370120000110,-9.1197919845600008,-595.5001831050000190,519.4167480470000550,424.4177856449999800,23.6250000000000000,26.6391906738000017,-0.1000000000000000,45.0000000000000000
0.0000000000000000,4.0000000000000000,-604.3593749999999990,673.2552490230000320,-8.2682294845600008,-594.1660156249999990,518.9166259769999660,424.5007324219999980,23.6250000000000000,26.6391906738000017,-0.1000000000000000,45.0000000000000000
0.0000000000000000,4.0000000000000000,-604.8828124999999990,673.1458740230000320,-8.9244794845600008,-594.9168701170000300,519.2501831050000190,423.3328247069999860,23.9375000000000000,26.6391906738000017,-0.1000000000000000,45.0000000000000000
0.0000000000000000,4.0000000000000000,-605.2291870120000110,673.6927490230000320,-8.7369794845600008,-594.2501831050000190,518.3332519529999440,422.4158630370000080,23.9375000000000000,26.6391906738000017,-0.1000000000000000,45.0000000000000000
0.0000000000000000,5.0000000000000000,-855.6328124999999990,37.9557304381999998,-14.9765625000000000,-856.1669311519999600,71.9165878296000045,-25.4169998168999989,23.9375000000000000,26.6391906738000017,-0.1000000000000000,0.0000000000000000
0.0000000000000000,5.0000000000000000,-854.4869995120000100,37.7552108765000014,-15.7213544846000008,-855.4169921879999940,72.5001220702999944,-24.9164180755999993,23.9375000000000000,26.6391906738000017,-0.1000000000000000,0.0000000000000000
0.0000000000000000,5.0000000000000000,-855.0364990230000320,37.3411483765000014,-16.5937500000000000,-855.4171752930000130,72.6668395995999958,-25.5003776550000012,23.9375000000000000,26.6391906738000017,-0.1000000000000000,0.0000000000000000
0.0000000000000000,5.0000000000000000,-855.0963745120000100,37.8411483765000014,-16.0416679381999998,-854.7494506839999520,72.0833358765000014,-24.4999580383000008,23.9375000000000000,26.6391906738000017,-0.1000000000000000,0.0000000000000000
0.0000000000000000,5.0000000000000000,-854.5521240230000320,37.6458358765000014,-15.6223964690999999,-855.4178466800000240,71.9167098998999989,-25.1665859221999994,23.9375000000000000,26.6391906738000017,-0.1000000000000000,0.0000000000000000
0.0000000000000000,5.0000000000000000,-855.2474365230000320,38.1692733765000014,-15.6510419846000008,-856.9169921879999940,71.7500000000000000,-25.3330841064000012,23.9375000000000000,26.6391906738000017,-0.1000000000000000,0.0000000000000000
0.0000000000000000,5.0000000000000000,-855.5807495120000100,37.7838554381999998,-15.2760419846000008,-857.0839233399999550,71.9999618530000020,-25.0832099914999986,23.6250000000000000,26.6391906738000017,-0.1000000000000000,0.0000000000000000
0.0000000000000000,5.0000000000000000,-854.8359374999999990,37.9479179381999998,-15.1328125000000000,-855.3333740230000320,72.7501754760999972,-24.6669139862000008,23.9375000000000000,26.6391906738000017,-0.1000000000000000,0.0000000000000000
0.0000000000000000,5.0000000000000000,-854.4531249999999990,37.5416679381999998,-15.3828125000000000,-857.9164428709999580,71.8334197997999979,-22.8326263428000011,23.9375000000000000,26.6391906738000017,-0.1000000000000000,0.0000000000000000
0.0000000000000000,5.0000000000000000,-854.8255615230000320,37.9921875000000000,-15.5625000000000000,-855.2503662110000270,72.4166717529000010,-24.1666259765999989,23.6250000000000000,26.6391906738000017,-0.1000000000000000,0.0000000000000000
0.0000000000000000,6.0000000000000000,-593.0416870120000110,-591.6927490230000320,-16.2500000000000000,-595.2498779300000250,-377.4998474120000080,-470.3335876460000120,23.6250000000000000,26.6391906738000017,-0.1000000000000000,-45.0000000000000000
0.0000000000000000,6.0000000000000000,-592.9349365230000320,-591.7343749999999990,-15.3645839690999999,-595.5831298829999690,-377.1664428710000150,-469.5830688479999820,24.2500000000000000,26.6391906738000017,-0.1000000000000000,-45.0000000000000000
0.0000000000000000,6.0000000000000000,-593.3411865230000320,-591.7916870120000110,-16.3229179381999998,-598.5010986329999690,-376.9998168949999800,-470.7504577639999750,23.9375000000000000,26.6391906738000017,-0.1000000000000000,-45.0000000000000000
0.0000000000000000,6.0000000000000000,-593.7916870120000110,-591.9948120120000110,-16.0729179381999998,-595.9161376949999740,-377.3333740229999760,-468.9158325199999800,23.9375000000000000,26.6391906738000017,-0.1000000000000000,-45.0000000000000000
0.0000000000000000,6.0000000000000000,-593.9791870120000110,-591.5156249999999990,-16.0442714690999999,-595.0830078120000050,-377.1667480469999980,-469.0832214359999730,24.2500000000000000,26.6391906738000017,-0.1000000000000000,-45.0000000000000000
0.0000000000000000,6.0000000000000000,-593.4713745120000110,-592.1171874999999990,-16.4192714690999999,-595.5831298829999690,-376.8334960939999970,-469.5839233400000120,23.9375000000000000,26.6391906738000017,-0.1000000000000000,-45.0000000000000000
0.0000000000000000,6.0000000000000000,-593.0416870120000110,-591.9166870120000110,-16.2994804381999998,-595.1668701170000300,-376.9998168949999800,-469.9170532229999820,23.9375000000000000,26.6391906738000017,-0.1000000000000000,-45.0000000000000000
0.0000000000000000,6.0000000000000000,-593.3489990230000320,-592.1640624999999990,-16.5755214690999999,-596.2497558589999470,-377.5001831050000190,-469.8321533199999740,23.9375000000000000,26.6391906738000017,-0.1000000000000000,-45.0000000000000000
0.0000000000000000,6.0000000000000000,-593.4036865230000320,-591.8932495120000110,-16.0052089690999999,-595.9168090819999860,-377.1666259770000230,-471.1670837400000090,23.6250000000000000,26.6391906738000017,-0.1000000000000000,-45.0000000000000000
0.0000000000000000,6.0000000000000000,-593.2499999999999990,-591.6380615230000320,-15.6614589690999999,-594.9167480470000550,-377.1665649409999900,-469.8341979979999790,23.9375000000000000,26.6391906738000017,-0.1000000000000000,-45.0000000000000000
0.0000000000000000,7.0000000000000000,44.9036483765000014,-852.9296874999999990,-13.3020839690999999,36.3339614867999998,-567.6669921879999940,-656.5831909180000130,23.9375000000000000,26.6391906738000017,-0.1000000000000000,-89.9999999999999999
0.0000000000000000,7.0000000000000000,44.7473983765000014,-852.7057495120000100,-13.4791669846000008,35.7506256104000002,-567.2497558589999470,-658.5833129879999880,23.9375000000000000,26.6391906738000017,-0.1000000000000000,-89.9999999999999999
0.0000000000000000,7.0000000000000000,45.4583358765000014,-852.9271240230000320,-14.3515625000000000,37.5005836487000010,-567.4165649410000460,-657.4166259769999660,23.9375000000000000,26.6391906738000017,-0.1000000000000000,-89.9999999999999999
0.0000000000000000,7.0000000000000000,45.3593750000000000,-853.0364990230000320,-12.9583339690999999,35.1661262511999979,-566.9998168949999800,-657.7504272459999580,23.9375000000000000,26.6391906738000017,-0.1000000000000000,-89.9999999999999999
0.0000000000000000,7.0000000000000000,45.7630233765000014,-852.8724365230000320,-12.6796875000000000,35.0831260681000003,-567.5001220699999740,-657.4171752930000130,23.9375000000000000,26.6391906738000017,-0.1000000000000000,-89.9999999999999999
0.0000000000000000,7.0000000000000000,45.2526054381999998,-852.7474365230000320,-11.9869794846000008,35.1665039061999991,-567.4997558589999470,-657.8330078120000050,23.9375000000000000,26.6391906738000017,-0.1000000000000000,-89.9999999999999999
0.0000000000000000,7.0000000000000000,44.7604179381999998,-853.2265624999999990,-14.0807294846000008,35.5000000000000000,-567.6669311519999600,-657.0834960939999970,23.6250000000000000,26.6391906738000017,-0.1000000000000000,-89.9999999999999999
0.0000000000000000,7.0000000000000000,45.8333358765000014,-852.6302490230000320,-13.1484375000000000,36.1664581299000005,-566.9996337889999720,-658.1672363279999440,23.6250000000000000,26.6391906738000017,-0.1000000000000000,-89.9999999999999999
0.0000000000000000,7.0000000000000000,46.0104179381999998,-852.8906249999999990,-13.1250000000000000,34.6664199829000026,-567.6666259769999660,-657.9160156249999990,23.9375000000000000,26.6391906738000017,-0.1000000000000000,-89.9999999999999999
0.0000000000000000,7.0000000000000000,45.4687500000000000,-852.7474365230000320,-12.9557294846000008,35.7497482300000015,-567.2497558589999470,-657.7504272459999580,23.9375000000000000,26.6391906738000017,-0.1000000000000000,-89.9999999999999999
0.0000000000000000,8.0000000000000000,687.9374999999999990,-580.8021240230000320,-8.3359375000000000,682.5837402339999460,-385.9165954590000070,-460.9165649409999900,23.6250000000000000,26.6704216002999992,-0.1000000000000000,-135.0000000000000000
0.0000000000000000,8.0000000000000000,688.3984374999999990,-580.3359374999999990,-7.9010419845599999,681.8333740230000320,-386.0000915530000040,-462.4167480469999980,24.2500000000000000,26.6704216002999992,-0.1000000000000000,-135.0000000000000000
0.0000000000000000,8.0000000000000000,687.6302490230000320,-580.4974365230000320,-8.9531250000000000,682.2506713870000110,-385.7499694819999830,-461.3336181639999720,24.2500000000000000,26.6704216002999992,-0.1000000000000000,-135.0000000000000000
0.0000000000000000,8.0000000000000000,688.2369995120000110,-581.0286865230000320,-8.3385419845600008,681.3331298829999690,-385.8334350590000100,-461.8333129879999880,23.9375000000000000,26.6391906738000017,-0.1000000000000000,-135.0000000000000000
0.0000000000000000,8.0000000000000000,688.5911865230000320,-580.8776245120000110,-8.0885419845600008,683.4999389649999550,-386.1668701169999730,-459.9995727539999840,23.9375000000000000,26.6391906738000017,-0.1000000000000000,-135.0000000000000000
0.0000000000000000,8.0000000000000000,688.6198120120000110,-580.7031249999999990,-8.4062500000000000,680.4996337889999720,-385.6665954590000070,-461.3333435060000050,23.9375000000000000,26.6391906738000017,-0.1000000000000000,-135.0000000000000000
0.0000000000000000,8.0000000000000000,688.2396240230000320,-580.6771240230000320,-8.7395839691199999,681.3333129879999880,-385.6667175289999810,-461.0830078120000050,23.9375000000000000,26.6391906738000017,-0.1000000000000000,-135.0000000000000000
0.0000000000000000,8.0000000000000000,688.4531249999999990,-580.7630615230000320,-8.7369794845600008,682.6674804689999970,-386.3332519530000010,-461.0000915530000040,23.9375000000000000,26.6704216002999992,-0.1000000000000000,-135.0000000000000000
0.0000000000000000,8.0000000000000000,688.3046874999999990,-580.7265624999999990,-7.9140625000000000,682.9171752930000130,-386.0002136229999790,-462.0838317870000080,23.9375000000000000,26.6704216002999992,-0.1000000000000000,-135.0000000000000000
0.0000000000000000,8.0000000000000000,687.9974365230000320,-580.4583740230000320,-7.3723959922800004,683.0841064449999740,-385.9166870120000110,-461.3337402340000040,23.9375000000000000,26.6704216002999992,-0.1000000000000000,-135.0000000000000000
0.0000000000000000,9.0000000000000000,870.1536865230000320,57.6536483765000014,339.8229370120000110,869.3334350589999520,-181.8336181640000000,229.1665954590000070,23.9375000000000000,26.6391906738000017,22.5000000000000000,180.0000000000000000
0.0000000000000000,9.0000000000000000,870.6927490230000320,57.5885429381999998,339.4453125000000000,868.3327026370000100,-181.9165496829999990,229.3322448730000070,23.9375000000000000,26.6391906738000017,22.5000000000000000,180.0000000000000000
0.0000000000000000,9.0000000000000000,869.7421874999999990,57.7812500000000000,339.3515625000000000,869.3333740230000320,-181.7500915530000040,230.1671600340000050,23.9375000000000000,26.6391906738000017,22.5000000000000000,180.0000000000000000
0.0000000000000000,9.0000000000000000,870.9687499999999990,57.5755233765000014,338.7968750000000000,869.3329467769999600,-181.8332977290000090,229.7510375980000100,23.6250000000000000,26.6704216002999992,22.5000000000000000,180.0000000000000000
0.0000000000000000,9.0000000000000000,870.3046874999999990,57.5338554381999998,339.6823120120000110,869.7502441410000520,-181.7500000000000000,228.9161834720000000,23.9375000000000000,26.6704216002999992,22.5000000000000000,180.0000000000000000
0.0000000000000000,9.0000000000000000,869.5208740230000320,57.8203125000000000,339.7578125000000000,868.7499999999999990,-181.2498016360000010,229.8331603999999970,23.9375000000000000,26.6704216002999992,22.5099999999999980,180.0000000000000000
0.0000000000000000,9.0000000000000000,870.0468749999999990,57.6406250000000000,339.4921875000000000,869.7499389649999550,-181.6667938230000060,229.5843353269999910,23.9375000000000000,26.6704216002999992,22.5099999999999980,180.0000000000000000
0.0000000000000000,9.0000000000000000,870.2005615230000320,58.1380233765000014,339.4635620120000110,868.9166870120000100,-182.1669158939999990,229.1661071780000040,23.9375000000000000,26.6704216002999992,22.5099999999999980,180.0000000000000000
0.0000000000000000,9.0000000000000000,871.0755615230000320,57.8203125000000000,339.0234375000000000,869.4171142579999690,-181.5834655760000090,229.1663208010000120,23.9375000000000000,26.6704216002999992,22.5000000000000000,180.0000000000000000
0.0000000000000000,9.0000000000000000,870.5703124999999990,57.8932304381999998,339.6250000000000000,869.2498779300000240,-181.3332519530000010,229.9160156250000000,23.9375000000000000,26.6704216002999992,22.5000000000000000,180.0000000000000000
0.0000000000000000,10.0000000000000000,622.8073120120000110,637.4193115230000320,338.8645935060000050,630.3329467769999600,232.4166259769999950,638.1655273439999970,23.6250000000000000,26.6704216002999992,22.5099999999999980,135.0000000000000000
0.0000000000000000,10.0000000000000000,622.1380615230000320,637.1588745120000110,338.4296875000000000,629.2499389649999550,232.6667938230000060,638.1669311519999600,23.9375000000000000,26.6704216002999992,22.5099999999999980,135.0000000000000000
0.0000000000000000,10.0000000000000000,620.8541870120000110,637.4140624999999990,339.1588745120000110,630.3329467769999600,232.5000000000000000,636.6661376949999740,23.9375000000000000,26.6704216002999992,22.5000000000000000,135.0000000000000000
0.0000000000000000,10.0000000000000000,622.8124999999999990,637.1823120120000110,338.9244995120000110,629.6667480470000550,232.5835418700000050,638.3337402339999460,23.9375000000000000,26.6704216002999992,22.5000000000000000,135.0000000000000000
0.0000000000000000,10.0000000000000000,623.0624999999999990,637.2890624999999990,338.8125000000000000,629.3334960939999970,232.1662597659999960,636.6666870120000110,23.9375000000000000,26.6704216002999992,22.5099999999999980,135.0000000000000000
0.0000000000000000,10.0000000000000000,622.4791870120000110,637.2630615230000320,338.5546875000000000,631.0012207029999440,232.9167480469999980,638.6673583980000320,23.9375000000000000,26.6704216002999992,22.5099999999999980,135.0000000000000000
0.0000000000000000,10.0000000000000000,621.4271240230000320,637.3646240230000320,338.9609375000000000,631.5006103519999660,232.9167938230000060,638.0828857420000300,23.9375000000000000,26.6391906738000017,22.5099999999999980,135.0000000000000000
0.0000000000000000,10.0000000000000000,622.2057495120000110,637.1927490230000320,338.8281250000000000,629.9167480470000550,232.5834198000000010,638.0833740230000320,23.6250000000000000,26.6391906738000017,22.5099999999999980,135.0000000000000000
0.0000000000000000,10.0000000000000000,623.1823120120000110,637.0494995120000110,338.0781250000000000,630.0003662110000270,232.2502899170000030,637.1661376949999740,23.9375000000000000,26.6391906738000017,22.5099999999999980,135.0000000000000000
0.0000000000000000,10.0000000000000000,622.2708740230000320,637.3099365230000320,338.5599060060000050,629.2506103519999660,232.5000915530000040,637.2499999999999990,23.9375000000000000,26.6391906738000017,22.5099999999999980,135.0000000000000000
0.0000000000000000,11.0000000000000000,34.9192733765000014,874.8151245120000100,339.4609375000000000,45.0832138061999998,412.7501831050000190,803.5829467769999600,23.6250000000000000,26.6391906738000017,22.5099999999999980,89.9999999999999999
0.0000000000000000,11.0000000000000000,34.7057304381999998,874.8333740230000320,339.1041870120000110,44.2497940063000001,412.6665954590000070,803.7498779300000240,23.9375000000000000,26.6391906738000017,22.5099999999999980,89.9999999999999999
0.0000000000000000,11.0000000000000000,34.6406250000000000,874.5937499999999990,339.5989685060000050,43.9997177123999989,412.5834350590000100,804.7498779300000240,23.9375000000000000,26.6391906738000017,22.5099999999999980,89.9999999999999999
0.0000000000000000,11.0000000000000000,35.0078125000000000,874.9088745120000100,340.3802185060000050,43.8333358765000014,413.1665039060000020,806.3336791990000160,23.9375000000000000,26.6391906738000017,22.5099999999999980,89.9999999999999999
0.0000000000000000,11.0000000000000000,33.6015625000000000,875.1302490230000320,340.9270935060000050,43.8325004578000019,412.1662597659999960,803.5829467769999600,23.9375000000000000,26.6704216002999992,22.5099999999999980,89.9999999999999999
0.0000000000000000,11.0000000000000000,34.8046875000000000,875.1901245120000100,339.9192810060000050,44.5837974547999991,412.7500610349999870,806.3338623050000240,23.9375000000000000,26.6704216002999992,22.5099999999999980,89.9999999999999999
0.0000000000000000,11.0000000000000000,34.6744804381999998,875.1171874999999990,340.0390625000000000,43.4168777466000008,413.0834960939999970,804.1657714839999460,23.9375000000000000,26.6704216002999992,22.5099999999999980,89.9999999999999999
0.0000000000000000,11.0000000000000000,34.3932304381999998,875.0651245120000100,340.2942810060000050,42.5830459594999979,412.4165039060000020,806.5836181639999710,23.9375000000000000,26.6704216002999992,22.5099999999999980,89.9999999999999999
0.0000000000000000,11.0000000000000000,34.8906250000000000,875.0755615230000320,340.0573120120000110,44.1675033568999993,413.1664428710000150,803.6657714839999460,23.6250000000000000,26.6391906738000017,22.5099999999999980,89.9999999999999999
0.0000000000000000,11.0000000000000000,35.5052108765000014,875.0338745120000100,340.2239685060000050,42.7497520447000028,412.9997558590000040,805.1673583980000320,23.9375000000000000,26.6391906738000017,22.5099999999999980,89.9999999999999999
0.0000000000000000,12.0000000000000000,-558.4010620120000110,623.0885620120000110,335.4817810060000050,-550.6666259769999660,241.5837707519999920,632.8339843749999990,23.9375000000000000,26.6391906738000017,22.5099999999999980,45.0000000000000000
0.0000000000000000,12.0000000000000000,-558.9609374999999990,622.8958740230000320,336.1744995120000110,-549.9168090819999860,241.3332977290000090,632.8339233399999550,23.9375000000000000,26.6391906738000017,22.5099999999999980,45.0000000000000000
0.0000000000000000,12.0000000000000000,-558.8802490230000320,623.2109374999999990,335.5781250000000000,-550.9170532230000380,240.5833435060000050,632.5841064449999740,23.6250000000000000,26.6704216002999992,22.5099999999999980,45.0000000000000000
0.0000000000000000,12.0000000000000000,-557.4244995120000110,623.0416870120000110,336.4010620120000110,-550.3331298829999690,240.6665496829999990,630.9996337889999720,23.6250000000000000,26.6704216002999992,22.5099999999999980,45.0000000000000000
0.0000000000000000,12.0000000000000000,-558.4114990230000320,622.8854370120000110,335.7968750000000000,-550.3339843749999990,241.2500457760000070,632.4997558589999460,23.6250000000000000,26.6704216002999992,22.5099999999999980,45.0000000000000000
0.0000000000000000,12.0000000000000000,-558.7526245120000110,622.8307495120000110,335.5703125000000000,-549.9999999999999990,240.7501678470000000,632.1671752930000130,23.9375000000000000,26.6704216002999992,22.5099999999999980,45.0000000000000000
0.0000000000000000,12.0000000000000000,-558.6276245120000110,622.9427490230000320,334.6458435060000050,-550.0001220699999740,240.9166717530000030,632.4169921879999940,24.2500000000000000,26.6704216002999992,22.5099999999999980,45.0000000000000000
0.0000000000000000,12.0000000000000000,-557.9713745120000110,622.7864990230000320,335.3619995120000110,-550.4167480470000550,241.0832214360000020,631.2498779300000240,23.9375000000000000,26.6391906738000017,22.5099999999999980,45.0000000000000000
0.0000000000000000,12.0000000000000000,-558.0651245120000110,623.0755615230000320,334.5859375000000000,-549.3328247069999860,240.7500000000000000,631.3333129879999880,24.2500000000000000,26.6391906738000017,22.5099999999999980,45.0000000000000000
0.0000000000000000,12.0000000000000000,-558.7057495120000110,623.2474365230000320,335.0546875000000000,-549.6667480470000550,241.1667938230000060,632.5837402339999460,23.9375000000000000,26.6391906738000017,22.5099999999999980,45.0000000000000000
0.0000000000000000,13.0000000000000000,-787.7708740230000320,35.8515625000000000,330.3151245120000110,-789.2501220699999740,-172.2502136230000070,216.6669158939999990,23.6250000000000000,26.6704216002999992,22.5099999999999980,0.0000000000000000
0.0000000000000000,13.0000000000000000,-787.8854370120000100,35.9739608765000014,330.3099060060000050,-788.4996948240000160,-171.9165039060000020,218.1669616700000060,23.9375000000000000,26.6704216002999992,22.5099999999999980,0.0000000000000000
0.0000000000000000,13.0000000000000000,-786.8671874999999990,35.4973983765000014,329.6484375000000000,-788.9158935550000240,-171.9998779299999970,219.6672668459999900,23.9375000000000000,26.6704216002999992,22.5099999999999980,0.0000000000000000
0.0000000000000000,13.0000000000000000,-786.5338745120000100,35.9739608765000014,330.4479370120000110,-788.7495117189999970,-171.9167480469999990,218.0002136230000070,23.6250000000000000,26.6704216002999992,22.5099999999999980,0.0000000000000000
0.0000000000000000,13.0000000000000000,-787.5546874999999990,36.1588554381999998,329.6198120120000110,-790.9998779300000240,-171.5832214360000020,218.5841522220000000,23.9375000000000000,26.6704216002999992,22.5099999999999980,0.0000000000000000
0.0000000000000000,13.0000000000000000,-787.7734374999999990,35.4635429381999998,329.4323120120000110,-791.0833740230000320,-171.8333435060000050,217.3338012700000090,23.9375000000000000,26.6704216002999992,22.5099999999999980,0.0000000000000000
0.0000000000000000,13.0000000000000000,-787.8177490230000320,35.3593750000000000,331.2057495120000110,-789.6665039060000020,-172.3334198000000010,217.2498474120000080,24.2500000000000000,26.6704216002999992,22.5099999999999980,0.0000000000000000
0.0000000000000000,13.0000000000000000,-788.0989990230000320,35.9322929381999998,329.4713745120000110,-790.7499999999999990,-172.2500000000000000,218.4170837400000090,23.9375000000000000,26.6704216002999992,22.5099999999999980,0.0000000000000000
0.0000000000000000,13.0000000000000000,-787.8489990230000320,36.0494804381999998,330.1927185060000050,-788.9996948240000160,-171.4165954590000070,217.4164733890000030,23.6250000000000000,26.6704216002999992,22.5099999999999980,0.0000000000000000
0.0000000000000000,13.0000000000000000,-786.9244995120000100,35.7057304381999998,329.4921875000000000,-791.4172363279999440,-171.8335876460000120,218.6663055420000030,23.9375000000000000,26.6704216002999992,22.5099999999999980,0.0000000000000000
0.0000000000000000,14.0000000000000000,-542.0286865230000330,-548.9687499999999990,325.6823120120000110,-549.7499999999999990,-586.2499389649999550,-193.8335418700000050,23.9375000000000000,26.6704216002999992,22.5099999999999980,-45.0000000000000000
0.0000000000000000,14.0000000000000000,-542.9036865230000330,-548.5703124999999990,324.4583435060000050,-550.9171142579999690,-586.1666870120000110,-193.5836181640000000,24.2500000000000000,26.6704216002999992,22.5099999999999980,-45.0000000000000000
0.0000000000000000,14.0000000000000000,-542.9765624999999990,-549.4739990230000320,323.9895935060000050,-549.9999389649999550,-586.0002441410000520,-193.9164733890000030,23.9375000000000000,26.6704216002999992,22.5099999999999980,-45.0000000000000000
0.0000000000000000,14.0000000000000000,-542.7161865230000330,-548.7343749999999990,326.1562500000000000,-550.4166259769999660,-586.4166870120000110,-194.2502441409999960,23.6250000000000000,26.6704216002999992,22.5099999999999980,-45.0000000000000000
0.0000000000000000,14.0000000000000000,-542.3359374999999990,-549.1198120120000110,325.2135620120000110,-549.5834960939999970,-585.3328247069999860,-193.1669921879999950,23.6250000000000000,26.6704216002999992,22.5099999999999980,-45.0000000000000000
0.0000000000000000,14.0000000000000000,-542.6015624999999990,-548.9505615230000320,325.1015625000000000,-550.8326416019999660,-586.0832519529999440,-194.1664733890000030,23.9375000000000000,26.6704216002999992,22.5099999999999980,-45.0000000000000000
0.0000000000000000,14.0000000000000000,-542.3593749999999990,-549.0833740230000320,325.2552185060000050,-550.9164428709999580,-586.6667480470000550,-192.0830535890000020,23.9375000000000000,26.6704216002999992,22.5099999999999980,-45.0000000000000000
0.0000000000000000,14.0000000000000000,-542.7448120120000110,-549.1146240230000320,325.1198120120000110,-552.0837402339999470,-586.5003662110000270,-193.4170379640000020,23.9375000000000000,26.6704216002999992,22.5099999999999980,-45.0000000000000000
0.0000000000000000,14.0000000000000000,-542.4323120120000110,-549.2499999999999990,325.0208435060000050,-552.1668701170000300,-586.1664428709999580,-191.9994201659999930,23.6250000000000000,26.6704216002999992,22.5099999999999980,-45.0000000000000000
0.0000000000000000,14.0000000000000000,-542.8854370120000110,-549.0130615230000320,325.5885620120000110,-550.3330078120000050,-586.1665039060000020,-193.1662292480000070,23.9375000000000000,26.6704216002999992,22.5099999999999980,-45.0000000000000000
0.0000000000000000,15.0000000000000000,45.5078125000000000,-786.1588745120000100,330.2421875000000000,33.6665420531999970,-763.2498779300000240,-365.8333129879999880,23.9375000000000000,26.6704216002999992,22.5099999999999980,-89.9999999999999999
0.0000000000000000,15.0000000000000000,45.5052108765000014,-785.7630615230000320,330.1979370120000110,32.8328781128000031,-762.8331909180000130,-365.4161071780000040,23.9375000000000000,26.6704216002999992,22.5099999999999980,-89.9999999999999999
0.0000000000000000,15.0000000000000000,45.0364608765000014,-785.9427490230000320,330.3020935060000050,34.0836715698000034,-763.0001220699999740,-365.3329772949999780,23.6250000000000000,26.6704216002999992,22.5099999999999980,-89.9999999999999999
0.0000000000000000,15.0000000000000000,45.2604179381999998,-786.1536865230000320,331.0859375000000000,34.6667518615999981,-762.5831909180000130,-364.4167480469999980,23.9375000000000000,26.6704216002999992,22.5099999999999980,-89.9999999999999999
0.0000000000000000,15.0000000000000000,44.8880233765000014,-785.5781249999999990,331.1640625000000000,33.6668739318999996,-763.0001831050000180,-365.2496337889999720,23.9375000000000000,26.6704216002999992,22.5099999999999980,-89.9999999999999999
0.0000000000000000,15.0000000000000000,44.9010429381999998,-785.8906249999999990,330.3229370120000110,33.9170036315999965,-763.1666870120000100,-364.0824890139999750,23.9375000000000000,26.6704216002999992,22.5099999999999980,-89.9999999999999999
0.0000000000000000,15.0000000000000000,45.0572929381999998,-786.0781249999999990,330.2708435060000050,34.2499160767000035,-762.4161987300000180,-365.5835876460000120,24.2500000000000000,26.7016506195000005,22.5099999999999980,-89.9999999999999999
0.0000000000000000,15.0000000000000000,44.8463554381999998,-785.8776245120000100,329.9687500000000000,33.6661720275999982,-763.1666259769999660,-365.7503051759999830,23.9375000000000000,26.7016506195000005,22.5099999999999980,-89.9999999999999999
0.0000000000000000,15.0000000000000000,45.2708358765000014,-786.3671874999999990,330.0416870120000110,35.5845031738000017,-763.1669921879999940,-364.9998474120000080,23.9375000000000000,26.7016506195000005,22.5099999999999980,-89.9999999999999999
0.0000000000000000,15.0000000000000000,45.2161483765000014,-786.2656249999999990,330.0182495120000110,33.4997100829999965,-762.6666870120000100,-365.1663818360000270,24.2500000000000000,26.7016506195000005,22.5099999999999980,-89.9999999999999999
0.0000000000000000,16.0000000000000000,638.8646240230000320,-534.2578124999999990,332.9557495120000110,634.4161376949999740,-591.4164428709999580,-187.7490081789999860,23.6250000000000000,26.7016506195000005,22.5099999999999980,-135.0000000000000000
0.0000000000000000,16.0000000000000000,638.5364990230000320,-534.2109374999999990,332.7526245120000110,632.4162597660000520,-592.0001831050000190,-187.5837707519999920,23.6250000000000000,26.7016506195000005,22.5099999999999980,-135.0000000000000000
0.0000000000000000,16.0000000000000000,638.4921874999999990,-534.4609374999999990,332.8333435060000050,633.5831298829999690,-591.6669311519999600,-188.1665954590000070,23.9375000000000000,26.7016506195000005,22.5099999999999980,-135.0000000000000000
0.0000000000000000,16.0000000000000000,638.3619995120000110,-534.2421874999999990,332.9557495120000110,633.5825195310000020,-591.5830078120000050,-187.5002441409999960,23.9375000000000000,26.7016506195000005,22.5099999999999980,-135.0000000000000000
0.0000000000000000,16.0000000000000000,638.3255615230000320,-533.9948120120000110,332.4557495120000110,634.9172363279999440,-592.1666870120000110,-187.8327484129999900,23.9375000000000000,26.7016506195000005,22.5099999999999980,-135.0000000000000000
0.0000000000000000,16.0000000000000000,638.0677490230000320,-534.6119995120000110,331.5807495120000110,633.5830688480000380,-592.0000610350000440,-187.0837707519999920,23.9375000000000000,26.7016506195000005,22.5099999999999980,-135.0000000000000000
0.0000000000000000,16.0000000000000000,638.6015624999999990,-534.5963745120000110,332.0911560060000050,631.9165039060000020,-591.8334960939999970,-186.8331298829999980,23.9375000000000000,26.7016506195000005,22.5099999999999980,-135.0000000000000000
0.0000000000000000,16.0000000000000000,638.8333740230000320,-534.0599365230000330,331.7630310060000050,635.3331909180000130,-591.5831909180000130,-188.5000915530000040,23.9375000000000000,26.7016506195000005,22.5099999999999980,-135.0000000000000000
0.0000000000000000,16.0000000000000000,639.1093749999999990,-533.7890624999999990,331.8333435060000050,635.6669311519999600,-592.0001220699999740,-189.1672058110000020,23.9375000000000000,26.7016506195000005,22.5099999999999980,-135.0000000000000000
0.0000000000000000,16.0000000000000000,638.4505615230000320,-534.2916870120000110,332.0573120120000110,632.7494506839999520,-591.6666259769999660,-186.9992980959999900,23.6250000000000000,26.7016506195000005,22.5099999999999980,-135.0000000000000000
0.0000000000000000,17.0000000000000000,683.6666870120000110,52.1640625000000000,619.9323120120000110,682.6663208009999830,-379.0836181639999720,427.0833740229999760,24.2500000000000000,26.6704216002999992,44.3900000000000005,180.0000000000000000
0.0000000000000000,17.0000000000000000,683.9349365230000320,52.1744804381999998,620.6068115230000320,683.3334350589999520,-379.0001220699999740,427.7500610349999870,24.2500000000000000,26.6704216002999992,44.3900000000000005,180.0000000000000000
0.0000000000000000,17.0000000000000000,683.5677490230000320,51.6536483765000014,620.7213745120000110,683.3334960939999970,-379.0834960939999970,428.9174804689999970,23.9375000000000000,26.6704216002999992,44.3900000000000005,180.0000000000000000
0.0000000000000000,17.0000000000000000,683.5859374999999990,52.2187500000000000,621.0364990230000320,684.5001220699999740,-378.5834655759999800,428.6677856449999800,23.9375000000000000,26.6704216002999992,44.3900000000000005,180.0000000000000000
0.0000000000000000,17.0000000000000000,684.3854370120000110,52.0104179381999998,620.1562499999999990,682.7503662110000270,-377.9996948240000160,427.7495727539999840,23.9375000000000000,26.7016506195000005,44.3900000000000005,180.0000000000000000
0.0000000000000000,17.0000000000000000,684.0338745120000110,52.3046875000000000,619.3385620120000110,683.2503662110000270,-379.3336181639999720,427.5820312500000000,23.9375000000000000,26.7016506195000005,44.3900000000000005,180.0000000000000000
0.0000000000000000,17.0000000000000000,683.9818115230000320,52.0468750000000000,620.1224365230000320,683.9167480470000550,-378.7498474120000080,428.6669616699999770,23.9375000000000000,26.7016506195000005,44.3900000000000005,180.0000000000000000
0.0000000000000000,17.0000000000000000,683.8619995120000110,51.7656250000000000,620.0130615230000320,681.9157714839999460,-379.2502441409999960,428.0834655759999800,24.2500000000000000,26.7016506195000005,44.3900000000000005,180.0000000000000000
0.0000000000000000,17.0000000000000000,683.6796874999999990,52.2552108765000014,620.1146240230000320,683.2494506839999520,-379.1668396000000030,429.0834350590000100,23.9375000000000000,26.7016506195000005,44.3900000000000005,180.0000000000000000
0.0000000000000000,17.0000000000000000,684.6901245120000110,52.1250000000000000,620.3828124999999990,684.0004882810000020,-379.1668701169999730,428.3327636719999980,23.9375000000000000,26.7016506195000005,44.3900000000000005,180.0000000000000000
0.0000000000000000,18.0000000000000000,489.7890625000000000,502.7421875000000000,621.4479370120000110,494.9163513180000100,-58.9168357849000017,742.6663818360000270,23.9375000000000000,26.6704216002999992,44.3900000000000005,135.0000000000000000
0.0000000000000000,18.0000000000000000,490.2135620120000110,502.6432495120000110,621.2760620120000110,496.2497253419999760,-58.5837059021000001,743.6664428709999580,23.6250000000000000,26.6704216002999992,44.3900000000000005,135.0000000000000000
0.0000000000000000,18.0000000000000000,490.7109375000000000,502.4270935060000050,622.3776245120000110,495.4167175289999810,-58.8334960938000008,744.4167480470000550,23.9375000000000000,26.7016506195000005,44.3900000000000005,135.0000000000000000
0.0000000000000000,18.0000000000000000,491.2526245120000110,502.6041870120000110,621.6093749999999990,497.9170532229999820,-58.4168701171999984,743.2506103519999660,23.6250000000000000,26.7016506195000005,44.3900000000000005,135.0000000000000000
0.0000000000000000,18.0000000000000000,490.1198120120000110,502.4843750000000000,622.1015624999999990,496.2503662110000270,-58.5001220703000015,742.6666259769999660,23.9375000000000000,26.7016506195000005,44.3900000000000005,135.0000000000000000
0.0000000000000000,18.0000000000000000,490.7395935060000050,502.9036560060000050,621.6068115230000320,496.3333740229999760,-58.4996299744000012,743.0830078120000050,23.6250000000000000,26.7016506195000005,44.3900000000000005,135.0000000000000000
0.0000000000000000,18.0000000000000000,489.8567810060000050,503.0052185060000050,621.8333740230000320,496.5000610349999870,-58.2502059936999998,742.5834350589999520,23.9375000000000000,26.6704216002999992,44.3900000000000005,135.0000000000000000
0.0000000000000000,18.0000000000000000,489.8854370120000110,503.2448120120000110,621.9271240230000320,496.5829772949999770,-57.9164581299000005,743.4996948240000160,23.9375000000000000,26.6704216002999992,44.3900000000000005,135.0000000000000000
0.0000000000000000,18.0000000000000000,490.5026245120000110,502.6666870120000110,622.3463745120000110,495.9167480469999980,-58.4166259766000024,743.9174804689999970,23.9375000000000000,26.6704216002999992,44.3900000000000005,135.0000000000000000
0.0000000000000000,18.0000000000000000,490.3698120120000110,502.4843750000000000,621.5443115230000320,498.4166870120000110,-58.2497940063000001,743.2492675779999440,23.9375000000000000,26.6704216002999992,44.3900000000000005,135.0000000000000000
0.0000000000000000,19.0000000000000000,34.9244804381999998,686.1718749999999990,623.2786865230000320,37.9998741149999972,78.6666259766000024,873.4155273439999960,23.6250000000000000,26.6704216002999992,44.3900000000000005,89.9999999999999999
0.0000000000000000,19.0000000000000000,35.9010429381999998,685.6614990230000320,622.9739990230000320,38.1664657593000029,79.0003356934000038,876.4174804689999960,23.9375000000000000,26.6704216002999992,44.3900000000000005,89.9999999999999999
0.0000000000000000,19.0000000000000000,35.8750000000000000,685.8593749999999990,623.2552490230000320,37.8328742981000019,78.9168777465999937,874.7499999999999990,23.9375000000000000,26.6704216002999992,44.3900000000000005,89.9999999999999999
0.0000000000000000,19.0000000000000000,35.2760429381999998,685.8229370120000110,622.8646240230000320,39.1666259766000024,78.5833740233999975,874.6666870120000100,23.9375000000000000,26.6704216002999992,44.3900000000000005,89.9999999999999999
0.0000000000000000,19.0000000000000000,34.6718750000000000,685.8307495120000110,623.3151245120000110,37.5830421447999967,78.7499542235999996,875.0834960939999960,24.2500000000000000,26.6704216002999992,44.3900000000000005,89.9999999999999999
0.0000000000000000,19.0000000000000000,34.9635429381999998,686.1901245120000110,622.9427490230000320,38.3333358765000014,78.4165039062000062,874.5836791990000160,24.2500000000000000,26.6704216002999992,44.3900000000000005,89.9999999999999999
0.0000000000000000,19.0000000000000000,34.6614608765000014,685.6718749999999990,623.7265624999999990,39.4997940063000001,78.6662979126000010,874.5004882810000020,23.9375000000000000,26.6704216002999992,44.3900000000000005,89.9999999999999999
0.0000000000000000,19.0000000000000000,35.1406250000000000,685.5104370120000110,623.4765624999999990,38.9999618530000020,78.4165039062000062,873.6661376949999740,23.6250000000000000,26.6704216002999992,44.3900000000000005,89.9999999999999999
0.0000000000000000,19.0000000000000000,35.5234375000000000,685.4661865230000320,622.9583740230000320,38.8330001830999975,78.9167938231999954,875.9169921879999940,23.6250000000000000,26.6704216002999992,44.3900000000000005,89.9999999999999999
0.0000000000000000,19.0000000000000000,35.8750000000000000,685.9635620120000110,622.6744995120000110,37.5825004578000019,78.2498779297000055,873.1655273439999960,23.9375000000000000,26.6704216002999992,44.3900000000000005,89.9999999999999999
0.0000000000000000,20.0000000000000000,-421.1250000000000000,492.5651245120000110,616.7760620120000110,-423.5835876460000120,-52.4165458678999982,737.8336791990000160,23.6250000000000000,26.7016506195000005,44.3900000000000005,45.0000000000000000
0.0000000000000000,20.0000000000000000,-421.9192810060000050,492.4349060060000050,616.4166870120000110,-422.5833435060000050,-53.3336181641000024,737.3328857420000300,23.9375000000000000,26.7016506195000005,44.3900000000000005,45.0000000000000000
0.0000000000000000,20.0000000000000000,-422.0937500000000000,492.6640625000000000,617.3724365230000320,-421.9170532229999820,-52.8332939148000022,738.1668701170000300,24.2500000000000000,26.7016506195000005,44.3900000000000005,45.0000000000000000
0.0000000000000000,20.0000000000000000,-421.7656250000000000,492.4531250000000000,616.6823120120000110,-422.0830688479999820,-53.0835075378000027,738.4172363279999440,24.2500000000000000,26.7016506195000005,44.3900000000000005,45.0000000000000000
0.0000000000000000,20.0000000000000000,-422.1823120120000110,492.3932495120000110,616.6693115230000320,-422.7498168949999800,-53.0004959106000015,738.5830078120000050,24.2500000000000000,26.7016506195000005,44.3900000000000005,45.0000000000000000
0.0000000000000000,20.0000000000000000,-422.2005310060000050,492.3020935060000050,616.5156249999999990,-424.1670837400000090,-52.4999618530000020,737.3329467769999600,23.9375000000000000,26.7016506195000005,44.3900000000000005,45.0000000000000000
0.0000000000000000,20.0000000000000000,-422.7005310060000050,492.5182495120000110,616.0104370120000110,-421.1661071780000040,-52.8332481384000019,737.5831298829999690,24.2500000000000000,26.7016506195000005,44.3900000000000005,45.0000000000000000
0.0000000000000000,20.0000000000000000,-421.8281250000000000,492.1640625000000000,616.3854370120000110,-422.9167480469999980,-53.0002059936999998,737.3327026370000100,23.6250000000000000,26.7016506195000005,44.3900000000000005,45.0000000000000000
0.0000000000000000,20.0000000000000000,-423.2239685060000050,492.2421875000000000,616.8203124999999990,-421.4994812009999800,-53.5000419616999991,737.4995117189999970,23.6250000000000000,26.7016506195000005,44.3900000000000005,45.0000000000000000
0.0000000000000000,20.0000000000000000,-420.7083435060000050,492.2812500000000000,616.4244995120000110,-422.0003662110000270,-52.9165802002000020,738.3337402339999460,23.9375000000000000,26.7016506195000005,44.3900000000000005,45.0000000000000000
0.0000000000000000,21.0000000000000000,-608.7031249999999990,35.3880233765000014,609.6718749999999990,-608.1660156249999990,-372.9165954590000070,417.6667175289999810,23.9375000000000000,26.7016506195000005,44.3900000000000005,0.0000000000000000
0.0000000000000000,21.0000000000000000,-609.1953124999999990,34.6484375000000000,609.2916870120000110,-607.9996337889999720,-372.5833740229999760,417.3338012699999800,23.9375000000000000,26.7016506195000005,44.3900000000000005,0.0000000000000000
0.0000000000000000,21.0000000000000000,-610.0703124999999990,35.1145858765000014,609.8046874999999990,-608.8333129879999880,-372.4165039060000020,415.9162597659999960,23.9375000000000000,26.7016506195000005,44.3900000000000005,0.0000000000000000
0.0000000000000000,21.0000000000000000,-610.1666870120000110,34.8802108765000014,610.4296874999999990,-609.2503662110000270,-372.7501831050000190,415.5820007319999830,23.6250000000000000,26.7016506195000005,44.3900000000000005,0.0000000000000000
0.0000000000000000,21.0000000000000000,-608.7005615230000320,35.1406250000000000,609.7239990230000320,-611.7508544920000300,-372.5001220699999750,416.5000000000000000,23.9375000000000000,26.7016506195000005,44.3900000000000005,0.0000000000000000
0.0000000000000000,21.0000000000000000,-609.8437499999999990,35.2395858765000014,609.1666870120000110,-609.5832519529999440,-373.0003662110000270,416.7495727539999840,23.9375000000000000,26.7016506195000005,44.3900000000000005,0.0000000000000000
0.0000000000000000,21.0000000000000000,-610.2343749999999990,34.8541679381999998,610.0443115230000320,-610.0000610350000440,-372.5002441409999960,416.7502441409999960,24.2500000000000000,26.7016506195000005,44.3900000000000005,0.0000000000000000
0.0000000000000000,21.0000000000000000,-609.3046874999999990,35.1979179381999998,609.5833740230000320,-608.7503051759999830,-372.2496032710000120,415.8326416020000230,23.9375000000000000,26.7016506195000005,44.3900000000000005,0.0000000000000000
0.0000000000000000,21.0000000000000000,-609.5963745120000110,35.4244804381999998,610.0208740230000320,-609.3333129879999880,-372.4165649409999900,416.9163818360000270,23.6250000000000000,26.7016506195000005,44.3900000000000005,0.0000000000000000
0.0000000000000000,21.0000000000000000,-608.7552490230000320,34.8307304381999998,608.8802490230000320,-608.6665649410000460,-372.7504272460000150,417.3341979979999790,23.6250000000000000,26.7016506195000005,44.3900000000000005,0.0000000000000000
0.0000000000000000,22.0000000000000000,-411.9296875000000000,-417.7786560060000050,611.5573120120000110,-422.4169311520000170,-693.9166870120000110,99.1668853759999961,23.9375000000000000,26.7016506195000005,44.3900000000000005,-45.0000000000000000
0.0000000000000000,22.0000000000000000,-411.3724060060000050,-417.3307495120000110,611.7396240230000320,-421.6662292479999790,-693.9999999999999990,99.4163818358999975,23.9375000000000000,26.7016506195000005,44.3900000000000005,-45.0000000000000000
0.0000000000000000,22.0000000000000000,-412.4974060060000050,-417.8698120120000110,610.5208740230000320,-422.3338012699999800,-693.5833740230000320,99.3332824706999985,24.2500000000000000,26.7016506195000005,44.3900000000000005,-45.0000000000000000
0.0000000000000000,22.0000000000000000,-412.7421875000000000,-417.5286560060000050,611.3854370120000110,-422.7498168949999800,-692.4995117189999970,100.0830535890000020,23.9375000000000000,26.7016506195000005,44.3900000000000005,-45.0000000000000000
0.0000000000000000,22.0000000000000000,-411.3698120120000110,-418.1224060060000050,611.8307495120000110,-422.8339538569999830,-693.8334350589999520,100.3335113530000060,24.2500000000000000,26.7016506195000005,44.3900000000000005,-45.0000000000000000
0.0000000000000000,22.0000000000000000,-411.7916870120000110,-417.7994995120000110,610.9921874999999990,-421.9163818360000270,-694.0003662110000270,100.5829620359999980,23.9375000000000000,26.7016506195000005,44.3900000000000005,-45.0000000000000000
0.0000000000000000,22.0000000000000000,-413.6614685060000050,-417.5390625000000000,610.7421874999999990,-422.6659851069999830,-693.1665039060000020,100.6669540409999970,23.9375000000000000,26.7016506195000005,44.3900000000000005,-45.0000000000000000
0.0000000000000000,22.0000000000000000,-412.2239685060000050,-418.0599060060000050,610.9999999999999990,-422.0827636719999980,-693.7499389649999550,100.9171600340000050,23.6250000000000000,26.7016506195000005,44.3900000000000005,-45.0000000000000000
0.0000000000000000,22.0000000000000000,-412.7031250000000000,-417.8307495120000110,610.8593749999999990,-422.9996337889999720,-693.3331909180000130,100.2498397829999990,23.9375000000000000,26.7016506195000005,44.3900000000000005,-45.0000000000000000
0.0000000000000000,22.0000000000000000,-412.6041870120000110,-417.6640625000000000,611.3593749999999990,-421.8330078120000050,-693.3332519529999440,99.5001754760999972,23.9375000000000000,26.7016506195000005,44.3900000000000005,-45.0000000000000000
0.0000000000000000,23.0000000000000000,44.4348983765000014,-600.5104370120000110,617.1484374999999990,33.2502555846999996,-831.5831909180000130,-31.8335857390999983,23.6250000000000000,26.7016506195000005,44.3900000000000005,-89.9999999999999999
0.0000000000000000,23.0000000000000000,43.7343750000000000,-600.6328124999999990,617.1927490230000320,32.0825843810999984,-832.6669921879999940,-31.5833339690999999,23.9375000000000000,26.7016506195000005,44.3900000000000005,-89.9999999999999999
0.0000000000000000,23.0000000000000000,43.8255233765000014,-601.0260620120000110,617.6406249999999990,34.4167938232000026,-831.7498779300000240,-32.2502899170000034,23.9375000000000000,26.7016506195000005,44.3900000000000005,-89.9999999999999999
0.0000000000000000,23.0000000000000000,44.2369804381999998,-600.6328124999999990,617.3151245120000110,33.6668319702000005,-832.2503662110000270,-31.5842494965000000,23.9375000000000000,26.7016506195000005,44.3900000000000005,-89.9999999999999999
0.0000000000000000,23.0000000000000000,44.3958358765000014,-600.8099365230000320,617.4583740230000320,32.4169197083000000,-831.7497558589999460,-31.3327522278000003,23.9375000000000000,26.7016506195000005,44.3900000000000005,-89.9999999999999999
0.0000000000000000,23.0000000000000000,45.0130233765000014,-600.8515624999999990,616.8958740230000320,33.9171676635999972,-832.2499999999999990,-30.6666679381999998,23.6250000000000000,26.7016506195000005,44.3900000000000005,-89.9999999999999999
0.0000000000000000,23.0000000000000000,43.9947929381999998,-600.1874999999999990,617.2734374999999990,33.4170875549000001,-832.1666870120000100,-32.0829162598000010,23.9375000000000000,26.7016506195000005,44.3900000000000005,-89.9999999999999999
0.0000000000000000,23.0000000000000000,44.2890625000000000,-600.7396240230000320,617.5182495120000110,33.0840415954999969,-832.0831298829999690,-32.6670837401999989,23.9375000000000000,26.7016506195000005,44.3900000000000005,-89.9999999999999999
0.0000000000000000,23.0000000000000000,44.5130233765000014,-600.6536865230000320,617.0416870120000110,33.8335838317999986,-831.6665039060000020,-31.6669158935999988,23.9375000000000000,26.7016506195000005,44.3900000000000005,-89.9999999999999999
0.0000000000000000,23.0000000000000000,44.0130233765000014,-600.2239990230000320,617.4010620120000110,33.6667480468999969,-831.9162597660000520,-31.4161663054999991,23.9375000000000000,26.7016506195000005,44.3900000000000005,-89.9999999999999999
0.0000000000000000,24.0000000000000000,501.4036560060000050,-404.4270935060000050,617.6927490230000320,497.5828552250000020,-699.4168701170000300,106.3340911869999980,24.2500000000000000,26.7016506195000005,44.3900000000000005,-135.0000000000000000
0.0000000000000000,24.0000000000000000,502.0130310060000050,-404.3073120120000110,617.2708740230000320,499.0004577639999750,-699.4166259769999660,106.5838851930000000,23.6250000000000000,26.7016506195000005,44.3900000000000005,-135.0000000000000000
0.0000000000000000,24.0000000000000000,501.9974060060000050,-404.7005310060000050,616.9713745120000110,501.3343505860000270,-698.9169311519999600,105.8337097170000050,23.6250000000000000,26.7016506195000005,44.3900000000000005,-135.0000000000000000
0.0000000000000000,24.0000000000000000,502.0625000000000000,-404.7213745120000110,617.5781249999999990,499.1666259770000230,-698.5833740230000320,107.1666793819999980,23.9375000000000000,26.7016506195000005,44.3900000000000005,-135.0000000000000000
0.0000000000000000,24.0000000000000000,501.4921875000000000,-404.4843750000000000,617.1146240230000320,499.4999694819999830,-698.9166870120000110,105.3330535890000020,23.9375000000000000,26.7016506195000005,44.3900000000000005,-135.0000000000000000
0.0000000000000000,24.0000000000000000,501.9948120120000110,-404.0546875000000000,616.7265624999999990,499.5000915530000040,-698.1663818360000270,106.1666183469999960,24.2500000000000000,26.7016506195000005,44.3900000000000005,-135.0000000000000000
0.0000000000000000,24.0000000000000000,501.1380310060000050,-404.9140625000000000,617.3671874999999990,501.6666259770000230,-699.4169921879999940,105.5833358760000070,24.2500000000000000,26.7016506195000005,44.3900000000000005,-135.0000000000000000
0.0000000000000000,24.0000000000000000,501.3203125000000000,-404.7578125000000000,617.9244995120000110,500.4173278810000050,-698.8331909180000130,105.7504882810000030,23.9375000000000000,26.7016506195000005,44.3900000000000005,-135.0000000000000000
0.0000000000000000,24.0000000000000000,501.7916870120000110,-403.9921875000000000,617.0208740230000320,500.5830688479999820,-699.0001220699999740,104.9990463259999980,23.9375000000000000,26.7016506195000005,44.3900000000000005,-135.0000000000000000
0.0000000000000000,24.0000000000000000,501.2161560060000050,-404.5729370120000110,617.1771240230000320,500.9165649409999900,-699.5834350589999520,108.0005798340000070,23.9375000000000000,26.7016506195000005,44.3900000000000005,-135.0000000000000000
0.0000000000000000,25.0000000000000000,406.8724060060000050,49.1354179381999998,810.7213745120000100,401.1666870120000110,-515.6668701170000300,565.2501831050000190,24.2500000000000000,26.7016506195000005,66.2600000000000051,180.0000000000000000
0.0000000000000000,25.0000000000000000,406.4713745120000110,49.3802108765000014,809.5885620120000100,400.6663818360000270,-515.5001831050000190,564.6665039060000020,24.2500000000000000,26.7016506195000005,66.2600000000000051,180.0000000000000000
0.0000000000000000,25.0000000000000000,406.0781250000000000,49.2786483765000014,809.8568115230000320,399.4997253419999760,-515.8334960939999970,563.1660156249999990,23.9375000000000000,26.7016506195000005,66.2600000000000051,180.0000000000000000
0.0000000000000000,25.0000000000000000,406.0546875000000000,49.2187500000000000,810.2369995120000100,400.3331909180000140,-515.9166870120000110,564.6665039060000020,23.6250000000000000,26.7016506195000005,66.2600000000000051,180.0000000000000000
0.0000000000000000,25.0000000000000000,406.2239685060000050,49.4427108765000014,810.1693115230000320,400.8334655759999800,-515.1665649410000460,564.8335571290000410,23.9375000000000000,26.7016506195000005,66.2600000000000051,180.0000000000000000
0.0000000000000000,25.0000000000000000,405.4349060060000050,49.3385429381999998,810.1796874999999990,401.3336181639999720,-515.7502441410000520,564.2495117189999970,23.9375000000000000,26.7016506195000005,66.2600000000000051,180.0000000000000000
0.0000000000000000,25.0000000000000000,406.5651245120000110,49.4947929381999998,809.8099365230000320,399.7493286129999880,-515.5001220699999740,565.4167480470000550,23.9375000000000000,26.7016506195000005,66.2600000000000051,180.0000000000000000
0.0000000000000000,25.0000000000000000,405.9948120120000110,49.2291679381999998,810.6093749999999990,400.8334655759999800,-515.8336791990000160,563.6669311519999600,23.6250000000000000,26.7016506195000005,66.2600000000000051,180.0000000000000000
0.0000000000000000,25.0000000000000000,406.4270935060000050,49.0494804381999998,810.2786865230000320,399.6668396000000030,-515.4165039060000020,564.5839843749999990,23.6250000000000000,26.7016506195000005,66.2600000000000051,180.0000000000000000
0.0000000000000000,25.0000000000000000,406.1067810060000050,49.2473983765000014,810.4323120120000100,400.9169616699999770,-514.8330078120000050,564.7503662110000270,23.9375000000000000,26.7016506195000005,66.2600000000000051,180.0000000000000000
0.0000000000000000,26.0000000000000000,291.5833435060000050,303.6692810060000050,814.8463745120000100,292.4174499509999800,-333.4998779300000250,744.7507324220000550,24.2500000000000000,26.7016506195000005,66.2699999999999960,135.0000000000000000
0.0000000000000000,26.0000000000000000,291.5494995120000110,303.6744995120000110,814.6224365230000320,291.3329467770000180,-333.2499694819999830,745.3334960939999970,23.6250000000000000,26.7016506195000005,66.2699999999999960,135.0000000000000000
0.0000000000000000,26.0000000000000000,291.7500000000000000,303.2057495120000110,814.1849365230000320,292.4163513180000110,-332.9998474120000080,744.6666870120000100,23.9375000000000000,26.7016506195000005,66.2699999999999960,135.0000000000000000
0.0000000000000000,26.0000000000000000,291.2682495120000110,303.3880310060000050,814.4062499999999990,290.4996032710000120,-333.5002441409999960,745.4166870120000100,23.9375000000000000,26.7016506195000005,66.2699999999999960,135.0000000000000000
0.0000000000000000,26.0000000000000000,291.9974060060000050,303.2161560060000050,814.6796874999999990,292.2499389650000120,-334.2503662110000270,743.3331909180000130,24.2500000000000000,26.7016506195000005,66.2699999999999960,135.0000000000000000
0.0000000000000000,26.0000000000000000,292.0390625000000000,302.7630310060000050,814.0963745120000100,291.8336181639999720,-332.6666870120000110,743.7492675779999440,24.2500000000000000,26.7016506195000005,66.2699999999999960,135.0000000000000000
0.0000000000000000,26.0000000000000000,292.1666870120000110,303.3645935060000050,815.3984374999999990,293.0832519530000010,-332.4161071780000040,744.9164428709999580,24.2500000000000000,26.7016506195000005,66.2699999999999960,135.0000000000000000
0.0000000000000000,26.0000000000000000,291.6901245120000110,303.2265625000000000,815.0963745120000100,292.1665954590000070,-333.7503662110000270,744.8333740230000320,23.9375000000000000,26.7016506195000005,66.2600000000000051,135.0000000000000000
0.0000000000000000,26.0000000000000000,292.1666870120000110,303.4843750000000000,814.3437499999999990,291.2499389650000120,-332.6664733889999750,746.8341674800000180,24.2500000000000000,26.7016506195000005,66.2699999999999960,135.0000000000000000
0.0000000000000000,26.0000000000000000,292.6067810060000050,303.4427185060000050,814.6041870120000100,290.6655883789999840,-332.0831909180000140,745.6676025389999720,23.9375000000000000,26.7016506195000005,66.2699999999999960,135.0000000000000000
0.0000000000000000,27.0000000000000000,34.8489608765000014,409.1354370120000110,809.0052490230000320,35.1660842896000005,-257.4998779300000250,815.8331909180000130,23.9375000000000000,26.7016506195000005,66.2699999999999960,89.9999999999999999
0.0000000000000000,27.0000000000000000,34.1692733765000014,409.1770935060000050,809.7760620120000100,34.8328742981000019,-258.2501220699999750,816.7508544920000300,23.6250000000000000,26.7016506195000005,66.2600000000000051,89.9999999999999999
0.0000000000000000,27.0000000000000000,35.1588554381999998,409.4166870120000110,808.7890624999999990,37.4170837401999989,-257.6668396000000030,815.4166870120000100,24.2500000000000000,26.7328815460000015,66.2699999999999960,89.9999999999999999
0.0000000000000000,27.0000000000000000,34.5963554381999998,409.2656250000000000,808.9323120120000100,36.4159584045000031,-257.6667175289999820,814.9999999999999990,23.9375000000000000,26.7328815460000015,66.2699999999999960,89.9999999999999999
0.0000000000000000,27.0000000000000000,34.8958358765000014,409.4375000000000000,809.2994995120000100,35.7494583129999981,-257.9165039060000020,815.2501831050000180,24.2500000000000000,26.7328815460000015,66.2699999999999960,89.9999999999999999
0.0000000000000000,27.0000000000000000,34.4453125000000000,409.5963745120000110,809.7890624999999990,36.2500000000000000,-257.4167175289999820,815.2496337889999710,23.9375000000000000,26.7328815460000015,66.2699999999999960,89.9999999999999999
0.0000000000000000,27.0000000000000000,34.5052108765000014,409.4088745120000110,808.4088745120000100,37.0000419616999991,-257.4999694819999830,816.5841674800000180,23.9375000000000000,26.7016506195000005,66.2699999999999960,89.9999999999999999
0.0000000000000000,27.0000000000000000,34.8229179381999998,409.3645935060000050,809.8906249999999990,36.8331260681000003,-257.1664428710000150,815.4997558589999460,23.9375000000000000,26.7016506195000005,66.2699999999999960,89.9999999999999999
0.0000000000000000,27.0000000000000000,33.5104179381999998,409.6041870120000110,808.0989990230000320,36.9169616698999974,-256.9996948240000160,816.8338623050000240,23.6250000000000000,26.7016506195000005,66.2699999999999960,89.9999999999999999
0.0000000000000000,27.0000000000000000,35.1458358765000014,409.1015625000000000,809.1510620120000100,36.6676254272000008,-257.4167480469999980,816.3337402339999460,23.9375000000000000,26.7016506195000005,66.2699999999999960,89.9999999999999999
0.0000000000000000,28.0000000000000000,-226.2786560060000050,298.5494995120000110,808.3411865230000320,-226.6667938230000060,-331.6664428710000150,737.0825195310000020,23.9375000000000000,26.7016506195000005,66.2699999999999960,45.0000000000000000
0.0000000000000000,28.0000000000000000,-225.4921875000000000,298.6093750000000000,807.8333740230000320,-227.5834198000000010,-332.9167175289999820,737.0829467769999600,24.2500000000000000,26.7016506195000005,66.2699999999999960,45.0000000000000000
0.0000000000000000,28.0000000000000000,-226.4140625000000000,298.5833435060000050,807.8281249999999990,-226.2495422359999960,-332.3335876460000120,737.7503662110000270,24.2500000000000000,26.7016506195000005,66.2699999999999960,45.0000000000000000
0.0000000000000000,28.0000000000000000,-226.1171875000000000,298.7265625000000000,807.9896240230000320,-227.2497558590000040,-333.0000915530000040,738.7503662110000270,23.9375000000000000,26.7016506195000005,66.2699999999999960,45.0000000000000000
0.0000000000000000,28.0000000000000000,-225.9947967530000030,298.3515625000000000,808.4193115230000320,-226.5837097170000050,-332.2497253419999760,738.2501831050000180,23.9375000000000000,26.7016506195000005,66.2699999999999960,45.0000000000000000
0.0000000000000000,28.0000000000000000,-224.9218750000000000,298.4687500000000000,807.1068115230000320,-226.5841369629999920,-332.5001831050000190,736.7504882810000020,23.9375000000000000,26.7016506195000005,66.2699999999999960,45.0000000000000000
0.0000000000000000,28.0000000000000000,-226.2994842530000030,298.4010620120000110,807.8411865230000320,-227.0837402340000040,-332.4996948240000160,737.6669921879999940,24.2500000000000000,26.7016506195000005,66.2699999999999960,45.0000000000000000
0.0000000000000000,28.0000000000000000,-225.7187500000000000,298.1875000000000000,808.9999999999999990,-225.3336791989999880,-332.5831909180000140,738.1673583980000320,23.9375000000000000,26.7016506195000005,66.2699999999999960,45.0000000000000000
0.0000000000000000,28.0000000000000000,-225.8333435060000050,298.2890625000000000,807.9583740230000320,-225.9165954590000070,-332.4164428710000150,738.9176025389999720,23.9375000000000000,26.7016506195000005,66.2699999999999960,45.0000000000000000
0.0000000000000000,28.0000000000000000,-225.7109375000000000,298.5026245120000110,808.2578124999999990,-226.5833740230000040,-332.0831298830000260,738.8338623050000240,23.6250000000000000,26.7328815460000015,66.2699999999999960,45.0000000000000000
0.0000000000000000,29.0000000000000000,-329.3698120120000110,36.8671875000000000,805.9374999999999990,-331.7507934569999860,-513.5003051759999830,557.9170532230000380,23.9375000000000000,26.7016506195000005,66.2699999999999960,0.0000000000000000
0.0000000000000000,29.0000000000000000,-331.0390625000000000,37.2734375000000000,806.4999999999999990,-331.8334655759999800,-513.0001220699999740,556.5833740230000320,24.2500000000000000,26.7016506195000005,66.2699999999999960,0.0000000000000000
0.0000000000000000,29.0000000000000000,-330.7994995120000110,36.7057304381999998,806.3541870120000100,-331.0003051759999830,-512.7498779300000250,557.8336791990000160,24.2500000000000000,26.7016506195000005,66.2699999999999960,0.0000000000000000
0.0000000000000000,29.0000000000000000,-330.0182495120000110,36.9713554381999998,805.5494995120000100,-331.4173278810000050,-513.7504882810000020,556.5831298829999690,23.9375000000000000,26.7328815460000015,66.2699999999999960,0.0000000000000000
0.0000000000000000,29.0000000000000000,-329.1302185060000050,37.0807304381999998,806.4843749999999990,-330.5830383300000220,-513.6668701170000300,557.3328247069999860,24.2500000000000000,26.7328815460000015,66.2699999999999960,0.0000000000000000
0.0000000000000000,29.0000000000000000,-330.0208435060000050,37.1927108765000014,806.5833740230000320,-331.4166870120000110,-512.8336181639999720,557.9165039060000020,23.9375000000000000,26.7328815460000015,66.2699999999999960,0.0000000000000000
0.0000000000000000,29.0000000000000000,-330.2395935060000050,37.1796875000000000,807.0729370120000100,-330.4165039060000020,-513.4167480470000550,556.7498168949999800,23.9375000000000000,26.7328815460000015,66.2699999999999960,0.0000000000000000
0.0000000000000000,29.0000000000000000,-330.5364685060000050,37.6770858765000014,806.4114990230000320,-330.3327941890000260,-512.7497558589999470,556.2501831050000190,23.6250000000000000,26.7016506195000005,66.2699999999999960,0.0000000000000000
0.0000000000000000,29.0000000000000000,-330.2734375000000000,37.2838554381999998,805.7734374999999990,-330.8330688479999820,-513.4167480470000550,556.9999999999999990,23.9375000000000000,26.7016506195000005,66.2699999999999960,0.0000000000000000
0.0000000000000000,29.0000000000000000,-329.9765625000000000,36.7708358765000014,805.5078124999999990,-331.0002441409999960,-513.2502441410000520,556.0819702149999550,24.2500000000000000,26.7016506195000005,66.2699999999999960,0.0000000000000000
0.0000000000000000,30.0000000000000000,-219.5286560060000050,-221.7812500000000000,805.3099365230000320,-226.1665039060000020,-694.5834350589999520,376.9172363280000010,24.2500000000000000,26.7328815460000015,66.2699999999999960,-45.0000000000000000
0.0000000000000000,30.0000000000000000,-219.7708435060000050,-221.9244842530000030,805.6536865230000320,-224.6664733890000030,-694.6666870120000110,375.8322143550000190,23.9375000000000000,26.7016506195000005,66.2699999999999960,-45.0000000000000000
0.0000000000000000,30.0000000000000000,-220.1458435060000050,-221.9557342530000030,804.9557495120000100,-225.0830688480000100,-694.5833740230000320,377.0833129879999880,24.2500000000000000,26.7016506195000005,66.2699999999999960,-45.0000000000000000
0.0000000000000000,30.0000000000000000,-220.6875000000000000,-221.5468750000000000,805.0364990230000320,-225.5832977290000090,-694.5833740230000320,377.3326110840000070,23.9375000000000000,26.7016506195000005,66.2699999999999960,-45.0000000000000000
0.0000000000000000,30.0000000000000000,-220.0130310060000050,-221.4895935060000050,805.9010620120000100,-223.9996795650000080,-694.6669311519999600,378.0825805659999900,24.2500000000000000,26.7016506195000005,66.2699999999999960,-45.0000000000000000
0.0000000000000000,30.0000000000000000,-220.9270935060000050,-221.8802185060000050,805.9244995120000100,-224.6661376950000030,-694.9166870120000110,376.0826110840000070,23.9375000000000000,26.7328815460000015,66.2699999999999960,-45.0000000000000000
0.0000000000000000,30.0000000000000000,-220.0234375000000000,-221.9557342530000030,805.3307495120000100,-224.9168396000000030,-694.0833740230000320,377.5007019039999810,23.9375000000000000,26.7328815460000015,66.2699999999999960,-45.0000000000000000
0.0000000000000000,30.0000000000000000,-219.3645935060000050,-221.3750000000000000,805.8411865230000320,-225.6667480469999980,-694.5831909180000130,377.4170837400000090,23.6250000000000000,26.7328815460000015,66.2699999999999960,-45.0000000000000000
0.0000000000000000,30.0000000000000000,-220.1145935060000050,-221.6588592530000030,805.0573120120000100,-225.8338623049999960,-695.0003662110000270,378.0000000000000000,24.2500000000000000,26.7328815460000015,66.2699999999999960,-45.0000000000000000
0.0000000000000000,30.0000000000000000,-220.2161560060000050,-221.3802185060000050,805.3802490230000320,-224.2503051760000120,-694.5833740230000320,378.1670532229999820,24.2500000000000000,26.7328815460000015,66.2699999999999960,-45.0000000000000000
0.0000000000000000,31.0000000000000000,41.7031250000000000,-326.4192810060000050,806.3854370120000100,34.5836677551000022,-773.5836791990000160,302.9993896479999760,24.2500000000000000,26.7328815460000015,66.2699999999999960,-89.9999999999999999
0.0000000000000000,31.0000000000000000,41.0104179381999998,-326.4505310060000050,805.7396240230000320,33.9167938232000026,-772.3328857420000300,304.0003662110000270,23.9375000000000000,26.7328815460000015,66.2699999999999960,-89.9999999999999999
0.0000000000000000,31.0000000000000000,41.1562500000000000,-326.4974060060000050,806.3515624999999990,33.3335418700999994,-772.8332519529999440,302.2500000000000000,23.9375000000000000,26.7328815460000015,66.2699999999999960,-89.9999999999999999
0.0000000000000000,31.0000000000000000,40.3151054381999998,-326.3645935060000050,806.3099365230000320,33.0835876464999998,-772.9999999999999990,303.5830078120000050,23.9375000000000000,26.7328815460000015,66.2699999999999960,-89.9999999999999999
0.0000000000000000,31.0000000000000000,41.3880233765000014,-326.3698120120000110,807.2578124999999990,34.1663780212000034,-773.0834960939999970,304.5001831050000190,23.6250000000000000,26.7016506195000005,66.2699999999999960,-89.9999999999999999
0.0000000000000000,31.0000000000000000,40.2656250000000000,-326.0130310060000050,806.4036865230000320,33.0835418700999994,-773.5003662110000270,303.1667480469999980,23.9375000000000000,26.7016506195000005,66.2699999999999960,-89.9999999999999999
0.0000000000000000,31.0000000000000000,41.3854179381999998,-326.4010620120000110,806.5026245120000100,32.3326263427999976,-773.0833740230000320,302.6660156250000000,23.9375000000000000,26.7016506195000005,66.2699999999999960,-89.9999999999999999
0.0000000000000000,31.0000000000000000,40.3437500000000000,-326.3906250000000000,806.4948120120000100,34.0836715698000034,-772.9998779300000240,304.2505798340000070,23.6250000000000000,26.7016506195000005,66.2699999999999960,-89.9999999999999999
0.0000000000000000,31.0000000000000000,41.5286483765000014,-326.4505310060000050,806.5078124999999990,32.4166259766000024,-772.4996948240000160,303.0840759280000040,23.9375000000000000,26.7016506195000005,66.2699999999999960,-89.9999999999999999
0.0000000000000000,31.0000000000000000,41.5651054381999998,-325.9557495120000110,807.5052490230000320,31.3326244353999996,-772.6663818360000270,304.1671142580000260,23.9375000000000000,26.7016506195000005,66.2699999999999960,-89.9999999999999999
0.0000000000000000,32.0000000000000000,304.4036560060000050,-212.6901092530000030,808.4948120120000100,298.7504577639999750,-696.4167480470000550,382.5838012699999800,23.9375000000000000,26.7328815460000015,66.2699999999999960,-135.0000000000000000
0.0000000000000000,32.0000000000000000,304.5104370120000110,-212.6015625000000000,808.6536865230000320,298.4997253419999760,-696.2501831050000180,381.0827026370000110,23.9375000000000000,26.7328815460000015,66.2699999999999960,-135.0000000000000000
0.0000000000000000,32.0000000000000000,304.0781250000000000,-212.2968750000000000,807.5364990230000320,297.1670532229999820,-697.3334350589999520,383.9168701169999730,24.2500000000000000,26.7328815460000015,66.2699999999999960,-135.0000000000000000
0.0000000000000000,32.0000000000000000,303.6484375000000000,-212.8828125000000000,808.3515624999999990,297.9168701169999730,-696.8331909180000130,382.2503051759999830,23.9375000000000000,26.7328815460000015,66.2699999999999960,-135.0000000000000000
0.0000000000000000,32.0000000000000000,303.6250000000000000,-212.4322967530000030,807.6536865230000320,298.1671752930000140,-696.4164428709999580,382.0830993650000090,23.9375000000000000,26.7328815460000015,66.2699999999999960,-135.0000000000000000
0.0000000000000000,32.0000000000000000,303.7291870120000110,-212.7838592530000030,808.5624999999999990,299.0841369629999910,-697.0834960939999970,382.1666259770000230,23.9375000000000000,26.7328815460000015,66.2699999999999960,-135.0000000000000000
0.0000000000000000,32.0000000000000000,303.3984375000000000,-212.4609375000000000,807.6146240230000320,296.4996337889999720,-696.2498779300000240,382.2504882810000020,23.9375000000000000,26.7328815460000015,66.2699999999999960,-135.0000000000000000
0.0000000000000000,32.0000000000000000,304.4948120120000110,-212.4401092530000030,807.8541870120000100,298.4169311520000180,-697.4166870120000110,382.0830688479999820,24.2500000000000000,26.7328815460000015,66.2699999999999960,-135.0000000000000000
0.0000000000000000,32.0000000000000000,303.9869995120000110,-212.6770935060000050,807.5260620120000100,298.9174194340000100,-696.5833740230000320,382.5833740229999760,24.2500000000000000,26.7328815460000015,66.2699999999999960,-135.0000000000000000
0.0000000000000000,32.0000000000000000,304.1224060060000050,-212.4583435060000050,808.9244995120000100,298.5000915530000040,-696.4166870120000110,381.1667175289999810,23.9375000000000000,26.7328815460000015,66.2699999999999960,-135.0000000000000000
0.0000000000000000,33.0000000000000000,61.0442733765000014,42.6640625000000000,884.3646240230000320,56.6669616698999974,-566.6668090819999860,617.7499389649999550,23.9375000000000000,26.7328815460000015,88.8200000000000073,180.0000000000000000
0.0000000000000000,33.0000000000000000,61.8411483765000014,42.7890625000000000,884.8177490230000320,55.9164123535000001,-566.4167480470000550,618.5836791990000160,24.2500000000000000,26.7328815460000015,88.8200000000000073,180.0000000000000000
0.0000000000000000,33.0000000000000000,60.8385429381999998,43.1093750000000000,884.6901245120000100,57.8339195251000006,-566.3330688480000380,619.0001220699999740,24.2500000000000000,26.7328815460000015,88.8200000000000073,180.0000000000000000
0.0000000000000000,33.0000000000000000,61.2526054381999998,42.7708358765000014,884.6406249999999990,58.2499618530000020,-566.9999389649999550,617.6665039060000020,23.9375000000000000,26.7328815460000015,88.8200000000000073,180.0000000000000000
0.0000000000000000,33.0000000000000000,61.4479179381999998,42.8567733765000014,884.9453124999999990,57.2505035399999968,-565.6661987300000190,619.4998779300000240,24.2500000000000000,26.7328815460000015,88.8200000000000073,180.0000000000000000
0.0000000000000000,33.0000000000000000,61.7317733765000014,42.0963554381999998,884.7916870120000100,56.6660881041999999,-566.6664428709999580,618.7496337889999720,24.2500000000000000,26.7328815460000015,88.8200000000000073,180.0000000000000000
0.0000000000000000,33.0000000000000000,61.9635429381999998,42.7135429381999998,884.6666870120000100,57.4166259766000024,-566.3334350589999530,617.5000610350000440,23.6250000000000000,26.7328815460000015,88.8200000000000073,180.0000000000000000
0.0000000000000000,33.0000000000000000,61.8411483765000014,42.1093750000000000,884.5104370120000100,57.6667556762999993,-566.8336181639999720,619.4163208009999830,24.2500000000000000,26.7328815460000015,88.8200000000000073,180.0000000000000000
0.0000000000000000,33.0000000000000000,60.2994804381999998,42.4557304381999998,884.9453124999999990,56.9996643066000032,-565.9996337889999720,619.0004882810000020,24.2500000000000000,26.7328815460000015,88.8200000000000073,180.0000000000000000
0.0000000000000000,33.0000000000000000,61.0468750000000000,42.7109375000000000,884.3568115230000320,57.5839996337999977,-566.0828857420000300,619.5001831050000190,23.9375000000000000,26.7328815460000015,88.8200000000000073,180.0000000000000000
0.0000000000000000,34.0000000000000000,53.2552108765000014,58.0338554381999998,886.2396240230000320,50.5007896422999991,-556.0836181639999720,630.6677856449999800,23.6250000000000000,26.7328815460000015,88.8200000000000073,135.0000000000000000
0.0000000000000000,34.0000000000000000,53.8177108765000014,58.9010429381999998,885.3568115230000320,47.7497100829999965,-555.5833740230000320,629.4998779300000240,24.2500000000000000,26.7328815460000015,88.8200000000000073,135.0000000000000000
0.0000000000000000,34.0000000000000000,52.9192733765000014,58.4296875000000000,885.9687499999999990,50.0838775635000033,-555.3332519529999440,629.4168090819999860,23.9375000000000000,26.7328815460000015,88.8200000000000073,135.0000000000000000
0.0000000000000000,34.0000000000000000,53.5000000000000000,59.1588554381999998,884.7526245120000100,50.2503318787000026,-556.1670532230000380,631.8341064449999740,24.2500000000000000,26.7328815460000015,88.8200000000000073,135.0000000000000000
0.0000000000000000,34.0000000000000000,53.9531250000000000,58.5234375000000000,885.8203124999999990,50.1674194336000027,-555.6667480470000550,629.9998779300000240,23.9375000000000000,26.7328815460000015,88.8200000000000073,135.0000000000000000
0.0000000000000000,34.0000000000000000,53.1197929381999998,58.4531250000000000,885.6953124999999990,48.8342094420999970,-555.7500610350000440,630.5001220699999740,23.9375000000000000,26.7328815460000015,88.8200000000000073,135.0000000000000000
0.0000000000000000,34.0000000000000000,53.5807304381999998,58.6197929381999998,885.1744995120000100,48.5003776550000012,-555.3333740230000320,628.8327636720000550,24.2500000000000000,26.7328815460000015,88.8200000000000073,135.0000000000000000
0.0000000000000000,34.0000000000000000,53.5182304381999998,58.4479179381999998,885.6562499999999990,50.0000000000000000,-555.2501220699999740,630.6673583980000320,23.9375000000000000,26.7328815460000015,88.8200000000000073,135.0000000000000000
0.0000000000000000,34.0000000000000000,53.0885429381999998,58.2473983765000014,885.8698120120000100,49.6672973633000012,-555.3333740230000320,628.9995117189999970,23.9375000000000000,26.7328815460000015,88.8200000000000073,135.0000000000000000
0.0000000000000000,34.0000000000000000,52.8854179381999998,58.7213554381999998,885.4088745120000100,50.6668319702000005,-555.1668090819999860,629.9158325199999800,24.2500000000000000,26.7328815460000015,88.8200000000000073,135.0000000000000000
0.0000000000000000,35.0000000000000000,35.2838554381999998,64.3151092529000010,886.2499999999999990,33.9163780212000034,-551.1665039060000020,634.0001220699999740,24.2500000000000000,26.7641105651999993,88.8299999999999982,89.9999999999999999
0.0000000000000000,35.0000000000000000,36.0833358765000014,64.2682342529000010,886.4323120120000100,31.7497940063000001,-552.5839843749999990,633.9176025389999720,24.2500000000000000,26.7328815460000015,88.8200000000000073,89.9999999999999999
0.0000000000000000,35.0000000000000000,37.0156250000000000,64.3932342529000010,886.3932495120000100,33.5014610290999997,-551.6670532230000380,632.9998779300000240,23.9375000000000000,26.7328815460000015,88.8299999999999982,89.9999999999999999
0.0000000000000000,35.0000000000000000,36.1432304381999998,64.1718750000000000,885.9036865230000320,33.5003776550000012,-552.0004272459999580,632.9160766600000440,23.9375000000000000,26.7328815460000015,88.8299999999999982,89.9999999999999999
0.0000000000000000,35.0000000000000000,36.8750000000000000,64.1093750000000000,887.4531249999999990,33.5830841064000012,-551.5835571290000410,632.9163818360000270,23.9375000000000000,26.7328815460000015,88.8299999999999982,89.9999999999999999
0.0000000000000000,35.0000000000000000,36.8411483765000014,64.3020858765000014,886.2396240230000320,33.2508316039999982,-551.0831909180000130,634.8333740230000320,23.9375000000000000,26.7328815460000015,88.8299999999999982,89.9999999999999999
0.0000000000000000,35.0000000000000000,36.3437500000000000,64.5182342529000010,885.4453124999999990,33.2502098082999993,-551.5833740230000320,634.6666259769999660,23.9375000000000000,26.7328815460000015,88.8299999999999982,89.9999999999999999
0.0000000000000000,35.0000000000000000,35.8255233765000014,64.7317733765000014,885.6041870120000100,31.7503776550000012,-551.6668701170000300,634.5006713870000110,23.9375000000000000,26.7328815460000015,88.8299999999999982,89.9999999999999999
0.0000000000000000,35.0000000000000000,36.4505233765000014,64.2682342529000010,886.9974365230000320,34.1672973633000012,-551.6667480470000550,633.1669311519999600,24.2500000000000000,26.7328815460000015,88.8299999999999982,89.9999999999999999
0.0000000000000000,35.0000000000000000,36.0520858765000014,64.6484375000000000,886.1693115230000320,33.5002937316999976,-551.5836791990000160,634.4163208009999830,23.9375000000000000,26.7328815460000015,88.8299999999999982,89.9999999999999999
0.0000000000000000,36.0000000000000000,20.0729179381999998,56.4687500000000000,885.1823120120000100,16.4993324279999989,-556.7499999999999990,627.8331909180000130,23.9375000000000000,26.7328815460000015,88.8299999999999982,45.0000000000000000
0.0000000000000000,36.0000000000000000,19.3567714690999999,56.3645858765000014,885.9114990230000320,17.6665000915999997,-556.9169311519999600,628.4171752930000130,23.6250000000000000,26.7328815460000015,88.8299999999999982,45.0000000000000000
0.0000000000000000,36.0000000000000000,19.6145839690999999,56.9895858765000014,886.1093749999999990,17.1663761139000002,-556.6668701170000300,628.5834960939999970,23.9375000000000000,26.7328815460000015,88.8299999999999982,45.0000000000000000
0.0000000000000000,36.0000000000000000,19.0911464690999999,56.6041679381999998,885.6302490230000320,16.2493324279999989,-557.0831909180000130,627.9167480470000550,23.9375000000000000,26.7328815460000015,88.8299999999999982,45.0000000000000000
0.0000000000000000,36.0000000000000000,19.9010429381999998,56.8541679381999998,885.7187499999999990,16.7502098082999993,-556.6666259769999660,627.5833129879999880,24.2500000000000000,26.7328815460000015,88.8299999999999982,45.0000000000000000
0.0000000000000000,36.0000000000000000,19.8359375000000000,56.7552108765000014,885.2474365230000320,17.0837917328000017,-557.0000610350000440,628.7504882810000020,24.2500000000000000,26.7328815460000015,88.8299999999999982,45.0000000000000000
0.0000000000000000,36.0000000000000000,19.3697929381999998,56.5390625000000000,885.3854370120000100,17.0838756560999982,-556.3331298829999690,627.0830688480000380,23.9375000000000000,26.7328815460000015,88.8299999999999982,45.0000000000000000
0.0000000000000000,36.0000000000000000,19.5390625000000000,56.6822929381999998,885.8151245120000100,18.4173316956000015,-556.5000610350000440,628.4165039060000020,23.9375000000000000,26.7328815460000015,88.8299999999999982,45.0000000000000000
0.0000000000000000,36.0000000000000000,19.4791679381999998,56.5572929381999998,885.9531249999999990,15.7495832443000001,-556.5002441410000520,625.1659545899999550,24.5625000000000000,26.7641105651999993,88.8299999999999982,45.0000000000000000
0.0000000000000000,36.0000000000000000,19.0494804381999998,57.0755233765000014,885.7916870120000100,17.3339195251000007,-556.6666259769999660,628.1671142579999690,24.2500000000000000,26.7641105651999993,88.8299999999999982,45.0000000000000000
0.0000000000000000,37.0000000000000000,14.3515625000000000,39.5416679381999998,885.3073120120000100,11.5830421448000003,-567.8336181639999720,616.7499999999999990,23.9375000000000000,26.7328815460000015,88.8299999999999982,0.0000000000000000
0.0000000000000000,37.0000000000000000,14.3072919846000008,39.5338554381999998,885.1849365230000320,13.0837507247999998,-568.5002441410000520,616.3335571290000410,23.6250000000000000,26.7328815460000015,88.8299999999999982,0.0000000000000000
0.0000000000000000,37.0000000000000000,13.9401044846000008,39.4348983765000014,885.2708740230000320,11.2498741150000008,-567.7499389649999550,616.9168701170000300,23.9375000000000000,26.7328815460000015,88.8299999999999982,0.0000000000000000
0.0000000000000000,37.0000000000000000,13.9322919846000008,39.6718750000000000,885.8073120120000100,11.4991245269999993,-567.9168701170000300,615.6663208009999830,24.2500000000000000,26.7328815460000015,88.8299999999999982,0.0000000000000000
0.0000000000000000,37.0000000000000000,14.1718750000000000,39.6354179381999998,885.4505615230000320,11.0825414658000003,-568.6667480470000550,616.9161987300000190,23.6250000000000000,26.7328815460000015,88.8299999999999982,0.0000000000000000
0.0000000000000000,37.0000000000000000,13.9192714690999999,39.5260429381999998,885.1510620120000100,11.6672086715999992,-567.7498779300000250,616.1665649410000460,24.2500000000000000,26.7328815460000015,88.8299999999999982,0.0000000000000000
0.0000000000000000,37.0000000000000000,14.4401044846000008,39.1354179381999998,885.4505615230000320,11.9169578551999997,-568.3332519529999440,617.4172363279999440,23.9375000000000000,26.7641105651999993,88.8299999999999982,0.0000000000000000
0.0000000000000000,37.0000000000000000,15.0130214690999999,39.4114608765000014,885.6484374999999990,10.1664590835999995,-567.4998168949999800,616.5834960939999970,23.6250000000000000,26.7641105651999993,88.8299999999999982,0.0000000000000000
0.0000000000000000,37.0000000000000000,13.9401044846000008,39.2604179381999998,885.3568115230000320,10.9165000915999997,-568.2499999999999990,615.8330078120000050,23.9375000000000000,26.7641105651999993,88.8299999999999982,0.0000000000000000
0.0000000000000000,37.0000000000000000,15.1354169846000008,39.9557304381999998,885.3541870120000100,12.4178342818999994,-568.3337402339999470,616.8336791990000160,23.9375000000000000,26.7641105651999993,88.8299999999999982,0.0000000000000000
0.0000000000000000,38.0000000000000000,22.0390625000000000,23.5000000000000000,884.2630615230000320,18.8330841064000012,-579.2501220699999740,606.3341064449999740,24.2500000000000000,26.7328815460000015,88.8299999999999982,-45.0000000000000000
0.0000000000000000,38.0000000000000000,21.8671875000000000,23.3619804381999998,884.6328124999999990,17.4161262512000014,-579.6669311519999600,605.9168701170000300,23.9375000000000000,26.7328815460000015,88.8299999999999982,-45.0000000000000000
0.0000000000000000,38.0000000000000000,22.9557304381999998,22.9583339690999999,885.5937499999999990,19.5834579467999994,-579.2499389649999550,604.6657714839999470,23.9375000000000000,26.7328815460000015,88.8299999999999982,-45.0000000000000000
0.0000000000000000,38.0000000000000000,23.5598964690999999,23.0286464690999999,884.5599365230000320,18.8330421448000003,-578.9998779300000250,604.5827636720000550,24.2500000000000000,26.7328815460000015,88.8299999999999982,-45.0000000000000000
0.0000000000000000,38.0000000000000000,21.6640625000000000,23.2135429381999998,884.2057495120000100,20.5010433196999990,-579.4165039060000020,606.3344726560000020,23.6250000000000000,26.7328815460000015,88.8299999999999982,-45.0000000000000000
0.0000000000000000,38.0000000000000000,22.8307304381999998,23.2578125000000000,884.5260620120000100,20.5006675720000011,-579.2498779300000250,604.6665649410000460,24.5625000000000000,26.7328815460000015,88.8299999999999982,-45.0000000000000000
0.0000000000000000,38.0000000000000000,21.6119804381999998,22.9296875000000000,884.4296874999999990,20.0835399627999997,-578.8333740230000320,605.8331909180000130,23.9375000000000000,26.7328815460000015,88.8299999999999982,-45.0000000000000000
0.0000000000000000,38.0000000000000000,22.5677089690999999,23.3541679381999998,883.9401245120000100,17.4997100830000001,-578.6663208009999830,603.9985961910000460,23.9375000000000000,26.7328815460000015,88.8299999999999982,-45.0000000000000000
0.0000000000000000,38.0000000000000000,23.1432304381999998,23.2656250000000000,884.9505615230000320,20.6667938231999990,-578.9166870120000110,605.7506713870000110,23.9375000000000000,26.7328815460000015,88.8299999999999982,-45.0000000000000000
0.0000000000000000,38.0000000000000000,22.0781250000000000,23.2265625000000000,884.8593749999999990,19.8337936401000014,-578.5833740230000320,605.1669921879999940,23.9375000000000000,26.7641105651999993,88.8299999999999982,-45.0000000000000000
0.0000000000000000,39.0000000000000000,39.0156250000000000,17.2630214690999999,885.6979370120000100,36.0000000000000000,-583.3333740230000320,600.6662597660000520,23.6250000000000000,26.7641105651999993,88.8299999999999982,-89.9999999999999999
0.0000000000000000,39.0000000000000000,38.0520858765000014,16.9713554381999998,884.9687499999999990,36.0834579468000029,-582.8331909180000130,601.2503662110000270,23.9375000000000000,26.7641105651999993,88.8299999999999982,-89.9999999999999999
0.0000000000000000,39.0000000000000000,38.6901054381999998,17.3750000000000000,884.8568115230000320,34.8327941894999995,-583.9168701170000300,601.6674804689999970,24.2500000000000000,26.7641105651999993,88.8299999999999982,-89.9999999999999999
0.0000000000000000,39.0000000000000000,39.1744804381999998,17.5937500000000000,885.4349365230000320,35.9168357849000017,-582.7499999999999990,601.3334960939999970,23.9375000000000000,26.7641105651999993,88.8299999999999982,-89.9999999999999999
0.0000000000000000,39.0000000000000000,38.0781250000000000,17.2838554381999998,884.8854370120000100,36.0833816528000000,-583.4999999999999990,600.5831298829999690,23.9375000000000000,26.7641105651999993,88.8299999999999982,-89.9999999999999999
0.0000000000000000,39.0000000000000000,39.6744804381999998,17.3645839690999999,884.9140624999999990,35.3328323364000027,-582.8330078120000050,601.9165039060000020,23.9375000000000000,26.7641105651999993,88.8299999999999982,-89.9999999999999999
0.0000000000000000,39.0000000000000000,39.2187500000000000,17.3203125000000000,884.4948120120000100,34.3325042725000031,-583.4999999999999990,601.1669921879999940,23.9375000000000000,26.7641105651999993,88.8299999999999982,-89.9999999999999999
0.0000000000000000,39.0000000000000000,39.5078125000000000,17.8072929381999998,885.2864990230000320,36.0003356933999967,-582.9166870120000110,601.4159545899999550,24.2500000000000000,26.7641105651999993,88.8299999999999982,-89.9999999999999999
0.0000000000000000,39.0000000000000000,38.7343750000000000,17.3932304381999998,884.8073120120000100,34.9997100829999965,-583.5002441410000520,599.0821533199999740,23.9375000000000000,26.7641105651999993,88.8299999999999982,-89.9999999999999999
0.0000000000000000,39.0000000000000000,38.6119804381999998,17.3671875000000000,885.0885620120000100,36.5000381469999979,-583.8334960939999970,602.0835571290000410,23.9375000000000000,26.7641105651999993,88.8299999999999982,-89.9999999999999999
0.0000000000000000,40.0000000000000000,53.9218750000000000,25.4609375000000000,884.6614990230000320,51.8339614867999998,-578.6668701170000300,607.2495727540000410,23.9375000000000000,26.7641105651999993,88.8299999999999982,-135.0000000000000000
0.0000000000000000,40.0000000000000000,55.8567733765000014,25.7864589690999999,885.5989990230000320,50.4168815613000021,-577.4166259769999660,606.8332519529999440,24.5625000000000000,26.7328815460000015,88.8299999999999982,-135.0000000000000000
0.0000000000000000,40.0000000000000000,53.3645858765000014,25.6588554381999998,884.1666870120000100,51.7500839232999965,-577.4998779300000250,607.4165649410000460,23.9375000000000000,26.7328815460000015,88.8299999999999982,-135.0000000000000000
0.0000000000000000,40.0000000000000000,55.0963554381999998,25.5416679381999998,884.3333740230000320,50.8331260681000003,-577.4166259769999660,607.3334960939999970,23.9375000000000000,26.7328815460000015,88.8299999999999982,-135.0000000000000000
0.0000000000000000,40.0000000000000000,54.7343750000000000,25.5494804381999998,884.7318115230000320,51.0829582213999984,-578.1668701170000300,606.4999999999999990,24.2500000000000000,26.7328815460000015,88.8299999999999982,-135.0000000000000000
0.0000000000000000,40.0000000000000000,54.6927108765000014,25.4687500000000000,884.6901245120000100,51.1670036315999965,-578.5836181639999720,607.5007934569999860,23.9375000000000000,26.7328815460000015,88.8299999999999982,-135.0000000000000000
0.0000000000000000,40.0000000000000000,54.7447929381999998,25.7916679381999998,884.8906249999999990,51.3337097168000014,-577.2498779300000250,607.9999389649999550,23.9375000000000000,26.7641105651999993,88.8299999999999982,-135.0000000000000000
0.0000000000000000,40.0000000000000000,54.6510429381999998,25.9661464690999999,885.2343749999999990,51.6670799254999977,-577.5831298829999690,606.1661376949999740,24.2500000000000000,26.7641105651999993,88.8299999999999982,-135.0000000000000000
0.0000000000000000,40.0000000000000000,54.0156250000000000,25.5572929381999998,885.5130615230000320,50.4158782959000007,-577.8334960939999970,608.2505493160000460,23.9375000000000000,26.7641105651999993,88.8299999999999982,-135.0000000000000000
0.0000000000000000,40.0000000000000000,54.4609375000000000,25.8619804381999998,884.2239990230000320,52.2498321532999980,-578.0836181639999720,607.3336791990000160,23.9375000000000000,26.7641105651999993,88.8299999999999982,-135.0000000000000000
