Temp Iter,Index,X Accel 1,Y Accel 1,Z Accel 1,X Accel 2,Y Accel 2,Z Accel2, Temp_6g,Temp,Theta,Phi,,,,,,
1.0000000000000000,1.0000000000000000,945.5200805660000460,71.4999923705999975,-70.4399871826000065,928.0801391600000430,107.5000076289999950,-46.0200386046999980,28.3125000000000000,30.2618713379000006,-4.1899999999999995,180.0000000000000000
1.0000000000000000,1.0000000000000000,945.7799072269999660,72.1800155640000014,-71.0599975586000027,928.7600708009999830,107.4999847410000060,-46.1799697876000010,28.3125000000000000,30.2618713379000006,-4.1899999999999995,180.0000000000000000
1.0000000000000000,1.0000000000000000,945.2598876949999740,71.5199890136999982,-71.0600204467999958,928.9799804689999960,107.4800262450000050,-45.4800491332999996,28.3125000000000000,30.2618713379000006,-4.1899999999999995,180.0000000000000000
1.0000000000000000,1.0000000000000000,945.5598754879999880,71.8000259398999958,-70.5400161743000069,928.6599731449999800,107.5200195310000030,-46.1800003051999965,28.3125000000000000,30.2618713379000006,-4.1899999999999995,180.0000000000000000
1.0000000000000000,1.0000000000000000,945.6200561519999600,71.6999969481999954,-70.5599899292000003,929.0198364259999830,107.3199844359999980,-46.1999588012999993,28.3125000000000000,30.2618713379000006,-4.1899999999999995,180.0000000000000000
1.0000000000000000,1.0000000000000000,946.3599853519999660,71.6999893187999930,-71.1599807739000027,928.8200073240000160,107.3600082399999990,-46.0199699401999993,27.6875000000000000,30.2618713379000006,-4.1899999999999995,180.0000000000000000
1.0000000000000000,1.0000000000000000,945.3800048829999690,71.4400177002000020,-71.3399810790999993,928.0399169920000300,107.4599761959999990,-46.5399703978999994,28.0000000000000000,30.2618713379000006,-4.1899999999999995,180.0000000000000000
1.0000000000000000,1.0000000000000000,945.9199829100000430,71.6800003051999965,-70.8200073242000058,928.4398803709999570,107.1400146480000050,-45.7400245667000007,28.3125000000000000,30.2618713379000006,-4.1899999999999995,180.0000000000000000
1.0000000000000000,1.0000000000000000,945.9597167970000550,71.9599990844999979,-70.7200164795000034,928.1399536129999880,107.8199996950000070,-46.3800468445000007,28.3125000000000000,30.2618713379000006,-4.1899999999999995,180.0000000000000000
1.0000000000000000,1.0000000000000000,945.8200683589999460,71.6599884033000051,-71.0399856566999972,928.9800415040000410,107.3799896240000040,-46.8399696350000027,28.3125000000000000,30.2618713379000006,-4.1899999999999995,180.0000000000000000
1.0000000000000000,2.0000000000000000,684.5999755860000270,699.6998901370000110,-82.6799392700000055,667.1400146480000320,557.4599609379999940,394.3400268550000190,28.0000000000000000,30.2618713379000006,-4.1899999999999995,135.0000000000000000
1.0000000000000000,2.0000000000000000,684.6599731449999800,700.1199951170000300,-82.4600296020999934,666.5598144529999440,557.6199951170000300,394.8800964359999740,28.3125000000000000,30.2618713379000006,-4.1899999999999995,135.0000000000000000
1.0000000000000000,2.0000000000000000,684.2799682620000110,699.0999145509999830,-82.5800399780000020,666.4599609379999940,557.3800048829999690,394.7999877930000140,28.3125000000000000,30.2618713379000006,-4.1899999999999995,135.0000000000000000
1.0000000000000000,2.0000000000000000,684.3399658199999740,699.5799560550000240,-82.3599777222000000,667.2799072269999660,557.6400146480000320,394.8399963379999910,28.3125000000000000,30.2618713379000006,-4.1899999999999995,135.0000000000000000
1.0000000000000000,2.0000000000000000,684.6599121089999460,699.2999877930000130,-83.0999755858999975,667.9400024410000460,557.7800292970000550,394.2800292969999980,28.3125000000000000,30.2618713379000006,-4.1899999999999995,135.0000000000000000
1.0000000000000000,2.0000000000000000,684.5199584959999580,699.2600097660000520,-82.8600006103999930,667.6400756839999520,557.0999755860000270,393.8399963379999910,28.3125000000000000,30.2618713379000006,-4.1899999999999995,135.0000000000000000
1.0000000000000000,2.0000000000000000,684.2400512699999800,698.9799804689999970,-82.9000091552999975,667.7600097660000520,557.5599975589999530,395.6600341800000250,28.3125000000000000,30.2618713379000006,-4.1899999999999995,135.0000000000000000
1.0000000000000000,2.0000000000000000,683.9601440430000130,699.7000122069999850,-82.1399688720999989,666.2399291990000160,557.6000366209999580,394.9000549319999890,28.3125000000000000,30.2618713379000006,-4.1899999999999995,135.0000000000000000
1.0000000000000000,2.0000000000000000,684.7000122069999850,699.6400146480000320,-83.3600082396999937,667.7401123050000240,557.7600097660000520,393.6400756840000100,28.6250000000000000,30.2618713379000006,-4.1899999999999995,135.0000000000000000
1.0000000000000000,2.0000000000000000,685.1400146480000320,699.8198852540000410,-82.8800277710000017,667.1998291019999660,557.7000122069999860,395.0198669430000110,28.3125000000000000,30.2618713379000006,-4.1899999999999995,135.0000000000000000
