Temp Iter,Index,X Accel 1,Y Accel 1,Z Accel 1,X Accel 2,Y Accel 2,Z Accel2, Temp_6g,Temp,Theta,Phi,,,,,,
0.000,1.000,3.420,3.668,-899.580,-50.748,1.772,-899.564,0.000,0.000,0.375,180.000
0.000,1.000,3.512,3.556,-899.716,-50.936,1.688,-898.984,0.000,0.000,0.375,180.000
