Temp Iter,Index,X Accel 1,Y Accel 1,Z Accel 1,X Accel 2,Y Accel 2,Z Accel2, Temp_6g,Temp,Theta,Phi,,,,,,
0.000,1.000,3.396,3.276,-899.840,-50.988,1.476,-899.032,0.000,0.000,0.375,180.000
0.000,1.000,3.264,3.676,-899.628,-50.888,1.836,-899.268,0.000,0.000,0.375,180.000
0.000,1.000,3.060,3.892,-899.672,-50.664,1.608,-899.268,0.000,0.000,0.375,180.000
